1632,1,0,-20,-106.221,47.000,-197.109,0.005
1634,1,0,-15,18.858,118.000,4.991,0.012
1635,1,0,-10,19.703,305.000,15.641,0.030
1636,1,0,-5,19.094,243.000,12.378,0.024
1630,1,0,0,20.755,53.000,1.809,0.005
1637,1,0,5,9.237,57.000,2.761,0.006
1638,1,0,10,17.025,56.000,2.138,0.006
1639,1,0,15,21.541,45.000,2.066,0.004
1640,1,0,20,15.740,194.000,11.769,0.019
1700,1,90,-20,14.115,53.000,2.039,0.005
1701,1,90,-15,16.647,39.000,1.712,0.004
1702,1,90,-10,-111.795,41.000,8.084,0.004
1630,1,90,0,20.755,53.000,1.809,0.005
1641,1,90,5,15.194,65.000,2.433,0.006
1643,1,90,10,-136.784,52.000,9.156,0.005
1644,1,90,15,11.913,223.000,13.778,0.022
1645,1,90,20,-264.309,56.000,1142.312,0.006
1699,2,0,-20,-6.633,38.000,1.503,0.004
1646,2,0,-15,15.565,321.000,17.399,0.032
1647,2,0,-10,9.084,94.000,4.080,0.009
1648,2,0,-5,15.890,50.000,2.086,0.005
1649,2,0,0,-2.709,47.000,1.888,0.005
1650,2,0,5,20.065,48.000,1.806,0.005
1651,2,0,10,-46.716,51.000,2.243,0.005
1652,2,0,15,51.468,43.000,2.000,0.004
1653,2,0,20,19.859,69.000,3.147,0.007
1654,2,90,-20,19.897,47.000,1.900,0.005
1655,2,90,-15,-141.490,49.000,12.433,0.005
1656,2,90,-10,19.093,122.000,5.366,0.012
1657,2,90,-5,-213.646,40.000,77.815,0.004
1649,2,90,0,-2.709,47.000,1.888,0.005
1658,2,90,5,-119.368,44.000,6.614,0.004
1659,2,90,10,15.373,51.000,2.180,0.005
1660,2,90,15,-146.999,48.000,13.487,0.005
1661,2,90,20,20.296,155.000,7.005,0.015
1663,3,0,-20,-213.489,30.000,43.129,0.003
1664,3,0,-15,37.103,37.000,1.703,0.004
1665,3,0,-10,12.503,45.000,1.669,0.004
1666,3,0,-5,-166.330,46.000,20.003,0.005
1667,3,0,0,-15.845,34.000,2.393,0.003
1668,3,0,5,6.566,42.000,1.726,0.004
1669,3,0,10,21.186,37.000,2.053,0.004
1670,3,0,15,-239.891,34.000,136.707,0.003
1671,3,0,20,7.081,49.000,2.589,0.005
1672,3,90,-20,2.043,59.000,1.715,0.006
1673,3,90,-15,22.686,35.000,1.603,0.004
1674,3,90,-10,-7.158,34.000,1.631,0.003
1675,3,90,-5,-9.646,45.000,1.610,0.004
1667,3,90,0,-15.845,34.000,2.393,0.003
1676,3,90,5,-143.632,42.000,13.595,0.004
1680,3,90,10,11.330,31.000,1.422,0.003
1681,3,90,15,-157.808,30.000,14.842,0.003
1698,3,90,20,35.527,42.000,1.528,0.004
1677,4,0,-20,37.381,56.000,1.596,0.006
1678,4,0,-15,18.802,55.000,2.561,0.005
1683,4,0,-10,-38.648,47.000,3.131,0.005
1684,4,0,-5,21.226,44.000,1.984,0.004
1685,4,0,0,21.992,54.000,1.803,0.005
1686,4,0,5,21.460,51.000,2.029,0.005
1687,4,0,10,-95.005,46.000,3.840,0.005
1688,4,0,15,20.348,41.000,1.708,0.004
1689,4,0,20,22.655,44.000,2.026,0.004
1690,4,90,-20,17.929,439.000,21.524,0.044
1691,4,90,-15,17.376,223.000,11.115,0.022
1692,4,90,-10,19.273,419.000,22.864,0.042
1693,4,90,-5,-177.875,52.000,49.679,0.005
1685,4,90,0,21.992,54.000,1.803,0.005
1694,4,90,5,21.897,44.000,2.401,0.004
1695,4,90,10,23.442,53.000,1.837,0.005
1696,4,90,15,21.863,38.000,2.105,0.004
1697,4,90,20,14.723,299.000,13.661,0.030
