0.000, 0.010, 0.400, -0.071, -0.020, -0.004
0.120, 0.100, 0.400, -0.082, -0.001, -0.003
0.170, 0.100, 0.400, -0.082, -0.005, -0.003
0.220, 0.100, 0.400, -0.082, -0.008, -0.003
0.270, 0.100, 0.400, -0.079, -0.009, -0.004
0.320, 0.100, 0.400, -0.078, -0.009, -0.005
0.370, 0.100, 0.400, -0.075, -0.009, -0.006
0.420, 0.100, 0.400, -0.073, -0.009, -0.006
0.470, 0.100, 0.400, -0.072, -0.009, -0.006
0.520, 0.100, 0.400, -0.072, -0.006, -0.006
0.570, 0.100, 0.400, -0.073, -0.001, -0.006
0.620, 0.100, 0.400, -0.079, 0.002, -0.006
0.620, 0.150, 0.400, -0.079, 0.000, -0.003
0.570, 0.150, 0.400, -0.074, -0.005, -0.003
0.520, 0.150, 0.400, -0.072, -0.009, -0.003
0.470, 0.150, 0.400, -0.072, -0.010, -0.003
0.420, 0.150, 0.400, -0.073, -0.015, -0.003
0.370, 0.150, 0.400, -0.075, -0.016, -0.003
0.320, 0.150, 0.400, -0.077, -0.015, -0.003
0.270, 0.150, 0.400, -0.079, -0.013, -0.002
0.220, 0.150, 0.400, -0.081, -0.009, -0.002
0.170, 0.150, 0.400, -0.082, -0.009, -0.002
0.120, 0.150, 0.400, -0.082, -0.005, -0.003
0.120, 0.200, 0.400, -0.082, -0.008, -0.002
0.170, 0.200, 0.400, -0.082, -0.009, -0.002
0.220, 0.200, 0.400, -0.081, -0.015, -0.002
0.270, 0.200, 0.400, -0.079, -0.018, -0.002
0.320, 0.200, 0.400, -0.076, -0.018, -0.002
0.370, 0.200, 0.400, -0.074, -0.018, -0.003
0.420, 0.200, 0.400, -0.072, -0.018, -0.003
0.470, 0.200, 0.400, -0.071, -0.017, -0.003
0.520, 0.200, 0.400, -0.072, -0.011, -0.003
0.570, 0.200, 0.400, -0.073, -0.009, -0.003
0.620, 0.200, 0.400, -0.079, -0.003, -0.003
0.620, 0.250, 0.400, -0.079, -0.006, -0.003
0.570, 0.250, 0.400, -0.074, -0.009, -0.003
0.520, 0.250, 0.400, -0.072, -0.015, -0.003
0.470, 0.250, 0.400, -0.071, -0.018, -0.003
0.420, 0.250, 0.400, -0.072, -0.018, -0.003
0.370, 0.250, 0.400, -0.074, -0.018, -0.003
0.320, 0.250, 0.400, -0.076, -0.018, -0.002
0.270, 0.250, 0.400, -0.079, -0.018, -0.002
0.220, 0.250, 0.400, -0.081, -0.018, -0.002
0.170, 0.250, 0.400, -0.082, -0.013, -0.002
0.120, 0.250, 0.400, -0.082, -0.009, -0.003
0.120, 0.300, 0.400, -0.083, -0.009, -0.003
0.170, 0.300, 0.400, -0.082, -0.015, -0.003
0.220, 0.300, 0.400, -0.081, -0.018, -0.003
0.270, 0.300, 0.400, -0.079, -0.018, -0.003
0.320, 0.300, 0.400, -0.076, -0.020, -0.003
0.370, 0.300, 0.400, -0.073, -0.021, -0.003
0.420, 0.300, 0.400, -0.072, -0.019, -0.003
0.470, 0.300, 0.400, -0.071, -0.018, -0.003
0.520, 0.300, 0.400, -0.071, -0.018, -0.003
0.570, 0.300, 0.400, -0.074, -0.009, -0.003
0.620, 0.300, 0.400, -0.079, -0.006, -0.003
0.420, 0.350, 0.400, -0.073, -0.021, -0.003
0.370, 0.350, 0.400, -0.074, -0.023, -0.003
0.320, 0.350, 0.400, -0.077, -0.021, -0.003
0.270, 0.350, 0.400, -0.079, -0.020, -0.003
0.220, 0.350, 0.400, -0.082, -0.018, -0.003
0.170, 0.350, 0.400, -0.083, -0.017, -0.003
0.120, 0.350, 0.400, -0.084, -0.009, -0.003
0.120, 0.400, 0.400, -0.085, -0.009, -0.003
0.170, 0.400, 0.400, -0.084, -0.016, -0.003
0.220, 0.400, 0.400, -0.082, -0.018, -0.003
0.270, 0.400, 0.400, -0.079, -0.020, -0.003
0.320, 0.400, 0.400, -0.077, -0.021, -0.003
0.370, 0.400, 0.400, -0.075, -0.022, -0.003
0.420, 0.400, 0.400, -0.073, -0.021, -0.003
0.470, 0.400, 0.400, -0.072, -0.020, -0.003
0.520, 0.400, 0.400, -0.073, -0.018, -0.003
0.570, 0.400, 0.400, -0.074, -0.015, -0.003
0.620, 0.400, 0.400, -0.079, -0.009, -0.003
0.620, 0.450, 0.400, -0.079, -0.009, -0.002
0.570, 0.450, 0.400, -0.075, -0.012, -0.003
0.520, 0.450, 0.400, -0.073, -0.018, -0.003
0.470, 0.450, 0.400, -0.072, -0.018, -0.003
0.420, 0.450, 0.400, -0.073, -0.021, -0.003
0.370, 0.450, 0.400, -0.075, -0.021, -0.003
0.320, 0.450, 0.400, -0.077, -0.021, -0.003
0.270, 0.450, 0.400, -0.079, -0.019, -0.003
0.220, 0.450, 0.400, -0.082, -0.018, -0.003
0.170, 0.450, 0.400, -0.083, -0.016, -0.003
0.120, 0.450, 0.400, -0.085, -0.009, -0.003
0.120, 0.500, 0.400, -0.084, -0.009, -0.001
0.170, 0.500, 0.400, -0.082, -0.015, -0.002
0.220, 0.500, 0.400, -0.082, -0.018, -0.002
0.270, 0.500, 0.400, -0.079, -0.018, -0.002
0.320, 0.500, 0.400, -0.076, -0.020, -0.003
0.370, 0.500, 0.400, -0.075, -0.020, -0.002
0.420, 0.500, 0.400, -0.073, -0.020, -0.003
0.470, 0.500, 0.400, -0.073, -0.018, -0.002
0.520, 0.500, 0.400, -0.073, -0.018, -0.002
0.570, 0.500, 0.400, -0.076, -0.011, -0.002
0.620, 0.500, 0.400, -0.079, -0.008, 0.000
0.620, 0.550, 0.400, -0.080, -0.006, 0.000
0.570, 0.550, 0.400, -0.076, -0.009, 0.000
0.520, 0.550, 0.400, -0.073, -0.016, 0.000
0.470, 0.550, 0.400, -0.073, -0.018, 0.000
0.420, 0.550, 0.400, -0.073, -0.018, 0.000
0.370, 0.550, 0.400, -0.075, -0.018, 0.000
0.320, 0.550, 0.400, -0.076, -0.018, 0.000
0.270, 0.550, 0.400, -0.079, -0.018, 0.000
0.220, 0.550, 0.400, -0.081, -0.018, 0.000
0.170, 0.550, 0.400, -0.082, -0.014, 0.000
0.120, 0.550, 0.400, -0.082, -0.009, 0.000
0.120, 0.600, 0.400, -0.081, -0.009, 0.003
0.170, 0.600, 0.400, -0.081, -0.010, 0.002
0.220, 0.600, 0.400, -0.079, -0.015, 0.000
0.270, 0.600, 0.400, -0.079, -0.018, 0.000
0.320, 0.600, 0.400, -0.076, -0.018, 0.000
0.370, 0.600, 0.400, -0.075, -0.018, 0.000
0.420, 0.600, 0.400, -0.073, -0.018, 0.000
0.470, 0.600, 0.400, -0.073, -0.018, 0.001
0.520, 0.600, 0.400, -0.073, -0.015, 0.002
0.570, 0.600, 0.400, -0.076, -0.009, 0.003
0.620, 0.600, 0.400, -0.081, -0.005, 0.003
0.120, 0.100, 0.500, -0.077, -0.009, -0.007
0.170, 0.100, 0.500, -0.078, -0.009, -0.008
0.220, 0.100, 0.500, -0.078, -0.014, -0.009
0.270, 0.100, 0.500, -0.076, -0.016, -0.009
0.320, 0.100, 0.500, -0.076, -0.018, -0.009
0.370, 0.100, 0.500, -0.075, -0.018, -0.010
0.420, 0.100, 0.500, -0.074, -0.018, -0.011
0.470, 0.100, 0.500, -0.075, -0.018, -0.012
0.520, 0.100, 0.500, -0.076, -0.018, -0.011
0.570, 0.100, 0.500, -0.079, -0.018, -0.010
0.620, 0.100, 0.500, -0.085, -0.018, -0.009
0.620, 0.150, 0.500, -0.085, -0.018, -0.006
0.570, 0.150, 0.500, -0.079, -0.018, -0.006
0.520, 0.150, 0.500, -0.076, -0.018, -0.006
0.470, 0.150, 0.500, -0.074, -0.018, -0.006
0.420, 0.150, 0.500, -0.074, -0.018, -0.006
0.370, 0.150, 0.500, -0.074, -0.018, -0.006
0.320, 0.150, 0.500, -0.075, -0.018, -0.006
0.270, 0.150, 0.500, -0.076, -0.017, -0.006
0.220, 0.150, 0.500, -0.077, -0.015, -0.006
0.170, 0.150, 0.500, -0.077, -0.011, -0.006
0.120, 0.150, 0.500, -0.076, -0.009, -0.006
0.120, 0.200, 0.500, -0.076, -0.009, -0.004
0.170, 0.200, 0.500, -0.077, -0.015, -0.004
0.220, 0.200, 0.500, -0.076, -0.016, -0.004
0.270, 0.200, 0.500, -0.076, -0.018, -0.005
0.320, 0.200, 0.500, -0.075, -0.018, -0.006
0.370, 0.200, 0.500, -0.073, -0.018, -0.006
0.420, 0.200, 0.500, -0.073, -0.018, -0.006
0.470, 0.200, 0.500, -0.073, -0.019, -0.006
0.520, 0.200, 0.500, -0.076, -0.019, -0.006
0.570, 0.200, 0.500, -0.079, -0.019, -0.006
0.620, 0.200, 0.500, -0.085, -0.018, -0.005
0.620, 0.250, 0.500, -0.085, -0.021, -0.004
0.570, 0.250, 0.500, -0.079, -0.020, -0.004
0.520, 0.250, 0.500, -0.076, -0.021, -0.004
0.470, 0.250, 0.500, -0.074, -0.020, -0.004
0.420, 0.250, 0.500, -0.073, -0.020, -0.004
0.370, 0.250, 0.500, -0.073, -0.018, -0.004
0.320, 0.250, 0.500, -0.075, -0.018, -0.004
0.270, 0.250, 0.500, -0.076, -0.018, -0.003
0.220, 0.250, 0.500, -0.076, -0.018, -0.003
0.170, 0.250, 0.500, -0.076, -0.015, -0.003
0.120, 0.250, 0.500, -0.076, -0.012, -0.003
0.120, 0.300, 0.500, -0.077, -0.013, -0.004
0.170, 0.300, 0.500, -0.076, -0.016, -0.003
0.220, 0.300, 0.500, -0.076, -0.018, -0.003
0.270, 0.300, 0.500, -0.076, -0.018, -0.003
0.320, 0.300, 0.500, -0.074, -0.018, -0.003
0.370, 0.300, 0.500, -0.073, -0.020, -0.003
0.420, 0.300, 0.500, -0.073, -0.021, -0.004
0.470, 0.300, 0.500, -0.073, -0.021, -0.003
0.520, 0.300, 0.500, -0.076, -0.021, -0.003
0.570, 0.300, 0.500, -0.079, -0.021, -0.003
0.620, 0.300, 0.500, -0.085, -0.021, -0.003
0.420, 0.350, 0.500, -0.073, -0.023, -0.003
0.370, 0.350, 0.500, -0.073, -0.022, -0.003
0.320, 0.350, 0.500, -0.075, -0.021, -0.003
0.270, 0.350, 0.500, -0.076, -0.018, -0.003
0.220, 0.350, 0.500, -0.076, -0.018, -0.003
0.170, 0.350, 0.500, -0.078, -0.018, -0.003
0.120, 0.350, 0.500, -0.078, -0.015, -0.003
0.120, 0.400, 0.500, -0.078, -0.015, -0.003
0.170, 0.400, 0.500, -0.078, -0.018, -0.003
0.220, 0.400, 0.500, -0.076, -0.018, -0.003
0.270, 0.400, 0.500, -0.076, -0.019, -0.003
0.320, 0.400, 0.500, -0.074, -0.021, -0.003
0.370, 0.400, 0.500, -0.073, -0.023, -0.003
0.420, 0.400, 0.500, -0.073, -0.025, -0.003
0.470, 0.400, 0.500, -0.073, -0.027, -0.003
0.520, 0.400, 0.500, -0.076, -0.027, -0.003
0.570, 0.400, 0.500, -0.079, -0.027, -0.003
0.620, 0.400, 0.500, -0.085, -0.027, -0.003
0.620, 0.450, 0.500, -0.085, -0.027, -0.001
0.570, 0.450, 0.500, -0.079, -0.027, -0.001
0.520, 0.450, 0.500, -0.076, -0.027, -0.002
0.470, 0.450, 0.500, -0.074, -0.027, -0.002
0.420, 0.450, 0.500, -0.073, -0.027, -0.003
0.370, 0.450, 0.500, -0.074, -0.024, -0.003
0.320, 0.450, 0.500, -0.075, -0.021, -0.003
0.270, 0.450, 0.500, -0.076, -0.020, -0.003
0.220, 0.450, 0.500, -0.076, -0.018, -0.003
0.170, 0.450, 0.500, -0.078, -0.018, -0.003
0.120, 0.450, 0.500, -0.079, -0.016, -0.003
0.120, 0.500, 0.500, -0.079, -0.018, -0.001
0.170, 0.500, 0.500, -0.078, -0.018, -0.001
0.220, 0.500, 0.500, -0.076, -0.018, -0.001
0.270, 0.500, 0.500, -0.076, -0.021, -0.001
0.320, 0.500, 0.500, -0.075, -0.023, -0.001
0.370, 0.500, 0.500, -0.074, -0.026, -0.002
0.420, 0.500, 0.500, -0.073, -0.027, -0.001
0.470, 0.500, 0.500, -0.074, -0.027, -0.001
0.520, 0.500, 0.500, -0.076, -0.027, 0.000
0.570, 0.500, 0.500, -0.080, -0.027, 0.000
0.620, 0.500, 0.500, -0.085, -0.027, 0.000
0.620, 0.550, 0.500, -0.086, -0.027, 0.000
0.570, 0.550, 0.500, -0.080, -0.027, 0.000
0.520, 0.550, 0.500, -0.076, -0.027, 0.000
0.470, 0.550, 0.500, -0.075, -0.027, 0.000
0.420, 0.550, 0.500, -0.073, -0.027, 0.000
0.370, 0.550, 0.500, -0.073, -0.027, 0.000
0.320, 0.550, 0.500, -0.075, -0.025, 0.000
0.270, 0.550, 0.500, -0.076, -0.021, 0.000
0.220, 0.550, 0.500, -0.076, -0.019, 0.000
0.170, 0.550, 0.500, -0.077, -0.018, 0.000
0.120, 0.550, 0.500, -0.078, -0.018, 0.000
0.120, 0.600, 0.500, -0.076, -0.018, 0.000
0.170, 0.600, 0.500, -0.076, -0.020, 0.000
0.220, 0.600, 0.500, -0.076, -0.021, 0.000
0.270, 0.600, 0.500, -0.075, -0.026, 0.000
0.320, 0.600, 0.500, -0.074, -0.027, 0.000
0.370, 0.600, 0.500, -0.074, -0.027, 0.000
0.420, 0.600, 0.500, -0.074, -0.027, 0.000
0.470, 0.600, 0.500, -0.076, -0.027, 0.001
0.520, 0.600, 0.500, -0.077, -0.028, 0.002
0.570, 0.600, 0.500, -0.081, -0.028, 0.003
0.620, 0.600, 0.500, -0.087, -0.029, 0.003
0.120, 0.100, 0.600, -0.076, -0.017, -0.006
0.170, 0.100, 0.600, -0.075, -0.018, -0.006
0.220, 0.100, 0.600, -0.074, -0.018, -0.007
0.270, 0.100, 0.600, -0.073, -0.019, -0.008
0.320, 0.100, 0.600, -0.073, -0.021, -0.009
0.370, 0.100, 0.600, -0.071, -0.026, -0.009
0.420, 0.100, 0.600, -0.071, -0.027, -0.009
0.470, 0.100, 0.600, -0.071, -0.027, -0.009
0.520, 0.100, 0.600, -0.073, -0.030, -0.009
0.570, 0.100, 0.600, -0.075, -0.034, -0.008
0.620, 0.100, 0.600, -0.079, -0.039, -0.006
0.620, 0.150, 0.600, -0.079, -0.037, -0.005
0.570, 0.150, 0.600, -0.076, -0.033, -0.006
0.520, 0.150, 0.600, -0.073, -0.029, -0.006
0.470, 0.150, 0.600, -0.072, -0.027, -0.006
0.420, 0.150, 0.600, -0.071, -0.027, -0.006
0.370, 0.150, 0.600, -0.071, -0.022, -0.006
0.320, 0.150, 0.600, -0.072, -0.019, -0.006
0.270, 0.150, 0.600, -0.073, -0.018, -0.006
0.220, 0.150, 0.600, -0.073, -0.018, -0.006
0.170, 0.150, 0.600, -0.074, -0.016, -0.006
0.120, 0.150, 0.600, -0.075, -0.015, -0.005
0.120, 0.200, 0.600, -0.074, -0.015, -0.004
0.170, 0.200, 0.600, -0.073, -0.015, -0.005
0.220, 0.200, 0.600, -0.073, -0.018, -0.006
0.270, 0.200, 0.600, -0.072, -0.018, -0.006
0.320, 0.200, 0.600, -0.071, -0.018, -0.006
0.370, 0.200, 0.600, -0.070, -0.021, -0.006
0.420, 0.200, 0.600, -0.070, -0.024, -0.006
0.470, 0.200, 0.600, -0.071, -0.027, -0.006
0.520, 0.200, 0.600, -0.073, -0.027, -0.005
0.570, 0.200, 0.600, -0.076, -0.031, -0.005
0.620, 0.200, 0.600, -0.079, -0.036, -0.004
0.620, 0.250, 0.600, -0.080, -0.035, -0.003
0.570, 0.250, 0.600, -0.076, -0.030, -0.004
0.520, 0.250, 0.600, -0.073, -0.027, -0.004
0.470, 0.250, 0.600, -0.071, -0.027, -0.004
0.420, 0.250, 0.600, -0.070, -0.023, -0.005
0.370, 0.250, 0.600, -0.070, -0.020, -0.005
0.320, 0.250, 0.600, -0.071, -0.018, -0.005
0.270, 0.250, 0.600, -0.072, -0.018, -0.005
0.220, 0.250, 0.600, -0.073, -0.017, -0.004
0.170, 0.250, 0.600, -0.073, -0.015, -0.004
0.120, 0.250, 0.600, -0.074, -0.011, -0.004
0.120, 0.300, 0.600, -0.074, -0.012, -0.004
0.170, 0.300, 0.600, -0.073, -0.015, -0.004
0.220, 0.300, 0.600, -0.073, -0.017, -0.004
0.270, 0.300, 0.600, -0.071, -0.018, -0.003
0.320, 0.300, 0.600, -0.070, -0.018, -0.004
0.370, 0.300, 0.600, -0.070, -0.020, -0.004
0.420, 0.300, 0.600, -0.070, -0.022, -0.004
0.470, 0.300, 0.600, -0.071, -0.027, -0.004
0.520, 0.300, 0.600, -0.073, -0.027, -0.004
0.570, 0.300, 0.600, -0.076, -0.030, -0.003
0.620, 0.300, 0.600, -0.080, -0.034, -0.003
0.420, 0.350, 0.600, -0.070, -0.022, -0.003
0.370, 0.350, 0.600, -0.070, -0.020, -0.003
0.320, 0.350, 0.600, -0.070, -0.018, -0.004
0.270, 0.350, 0.600, -0.071, -0.018, -0.003
0.220, 0.350, 0.600, -0.073, -0.017, -0.003
0.170, 0.350, 0.600, -0.073, -0.015, -0.003
0.120, 0.350, 0.600, -0.075, -0.010, -0.004
0.120, 0.400, 0.600, -0.075, -0.010, -0.003
0.170, 0.400, 0.600, -0.073, -0.015, -0.003
0.220, 0.400, 0.600, -0.073, -0.017, -0.003
0.270, 0.400, 0.600, -0.072, -0.018, -0.003
0.320, 0.400, 0.600, -0.070, -0.018, -0.003
0.370, 0.400, 0.600, -0.070, -0.020, -0.004
0.420, 0.400, 0.600, -0.070, -0.022, -0.003
0.470, 0.400, 0.600, -0.071, -0.027, -0.003
0.520, 0.400, 0.600, -0.073, -0.027, -0.003
0.570, 0.400, 0.600, -0.076, -0.030, -0.003
0.620, 0.400, 0.600, -0.079, -0.034, -0.003
0.620, 0.450, 0.600, -0.079, -0.036, -0.003
0.570, 0.450, 0.600, -0.076, -0.031, -0.003
0.520, 0.450, 0.600, -0.073, -0.027, -0.003
0.470, 0.450, 0.600, -0.071, -0.027, -0.003
0.420, 0.450, 0.600, -0.070, -0.025, -0.003
0.370, 0.450, 0.600, -0.070, -0.021, -0.004
0.320, 0.450, 0.600, -0.070, -0.018, -0.003
0.270, 0.450, 0.600, -0.071, -0.018, -0.003
0.220, 0.450, 0.600, -0.072, -0.018, -0.003
0.170, 0.450, 0.600, -0.073, -0.015, -0.003
0.120, 0.450, 0.600, -0.075, -0.012, -0.003
0.120, 0.500, 0.600, -0.075, -0.015, -0.003
0.170, 0.500, 0.600, -0.073, -0.016, -0.003
0.220, 0.500, 0.600, -0.072, -0.018, -0.003
0.270, 0.500, 0.600, -0.071, -0.018, -0.003
0.320, 0.500, 0.600, -0.070, -0.020, -0.003
0.370, 0.500, 0.600, -0.070, -0.022, -0.003
0.420, 0.500, 0.600, -0.070, -0.027, -0.003
0.470, 0.500, 0.600, -0.071, -0.027, -0.003
0.520, 0.500, 0.600, -0.073, -0.030, -0.003
0.570, 0.500, 0.600, -0.076, -0.033, -0.003
0.620, 0.500, 0.600, -0.081, -0.039, -0.002
0.620, 0.550, 0.600, -0.081, -0.042, -0.001
0.570, 0.550, 0.600, -0.076, -0.036, -0.002
0.520, 0.550, 0.600, -0.073, -0.033, -0.003
0.470, 0.550, 0.600, -0.072, -0.030, -0.003
0.420, 0.550, 0.600, -0.070, -0.027, -0.003
0.370, 0.550, 0.600, -0.070, -0.027, -0.003
0.320, 0.550, 0.600, -0.070, -0.022, -0.003
0.270, 0.550, 0.600, -0.070, -0.019, -0.003
0.220, 0.550, 0.600, -0.072, -0.018, -0.003
0.170, 0.550, 0.600, -0.073, -0.018, -0.003
0.120, 0.550, 0.600, -0.074, -0.016, -0.003
0.120, 0.600, 0.600, -0.074, -0.018, -0.003
0.170, 0.600, 0.600, -0.073, -0.018, -0.003
0.220, 0.600, 0.600, -0.072, -0.020, -0.003
0.270, 0.600, 0.600, -0.071, -0.022, -0.003
0.320, 0.600, 0.600, -0.070, -0.027, -0.003
0.370, 0.600, 0.600, -0.070, -0.027, -0.003
0.420, 0.600, 0.600, -0.070, -0.030, -0.003
0.470, 0.600, 0.600, -0.072, -0.033, -0.003
0.520, 0.600, 0.600, -0.073, -0.036, -0.002
0.570, 0.600, 0.600, -0.077, -0.040, 0.000
0.620, 0.600, 0.600, -0.082, -0.045, 0.000
0.120, 0.100, 0.700, -0.072, -0.009, -0.003
0.170, 0.100, 0.700, -0.070, -0.014, -0.004
0.220, 0.100, 0.700, -0.069, -0.017, -0.005
0.270, 0.100, 0.700, -0.067, -0.018, -0.006
0.320, 0.100, 0.700, -0.067, -0.019, -0.006
0.370, 0.100, 0.700, -0.065, -0.023, -0.006
0.420, 0.100, 0.700, -0.064, -0.027, -0.006
0.470, 0.100, 0.700, -0.064, -0.029, -0.006
0.520, 0.100, 0.700, -0.064, -0.033, -0.004
0.570, 0.100, 0.700, -0.064, -0.039, -0.003
0.620, 0.100, 0.700, -0.064, -0.045, -0.001
0.620, 0.150, 0.700, -0.066, -0.042, -0.002
0.570, 0.150, 0.700, -0.065, -0.036, -0.003
0.520, 0.150, 0.700, -0.064, -0.031, -0.004
0.470, 0.150, 0.700, -0.064, -0.027, -0.005
0.420, 0.150, 0.700, -0.065, -0.026, -0.005
0.370, 0.150, 0.700, -0.065, -0.021, -0.005
0.320, 0.150, 0.700, -0.067, -0.018, -0.006
0.270, 0.150, 0.700, -0.067, -0.018, -0.005
0.220, 0.150, 0.700, -0.068, -0.015, -0.004
0.170, 0.150, 0.700, -0.070, -0.010, -0.004
0.120, 0.150, 0.700, -0.070, -0.009, -0.003
0.120, 0.200, 0.700, -0.070, -0.009, -0.004
0.170, 0.200, 0.700, -0.069, -0.009, -0.004
0.220, 0.200, 0.700, -0.068, -0.015, -0.004
0.270, 0.200, 0.700, -0.067, -0.018, -0.005
0.320, 0.200, 0.700, -0.066, -0.018, -0.005
0.370, 0.200, 0.700, -0.065, -0.020, -0.005
0.420, 0.200, 0.700, -0.065, -0.024, -0.005
0.470, 0.200, 0.700, -0.064, -0.027, -0.005
0.520, 0.200, 0.700, -0.065, -0.030, -0.004
0.570, 0.200, 0.700, -0.066, -0.035, -0.003
0.620, 0.200, 0.700, -0.067, -0.042, -0.003
0.620, 0.250, 0.700, -0.067, -0.040, -0.003
0.570, 0.250, 0.700, -0.067, -0.034, -0.003
0.520, 0.250, 0.700, -0.066, -0.030, -0.004
0.470, 0.250, 0.700, -0.065, -0.027, -0.004
0.420, 0.250, 0.700, -0.065, -0.022, -0.004
0.370, 0.250, 0.700, -0.066, -0.019, -0.005
0.320, 0.250, 0.700, -0.067, -0.018, -0.005
0.270, 0.250, 0.700, -0.067, -0.017, -0.004
0.220, 0.250, 0.700, -0.067, -0.015, -0.004
0.170, 0.250, 0.700, -0.069, -0.009, -0.005
0.120, 0.250, 0.700, -0.070, -0.009, -0.004
0.120, 0.300, 0.700, -0.070, -0.009, -0.004
0.170, 0.300, 0.700, -0.069, -0.009, -0.004
0.220, 0.300, 0.700, -0.067, -0.015, -0.004
0.270, 0.300, 0.700, -0.067, -0.017, -0.005
0.320, 0.300, 0.700, -0.066, -0.018, -0.005
0.370, 0.300, 0.700, -0.066, -0.019, -0.005
0.420, 0.300, 0.700, -0.065, -0.023, -0.005
0.470, 0.300, 0.700, -0.065, -0.027, -0.005
0.520, 0.300, 0.700, -0.066, -0.029, -0.004
0.570, 0.300, 0.700, -0.066, -0.034, -0.004
0.620, 0.300, 0.700, -0.067, -0.040, -0.004
0.420, 0.350, 0.700, -0.066, -0.026, -0.005
0.370, 0.350, 0.700, -0.066, -0.021, -0.005
0.320, 0.350, 0.700, -0.067, -0.018, -0.005
0.270, 0.350, 0.700, -0.067, -0.018, -0.005
0.220, 0.350, 0.700, -0.068, -0.015, -0.004
0.170, 0.350, 0.700, -0.069, -0.011, -0.004
0.120, 0.350, 0.700, -0.070, -0.009, -0.004
0.120, 0.400, 0.700, -0.070, -0.009, -0.004
0.170, 0.400, 0.700, -0.069, -0.011, -0.005
0.220, 0.400, 0.700, -0.067, -0.016, -0.005
0.270, 0.400, 0.700, -0.067, -0.018, -0.005
0.320, 0.400, 0.700, -0.066, -0.018, -0.005
0.370, 0.400, 0.700, -0.066, -0.021, -0.005
0.420, 0.400, 0.700, -0.065, -0.027, -0.006
0.470, 0.400, 0.700, -0.065, -0.027, -0.006
0.520, 0.400, 0.700, -0.066, -0.031, -0.006
0.570, 0.400, 0.700, -0.067, -0.036, -0.005
0.620, 0.400, 0.700, -0.067, -0.043, -0.006
0.620, 0.450, 0.700, -0.067, -0.044, -0.006
0.570, 0.450, 0.700, -0.067, -0.037, -0.006
0.520, 0.450, 0.700, -0.066, -0.033, -0.006
0.470, 0.450, 0.700, -0.065, -0.028, -0.006
0.420, 0.450, 0.700, -0.065, -0.027, -0.006
0.370, 0.450, 0.700, -0.066, -0.022, -0.006
0.320, 0.450, 0.700, -0.066, -0.019, -0.006
0.270, 0.450, 0.700, -0.067, -0.018, -0.006
0.220, 0.450, 0.700, -0.067, -0.017, -0.006
0.170, 0.450, 0.700, -0.069, -0.014, -0.005
0.120, 0.450, 0.700, -0.070, -0.009, -0.005
0.120, 0.500, 0.700, -0.071, -0.009, -0.005
0.170, 0.500, 0.700, -0.069, -0.015, -0.006
0.220, 0.500, 0.700, -0.067, -0.018, -0.006
0.270, 0.500, 0.700, -0.067, -0.018, -0.006
0.320, 0.500, 0.700, -0.066, -0.021, -0.006
0.370, 0.500, 0.700, -0.065, -0.025, -0.006
0.420, 0.500, 0.700, -0.065, -0.027, -0.006
0.470, 0.500, 0.700, -0.065, -0.030, -0.006
0.520, 0.500, 0.700, -0.066, -0.034, -0.006
0.570, 0.500, 0.700, -0.066, -0.039, -0.007
0.620, 0.500, 0.700, -0.067, -0.046, -0.006
0.620, 0.550, 0.700, -0.067, -0.049, -0.008
0.570, 0.550, 0.700, -0.066, -0.042, -0.008
0.520, 0.550, 0.700, -0.066, -0.037, -0.008
0.470, 0.550, 0.700, -0.065, -0.032, -0.008
0.420, 0.550, 0.700, -0.065, -0.028, -0.008
0.370, 0.550, 0.700, -0.065, -0.027, -0.008
0.320, 0.550, 0.700, -0.066, -0.022, -0.008
0.270, 0.550, 0.700, -0.066, -0.019, -0.007
0.220, 0.550, 0.700, -0.067, -0.018, -0.006
0.170, 0.550, 0.700, -0.069, -0.016, -0.006
0.120, 0.550, 0.700, -0.070, -0.011, -0.006
0.120, 0.600, 0.700, -0.070, -0.015, -0.007
0.170, 0.600, 0.700, -0.069, -0.018, -0.008
0.220, 0.600, 0.700, -0.067, -0.018, -0.008
0.270, 0.600, 0.700, -0.066, -0.021, -0.009
0.320, 0.600, 0.700, -0.065, -0.027, -0.009
0.370, 0.600, 0.700, -0.064, -0.027, -0.009
0.420, 0.600, 0.700, -0.064, -0.031, -0.009
0.470, 0.600, 0.700, -0.064, -0.036, -0.009
0.520, 0.600, 0.700, -0.065, -0.040, -0.009
0.570, 0.600, 0.700, -0.066, -0.046, -0.009
0.620, 0.600, 0.700, -0.067, -0.053, -0.009
0.120, 0.100, 0.800, -0.066, -0.009, -0.002
0.170, 0.100, 0.800, -0.064, -0.009, -0.003
0.220, 0.100, 0.800, -0.063, -0.016, -0.003
0.270, 0.100, 0.800, -0.062, -0.018, -0.003
0.320, 0.100, 0.800, -0.061, -0.019, -0.003
0.370, 0.100, 0.800, -0.059, -0.021, -0.002
0.420, 0.100, 0.800, -0.058, -0.028, -0.002
0.470, 0.100, 0.800, -0.056, -0.030, -0.001
0.520, 0.100, 0.800, -0.055, -0.032, 0.000
0.570, 0.100, 0.800, -0.055, -0.036, 0.000
0.620, 0.100, 0.800, -0.052, -0.042, 0.000
0.620, 0.150, 0.800, -0.055, -0.040, 0.000
0.570, 0.150, 0.800, -0.055, -0.036, 0.000
0.520, 0.150, 0.800, -0.056, -0.030, -0.002
0.470, 0.150, 0.800, -0.057, -0.030, -0.003
0.420, 0.150, 0.800, -0.058, -0.027, -0.003
0.370, 0.150, 0.800, -0.060, -0.021, -0.003
0.320, 0.150, 0.800, -0.061, -0.018, -0.003
0.270, 0.150, 0.800, -0.062, -0.018, -0.003
0.220, 0.150, 0.800, -0.063, -0.015, -0.003
0.170, 0.150, 0.800, -0.064, -0.009, -0.003
0.120, 0.150, 0.800, -0.065, -0.009, -0.003
0.120, 0.200, 0.800, -0.065, -0.009, -0.003
0.170, 0.200, 0.800, -0.064, -0.009, -0.003
0.220, 0.200, 0.800, -0.063, -0.015, -0.003
0.270, 0.200, 0.800, -0.061, -0.018, -0.003
0.320, 0.200, 0.800, -0.061, -0.018, -0.003
0.370, 0.200, 0.800, -0.060, -0.021, -0.003
0.420, 0.200, 0.800, -0.059, -0.025, -0.003
0.470, 0.200, 0.800, -0.058, -0.030, -0.003
0.520, 0.200, 0.800, -0.057, -0.030, -0.003
0.570, 0.200, 0.800, -0.055, -0.034, -0.002
0.620, 0.200, 0.800, -0.055, -0.040, 0.000
0.620, 0.250, 0.800, -0.055, -0.040, -0.003
0.570, 0.250, 0.800, -0.056, -0.034, -0.003
0.520, 0.250, 0.800, -0.057, -0.030, -0.003
0.470, 0.250, 0.800, -0.058, -0.029, -0.004
0.420, 0.250, 0.800, -0.059, -0.024, -0.004
0.370, 0.250, 0.800, -0.060, -0.020, -0.004
0.320, 0.250, 0.800, -0.061, -0.018, -0.005
0.270, 0.250, 0.800, -0.062, -0.017, -0.004
0.220, 0.250, 0.800, -0.064, -0.015, -0.004
0.170, 0.250, 0.800, -0.064, -0.009, -0.004
0.120, 0.250, 0.800, -0.065, -0.009, -0.004
0.120, 0.300, 0.800, -0.065, -0.009, -0.004
0.170, 0.300, 0.800, -0.064, -0.009, -0.005
0.220, 0.300, 0.800, -0.063, -0.014, -0.005
0.270, 0.300, 0.800, -0.062, -0.017, -0.005
0.320, 0.300, 0.800, -0.061, -0.018, -0.005
0.370, 0.300, 0.800, -0.060, -0.019, -0.005
0.420, 0.300, 0.800, -0.059, -0.023, -0.004
0.470, 0.300, 0.800, -0.058, -0.029, -0.005
0.520, 0.300, 0.800, -0.057, -0.030, -0.004
0.570, 0.300, 0.800, -0.056, -0.034, -0.004
0.620, 0.300, 0.800, -0.055, -0.039, -0.004
0.420, 0.350, 0.800, -0.059, -0.024, -0.006
0.370, 0.350, 0.800, -0.060, -0.019, -0.006
0.320, 0.350, 0.800, -0.061, -0.018, -0.006
0.270, 0.350, 0.800, -0.062, -0.017, -0.006
0.220, 0.350, 0.800, -0.063, -0.014, -0.006
0.170, 0.350, 0.800, -0.064, -0.009, -0.005
0.120, 0.350, 0.800, -0.066, -0.009, -0.005
0.120, 0.400, 0.800, -0.065, -0.008, -0.005
0.170, 0.400, 0.800, -0.064, -0.009, -0.006
0.220, 0.400, 0.800, -0.063, -0.014, -0.006
0.270, 0.400, 0.800, -0.062, -0.017, -0.006
0.320, 0.400, 0.800, -0.061, -0.018, -0.006
0.370, 0.400, 0.800, -0.060, -0.019, -0.006
0.420, 0.400, 0.800, -0.059, -0.023, -0.006
0.470, 0.400, 0.800, -0.058, -0.029, -0.006
0.520, 0.400, 0.800, -0.057, -0.030, -0.006
0.570, 0.400, 0.800, -0.056, -0.033, -0.006
0.620, 0.400, 0.800, -0.055, -0.039, -0.007
0.620, 0.450, 0.800, -0.055, -0.039, -0.009
0.570, 0.450, 0.800, -0.055, -0.034, -0.009
0.520, 0.450, 0.800, -0.058, -0.030, -0.009
0.470, 0.450, 0.800, -0.058, -0.029, -0.008
0.420, 0.450, 0.800, -0.059, -0.024, -0.008
0.370, 0.450, 0.800, -0.059, -0.019, -0.007
0.320, 0.450, 0.800, -0.061, -0.018, -0.007
0.270, 0.450, 0.800, -0.061, -0.016, -0.006
0.220, 0.450, 0.800, -0.062, -0.011, -0.006
0.170, 0.450, 0.800, -0.064, -0.009, -0.006
0.120, 0.450, 0.800, -0.065, -0.008, -0.006
0.120, 0.500, 0.800, -0.064, -0.007, -0.006
0.170, 0.500, 0.800, -0.063, -0.009, -0.006
0.220, 0.500, 0.800, -0.062, -0.011, -0.006
0.270, 0.500, 0.800, -0.061, -0.016, -0.007
0.320, 0.500, 0.800, -0.060, -0.018, -0.008
0.370, 0.500, 0.800, -0.059, -0.019, -0.009
0.420, 0.500, 0.800, -0.058, -0.023, -0.009
0.470, 0.500, 0.800, -0.058, -0.029, -0.009
0.520, 0.500, 0.800, -0.057, -0.030, -0.010
0.570, 0.500, 0.800, -0.055, -0.034, -0.010
0.620, 0.500, 0.800, -0.055, -0.039, -0.011
0.620, 0.550, 0.800, -0.054, -0.040, -0.015
0.570, 0.550, 0.800, -0.055, -0.036, -0.015
0.520, 0.550, 0.800, -0.056, -0.030, -0.015
0.470, 0.550, 0.800, -0.057, -0.030, -0.015
0.420, 0.550, 0.800, -0.058, -0.025, -0.013
0.370, 0.550, 0.800, -0.058, -0.020, -0.011
0.320, 0.550, 0.800, -0.059, -0.018, -0.010
0.270, 0.550, 0.800, -0.060, -0.016, -0.009
0.220, 0.550, 0.800, -0.061, -0.010, -0.009
0.170, 0.550, 0.800, -0.063, -0.009, -0.008
0.120, 0.550, 0.800, -0.064, -0.006, -0.007
0.120, 0.600, 0.800, -0.064, -0.006, -0.009
0.170, 0.600, 0.800, -0.061, -0.009, -0.009
0.220, 0.600, 0.800, -0.061, -0.010, -0.011
0.270, 0.600, 0.800, -0.059, -0.016, -0.013
0.320, 0.600, 0.800, -0.058, -0.018, -0.015
0.370, 0.600, 0.800, -0.058, -0.020, -0.015
0.420, 0.600, 0.800, -0.057, -0.027, -0.016
0.470, 0.600, 0.800, -0.057, -0.030, -0.018
0.520, 0.600, 0.800, -0.056, -0.031, -0.018
0.570, 0.600, 0.800, -0.055, -0.036, -0.018
0.620, 0.600, 0.800, -0.052, -0.042, -0.019
0.000, 0.010, 0.400, -0.072, 0.011, 0.000
