0.000, 0.010, 0.400, -0.045, -0.021, -0.003
0.120, 0.100, 0.400, -0.036, -0.006, 0.009
0.170, 0.100, 0.400, -0.037, -0.009, 0.010
0.220, 0.100, 0.400, -0.042, -0.009, 0.010
0.270, 0.100, 0.400, -0.043, -0.010, 0.010
0.320, 0.100, 0.400, -0.043, -0.010, 0.010
0.370, 0.100, 0.400, -0.042, -0.009, 0.009
0.420, 0.100, 0.400, -0.042, -0.007, 0.009
0.470, 0.100, 0.400, -0.043, -0.004, 0.009
0.520, 0.100, 0.400, -0.045, 0.000, 0.009
0.570, 0.100, 0.400, -0.045, 0.000, 0.011
0.620, 0.100, 0.400, -0.055, 0.006, 0.012
0.620, 0.150, 0.400, -0.055, 0.000, 0.012
0.570, 0.150, 0.400, -0.046, 0.000, 0.010
0.520, 0.150, 0.400, -0.045, -0.006, 0.009
0.470, 0.150, 0.400, -0.043, -0.009, 0.009
0.420, 0.150, 0.400, -0.043, -0.012, 0.009
0.370, 0.150, 0.400, -0.042, -0.015, 0.009
0.320, 0.150, 0.400, -0.043, -0.015, 0.009
0.270, 0.150, 0.400, -0.042, -0.016, 0.009
0.220, 0.150, 0.400, -0.042, -0.015, 0.009
0.170, 0.150, 0.400, -0.037, -0.014, 0.009
0.120, 0.150, 0.400, -0.036, -0.012, 0.009
0.120, 0.200, 0.400, -0.036, -0.016, 0.006
0.170, 0.200, 0.400, -0.038, -0.018, 0.006
0.220, 0.200, 0.400, -0.042, -0.020, 0.006
0.270, 0.200, 0.400, -0.043, -0.021, 0.007
0.320, 0.200, 0.400, -0.043, -0.021, 0.007
0.370, 0.200, 0.400, -0.043, -0.019, 0.007
0.420, 0.200, 0.400, -0.043, -0.018, 0.007
0.470, 0.200, 0.400, -0.045, -0.015, 0.007
0.520, 0.200, 0.400, -0.045, -0.010, 0.008
0.570, 0.200, 0.400, -0.047, -0.005, 0.009
0.620, 0.200, 0.400, -0.057, 0.000, 0.009
0.620, 0.250, 0.400, -0.057, -0.001, 0.006
0.570, 0.250, 0.400, -0.048, -0.008, 0.006
0.520, 0.250, 0.400, -0.045, -0.014, 0.005
0.470, 0.250, 0.400, -0.045, -0.018, 0.005
0.420, 0.250, 0.400, -0.043, -0.021, 0.005
0.370, 0.250, 0.400, -0.043, -0.021, 0.005
0.320, 0.250, 0.400, -0.043, -0.021, 0.004
0.270, 0.250, 0.400, -0.043, -0.021, 0.004
0.220, 0.250, 0.400, -0.043, -0.021, 0.003
0.170, 0.250, 0.400, -0.041, -0.021, 0.003
0.120, 0.250, 0.400, -0.036, -0.020, 0.003
0.120, 0.300, 0.400, -0.036, -0.021, 0.000
0.170, 0.300, 0.400, -0.042, -0.021, 0.000
0.220, 0.300, 0.400, -0.043, -0.023, 0.000
0.270, 0.300, 0.400, -0.044, -0.026, 0.001
0.320, 0.300, 0.400, -0.044, -0.026, 0.001
0.370, 0.300, 0.400, -0.044, -0.023, 0.001
0.420, 0.300, 0.400, -0.044, -0.021, 0.001
0.470, 0.300, 0.400, -0.045, -0.020, 0.001
0.520, 0.300, 0.400, -0.045, -0.015, 0.002
0.570, 0.300, 0.400, -0.048, -0.010, 0.002
0.620, 0.300, 0.400, -0.055, -0.003, 0.003
0.420, 0.350, 0.400, -0.045, -0.023, 0.000
0.370, 0.350, 0.400, -0.045, -0.027, 0.000
0.320, 0.350, 0.400, -0.045, -0.029, 0.000
0.270, 0.350, 0.400, -0.045, -0.029, 0.000
0.220, 0.350, 0.400, -0.045, -0.028, 0.000
0.170, 0.350, 0.400, -0.043, -0.026, 0.000
0.120, 0.350, 0.400, -0.039, -0.021, -0.001
0.120, 0.400, 0.400, -0.042, -0.021, -0.003
0.170, 0.400, 0.400, -0.044, -0.026, -0.003
0.220, 0.400, 0.400, -0.045, -0.028, -0.003
0.270, 0.400, 0.400, -0.045, -0.030, -0.003
0.320, 0.400, 0.400, -0.045, -0.030, -0.002
0.370, 0.400, 0.400, -0.045, -0.028, -0.002
0.420, 0.400, 0.400, -0.045, -0.026, -0.002
0.470, 0.400, 0.400, -0.045, -0.021, -0.001
0.520, 0.400, 0.400, -0.046, -0.018, -0.001
0.570, 0.400, 0.400, -0.050, -0.013, 0.000
0.620, 0.400, 0.400, -0.056, -0.006, 0.000
0.620, 0.450, 0.400, -0.057, -0.006, -0.003
0.570, 0.450, 0.400, -0.052, -0.012, -0.003
0.520, 0.450, 0.400, -0.046, -0.018, -0.003
0.470, 0.450, 0.400, -0.045, -0.021, -0.004
0.420, 0.450, 0.400, -0.045, -0.023, -0.004
0.370, 0.450, 0.400, -0.045, -0.028, -0.004
0.320, 0.450, 0.400, -0.045, -0.029, -0.005
0.270, 0.450, 0.400, -0.044, -0.029, -0.005
0.220, 0.450, 0.400, -0.045, -0.028, -0.005
0.170, 0.450, 0.400, -0.045, -0.027, -0.005
0.120, 0.450, 0.400, -0.042, -0.021, -0.006
0.120, 0.500, 0.400, -0.042, -0.021, -0.006
0.170, 0.500, 0.400, -0.044, -0.024, -0.006
0.220, 0.500, 0.400, -0.045, -0.027, -0.006
0.270, 0.500, 0.400, -0.045, -0.028, -0.006
0.320, 0.500, 0.400, -0.045, -0.027, -0.006
0.370, 0.500, 0.400, -0.045, -0.027, -0.006
0.420, 0.500, 0.400, -0.045, -0.021, -0.006
0.470, 0.500, 0.400, -0.045, -0.021, -0.006
0.520, 0.500, 0.400, -0.047, -0.017, -0.005
0.570, 0.500, 0.400, -0.053, -0.012, -0.005
0.620, 0.500, 0.400, -0.057, -0.005, -0.004
0.620, 0.550, 0.400, -0.058, -0.003, -0.004
0.570, 0.550, 0.400, -0.054, -0.009, -0.005
0.520, 0.550, 0.400, -0.048, -0.015, -0.006
0.470, 0.550, 0.400, -0.045, -0.019, -0.006
0.420, 0.550, 0.400, -0.045, -0.021, -0.006
0.370, 0.550, 0.400, -0.045, -0.022, -0.006
0.320, 0.550, 0.400, -0.045, -0.025, -0.007
0.270, 0.550, 0.400, -0.045, -0.026, -0.007
0.220, 0.550, 0.400, -0.045, -0.024, -0.006
0.170, 0.550, 0.400, -0.044, -0.022, -0.006
0.120, 0.550, 0.400, -0.041, -0.021, -0.006
0.120, 0.600, 0.400, -0.037, -0.021, -0.004
0.170, 0.600, 0.400, -0.043, -0.021, -0.006
0.220, 0.600, 0.400, -0.045, -0.021, -0.006
0.270, 0.600, 0.400, -0.045, -0.021, -0.006
0.320, 0.600, 0.400, -0.045, -0.021, -0.006
0.370, 0.600, 0.400, -0.045, -0.021, -0.006
0.420, 0.600, 0.400, -0.045, -0.021, -0.006
0.470, 0.600, 0.400, -0.046, -0.018, -0.006
0.520, 0.600, 0.400, -0.048, -0.013, -0.005
0.570, 0.600, 0.400, -0.055, -0.008, -0.003
0.620, 0.600, 0.400, -0.058, -0.001, -0.003
0.120, 0.100, 0.450, -0.036, -0.012, 0.006
0.170, 0.100, 0.450, -0.036, -0.013, 0.006
0.220, 0.100, 0.450, -0.042, -0.013, 0.006
0.270, 0.100, 0.450, -0.043, -0.014, 0.006
0.320, 0.100, 0.450, -0.044, -0.013, 0.006
0.370, 0.100, 0.450, -0.045, -0.012, 0.006
0.420, 0.100, 0.450, -0.045, -0.012, 0.006
0.470, 0.100, 0.450, -0.045, -0.009, 0.006
0.520, 0.100, 0.450, -0.045, -0.007, 0.006
0.570, 0.100, 0.450, -0.053, -0.003, 0.006
0.620, 0.100, 0.450, -0.058, 0.000, 0.009
0.620, 0.150, 0.450, -0.058, -0.003, 0.009
0.570, 0.150, 0.450, -0.055, -0.007, 0.007
0.520, 0.150, 0.450, -0.047, -0.011, 0.006
0.470, 0.150, 0.450, -0.045, -0.013, 0.006
0.420, 0.150, 0.450, -0.045, -0.015, 0.006
0.370, 0.150, 0.450, -0.045, -0.017, 0.006
0.320, 0.150, 0.450, -0.044, -0.018, 0.006
0.270, 0.150, 0.450, -0.043, -0.018, 0.006
0.220, 0.150, 0.450, -0.042, -0.018, 0.006
0.170, 0.150, 0.450, -0.037, -0.018, 0.006
0.120, 0.150, 0.450, -0.036, -0.017, 0.006
0.120, 0.200, 0.450, -0.034, -0.021, 0.003
0.170, 0.200, 0.450, -0.037, -0.021, 0.003
0.220, 0.200, 0.450, -0.042, -0.021, 0.004
0.270, 0.200, 0.450, -0.043, -0.021, 0.005
0.320, 0.200, 0.450, -0.044, -0.021, 0.005
0.370, 0.200, 0.450, -0.045, -0.021, 0.005
0.420, 0.200, 0.450, -0.045, -0.019, 0.005
0.470, 0.200, 0.450, -0.045, -0.017, 0.006
0.520, 0.200, 0.450, -0.047, -0.015, 0.006
0.570, 0.200, 0.450, -0.055, -0.011, 0.006
0.620, 0.200, 0.450, -0.060, -0.007, 0.007
0.620, 0.250, 0.450, -0.060, -0.009, 0.005
0.570, 0.250, 0.450, -0.055, -0.013, 0.004
0.520, 0.250, 0.450, -0.048, -0.017, 0.003
0.470, 0.250, 0.450, -0.045, -0.020, 0.003
0.420, 0.250, 0.450, -0.045, -0.021, 0.003
0.370, 0.250, 0.450, -0.045, -0.021, 0.003
0.320, 0.250, 0.450, -0.045, -0.021, 0.003
0.270, 0.250, 0.450, -0.043, -0.021, 0.003
0.220, 0.250, 0.450, -0.042, -0.021, 0.003
0.170, 0.250, 0.450, -0.038, -0.021, 0.002
0.120, 0.250, 0.450, -0.034, -0.021, 0.001
0.120, 0.300, 0.450, -0.036, -0.021, 0.000
0.170, 0.300, 0.450, -0.041, -0.024, 0.000
0.220, 0.300, 0.450, -0.043, -0.024, 0.000
0.270, 0.300, 0.450, -0.044, -0.025, 0.000
0.320, 0.300, 0.450, -0.045, -0.025, 0.000
0.370, 0.300, 0.450, -0.045, -0.023, 0.000
0.420, 0.300, 0.450, -0.045, -0.021, 0.000
0.470, 0.300, 0.450, -0.046, -0.021, 0.000
0.520, 0.300, 0.450, -0.049, -0.018, 0.001
0.570, 0.300, 0.450, -0.055, -0.015, 0.001
0.620, 0.300, 0.450, -0.061, -0.009, 0.002
0.420, 0.350, 0.450, -0.045, -0.025, 0.000
0.370, 0.350, 0.450, -0.045, -0.027, 0.000
0.320, 0.350, 0.450, -0.045, -0.028, 0.000
0.270, 0.350, 0.450, -0.045, -0.029, 0.000
0.220, 0.350, 0.450, -0.044, -0.028, 0.000
0.170, 0.350, 0.450, -0.042, -0.027, 0.000
0.120, 0.350, 0.450, -0.037, -0.027, -0.001
0.120, 0.400, 0.450, -0.038, -0.027, -0.003
0.170, 0.400, 0.450, -0.043, -0.028, -0.003
0.220, 0.400, 0.450, -0.045, -0.030, -0.003
0.270, 0.400, 0.450, -0.045, -0.030, -0.003
0.320, 0.400, 0.450, -0.045, -0.029, -0.002
0.370, 0.400, 0.450, -0.045, -0.028, -0.002
0.420, 0.400, 0.450, -0.045, -0.027, -0.001
0.470, 0.400, 0.450, -0.047, -0.021, 0.000
0.520, 0.400, 0.450, -0.050, -0.021, 0.000
0.570, 0.400, 0.450, -0.055, -0.018, 0.000
0.620, 0.400, 0.450, -0.062, -0.015, 0.000
0.620, 0.450, 0.450, -0.062, -0.014, -0.002
0.570, 0.450, 0.450, -0.055, -0.018, -0.003
0.520, 0.450, 0.450, -0.053, -0.021, -0.003
0.470, 0.450, 0.450, -0.047, -0.022, -0.003
0.420, 0.450, 0.450, -0.046, -0.027, -0.003
0.370, 0.450, 0.450, -0.045, -0.028, -0.003
0.320, 0.450, 0.450, -0.045, -0.030, -0.004
0.270, 0.450, 0.450, -0.045, -0.030, -0.004
0.220, 0.450, 0.450, -0.044, -0.030, -0.005
0.170, 0.450, 0.450, -0.043, -0.030, -0.004
0.120, 0.450, 0.450, -0.041, -0.028, -0.006
0.120, 0.500, 0.450, -0.041, -0.028, -0.006
0.170, 0.500, 0.450, -0.043, -0.029, -0.006
0.220, 0.500, 0.450, -0.043, -0.030, -0.006
0.270, 0.500, 0.450, -0.043, -0.030, -0.006
0.320, 0.500, 0.450, -0.045, -0.029, -0.006
0.370, 0.500, 0.450, -0.045, -0.028, -0.006
0.420, 0.500, 0.450, -0.046, -0.027, -0.005
0.470, 0.500, 0.450, -0.048, -0.021, -0.004
0.520, 0.500, 0.450, -0.054, -0.021, -0.004
0.570, 0.500, 0.450, -0.055, -0.018, -0.003
0.620, 0.500, 0.450, -0.063, -0.015, -0.003
0.620, 0.550, 0.450, -0.064, -0.014, -0.003
0.570, 0.550, 0.450, -0.057, -0.018, -0.003
0.520, 0.550, 0.450, -0.055, -0.021, -0.004
0.470, 0.550, 0.450, -0.048, -0.021, -0.005
0.420, 0.550, 0.450, -0.046, -0.025, -0.006
0.370, 0.550, 0.450, -0.045, -0.027, -0.006
0.320, 0.550, 0.450, -0.045, -0.029, -0.006
0.270, 0.550, 0.450, -0.044, -0.030, -0.006
0.220, 0.550, 0.450, -0.043, -0.030, -0.006
0.170, 0.550, 0.450, -0.043, -0.029, -0.006
0.120, 0.550, 0.450, -0.039, -0.029, -0.005
0.120, 0.600, 0.450, -0.037, -0.030, -0.004
0.170, 0.600, 0.450, -0.042, -0.030, -0.005
0.220, 0.600, 0.450, -0.043, -0.030, -0.006
0.270, 0.600, 0.450, -0.043, -0.030, -0.006
0.320, 0.600, 0.450, -0.045, -0.028, -0.006
0.370, 0.600, 0.450, -0.046, -0.027, -0.006
0.420, 0.600, 0.450, -0.048, -0.025, -0.005
0.470, 0.600, 0.450, -0.049, -0.021, -0.004
0.520, 0.600, 0.450, -0.055, -0.021, -0.003
0.570, 0.600, 0.450, -0.057, -0.018, -0.003
0.620, 0.600, 0.450, -0.064, -0.011, -0.001
0.120, 0.100, 0.500, -0.036, -0.018, 0.003
0.170, 0.100, 0.500, -0.037, -0.018, 0.003
0.220, 0.100, 0.500, -0.042, -0.016, 0.003
0.270, 0.100, 0.500, -0.044, -0.016, 0.003
0.320, 0.100, 0.500, -0.045, -0.016, 0.003
0.370, 0.100, 0.500, -0.045, -0.015, 0.003
0.420, 0.100, 0.500, -0.045, -0.015, 0.003
0.470, 0.100, 0.500, -0.045, -0.014, 0.003
0.520, 0.100, 0.500, -0.048, -0.013, 0.003
0.570, 0.100, 0.500, -0.055, -0.012, 0.004
0.620, 0.100, 0.500, -0.060, -0.009, 0.006
0.620, 0.150, 0.500, -0.061, -0.009, 0.006
0.570, 0.150, 0.500, -0.055, -0.013, 0.006
0.520, 0.150, 0.500, -0.050, -0.015, 0.004
0.470, 0.150, 0.500, -0.046, -0.015, 0.003
0.420, 0.150, 0.500, -0.045, -0.017, 0.003
0.370, 0.150, 0.500, -0.045, -0.018, 0.003
0.320, 0.150, 0.500, -0.045, -0.018, 0.003
0.270, 0.150, 0.500, -0.043, -0.018, 0.003
0.220, 0.150, 0.500, -0.042, -0.018, 0.003
0.170, 0.150, 0.500, -0.037, -0.018, 0.003
0.120, 0.150, 0.500, -0.035, -0.019, 0.003
0.120, 0.200, 0.500, -0.034, -0.021, 0.001
0.170, 0.200, 0.500, -0.037, -0.021, 0.001
0.220, 0.200, 0.500, -0.042, -0.021, 0.002
0.270, 0.200, 0.500, -0.043, -0.021, 0.002
0.320, 0.200, 0.500, -0.045, -0.020, 0.003
0.370, 0.200, 0.500, -0.045, -0.019, 0.003
0.420, 0.200, 0.500, -0.045, -0.018, 0.003
0.470, 0.200, 0.500, -0.046, -0.018, 0.003
0.520, 0.200, 0.500, -0.050, -0.016, 0.003
0.570, 0.200, 0.500, -0.055, -0.015, 0.004
0.620, 0.200, 0.500, -0.062, -0.012, 0.006
0.620, 0.250, 0.500, -0.063, -0.015, 0.003
0.570, 0.250, 0.500, -0.055, -0.016, 0.003
0.520, 0.250, 0.500, -0.053, -0.018, 0.002
0.470, 0.250, 0.500, -0.047, -0.019, 0.001
0.420, 0.250, 0.500, -0.045, -0.021, 0.001
0.370, 0.250, 0.500, -0.045, -0.021, 0.001
0.320, 0.250, 0.500, -0.045, -0.021, 0.000
0.270, 0.250, 0.500, -0.044, -0.021, 0.000
0.220, 0.250, 0.500, -0.042, -0.021, 0.000
0.170, 0.250, 0.500, -0.038, -0.021, 0.000
0.120, 0.250, 0.500, -0.035, -0.021, 0.000
0.120, 0.300, 0.500, -0.036, -0.021, 0.000
0.170, 0.300, 0.500, -0.040, -0.021, 0.000
0.220, 0.300, 0.500, -0.043, -0.021, 0.000
0.270, 0.300, 0.500, -0.045, -0.021, 0.000
0.320, 0.300, 0.500, -0.045, -0.021, 0.000
0.370, 0.300, 0.500, -0.045, -0.021, 0.000
0.420, 0.300, 0.500, -0.045, -0.021, 0.000
0.470, 0.300, 0.500, -0.047, -0.020, 0.000
0.520, 0.300, 0.500, -0.054, -0.018, 0.000
0.570, 0.300, 0.500, -0.056, -0.018, 0.000
0.620, 0.300, 0.500, -0.064, -0.015, 0.001
0.420, 0.350, 0.500, -0.046, -0.021, 0.000
0.370, 0.350, 0.500, -0.045, -0.021, 0.000
0.320, 0.350, 0.500, -0.045, -0.021, 0.000
0.270, 0.350, 0.500, -0.045, -0.021, 0.000
0.220, 0.350, 0.500, -0.043, -0.021, -0.001
0.170, 0.350, 0.500, -0.042, -0.021, -0.002
0.120, 0.350, 0.500, -0.037, -0.022, -0.002
0.120, 0.400, 0.500, -0.038, -0.024, -0.003
0.170, 0.400, 0.500, -0.042, -0.022, -0.003
0.220, 0.400, 0.500, -0.044, -0.022, -0.003
0.270, 0.400, 0.500, -0.045, -0.021, -0.003
0.320, 0.400, 0.500, -0.045, -0.021, -0.003
0.370, 0.400, 0.500, -0.045, -0.021, -0.002
0.420, 0.400, 0.500, -0.046, -0.021, -0.001
0.470, 0.400, 0.500, -0.048, -0.021, -0.001
0.520, 0.400, 0.500, -0.054, -0.021, -0.001
0.570, 0.400, 0.500, -0.057, -0.018, 0.000
0.620, 0.400, 0.500, -0.064, -0.018, 0.000
0.620, 0.450, 0.500, -0.064, -0.018, -0.002
0.570, 0.450, 0.500, -0.057, -0.019, -0.002
0.520, 0.450, 0.500, -0.055, -0.021, -0.003
0.470, 0.450, 0.500, -0.048, -0.021, -0.003
0.420, 0.450, 0.500, -0.046, -0.021, -0.003
0.370, 0.450, 0.500, -0.045, -0.021, -0.004
0.320, 0.450, 0.500, -0.045, -0.022, -0.004
0.270, 0.450, 0.500, -0.045, -0.022, -0.005
0.220, 0.450, 0.500, -0.045, -0.023, -0.005
0.170, 0.450, 0.500, -0.043, -0.025, -0.005
0.120, 0.450, 0.500, -0.039, -0.025, -0.005
0.120, 0.500, 0.500, -0.041, -0.027, -0.006
0.170, 0.500, 0.500, -0.043, -0.026, -0.006
0.220, 0.500, 0.500, -0.045, -0.025, -0.006
0.270, 0.500, 0.500, -0.045, -0.024, -0.006
0.320, 0.500, 0.500, -0.045, -0.022, -0.006
0.370, 0.500, 0.500, -0.045, -0.022, -0.006
0.420, 0.500, 0.500, -0.047, -0.021, -0.005
0.470, 0.500, 0.500, -0.049, -0.021, -0.004
0.520, 0.500, 0.500, -0.055, -0.021, -0.003
0.570, 0.500, 0.500, -0.058, -0.020, -0.003
0.620, 0.500, 0.500, -0.064, -0.018, -0.003
0.620, 0.550, 0.500, -0.066, -0.018, -0.003
0.570, 0.550, 0.500, -0.058, -0.020, -0.003
0.520, 0.550, 0.500, -0.055, -0.021, -0.004
0.470, 0.550, 0.500, -0.051, -0.021, -0.005
0.420, 0.550, 0.500, -0.048, -0.021, -0.006
0.370, 0.550, 0.500, -0.046, -0.023, -0.006
0.320, 0.550, 0.500, -0.045, -0.025, -0.006
0.270, 0.550, 0.500, -0.045, -0.026, -0.006
0.220, 0.550, 0.500, -0.045, -0.027, -0.006
0.170, 0.550, 0.500, -0.043, -0.027, -0.006
0.120, 0.550, 0.500, -0.039, -0.028, -0.006
0.120, 0.600, 0.500, -0.037, -0.030, -0.006
0.170, 0.600, 0.500, -0.042, -0.029, -0.006
0.220, 0.600, 0.500, -0.044, -0.028, -0.006
0.270, 0.600, 0.500, -0.045, -0.027, -0.006
0.320, 0.600, 0.500, -0.045, -0.027, -0.006
0.370, 0.600, 0.500, -0.046, -0.026, -0.006
0.420, 0.600, 0.500, -0.048, -0.023, -0.006
0.470, 0.600, 0.500, -0.053, -0.021, -0.004
0.520, 0.600, 0.500, -0.055, -0.021, -0.003
0.570, 0.600, 0.500, -0.060, -0.019, -0.003
0.620, 0.600, 0.500, -0.066, -0.018, -0.001
0.120, 0.100, 0.550, -0.036, -0.018, 0.003
0.170, 0.100, 0.550, -0.038, -0.017, 0.002
0.220, 0.100, 0.550, -0.042, -0.016, 0.002
0.270, 0.100, 0.550, -0.043, -0.016, 0.001
0.320, 0.100, 0.550, -0.045, -0.015, 0.000
0.370, 0.100, 0.550, -0.045, -0.015, 0.000
0.420, 0.100, 0.550, -0.045, -0.016, 0.000
0.470, 0.100, 0.550, -0.045, -0.015, 0.001
0.520, 0.100, 0.550, -0.049, -0.016, 0.003
0.570, 0.100, 0.550, -0.055, -0.016, 0.003
0.620, 0.100, 0.550, -0.060, -0.018, 0.005
0.620, 0.150, 0.550, -0.061, -0.018, 0.006
0.570, 0.150, 0.550, -0.055, -0.018, 0.003
0.520, 0.150, 0.550, -0.050, -0.017, 0.003
0.470, 0.150, 0.550, -0.046, -0.017, 0.003
0.420, 0.150, 0.550, -0.045, -0.017, 0.002
0.370, 0.150, 0.550, -0.045, -0.017, 0.001
0.320, 0.150, 0.550, -0.045, -0.018, 0.001
0.270, 0.150, 0.550, -0.043, -0.018, 0.001
0.220, 0.150, 0.550, -0.042, -0.018, 0.001
0.170, 0.150, 0.550, -0.037, -0.018, 0.001
0.120, 0.150, 0.550, -0.035, -0.020, 0.001
0.120, 0.200, 0.550, -0.036, -0.021, 0.000
0.170, 0.200, 0.550, -0.038, -0.020, 0.000
0.220, 0.200, 0.550, -0.042, -0.019, 0.000
0.270, 0.200, 0.550, -0.043, -0.019, 0.000
0.320, 0.200, 0.550, -0.045, -0.018, 0.000
0.370, 0.200, 0.550, -0.045, -0.018, 0.001
0.420, 0.200, 0.550, -0.045, -0.018, 0.001
0.470, 0.200, 0.550, -0.047, -0.018, 0.002
0.520, 0.200, 0.550, -0.052, -0.018, 0.003
0.570, 0.200, 0.550, -0.055, -0.019, 0.003
0.620, 0.200, 0.550, -0.062, -0.018, 0.003
0.620, 0.250, 0.550, -0.063, -0.018, 0.003
0.570, 0.250, 0.550, -0.055, -0.020, 0.001
0.520, 0.250, 0.550, -0.054, -0.020, 0.001
0.470, 0.250, 0.550, -0.047, -0.020, 0.000
0.420, 0.250, 0.550, -0.045, -0.020, 0.000
0.370, 0.250, 0.550, -0.045, -0.021, 0.000
0.320, 0.250, 0.550, -0.045, -0.021, 0.000
0.270, 0.250, 0.550, -0.044, -0.021, 0.000
0.220, 0.250, 0.550, -0.042, -0.021, 0.000
0.170, 0.250, 0.550, -0.039, -0.021, 0.000
0.120, 0.250, 0.550, -0.036, -0.021, 0.000
0.120, 0.300, 0.550, -0.037, -0.021, -0.001
0.170, 0.300, 0.550, -0.042, -0.021, 0.000
0.220, 0.300, 0.550, -0.043, -0.021, 0.000
0.270, 0.300, 0.550, -0.044, -0.021, 0.000
0.320, 0.300, 0.550, -0.045, -0.021, 0.000
0.370, 0.300, 0.550, -0.045, -0.021, 0.000
0.420, 0.300, 0.550, -0.046, -0.021, 0.000
0.470, 0.300, 0.550, -0.048, -0.021, 0.000
0.520, 0.300, 0.550, -0.055, -0.021, 0.000
0.570, 0.300, 0.550, -0.056, -0.021, 0.000
0.620, 0.300, 0.550, -0.063, -0.019, 0.000
0.420, 0.350, 0.550, -0.046, -0.021, 0.000
0.370, 0.350, 0.550, -0.045, -0.021, -0.001
0.320, 0.350, 0.550, -0.045, -0.021, -0.001
0.270, 0.350, 0.550, -0.045, -0.021, -0.001
0.220, 0.350, 0.550, -0.044, -0.021, -0.002
0.170, 0.350, 0.550, -0.042, -0.023, -0.003
0.120, 0.350, 0.550, -0.041, -0.027, -0.003
0.120, 0.400, 0.550, -0.042, -0.027, -0.005
0.170, 0.400, 0.550, -0.043, -0.026, -0.004
0.220, 0.400, 0.550, -0.045, -0.024, -0.003
0.270, 0.400, 0.550, -0.045, -0.023, -0.003
0.320, 0.400, 0.550, -0.045, -0.022, -0.003
0.370, 0.400, 0.550, -0.045, -0.022, -0.003
0.420, 0.400, 0.550, -0.047, -0.022, -0.003
0.470, 0.400, 0.550, -0.050, -0.021, -0.002
0.520, 0.400, 0.550, -0.055, -0.021, -0.002
0.570, 0.400, 0.550, -0.058, -0.022, 0.000
0.620, 0.400, 0.550, -0.064, -0.024, 0.000
0.620, 0.450, 0.550, -0.064, -0.027, -0.002
0.570, 0.450, 0.550, -0.058, -0.024, -0.003
0.520, 0.450, 0.550, -0.055, -0.022, -0.003
0.470, 0.450, 0.550, -0.050, -0.023, -0.003
0.420, 0.450, 0.550, -0.048, -0.023, -0.004
0.370, 0.450, 0.550, -0.046, -0.025, -0.004
0.320, 0.450, 0.550, -0.045, -0.026, -0.005
0.270, 0.450, 0.550, -0.045, -0.026, -0.005
0.220, 0.450, 0.550, -0.045, -0.027, -0.006
0.170, 0.450, 0.550, -0.044, -0.027, -0.006
0.120, 0.450, 0.550, -0.042, -0.029, -0.006
0.120, 0.500, 0.550, -0.042, -0.030, -0.006
0.170, 0.500, 0.550, -0.044, -0.029, -0.006
0.220, 0.500, 0.550, -0.045, -0.028, -0.006
0.270, 0.500, 0.550, -0.045, -0.027, -0.006
0.320, 0.500, 0.550, -0.045, -0.027, -0.006
0.370, 0.500, 0.550, -0.046, -0.027, -0.006
0.420, 0.500, 0.550, -0.048, -0.027, -0.006
0.470, 0.500, 0.550, -0.052, -0.027, -0.005
0.520, 0.500, 0.550, -0.055, -0.027, -0.004
0.570, 0.500, 0.550, -0.058, -0.027, -0.003
0.620, 0.500, 0.550, -0.064, -0.027, -0.003
0.620, 0.550, 0.550, -0.066, -0.027, -0.003
0.570, 0.550, 0.550, -0.059, -0.028, -0.004
0.520, 0.550, 0.550, -0.055, -0.028, -0.006
0.470, 0.550, 0.550, -0.054, -0.028, -0.006
0.420, 0.550, 0.550, -0.048, -0.028, -0.006
0.370, 0.550, 0.550, -0.046, -0.028, -0.006
0.320, 0.550, 0.550, -0.045, -0.029, -0.007
0.270, 0.550, 0.550, -0.044, -0.030, -0.008
0.220, 0.550, 0.550, -0.043, -0.030, -0.008
0.170, 0.550, 0.550, -0.042, -0.030, -0.008
0.120, 0.550, 0.550, -0.042, -0.030, -0.008
0.120, 0.600, 0.550, -0.042, -0.033, -0.008
0.170, 0.600, 0.550, -0.042, -0.030, -0.009
0.220, 0.600, 0.550, -0.042, -0.030, -0.009
0.270, 0.600, 0.550, -0.044, -0.030, -0.009
0.320, 0.600, 0.550, -0.046, -0.030, -0.008
0.370, 0.600, 0.550, -0.047, -0.030, -0.007
0.420, 0.600, 0.550, -0.049, -0.030, -0.006
0.470, 0.600, 0.550, -0.055, -0.030, -0.006
0.520, 0.600, 0.550, -0.055, -0.030, -0.005
0.570, 0.600, 0.550, -0.060, -0.028, -0.004
0.620, 0.600, 0.550, -0.067, -0.029, -0.003
0.120, 0.100, 0.600, -0.038, -0.021, 0.003
0.170, 0.100, 0.600, -0.042, -0.021, 0.002
0.220, 0.100, 0.600, -0.043, -0.020, 0.001
0.270, 0.100, 0.600, -0.044, -0.020, 0.000
0.320, 0.100, 0.600, -0.045, -0.019, 0.000
0.370, 0.100, 0.600, -0.045, -0.020, 0.000
0.420, 0.100, 0.600, -0.045, -0.021, 0.001
0.470, 0.100, 0.600, -0.045, -0.021, 0.002
0.520, 0.100, 0.600, -0.048, -0.021, 0.003
0.570, 0.100, 0.600, -0.054, -0.022, 0.003
0.620, 0.100, 0.600, -0.057, -0.027, 0.005
0.620, 0.150, 0.600, -0.058, -0.027, 0.005
0.570, 0.150, 0.600, -0.055, -0.021, 0.003
0.520, 0.150, 0.600, -0.049, -0.021, 0.003
0.470, 0.150, 0.600, -0.046, -0.021, 0.002
0.420, 0.150, 0.600, -0.045, -0.021, 0.001
0.370, 0.150, 0.600, -0.045, -0.021, 0.000
0.320, 0.150, 0.600, -0.045, -0.021, 0.000
0.270, 0.150, 0.600, -0.044, -0.020, 0.000
0.220, 0.150, 0.600, -0.043, -0.021, 0.000
0.170, 0.150, 0.600, -0.042, -0.021, 0.001
0.120, 0.150, 0.600, -0.038, -0.021, 0.000
0.120, 0.200, 0.600, -0.038, -0.021, 0.000
0.170, 0.200, 0.600, -0.042, -0.021, 0.000
0.220, 0.200, 0.600, -0.043, -0.021, 0.000
0.270, 0.200, 0.600, -0.045, -0.021, 0.000
0.320, 0.200, 0.600, -0.045, -0.021, 0.000
0.370, 0.200, 0.600, -0.045, -0.021, 0.000
0.420, 0.200, 0.600, -0.045, -0.021, 0.000
0.470, 0.200, 0.600, -0.046, -0.021, 0.000
0.520, 0.200, 0.600, -0.049, -0.021, 0.002
0.570, 0.200, 0.600, -0.055, -0.023, 0.003
0.620, 0.200, 0.600, -0.059, -0.028, 0.003
0.620, 0.250, 0.600, -0.060, -0.029, 0.003
0.570, 0.250, 0.600, -0.055, -0.026, 0.001
0.520, 0.250, 0.600, -0.052, -0.021, 0.000
0.470, 0.250, 0.600, -0.048, -0.021, 0.000
0.420, 0.250, 0.600, -0.045, -0.021, 0.000
0.370, 0.250, 0.600, -0.045, -0.021, 0.000
0.320, 0.250, 0.600, -0.045, -0.021, 0.000
0.270, 0.250, 0.600, -0.045, -0.021, 0.000
0.220, 0.250, 0.600, -0.043, -0.021, 0.000
0.170, 0.250, 0.600, -0.042, -0.021, 0.000
0.120, 0.250, 0.600, -0.041, -0.022, 0.000
0.120, 0.300, 0.600, -0.042, -0.027, -0.002
0.170, 0.300, 0.600, -0.043, -0.022, -0.002
0.220, 0.300, 0.600, -0.044, -0.021, -0.001
0.270, 0.300, 0.600, -0.045, -0.021, 0.000
0.320, 0.300, 0.600, -0.045, -0.021, 0.000
0.370, 0.300, 0.600, -0.045, -0.021, 0.000
0.420, 0.300, 0.600, -0.046, -0.021, 0.000
0.470, 0.300, 0.600, -0.048, -0.021, 0.000
0.520, 0.300, 0.600, -0.054, -0.022, 0.000
0.570, 0.300, 0.600, -0.055, -0.027, 0.000
0.620, 0.300, 0.600, -0.061, -0.027, 0.000
0.420, 0.350, 0.600, -0.047, -0.024, -0.001
0.370, 0.350, 0.600, -0.045, -0.023, -0.002
0.320, 0.350, 0.600, -0.045, -0.022, -0.002
0.270, 0.350, 0.600, -0.045, -0.022, -0.003
0.220, 0.350, 0.600, -0.045, -0.025, -0.003
0.170, 0.350, 0.600, -0.044, -0.027, -0.003
0.120, 0.350, 0.600, -0.043, -0.028, -0.003
0.120, 0.400, 0.600, -0.043, -0.030, -0.005
0.170, 0.400, 0.600, -0.045, -0.027, -0.005
0.220, 0.400, 0.600, -0.045, -0.026, -0.004
0.270, 0.400, 0.600, -0.045, -0.027, -0.004
0.320, 0.400, 0.600, -0.045, -0.027, -0.003
0.370, 0.400, 0.600, -0.045, -0.026, -0.003
0.420, 0.400, 0.600, -0.047, -0.027, -0.003
0.470, 0.400, 0.600, -0.049, -0.027, -0.003
0.520, 0.400, 0.600, -0.055, -0.028, -0.003
0.570, 0.400, 0.600, -0.056, -0.030, -0.001
0.620, 0.400, 0.600, -0.061, -0.030, -0.001
0.620, 0.450, 0.600, -0.062, -0.031, -0.003
0.570, 0.450, 0.600, -0.057, -0.030, -0.003
0.520, 0.450, 0.600, -0.055, -0.030, -0.003
0.470, 0.450, 0.600, -0.050, -0.028, -0.004
0.420, 0.450, 0.600, -0.048, -0.027, -0.005
0.370, 0.450, 0.600, -0.046, -0.027, -0.006
0.320, 0.450, 0.600, -0.045, -0.027, -0.006
0.270, 0.450, 0.600, -0.045, -0.027, -0.006
0.220, 0.450, 0.600, -0.045, -0.027, -0.006
0.170, 0.450, 0.600, -0.045, -0.028, -0.006
0.120, 0.450, 0.600, -0.043, -0.030, -0.007
0.120, 0.500, 0.600, -0.042, -0.030, -0.008
0.170, 0.500, 0.600, -0.042, -0.030, -0.009
0.220, 0.500, 0.600, -0.044, -0.029, -0.008
0.270, 0.500, 0.600, -0.045, -0.027, -0.007
0.320, 0.500, 0.600, -0.045, -0.028, -0.006
0.370, 0.500, 0.600, -0.046, -0.028, -0.006
0.420, 0.500, 0.600, -0.048, -0.028, -0.006
0.470, 0.500, 0.600, -0.053, -0.029, -0.006
0.520, 0.500, 0.600, -0.055, -0.030, -0.005
0.570, 0.500, 0.600, -0.058, -0.030, -0.005
0.620, 0.500, 0.600, -0.064, -0.033, -0.003
0.620, 0.550, 0.600, -0.064, -0.034, -0.005
0.570, 0.550, 0.600, -0.058, -0.031, -0.006
0.520, 0.550, 0.600, -0.055, -0.030, -0.006
0.470, 0.550, 0.600, -0.054, -0.030, -0.007
0.420, 0.550, 0.600, -0.049, -0.030, -0.008
0.370, 0.550, 0.600, -0.047, -0.030, -0.009
0.320, 0.550, 0.600, -0.046, -0.030, -0.009
0.270, 0.550, 0.600, -0.045, -0.030, -0.009
0.220, 0.550, 0.600, -0.043, -0.030, -0.009
0.170, 0.550, 0.600, -0.043, -0.030, -0.009
0.120, 0.550, 0.600, -0.042, -0.030, -0.009
0.120, 0.600, 0.600, -0.043, -0.032, -0.013
0.170, 0.600, 0.600, -0.043, -0.030, -0.013
0.220, 0.600, 0.600, -0.044, -0.030, -0.013
0.270, 0.600, 0.600, -0.045, -0.030, -0.011
0.320, 0.600, 0.600, -0.046, -0.030, -0.010
0.370, 0.600, 0.600, -0.048, -0.030, -0.010
0.420, 0.600, 0.600, -0.049, -0.030, -0.009
0.470, 0.600, 0.600, -0.055, -0.030, -0.009
0.520, 0.600, 0.600, -0.055, -0.031, -0.007
0.570, 0.600, 0.600, -0.060, -0.033, -0.006
0.620, 0.600, 0.600, -0.064, -0.036, -0.006
0.120, 0.100, 0.650, -0.042, -0.020, 0.002
0.170, 0.100, 0.650, -0.043, -0.018, 0.002
0.220, 0.100, 0.650, -0.043, -0.018, 0.001
0.270, 0.100, 0.650, -0.044, -0.018, 0.001
0.320, 0.100, 0.650, -0.045, -0.018, 0.000
0.370, 0.100, 0.650, -0.045, -0.018, 0.001
0.420, 0.100, 0.650, -0.045, -0.020, 0.001
0.470, 0.100, 0.650, -0.045, -0.021, 0.002
0.520, 0.100, 0.650, -0.046, -0.021, 0.003
0.570, 0.100, 0.650, -0.048, -0.027, 0.005
0.620, 0.100, 0.650, -0.055, -0.030, 0.006
0.620, 0.150, 0.650, -0.055, -0.030, 0.006
0.570, 0.150, 0.650, -0.051, -0.024, 0.003
0.520, 0.150, 0.650, -0.047, -0.021, 0.003
0.470, 0.150, 0.650, -0.046, -0.021, 0.002
0.420, 0.150, 0.650, -0.045, -0.019, 0.001
0.370, 0.150, 0.650, -0.045, -0.018, 0.000
0.320, 0.150, 0.650, -0.045, -0.018, 0.000
0.270, 0.150, 0.650, -0.044, -0.017, 0.000
0.220, 0.150, 0.650, -0.043, -0.018, 0.000
0.170, 0.150, 0.650, -0.042, -0.018, 0.000
0.120, 0.150, 0.650, -0.042, -0.019, 0.000
0.120, 0.200, 0.650, -0.042, -0.020, 0.000
0.170, 0.200, 0.650, -0.042, -0.018, 0.000
0.220, 0.200, 0.650, -0.043, -0.018, 0.000
0.270, 0.200, 0.650, -0.044, -0.018, 0.000
0.320, 0.200, 0.650, -0.045, -0.018, 0.000
0.370, 0.200, 0.650, -0.045, -0.018, 0.000
0.420, 0.200, 0.650, -0.045, -0.019, 0.000
0.470, 0.200, 0.650, -0.045, -0.021, 0.000
0.520, 0.200, 0.650, -0.048, -0.021, 0.001
0.570, 0.200, 0.650, -0.054, -0.023, 0.003
0.620, 0.200, 0.650, -0.055, -0.030, 0.003
0.620, 0.250, 0.650, -0.057, -0.030, 0.002
0.570, 0.250, 0.650, -0.055, -0.025, 0.000
0.520, 0.250, 0.650, -0.048, -0.021, 0.000
0.470, 0.250, 0.650, -0.046, -0.021, 0.000
0.420, 0.250, 0.650, -0.045, -0.020, 0.000
0.370, 0.250, 0.650, -0.045, -0.018, 0.000
0.320, 0.250, 0.650, -0.045, -0.018, 0.000
0.270, 0.250, 0.650, -0.044, -0.018, 0.000
0.220, 0.250, 0.650, -0.044, -0.018, 0.000
0.170, 0.250, 0.650, -0.043, -0.019, 0.000
0.120, 0.250, 0.650, -0.043, -0.021, 0.000
0.120, 0.300, 0.650, -0.043, -0.021, -0.003
0.170, 0.300, 0.650, -0.044, -0.020, -0.002
0.220, 0.300, 0.650, -0.044, -0.019, -0.002
0.270, 0.300, 0.650, -0.045, -0.018, -0.001
0.320, 0.300, 0.650, -0.045, -0.018, -0.001
0.370, 0.300, 0.650, -0.045, -0.019, 0.000
0.420, 0.300, 0.650, -0.045, -0.020, 0.000
0.470, 0.300, 0.650, -0.047, -0.021, 0.000
0.520, 0.300, 0.650, -0.049, -0.021, 0.000
0.570, 0.300, 0.650, -0.055, -0.026, 0.000
0.620, 0.300, 0.650, -0.057, -0.030, 0.000
0.420, 0.350, 0.650, -0.045, -0.021, -0.002
0.370, 0.350, 0.650, -0.045, -0.021, -0.003
0.320, 0.350, 0.650, -0.045, -0.021, -0.003
0.270, 0.350, 0.650, -0.045, -0.021, -0.003
0.220, 0.350, 0.650, -0.045, -0.021, -0.003
0.170, 0.350, 0.650, -0.045, -0.021, -0.003
0.120, 0.350, 0.650, -0.045, -0.021, -0.004
0.120, 0.400, 0.650, -0.045, -0.021, -0.006
0.170, 0.400, 0.650, -0.045, -0.021, -0.006
0.220, 0.400, 0.650, -0.045, -0.021, -0.005
0.270, 0.400, 0.650, -0.045, -0.021, -0.005
0.320, 0.400, 0.650, -0.045, -0.021, -0.004
0.370, 0.400, 0.650, -0.045, -0.021, -0.003
0.420, 0.400, 0.650, -0.046, -0.021, -0.003
0.470, 0.400, 0.650, -0.048, -0.021, -0.003
0.520, 0.400, 0.650, -0.053, -0.026, -0.003
0.570, 0.400, 0.650, -0.055, -0.029, -0.002
0.620, 0.400, 0.650, -0.058, -0.030, -0.002
0.620, 0.450, 0.650, -0.058, -0.032, -0.004
0.570, 0.450, 0.650, -0.055, -0.030, -0.004
0.520, 0.450, 0.650, -0.054, -0.027, -0.005
0.470, 0.450, 0.650, -0.048, -0.024, -0.006
0.420, 0.450, 0.650, -0.046, -0.021, -0.006
0.370, 0.450, 0.650, -0.046, -0.021, -0.006
0.320, 0.450, 0.650, -0.045, -0.021, -0.006
0.270, 0.450, 0.650, -0.045, -0.021, -0.007
0.220, 0.450, 0.650, -0.045, -0.021, -0.007
0.170, 0.450, 0.650, -0.045, -0.021, -0.007
0.120, 0.450, 0.650, -0.045, -0.021, -0.008
0.120, 0.500, 0.650, -0.044, -0.025, -0.009
0.170, 0.500, 0.650, -0.045, -0.022, -0.009
0.220, 0.500, 0.650, -0.045, -0.021, -0.009
0.270, 0.500, 0.650, -0.045, -0.021, -0.009
0.320, 0.500, 0.650, -0.045, -0.021, -0.009
0.370, 0.500, 0.650, -0.045, -0.022, -0.008
0.420, 0.500, 0.650, -0.048, -0.025, -0.007
0.470, 0.500, 0.650, -0.049, -0.027, -0.007
0.520, 0.500, 0.650, -0.055, -0.030, -0.006
0.570, 0.500, 0.650, -0.055, -0.030, -0.006
0.620, 0.500, 0.650, -0.059, -0.034, -0.006
0.620, 0.550, 0.650, -0.060, -0.036, -0.007
0.570, 0.550, 0.650, -0.056, -0.031, -0.008
0.520, 0.550, 0.650, -0.055, -0.030, -0.009
0.470, 0.550, 0.650, -0.051, -0.030, -0.009
0.420, 0.550, 0.650, -0.048, -0.027, -0.009
0.370, 0.550, 0.650, -0.046, -0.027, -0.010
0.320, 0.550, 0.650, -0.045, -0.026, -0.011
0.270, 0.550, 0.650, -0.045, -0.025, -0.012
0.220, 0.550, 0.650, -0.044, -0.026, -0.013
0.170, 0.550, 0.650, -0.043, -0.027, -0.014
0.120, 0.550, 0.650, -0.044, -0.028, -0.014
0.120, 0.600, 0.650, -0.045, -0.030, -0.016
0.170, 0.600, 0.650, -0.044, -0.028, -0.016
0.220, 0.600, 0.650, -0.044, -0.028, -0.015
0.270, 0.600, 0.650, -0.045, -0.028, -0.015
0.320, 0.600, 0.650, -0.046, -0.028, -0.015
0.370, 0.600, 0.650, -0.047, -0.030, -0.015
0.420, 0.600, 0.650, -0.048, -0.030, -0.015
0.470, 0.600, 0.650, -0.052, -0.030, -0.013
0.520, 0.600, 0.650, -0.055, -0.032, -0.011
0.570, 0.600, 0.650, -0.056, -0.034, -0.009
0.620, 0.600, 0.650, -0.060, -0.039, -0.008
0.120, 0.100, 0.700, -0.044, -0.018, 0.003
0.170, 0.100, 0.700, -0.044, -0.017, 0.002
0.220, 0.100, 0.700, -0.043, -0.018, 0.001
0.270, 0.100, 0.700, -0.044, -0.018, 0.001
0.320, 0.100, 0.700, -0.044, -0.018, 0.002
0.370, 0.100, 0.700, -0.044, -0.020, 0.002
0.420, 0.100, 0.700, -0.044, -0.021, 0.003
0.470, 0.100, 0.700, -0.045, -0.021, 0.003
0.520, 0.100, 0.700, -0.045, -0.025, 0.004
0.570, 0.100, 0.700, -0.045, -0.030, 0.006
0.620, 0.100, 0.700, -0.046, -0.032, 0.009
0.620, 0.150, 0.700, -0.048, -0.031, 0.006
0.570, 0.150, 0.700, -0.045, -0.029, 0.005
0.520, 0.150, 0.700, -0.045, -0.022, 0.003
0.470, 0.150, 0.700, -0.045, -0.021, 0.003
0.420, 0.150, 0.700, -0.045, -0.021, 0.001
0.370, 0.150, 0.700, -0.045, -0.019, 0.000
0.320, 0.150, 0.700, -0.044, -0.018, 0.000
0.270, 0.150, 0.700, -0.044, -0.018, 0.000
0.220, 0.150, 0.700, -0.043, -0.018, 0.000
0.170, 0.150, 0.700, -0.043, -0.018, 0.000
0.120, 0.150, 0.700, -0.044, -0.018, 0.000
0.120, 0.200, 0.700, -0.044, -0.018, 0.000
0.170, 0.200, 0.700, -0.044, -0.018, 0.000
0.220, 0.200, 0.700, -0.043, -0.018, 0.000
0.270, 0.200, 0.700, -0.045, -0.018, 0.000
0.320, 0.200, 0.700, -0.045, -0.018, 0.000
0.370, 0.200, 0.700, -0.045, -0.019, 0.000
0.420, 0.200, 0.700, -0.045, -0.021, 0.000
0.470, 0.200, 0.700, -0.045, -0.021, 0.000
0.520, 0.200, 0.700, -0.045, -0.022, 0.002
0.570, 0.200, 0.700, -0.048, -0.029, 0.003
0.620, 0.200, 0.700, -0.051, -0.031, 0.004
0.620, 0.250, 0.700, -0.054, -0.031, 0.002
0.570, 0.250, 0.700, -0.048, -0.029, 0.000
0.520, 0.250, 0.700, -0.046, -0.024, 0.000
0.470, 0.250, 0.700, -0.045, -0.021, 0.000
0.420, 0.250, 0.700, -0.045, -0.021, 0.000
0.370, 0.250, 0.700, -0.045, -0.020, 0.000
0.320, 0.250, 0.700, -0.045, -0.019, 0.000
0.270, 0.250, 0.700, -0.045, -0.018, 0.000
0.220, 0.250, 0.700, -0.045, -0.018, 0.000
0.170, 0.250, 0.700, -0.044, -0.019, 0.000
0.120, 0.250, 0.700, -0.045, -0.020, 0.000
0.120, 0.300, 0.700, -0.045, -0.021, -0.003
0.170, 0.300, 0.700, -0.045, -0.020, -0.002
0.220, 0.300, 0.700, -0.045, -0.019, -0.002
0.270, 0.300, 0.700, -0.045, -0.019, -0.002
0.320, 0.300, 0.700, -0.045, -0.020, -0.001
0.370, 0.300, 0.700, -0.045, -0.021, 0.000
0.420, 0.300, 0.700, -0.045, -0.021, 0.000
0.470, 0.300, 0.700, -0.045, -0.021, 0.000
0.520, 0.300, 0.700, -0.047, -0.025, 0.000
0.570, 0.300, 0.700, -0.049, -0.030, 0.000
0.620, 0.300, 0.700, -0.055, -0.032, 0.000
0.420, 0.350, 0.700, -0.045, -0.021, -0.003
0.370, 0.350, 0.700, -0.045, -0.021, -0.003
0.320, 0.350, 0.700, -0.045, -0.021, -0.003
0.270, 0.350, 0.700, -0.045, -0.021, -0.003
0.220, 0.350, 0.700, -0.045, -0.021, -0.003
0.170, 0.350, 0.700, -0.045, -0.021, -0.003
0.120, 0.350, 0.700, -0.045, -0.021, -0.004
0.120, 0.400, 0.700, -0.045, -0.021, -0.006
0.170, 0.400, 0.700, -0.045, -0.021, -0.006
0.220, 0.400, 0.700, -0.045, -0.021, -0.006
0.270, 0.400, 0.700, -0.045, -0.021, -0.005
0.320, 0.400, 0.700, -0.045, -0.021, -0.005
0.370, 0.400, 0.700, -0.045, -0.021, -0.005
0.420, 0.400, 0.700, -0.045, -0.021, -0.004
0.470, 0.400, 0.700, -0.046, -0.026, -0.003
0.520, 0.400, 0.700, -0.048, -0.029, -0.003
0.570, 0.400, 0.700, -0.052, -0.030, -0.003
0.620, 0.400, 0.700, -0.055, -0.034, -0.003
0.620, 0.450, 0.700, -0.055, -0.036, -0.005
0.570, 0.450, 0.700, -0.054, -0.030, -0.006
0.520, 0.450, 0.700, -0.049, -0.030, -0.006
0.470, 0.450, 0.700, -0.047, -0.027, -0.006
0.420, 0.450, 0.700, -0.046, -0.024, -0.006
0.370, 0.450, 0.700, -0.045, -0.021, -0.006
0.320, 0.450, 0.700, -0.045, -0.021, -0.007
0.270, 0.450, 0.700, -0.045, -0.021, -0.008
0.220, 0.450, 0.700, -0.045, -0.021, -0.008
0.170, 0.450, 0.700, -0.045, -0.021, -0.008
0.120, 0.450, 0.700, -0.045, -0.021, -0.009
0.120, 0.500, 0.700, -0.046, -0.022, -0.011
0.170, 0.500, 0.700, -0.045, -0.021, -0.009
0.220, 0.500, 0.700, -0.045, -0.021, -0.010
0.270, 0.500, 0.700, -0.045, -0.021, -0.009
0.320, 0.500, 0.700, -0.045, -0.022, -0.009
0.370, 0.500, 0.700, -0.045, -0.024, -0.009
0.420, 0.500, 0.700, -0.046, -0.027, -0.009
0.470, 0.500, 0.700, -0.048, -0.029, -0.008
0.520, 0.500, 0.700, -0.049, -0.030, -0.008
0.570, 0.500, 0.700, -0.055, -0.032, -0.007
0.620, 0.500, 0.700, -0.055, -0.037, -0.006
0.620, 0.550, 0.700, -0.055, -0.039, -0.009
0.570, 0.550, 0.700, -0.055, -0.034, -0.010
0.520, 0.550, 0.700, -0.052, -0.030, -0.011
0.470, 0.550, 0.700, -0.048, -0.030, -0.012
0.420, 0.550, 0.700, -0.047, -0.029, -0.013
0.370, 0.550, 0.700, -0.046, -0.027, -0.014
0.320, 0.550, 0.700, -0.045, -0.026, -0.015
0.270, 0.550, 0.700, -0.045, -0.024, -0.015
0.220, 0.550, 0.700, -0.045, -0.024, -0.015
0.170, 0.550, 0.700, -0.045, -0.025, -0.015
0.120, 0.550, 0.700, -0.046, -0.027, -0.015
0.120, 0.600, 0.700, -0.046, -0.028, -0.018
0.170, 0.600, 0.700, -0.045, -0.027, -0.018
0.220, 0.600, 0.700, -0.045, -0.027, -0.018
0.270, 0.600, 0.700, -0.045, -0.027, -0.018
0.320, 0.600, 0.700, -0.045, -0.028, -0.018
0.370, 0.600, 0.700, -0.046, -0.030, -0.017
0.420, 0.600, 0.700, -0.047, -0.030, -0.017
0.470, 0.600, 0.700, -0.048, -0.030, -0.016
0.520, 0.600, 0.700, -0.053, -0.033, -0.016
0.570, 0.600, 0.700, -0.055, -0.037, -0.015
0.620, 0.600, 0.700, -0.055, -0.042, -0.014
0.120, 0.100, 0.750, -0.045, -0.017, 0.003
0.170, 0.100, 0.750, -0.044, -0.018, 0.003
0.220, 0.100, 0.750, -0.043, -0.018, 0.003
0.270, 0.100, 0.750, -0.043, -0.018, 0.003
0.320, 0.100, 0.750, -0.043, -0.019, 0.003
0.370, 0.100, 0.750, -0.043, -0.021, 0.003
0.420, 0.100, 0.750, -0.043, -0.021, 0.003
0.470, 0.100, 0.750, -0.042, -0.022, 0.003
0.520, 0.100, 0.750, -0.042, -0.027, 0.006
0.570, 0.100, 0.750, -0.043, -0.030, 0.007
0.620, 0.100, 0.750, -0.042, -0.033, 0.009
0.620, 0.150, 0.750, -0.045, -0.032, 0.006
0.570, 0.150, 0.750, -0.045, -0.030, 0.006
0.520, 0.150, 0.750, -0.044, -0.026, 0.003
0.470, 0.150, 0.750, -0.044, -0.021, 0.003
0.420, 0.150, 0.750, -0.043, -0.021, 0.002
0.370, 0.150, 0.750, -0.043, -0.020, 0.000
0.320, 0.150, 0.750, -0.043, -0.018, 0.000
0.270, 0.150, 0.750, -0.043, -0.018, 0.000
0.220, 0.150, 0.750, -0.044, -0.018, 0.000
0.170, 0.150, 0.750, -0.044, -0.017, 0.000
0.120, 0.150, 0.750, -0.045, -0.018, 0.000
0.120, 0.200, 0.750, -0.045, -0.018, 0.000
0.170, 0.200, 0.750, -0.045, -0.018, 0.000
0.220, 0.200, 0.750, -0.044, -0.018, 0.000
0.270, 0.200, 0.750, -0.044, -0.018, 0.000
0.320, 0.200, 0.750, -0.043, -0.018, 0.000
0.370, 0.200, 0.750, -0.044, -0.020, 0.000
0.420, 0.200, 0.750, -0.044, -0.021, 0.000
0.470, 0.200, 0.750, -0.045, -0.021, 0.001
0.520, 0.200, 0.750, -0.045, -0.024, 0.002
0.570, 0.200, 0.750, -0.045, -0.029, 0.003
0.620, 0.200, 0.750, -0.045, -0.031, 0.004
0.620, 0.250, 0.750, -0.045, -0.031, 0.001
0.570, 0.250, 0.750, -0.045, -0.030, 0.001
0.520, 0.250, 0.750, -0.045, -0.025, 0.000
0.470, 0.250, 0.750, -0.045, -0.021, 0.000
0.420, 0.250, 0.750, -0.045, -0.021, 0.000
0.370, 0.250, 0.750, -0.045, -0.019, 0.000
0.320, 0.250, 0.750, -0.045, -0.018, 0.000
0.270, 0.250, 0.750, -0.045, -0.018, 0.000
0.220, 0.250, 0.750, -0.045, -0.018, 0.000
0.170, 0.250, 0.750, -0.045, -0.018, -0.001
0.120, 0.250, 0.750, -0.045, -0.018, -0.001
0.120, 0.300, 0.750, -0.045, -0.018, -0.003
0.170, 0.300, 0.750, -0.045, -0.018, -0.003
0.220, 0.300, 0.750, -0.045, -0.018, -0.003
0.270, 0.300, 0.750, -0.045, -0.018, -0.002
0.320, 0.300, 0.750, -0.045, -0.018, -0.002
0.370, 0.300, 0.750, -0.045, -0.019, -0.001
0.420, 0.300, 0.750, -0.045, -0.021, 0.000
0.470, 0.300, 0.750, -0.045, -0.021, 0.000
0.520, 0.300, 0.750, -0.045, -0.024, 0.000
0.570, 0.300, 0.750, -0.046, -0.029, 0.000
0.620, 0.300, 0.750, -0.046, -0.030, 0.000
0.420, 0.350, 0.750, -0.045, -0.021, -0.003
0.370, 0.350, 0.750, -0.045, -0.020, -0.003
0.320, 0.350, 0.750, -0.045, -0.019, -0.003
0.270, 0.350, 0.750, -0.045, -0.018, -0.004
0.220, 0.350, 0.750, -0.045, -0.018, -0.004
0.170, 0.350, 0.750, -0.045, -0.018, -0.004
0.120, 0.350, 0.750, -0.045, -0.018, -0.005
0.120, 0.400, 0.750, -0.045, -0.018, -0.006
0.170, 0.400, 0.750, -0.045, -0.018, -0.006
0.220, 0.400, 0.750, -0.045, -0.018, -0.006
0.270, 0.400, 0.750, -0.045, -0.018, -0.006
0.320, 0.400, 0.750, -0.045, -0.019, -0.006
0.370, 0.400, 0.750, -0.045, -0.021, -0.005
0.420, 0.400, 0.750, -0.045, -0.021, -0.005
0.470, 0.400, 0.750, -0.045, -0.021, -0.004
0.520, 0.400, 0.750, -0.045, -0.025, -0.003
0.570, 0.400, 0.750, -0.046, -0.030, -0.003
0.620, 0.400, 0.750, -0.047, -0.031, -0.003
0.620, 0.450, 0.750, -0.047, -0.032, -0.006
0.570, 0.450, 0.750, -0.047, -0.030, -0.006
0.520, 0.450, 0.750, -0.046, -0.027, -0.006
0.470, 0.450, 0.750, -0.046, -0.021, -0.006
0.420, 0.450, 0.750, -0.045, -0.021, -0.008
0.370, 0.450, 0.750, -0.045, -0.021, -0.007
0.320, 0.450, 0.750, -0.045, -0.019, -0.008
0.270, 0.450, 0.750, -0.045, -0.018, -0.008
0.220, 0.450, 0.750, -0.045, -0.018, -0.009
0.170, 0.450, 0.750, -0.045, -0.018, -0.009
0.120, 0.450, 0.750, -0.045, -0.018, -0.009
0.120, 0.500, 0.750, -0.045, -0.018, -0.012
0.170, 0.500, 0.750, -0.045, -0.018, -0.012
0.220, 0.500, 0.750, -0.045, -0.018, -0.011
0.270, 0.500, 0.750, -0.045, -0.019, -0.011
0.320, 0.500, 0.750, -0.045, -0.020, -0.011
0.370, 0.500, 0.750, -0.045, -0.021, -0.010
0.420, 0.500, 0.750, -0.045, -0.021, -0.009
0.470, 0.500, 0.750, -0.046, -0.021, -0.009
0.520, 0.500, 0.750, -0.046, -0.027, -0.009
0.570, 0.500, 0.750, -0.047, -0.030, -0.009
0.620, 0.500, 0.750, -0.047, -0.033, -0.009
0.620, 0.550, 0.750, -0.048, -0.033, -0.012
0.570, 0.550, 0.750, -0.048, -0.030, -0.014
0.520, 0.550, 0.750, -0.046, -0.028, -0.015
0.470, 0.550, 0.750, -0.045, -0.025, -0.015
0.420, 0.550, 0.750, -0.045, -0.021, -0.015
0.370, 0.550, 0.750, -0.045, -0.021, -0.016
0.320, 0.550, 0.750, -0.045, -0.021, -0.015
0.270, 0.550, 0.750, -0.045, -0.020, -0.016
0.220, 0.550, 0.750, -0.045, -0.019, -0.016
0.170, 0.550, 0.750, -0.045, -0.018, -0.016
0.120, 0.550, 0.750, -0.046, -0.018, -0.017
0.120, 0.600, 0.750, -0.046, -0.020, -0.019
0.170, 0.600, 0.750, -0.045, -0.020, -0.019
0.220, 0.600, 0.750, -0.045, -0.021, -0.019
0.270, 0.600, 0.750, -0.045, -0.021, -0.019
0.320, 0.600, 0.750, -0.045, -0.021, -0.019
0.370, 0.600, 0.750, -0.044, -0.021, -0.019
0.420, 0.600, 0.750, -0.045, -0.023, -0.018
0.470, 0.600, 0.750, -0.046, -0.027, -0.018
0.520, 0.600, 0.750, -0.047, -0.030, -0.018
0.570, 0.600, 0.750, -0.048, -0.031, -0.018
0.620, 0.600, 0.750, -0.048, -0.036, -0.017
0.120, 0.100, 0.800, -0.043, -0.010, 0.001
0.170, 0.100, 0.800, -0.042, -0.011, 0.001
0.220, 0.100, 0.800, -0.042, -0.012, 0.001
0.270, 0.100, 0.800, -0.041, -0.012, 0.002
0.320, 0.100, 0.800, -0.040, -0.013, 0.003
0.370, 0.100, 0.800, -0.038, -0.015, 0.003
0.420, 0.100, 0.800, -0.038, -0.017, 0.003
0.470, 0.100, 0.800, -0.037, -0.018, 0.004
0.520, 0.100, 0.800, -0.036, -0.021, 0.006
0.570, 0.100, 0.800, -0.035, -0.021, 0.007
0.620, 0.100, 0.800, -0.034, -0.028, 0.009
0.620, 0.150, 0.800, -0.037, -0.028, 0.006
0.570, 0.150, 0.800, -0.037, -0.021, 0.005
0.520, 0.150, 0.800, -0.039, -0.021, 0.003
0.470, 0.150, 0.800, -0.040, -0.018, 0.003
0.420, 0.150, 0.800, -0.040, -0.016, 0.002
0.370, 0.150, 0.800, -0.041, -0.015, 0.000
0.320, 0.150, 0.800, -0.042, -0.014, 0.000
0.270, 0.150, 0.800, -0.042, -0.012, 0.000
0.220, 0.150, 0.800, -0.042, -0.012, 0.000
0.170, 0.150, 0.800, -0.043, -0.012, 0.000
0.120, 0.150, 0.800, -0.044, -0.011, 0.000
0.120, 0.200, 0.800, -0.045, -0.012, 0.000
0.170, 0.200, 0.800, -0.043, -0.012, 0.000
0.220, 0.200, 0.800, -0.043, -0.012, 0.000
0.270, 0.200, 0.800, -0.042, -0.013, 0.000
0.320, 0.200, 0.800, -0.042, -0.015, 0.000
0.370, 0.200, 0.800, -0.042, -0.015, 0.000
0.420, 0.200, 0.800, -0.042, -0.016, 0.000
0.470, 0.200, 0.800, -0.042, -0.018, 0.000
0.520, 0.200, 0.800, -0.042, -0.021, 0.001
0.570, 0.200, 0.800, -0.041, -0.022, 0.003
0.620, 0.200, 0.800, -0.041, -0.029, 0.003
0.620, 0.250, 0.800, -0.042, -0.029, 0.001
0.570, 0.250, 0.800, -0.043, -0.022, 0.000
0.520, 0.250, 0.800, -0.043, -0.021, 0.000
0.470, 0.250, 0.800, -0.043, -0.019, 0.000
0.420, 0.250, 0.800, -0.043, -0.017, 0.000
0.370, 0.250, 0.800, -0.043, -0.015, 0.000
0.320, 0.250, 0.800, -0.043, -0.015, 0.000
0.270, 0.250, 0.800, -0.043, -0.013, -0.001
0.220, 0.250, 0.800, -0.043, -0.013, -0.001
0.170, 0.250, 0.800, -0.044, -0.012, -0.002
0.120, 0.250, 0.800, -0.045, -0.012, -0.002
0.120, 0.300, 0.800, -0.045, -0.013, -0.003
0.170, 0.300, 0.800, -0.045, -0.012, -0.003
0.220, 0.300, 0.800, -0.044, -0.013, -0.003
0.270, 0.300, 0.800, -0.044, -0.015, -0.003
0.320, 0.300, 0.800, -0.043, -0.015, -0.002
0.370, 0.300, 0.800, -0.043, -0.015, -0.002
0.420, 0.300, 0.800, -0.043, -0.018, -0.001
0.470, 0.300, 0.800, -0.043, -0.019, 0.000
0.520, 0.300, 0.800, -0.044, -0.021, 0.000
0.570, 0.300, 0.800, -0.044, -0.022, 0.000
0.620, 0.300, 0.800, -0.043, -0.030, 0.000
0.420, 0.350, 0.800, -0.045, -0.018, -0.003
0.370, 0.350, 0.800, -0.045, -0.018, -0.003
0.320, 0.350, 0.800, -0.045, -0.016, -0.004
0.270, 0.350, 0.800, -0.045, -0.015, -0.005
0.220, 0.350, 0.800, -0.045, -0.015, -0.005
0.170, 0.350, 0.800, -0.045, -0.015, -0.005
0.120, 0.350, 0.800, -0.045, -0.015, -0.006
0.120, 0.400, 0.800, -0.045, -0.015, -0.007
0.170, 0.400, 0.800, -0.045, -0.015, -0.006
0.220, 0.400, 0.800, -0.045, -0.015, -0.006
0.270, 0.400, 0.800, -0.045, -0.016, -0.006
0.320, 0.400, 0.800, -0.045, -0.017, -0.006
0.370, 0.400, 0.800, -0.045, -0.018, -0.006
0.420, 0.400, 0.800, -0.045, -0.019, -0.006
0.470, 0.400, 0.800, -0.045, -0.021, -0.006
0.520, 0.400, 0.800, -0.045, -0.021, -0.005
0.570, 0.400, 0.800, -0.045, -0.027, -0.004
0.620, 0.400, 0.800, -0.044, -0.030, -0.004
0.620, 0.450, 0.800, -0.042, -0.030, -0.006
0.570, 0.450, 0.800, -0.045, -0.028, -0.007
0.520, 0.450, 0.800, -0.045, -0.022, -0.007
0.470, 0.450, 0.800, -0.045, -0.021, -0.008
0.420, 0.450, 0.800, -0.045, -0.021, -0.008
0.370, 0.450, 0.800, -0.045, -0.019, -0.009
0.320, 0.450, 0.800, -0.045, -0.018, -0.009
0.270, 0.450, 0.800, -0.045, -0.017, -0.009
0.220, 0.450, 0.800, -0.045, -0.016, -0.009
0.170, 0.450, 0.800, -0.045, -0.015, -0.009
0.120, 0.450, 0.800, -0.045, -0.015, -0.010
0.120, 0.500, 0.800, -0.045, -0.015, -0.015
0.170, 0.500, 0.800, -0.045, -0.016, -0.015
0.220, 0.500, 0.800, -0.045, -0.017, -0.014
0.270, 0.500, 0.800, -0.045, -0.017, -0.015
0.320, 0.500, 0.800, -0.045, -0.018, -0.015
0.370, 0.500, 0.800, -0.045, -0.020, -0.014
0.420, 0.500, 0.800, -0.045, -0.021, -0.014
0.470, 0.500, 0.800, -0.045, -0.021, -0.013
0.520, 0.500, 0.800, -0.044, -0.024, -0.011
0.570, 0.500, 0.800, -0.042, -0.029, -0.010
0.620, 0.500, 0.800, -0.042, -0.030, -0.009
0.620, 0.550, 0.800, -0.042, -0.031, -0.015
0.570, 0.550, 0.800, -0.043, -0.030, -0.015
0.520, 0.550, 0.800, -0.044, -0.027, -0.016
0.470, 0.550, 0.800, -0.044, -0.022, -0.017
0.420, 0.550, 0.800, -0.045, -0.021, -0.017
0.370, 0.550, 0.800, -0.045, -0.021, -0.017
0.320, 0.550, 0.800, -0.045, -0.019, -0.017
0.270, 0.550, 0.800, -0.045, -0.018, -0.016
0.220, 0.550, 0.800, -0.045, -0.018, -0.017
0.170, 0.550, 0.800, -0.045, -0.017, -0.018
0.120, 0.550, 0.800, -0.046, -0.016, -0.018
0.120, 0.600, 0.800, -0.046, -0.016, -0.020
0.170, 0.600, 0.800, -0.045, -0.017, -0.020
0.220, 0.600, 0.800, -0.045, -0.018, -0.020
0.270, 0.600, 0.800, -0.045, -0.019, -0.021
0.320, 0.600, 0.800, -0.043, -0.021, -0.021
0.370, 0.600, 0.800, -0.043, -0.021, -0.021
0.420, 0.600, 0.800, -0.043, -0.021, -0.021
0.470, 0.600, 0.800, -0.044, -0.025, -0.021
0.520, 0.600, 0.800, -0.045, -0.028, -0.021
0.570, 0.600, 0.800, -0.045, -0.030, -0.020
0.620, 0.600, 0.800, -0.043, -0.033, -0.018
0.120, 0.100, 0.850, -0.043, -0.009, 0.000
0.170, 0.100, 0.850, -0.042, -0.009, 0.000
0.220, 0.100, 0.850, -0.042, -0.010, 0.000
0.270, 0.100, 0.850, -0.040, -0.012, 0.001
0.320, 0.100, 0.850, -0.038, -0.012, 0.002
0.370, 0.100, 0.850, -0.037, -0.015, 0.003
0.420, 0.100, 0.850, -0.036, -0.015, 0.003
0.470, 0.100, 0.850, -0.036, -0.018, 0.004
0.520, 0.100, 0.850, -0.036, -0.019, 0.006
0.570, 0.100, 0.850, -0.034, -0.021, 0.007
0.620, 0.100, 0.850, -0.033, -0.022, 0.009
0.620, 0.150, 0.850, -0.033, -0.023, 0.006
0.570, 0.150, 0.850, -0.034, -0.021, 0.005
0.520, 0.150, 0.850, -0.036, -0.020, 0.003
0.470, 0.150, 0.850, -0.036, -0.018, 0.003
0.420, 0.150, 0.850, -0.037, -0.015, 0.002
0.370, 0.150, 0.850, -0.038, -0.015, 0.000
0.320, 0.150, 0.850, -0.040, -0.013, 0.000
0.270, 0.150, 0.850, -0.042, -0.012, 0.000
0.220, 0.150, 0.850, -0.042, -0.012, 0.000
0.170, 0.150, 0.850, -0.043, -0.010, 0.000
0.120, 0.150, 0.850, -0.043, -0.009, 0.000
0.120, 0.200, 0.850, -0.045, -0.010, 0.000
0.170, 0.200, 0.850, -0.043, -0.012, 0.000
0.220, 0.200, 0.850, -0.043, -0.012, 0.000
0.270, 0.200, 0.850, -0.042, -0.012, 0.000
0.320, 0.200, 0.850, -0.042, -0.014, 0.000
0.370, 0.200, 0.850, -0.041, -0.015, 0.000
0.420, 0.200, 0.850, -0.039, -0.016, 0.000
0.470, 0.200, 0.850, -0.038, -0.018, 0.000
0.520, 0.200, 0.850, -0.037, -0.021, 0.001
0.570, 0.200, 0.850, -0.036, -0.021, 0.003
0.620, 0.200, 0.850, -0.034, -0.026, 0.003
0.620, 0.250, 0.850, -0.036, -0.027, 0.000
0.570, 0.250, 0.850, -0.037, -0.021, 0.000
0.520, 0.250, 0.850, -0.039, -0.021, 0.000
0.470, 0.250, 0.850, -0.040, -0.018, 0.000
0.420, 0.250, 0.850, -0.042, -0.017, 0.000
0.370, 0.250, 0.850, -0.042, -0.015, 0.000
0.320, 0.250, 0.850, -0.042, -0.014, 0.000
0.270, 0.250, 0.850, -0.043, -0.013, -0.001
0.220, 0.250, 0.850, -0.043, -0.012, -0.002
0.170, 0.250, 0.850, -0.044, -0.012, -0.002
0.120, 0.250, 0.850, -0.045, -0.012, -0.003
0.120, 0.300, 0.850, -0.045, -0.012, -0.004
0.170, 0.300, 0.850, -0.045, -0.012, -0.003
0.220, 0.300, 0.850, -0.045, -0.013, -0.003
0.270, 0.300, 0.850, -0.043, -0.014, -0.003
0.320, 0.300, 0.850, -0.043, -0.015, -0.003
0.370, 0.300, 0.850, -0.042, -0.016, -0.003
0.420, 0.300, 0.850, -0.042, -0.018, -0.002
0.470, 0.300, 0.850, -0.042, -0.019, -0.001
0.520, 0.300, 0.850, -0.041, -0.021, 0.000
0.570, 0.300, 0.850, -0.039, -0.021, 0.000
0.620, 0.300, 0.850, -0.036, -0.027, 0.000
0.420, 0.350, 0.850, -0.043, -0.019, -0.003
0.370, 0.350, 0.850, -0.043, -0.017, -0.004
0.320, 0.350, 0.850, -0.043, -0.015, -0.005
0.270, 0.350, 0.850, -0.044, -0.015, -0.005
0.220, 0.350, 0.850, -0.045, -0.015, -0.006
0.170, 0.350, 0.850, -0.045, -0.014, -0.006
0.120, 0.350, 0.850, -0.045, -0.013, -0.006
0.120, 0.400, 0.850, -0.045, -0.013, -0.007
0.170, 0.400, 0.850, -0.045, -0.014, -0.007
0.220, 0.400, 0.850, -0.045, -0.015, -0.006
0.270, 0.400, 0.850, -0.045, -0.015, -0.006
0.320, 0.400, 0.850, -0.044, -0.016, -0.006
0.370, 0.400, 0.850, -0.044, -0.018, -0.006
0.420, 0.400, 0.850, -0.043, -0.019, -0.006
0.470, 0.400, 0.850, -0.043, -0.021, -0.006
0.520, 0.400, 0.850, -0.043, -0.021, -0.005
0.570, 0.400, 0.850, -0.042, -0.023, -0.005
0.620, 0.400, 0.850, -0.039, -0.029, -0.004
0.620, 0.450, 0.850, -0.040, -0.030, -0.006
0.570, 0.450, 0.850, -0.043, -0.025, -0.007
0.520, 0.450, 0.850, -0.043, -0.021, -0.008
0.470, 0.450, 0.850, -0.044, -0.021, -0.009
0.420, 0.450, 0.850, -0.045, -0.020, -0.009
0.370, 0.450, 0.850, -0.044, -0.018, -0.009
0.320, 0.450, 0.850, -0.045, -0.017, -0.009
0.270, 0.450, 0.850, -0.045, -0.015, -0.009
0.220, 0.450, 0.850, -0.045, -0.015, -0.010
0.170, 0.450, 0.850, -0.045, -0.015, -0.010
0.120, 0.450, 0.850, -0.045, -0.014, -0.012
0.120, 0.500, 0.850, -0.045, -0.014, -0.015
0.170, 0.500, 0.850, -0.045, -0.015, -0.015
0.220, 0.500, 0.850, -0.045, -0.015, -0.015
0.270, 0.500, 0.850, -0.045, -0.016, -0.015
0.320, 0.500, 0.850, -0.045, -0.018, -0.015
0.370, 0.500, 0.850, -0.045, -0.018, -0.015
0.420, 0.500, 0.850, -0.044, -0.020, -0.015
0.470, 0.500, 0.850, -0.045, -0.021, -0.015
0.520, 0.500, 0.850, -0.044, -0.021, -0.014
0.570, 0.500, 0.850, -0.042, -0.026, -0.011
0.620, 0.500, 0.850, -0.041, -0.030, -0.010
0.620, 0.550, 0.850, -0.042, -0.030, -0.016
0.570, 0.550, 0.850, -0.042, -0.027, -0.017
0.520, 0.550, 0.850, -0.043, -0.021, -0.017
0.470, 0.550, 0.850, -0.044, -0.021, -0.018
0.420, 0.550, 0.850, -0.045, -0.021, -0.018
0.370, 0.550, 0.850, -0.045, -0.018, -0.018
0.320, 0.550, 0.850, -0.045, -0.018, -0.018
0.270, 0.550, 0.850, -0.045, -0.016, -0.018
0.220, 0.550, 0.850, -0.045, -0.015, -0.018
0.170, 0.550, 0.850, -0.045, -0.014, -0.018
0.120, 0.550, 0.850, -0.046, -0.013, -0.018
0.120, 0.600, 0.850, -0.045, -0.012, -0.019
0.170, 0.600, 0.850, -0.045, -0.014, -0.019
0.220, 0.600, 0.850, -0.045, -0.015, -0.020
0.270, 0.600, 0.850, -0.045, -0.016, -0.021
0.320, 0.600, 0.850, -0.045, -0.017, -0.021
0.370, 0.600, 0.850, -0.044, -0.018, -0.021
0.420, 0.600, 0.850, -0.043, -0.021, -0.021
0.470, 0.600, 0.850, -0.042, -0.021, -0.021
0.520, 0.600, 0.850, -0.042, -0.022, -0.021
0.570, 0.600, 0.850, -0.042, -0.027, -0.021
0.620, 0.600, 0.850, -0.042, -0.030, -0.019
0.000, 0.020, 0.400, -0.017, 0.003, 0.006
