0.000, 0.010, 0.400, -0.021, -0.021, -0.029
0.120, 0.100, 0.400, -0.018, -0.014, -0.034
0.170, 0.100, 0.400, -0.021, -0.015, -0.033
0.220, 0.100, 0.400, -0.021, -0.017, -0.033
0.270, 0.100, 0.400, -0.020, -0.018, -0.033
0.320, 0.100, 0.400, -0.018, -0.018, -0.033
0.370, 0.100, 0.400, -0.015, -0.015, -0.033
0.420, 0.100, 0.400, -0.013, -0.013, -0.034
0.470, 0.100, 0.400, -0.011, -0.009, -0.034
0.520, 0.100, 0.400, -0.010, -0.004, -0.034
0.570, 0.100, 0.400, -0.012, 0.000, -0.034
0.620, 0.100, 0.400, -0.015, 0.003, -0.033
0.620, 0.150, 0.400, -0.015, 0.000, -0.030
0.570, 0.150, 0.400, -0.012, -0.001, -0.031
0.520, 0.150, 0.400, -0.011, -0.008, -0.031
0.470, 0.150, 0.400, -0.012, -0.013, -0.031
0.420, 0.150, 0.400, -0.013, -0.017, -0.031
0.370, 0.150, 0.400, -0.015, -0.019, -0.032
0.320, 0.150, 0.400, -0.018, -0.021, -0.031
0.270, 0.150, 0.400, -0.019, -0.021, -0.031
0.220, 0.150, 0.400, -0.021, -0.021, -0.031
0.170, 0.150, 0.400, -0.021, -0.019, -0.032
0.120, 0.150, 0.400, -0.019, -0.018, -0.033
0.120, 0.200, 0.400, -0.021, -0.021, -0.033
0.170, 0.200, 0.400, -0.021, -0.021, -0.031
0.220, 0.200, 0.400, -0.021, -0.021, -0.030
0.270, 0.200, 0.400, -0.020, -0.021, -0.030
0.320, 0.200, 0.400, -0.018, -0.021, -0.030
0.370, 0.200, 0.400, -0.015, -0.021, -0.030
0.420, 0.200, 0.400, -0.013, -0.019, -0.030
0.470, 0.200, 0.400, -0.012, -0.015, -0.030
0.520, 0.200, 0.400, -0.012, -0.010, -0.030
0.570, 0.200, 0.400, -0.012, -0.004, -0.030
0.620, 0.200, 0.400, -0.017, 0.000, -0.030
0.620, 0.250, 0.400, -0.017, 0.000, -0.030
0.570, 0.250, 0.400, -0.013, -0.006, -0.030
0.520, 0.250, 0.400, -0.012, -0.012, -0.030
0.470, 0.250, 0.400, -0.012, -0.018, -0.030
0.420, 0.250, 0.400, -0.013, -0.021, -0.030
0.370, 0.250, 0.400, -0.015, -0.021, -0.030
0.320, 0.250, 0.400, -0.018, -0.023, -0.030
0.270, 0.250, 0.400, -0.020, -0.024, -0.030
0.220, 0.250, 0.400, -0.021, -0.022, -0.030
0.170, 0.250, 0.400, -0.022, -0.021, -0.031
0.120, 0.250, 0.400, -0.021, -0.021, -0.033
0.120, 0.300, 0.400, -0.022, -0.021, -0.033
0.170, 0.300, 0.400, -0.023, -0.021, -0.031
0.220, 0.300, 0.400, -0.022, -0.025, -0.031
0.270, 0.300, 0.400, -0.021, -0.027, -0.030
0.320, 0.300, 0.400, -0.018, -0.025, -0.030
0.370, 0.300, 0.400, -0.015, -0.021, -0.030
0.420, 0.300, 0.400, -0.014, -0.021, -0.030
0.470, 0.300, 0.400, -0.012, -0.018, -0.030
0.520, 0.300, 0.400, -0.012, -0.013, -0.030
0.570, 0.300, 0.400, -0.013, -0.006, -0.030
0.620, 0.300, 0.400, -0.017, 0.000, -0.030
0.420, 0.350, 0.400, -0.015, -0.021, -0.030
0.370, 0.350, 0.400, -0.016, -0.023, -0.030
0.320, 0.350, 0.400, -0.019, -0.027, -0.030
0.270, 0.350, 0.400, -0.021, -0.027, -0.030
0.220, 0.350, 0.400, -0.023, -0.027, -0.031
0.170, 0.350, 0.400, -0.024, -0.023, -0.031
0.120, 0.350, 0.400, -0.024, -0.021, -0.032
0.120, 0.400, 0.400, -0.024, -0.021, -0.032
0.170, 0.400, 0.400, -0.024, -0.022, -0.031
0.220, 0.400, 0.400, -0.023, -0.025, -0.030
0.270, 0.400, 0.400, -0.021, -0.027, -0.030
0.320, 0.400, 0.400, -0.019, -0.025, -0.030
0.370, 0.400, 0.400, -0.017, -0.022, -0.031
0.420, 0.400, 0.400, -0.015, -0.021, -0.030
0.470, 0.400, 0.400, -0.013, -0.018, -0.030
0.520, 0.400, 0.400, -0.013, -0.012, -0.030
0.570, 0.400, 0.400, -0.014, -0.006, -0.030
0.620, 0.400, 0.400, -0.018, 0.000, -0.030
0.620, 0.450, 0.400, -0.018, 0.000, -0.030
0.570, 0.450, 0.400, -0.015, -0.001, -0.030
0.520, 0.450, 0.400, -0.013, -0.011, -0.030
0.470, 0.450, 0.400, -0.014, -0.016, -0.030
0.420, 0.450, 0.400, -0.015, -0.020, -0.030
0.370, 0.450, 0.400, -0.018, -0.021, -0.030
0.320, 0.450, 0.400, -0.019, -0.021, -0.030
0.270, 0.450, 0.400, -0.021, -0.022, -0.030
0.220, 0.450, 0.400, -0.024, -0.021, -0.030
0.170, 0.450, 0.400, -0.024, -0.021, -0.030
0.120, 0.450, 0.400, -0.024, -0.021, -0.030
0.120, 0.500, 0.400, -0.024, -0.020, -0.029
0.170, 0.500, 0.400, -0.024, -0.021, -0.030
0.220, 0.500, 0.400, -0.024, -0.021, -0.030
0.270, 0.500, 0.400, -0.021, -0.021, -0.030
0.320, 0.500, 0.400, -0.020, -0.021, -0.030
0.370, 0.500, 0.400, -0.018, -0.021, -0.030
0.420, 0.500, 0.400, -0.015, -0.018, -0.030
0.470, 0.500, 0.400, -0.014, -0.013, -0.029
0.520, 0.500, 0.400, -0.014, -0.009, -0.029
0.570, 0.500, 0.400, -0.015, -0.002, -0.029
0.620, 0.500, 0.400, -0.018, 0.000, -0.028
0.620, 0.550, 0.400, -0.018, 0.003, -0.027
0.570, 0.550, 0.400, -0.015, 0.000, -0.027
0.520, 0.550, 0.400, -0.014, -0.006, -0.027
0.470, 0.550, 0.400, -0.015, -0.011, -0.027
0.420, 0.550, 0.400, -0.015, -0.015, -0.027
0.370, 0.550, 0.400, -0.018, -0.018, -0.028
0.320, 0.550, 0.400, -0.019, -0.019, -0.028
0.270, 0.550, 0.400, -0.021, -0.020, -0.028
0.220, 0.550, 0.400, -0.022, -0.019, -0.027
0.170, 0.550, 0.400, -0.023, -0.018, -0.027
0.120, 0.550, 0.400, -0.022, -0.017, -0.027
0.120, 0.600, 0.400, -0.021, -0.015, -0.023
0.170, 0.600, 0.400, -0.021, -0.016, -0.024
0.220, 0.600, 0.400, -0.022, -0.017, -0.024
0.270, 0.600, 0.400, -0.021, -0.017, -0.025
0.320, 0.600, 0.400, -0.019, -0.016, -0.025
0.370, 0.600, 0.400, -0.018, -0.015, -0.025
0.420, 0.600, 0.400, -0.015, -0.012, -0.024
0.470, 0.600, 0.400, -0.015, -0.008, -0.024
0.520, 0.600, 0.400, -0.015, -0.003, -0.024
0.570, 0.600, 0.400, -0.015, 0.000, -0.023
0.620, 0.600, 0.400, -0.018, 0.006, -0.023
0.120, 0.100, 0.500, -0.018, -0.021, -0.037
0.170, 0.100, 0.500, -0.020, -0.021, -0.037
0.220, 0.100, 0.500, -0.021, -0.021, -0.036
0.270, 0.100, 0.500, -0.020, -0.021, -0.036
0.320, 0.100, 0.500, -0.019, -0.020, -0.037
0.370, 0.100, 0.500, -0.018, -0.019, -0.037
0.420, 0.100, 0.500, -0.018, -0.018, -0.037
0.470, 0.100, 0.500, -0.018, -0.015, -0.037
0.520, 0.100, 0.500, -0.018, -0.013, -0.037
0.570, 0.100, 0.500, -0.021, -0.011, -0.036
0.620, 0.100, 0.500, -0.025, -0.009, -0.036
0.620, 0.150, 0.500, -0.027, -0.008, -0.032
0.570, 0.150, 0.500, -0.021, -0.011, -0.033
0.520, 0.150, 0.500, -0.019, -0.012, -0.033
0.470, 0.150, 0.500, -0.018, -0.015, -0.033
0.420, 0.150, 0.500, -0.018, -0.017, -0.034
0.370, 0.150, 0.500, -0.018, -0.018, -0.034
0.320, 0.150, 0.500, -0.019, -0.020, -0.034
0.270, 0.150, 0.500, -0.021, -0.021, -0.034
0.220, 0.150, 0.500, -0.021, -0.021, -0.033
0.170, 0.150, 0.500, -0.020, -0.021, -0.034
0.120, 0.150, 0.500, -0.018, -0.021, -0.035
0.120, 0.200, 0.500, -0.019, -0.021, -0.033
0.170, 0.200, 0.500, -0.021, -0.021, -0.033
0.220, 0.200, 0.500, -0.021, -0.021, -0.033
0.270, 0.200, 0.500, -0.021, -0.021, -0.032
0.320, 0.200, 0.500, -0.019, -0.020, -0.033
0.370, 0.200, 0.500, -0.018, -0.018, -0.032
0.420, 0.200, 0.500, -0.018, -0.017, -0.032
0.470, 0.200, 0.500, -0.018, -0.015, -0.032
0.520, 0.200, 0.500, -0.019, -0.012, -0.031
0.570, 0.200, 0.500, -0.022, -0.010, -0.030
0.620, 0.200, 0.500, -0.027, -0.007, -0.030
0.620, 0.250, 0.500, -0.027, -0.007, -0.030
0.570, 0.250, 0.500, -0.022, -0.009, -0.030
0.520, 0.250, 0.500, -0.019, -0.012, -0.030
0.470, 0.250, 0.500, -0.018, -0.015, -0.030
0.420, 0.250, 0.500, -0.018, -0.017, -0.030
0.370, 0.250, 0.500, -0.018, -0.018, -0.030
0.320, 0.250, 0.500, -0.019, -0.020, -0.031
0.270, 0.250, 0.500, -0.020, -0.021, -0.031
0.220, 0.250, 0.500, -0.021, -0.021, -0.031
0.170, 0.250, 0.500, -0.021, -0.021, -0.032
0.120, 0.250, 0.500, -0.021, -0.021, -0.033
0.120, 0.300, 0.500, -0.021, -0.021, -0.032
0.170, 0.300, 0.500, -0.021, -0.021, -0.032
0.220, 0.300, 0.500, -0.021, -0.021, -0.031
0.270, 0.300, 0.500, -0.021, -0.020, -0.030
0.320, 0.300, 0.500, -0.020, -0.020, -0.030
0.370, 0.300, 0.500, -0.018, -0.018, -0.030
0.420, 0.300, 0.500, -0.018, -0.017, -0.030
0.470, 0.300, 0.500, -0.018, -0.015, -0.030
0.520, 0.300, 0.500, -0.020, -0.012, -0.030
0.570, 0.300, 0.500, -0.023, -0.009, -0.030
0.620, 0.300, 0.500, -0.027, -0.006, -0.029
0.420, 0.350, 0.500, -0.018, -0.018, -0.030
0.370, 0.350, 0.500, -0.019, -0.019, -0.030
0.320, 0.350, 0.500, -0.020, -0.021, -0.030
0.270, 0.350, 0.500, -0.021, -0.021, -0.030
0.220, 0.350, 0.500, -0.021, -0.021, -0.030
0.170, 0.350, 0.500, -0.022, -0.021, -0.031
0.120, 0.350, 0.500, -0.022, -0.021, -0.031
0.120, 0.400, 0.500, -0.022, -0.021, -0.030
0.170, 0.400, 0.500, -0.022, -0.021, -0.030
0.220, 0.400, 0.500, -0.022, -0.021, -0.030
0.270, 0.400, 0.500, -0.021, -0.021, -0.030
0.320, 0.400, 0.500, -0.021, -0.020, -0.030
0.370, 0.400, 0.500, -0.019, -0.018, -0.029
0.420, 0.400, 0.500, -0.019, -0.018, -0.029
0.470, 0.400, 0.500, -0.019, -0.015, -0.028
0.520, 0.400, 0.500, -0.021, -0.012, -0.028
0.570, 0.400, 0.500, -0.024, -0.010, -0.028
0.620, 0.400, 0.500, -0.027, -0.007, -0.027
0.620, 0.450, 0.500, -0.027, -0.006, -0.027
0.570, 0.450, 0.500, -0.024, -0.009, -0.027
0.520, 0.450, 0.500, -0.021, -0.012, -0.027
0.470, 0.450, 0.500, -0.019, -0.015, -0.028
0.420, 0.450, 0.500, -0.018, -0.017, -0.028
0.370, 0.450, 0.500, -0.020, -0.018, -0.028
0.320, 0.450, 0.500, -0.021, -0.020, -0.029
0.270, 0.450, 0.500, -0.021, -0.021, -0.030
0.220, 0.450, 0.500, -0.022, -0.021, -0.029
0.170, 0.450, 0.500, -0.023, -0.021, -0.030
0.120, 0.450, 0.500, -0.023, -0.021, -0.030
0.120, 0.500, 0.500, -0.023, -0.021, -0.027
0.170, 0.500, 0.500, -0.023, -0.021, -0.028
0.220, 0.500, 0.500, -0.022, -0.021, -0.028
0.270, 0.500, 0.500, -0.021, -0.021, -0.028
0.320, 0.500, 0.500, -0.021, -0.020, -0.027
0.370, 0.500, 0.500, -0.020, -0.018, -0.027
0.420, 0.500, 0.500, -0.019, -0.017, -0.027
0.470, 0.500, 0.500, -0.020, -0.015, -0.027
0.520, 0.500, 0.500, -0.021, -0.012, -0.027
0.570, 0.500, 0.500, -0.024, -0.009, -0.027
0.620, 0.500, 0.500, -0.028, -0.007, -0.025
0.620, 0.550, 0.500, -0.028, -0.006, -0.024
0.570, 0.550, 0.500, -0.024, -0.009, -0.024
0.520, 0.550, 0.500, -0.021, -0.012, -0.024
0.470, 0.550, 0.500, -0.021, -0.015, -0.025
0.420, 0.550, 0.500, -0.021, -0.017, -0.026
0.370, 0.550, 0.500, -0.021, -0.018, -0.027
0.320, 0.550, 0.500, -0.021, -0.020, -0.027
0.270, 0.550, 0.500, -0.021, -0.021, -0.027
0.220, 0.550, 0.500, -0.022, -0.021, -0.027
0.170, 0.550, 0.500, -0.022, -0.021, -0.027
0.120, 0.550, 0.500, -0.022, -0.021, -0.027
0.120, 0.600, 0.500, -0.021, -0.023, -0.024
0.170, 0.600, 0.500, -0.021, -0.021, -0.024
0.220, 0.600, 0.500, -0.021, -0.021, -0.024
0.270, 0.600, 0.500, -0.021, -0.021, -0.024
0.320, 0.600, 0.500, -0.021, -0.021, -0.024
0.370, 0.600, 0.500, -0.021, -0.019, -0.024
0.420, 0.600, 0.500, -0.021, -0.018, -0.024
0.470, 0.600, 0.500, -0.021, -0.015, -0.022
0.520, 0.600, 0.500, -0.022, -0.012, -0.022
0.570, 0.600, 0.500, -0.024, -0.010, -0.021
0.620, 0.600, 0.500, -0.029, -0.007, -0.021
0.120, 0.100, 0.600, -0.021, -0.030, -0.033
0.170, 0.100, 0.600, -0.021, -0.030, -0.033
0.220, 0.100, 0.600, -0.022, -0.028, -0.033
0.270, 0.100, 0.600, -0.021, -0.027, -0.033
0.320, 0.100, 0.600, -0.021, -0.027, -0.033
0.370, 0.100, 0.600, -0.020, -0.025, -0.034
0.420, 0.100, 0.600, -0.019, -0.025, -0.033
0.470, 0.100, 0.600, -0.019, -0.025, -0.033
0.520, 0.100, 0.600, -0.020, -0.024, -0.033
0.570, 0.100, 0.600, -0.021, -0.026, -0.032
0.620, 0.100, 0.600, -0.024, -0.028, -0.030
0.620, 0.150, 0.600, -0.026, -0.022, -0.028
0.570, 0.150, 0.600, -0.023, -0.021, -0.030
0.520, 0.150, 0.600, -0.021, -0.021, -0.030
0.470, 0.150, 0.600, -0.020, -0.021, -0.031
0.420, 0.150, 0.600, -0.020, -0.021, -0.031
0.370, 0.150, 0.600, -0.020, -0.021, -0.032
0.320, 0.150, 0.600, -0.021, -0.021, -0.032
0.270, 0.150, 0.600, -0.021, -0.022, -0.032
0.220, 0.150, 0.600, -0.022, -0.025, -0.032
0.170, 0.150, 0.600, -0.023, -0.027, -0.032
0.120, 0.150, 0.600, -0.022, -0.029, -0.033
0.120, 0.200, 0.600, -0.023, -0.027, -0.031
0.170, 0.200, 0.600, -0.023, -0.021, -0.031
0.220, 0.200, 0.600, -0.022, -0.021, -0.031
0.270, 0.200, 0.600, -0.023, -0.018, -0.031
0.320, 0.200, 0.600, -0.021, -0.018, -0.031
0.370, 0.200, 0.600, -0.021, -0.018, -0.030
0.420, 0.200, 0.600, -0.021, -0.017, -0.030
0.470, 0.200, 0.600, -0.021, -0.016, -0.030
0.520, 0.200, 0.600, -0.022, -0.016, -0.030
0.570, 0.200, 0.600, -0.024, -0.017, -0.029
0.620, 0.200, 0.600, -0.028, -0.018, -0.028
0.620, 0.250, 0.600, -0.028, -0.017, -0.027
0.570, 0.250, 0.600, -0.025, -0.015, -0.028
0.520, 0.250, 0.600, -0.023, -0.015, -0.029
0.470, 0.250, 0.600, -0.021, -0.015, -0.029
0.420, 0.250, 0.600, -0.021, -0.015, -0.030
0.370, 0.250, 0.600, -0.021, -0.016, -0.030
0.320, 0.250, 0.600, -0.022, -0.017, -0.030
0.270, 0.250, 0.600, -0.022, -0.018, -0.030
0.220, 0.250, 0.600, -0.023, -0.018, -0.031
0.170, 0.250, 0.600, -0.024, -0.019, -0.031
0.120, 0.250, 0.600, -0.025, -0.021, -0.031
0.120, 0.300, 0.600, -0.025, -0.021, -0.031
0.170, 0.300, 0.600, -0.024, -0.019, -0.030
0.220, 0.300, 0.600, -0.024, -0.018, -0.030
0.270, 0.300, 0.600, -0.023, -0.017, -0.030
0.320, 0.300, 0.600, -0.022, -0.016, -0.030
0.370, 0.300, 0.600, -0.021, -0.015, -0.030
0.420, 0.300, 0.600, -0.021, -0.015, -0.029
0.470, 0.300, 0.600, -0.022, -0.015, -0.029
0.520, 0.300, 0.600, -0.024, -0.015, -0.028
0.570, 0.300, 0.600, -0.025, -0.015, -0.028
0.620, 0.300, 0.600, -0.029, -0.015, -0.027
0.420, 0.350, 0.600, -0.022, -0.015, -0.029
0.370, 0.350, 0.600, -0.022, -0.016, -0.029
0.320, 0.350, 0.600, -0.023, -0.017, -0.029
0.270, 0.350, 0.600, -0.024, -0.018, -0.030
0.220, 0.350, 0.600, -0.024, -0.018, -0.030
0.170, 0.350, 0.600, -0.025, -0.019, -0.030
0.120, 0.350, 0.600, -0.027, -0.021, -0.030
0.120, 0.400, 0.600, -0.027, -0.021, -0.030
0.170, 0.400, 0.600, -0.026, -0.019, -0.030
0.220, 0.400, 0.600, -0.025, -0.018, -0.030
0.270, 0.400, 0.600, -0.024, -0.017, -0.030
0.320, 0.400, 0.600, -0.023, -0.017, -0.029
0.370, 0.400, 0.600, -0.023, -0.015, -0.028
0.420, 0.400, 0.600, -0.023, -0.015, -0.028
0.470, 0.400, 0.600, -0.023, -0.015, -0.027
0.520, 0.400, 0.600, -0.024, -0.015, -0.027
0.570, 0.400, 0.600, -0.027, -0.015, -0.027
0.620, 0.400, 0.600, -0.030, -0.016, -0.027
0.620, 0.450, 0.600, -0.030, -0.016, -0.026
0.570, 0.450, 0.600, -0.027, -0.015, -0.027
0.520, 0.450, 0.600, -0.024, -0.015, -0.027
0.470, 0.450, 0.600, -0.024, -0.015, -0.027
0.420, 0.450, 0.600, -0.023, -0.015, -0.028
0.370, 0.450, 0.600, -0.023, -0.016, -0.028
0.320, 0.450, 0.600, -0.024, -0.017, -0.029
0.270, 0.450, 0.600, -0.024, -0.018, -0.029
0.220, 0.450, 0.600, -0.025, -0.018, -0.030
0.170, 0.450, 0.600, -0.027, -0.019, -0.030
0.120, 0.450, 0.600, -0.027, -0.021, -0.030
0.120, 0.500, 0.600, -0.027, -0.021, -0.029
0.170, 0.500, 0.600, -0.027, -0.021, -0.029
0.220, 0.500, 0.600, -0.025, -0.018, -0.029
0.270, 0.500, 0.600, -0.025, -0.018, -0.028
0.320, 0.500, 0.600, -0.024, -0.018, -0.028
0.370, 0.500, 0.600, -0.024, -0.017, -0.028
0.420, 0.500, 0.600, -0.024, -0.016, -0.027
0.470, 0.500, 0.600, -0.024, -0.016, -0.027
0.520, 0.500, 0.600, -0.025, -0.016, -0.027
0.570, 0.500, 0.600, -0.027, -0.016, -0.027
0.620, 0.500, 0.600, -0.030, -0.017, -0.026
0.620, 0.550, 0.600, -0.030, -0.018, -0.025
0.570, 0.550, 0.600, -0.027, -0.017, -0.025
0.520, 0.550, 0.600, -0.025, -0.017, -0.026
0.470, 0.550, 0.600, -0.024, -0.018, -0.027
0.420, 0.550, 0.600, -0.024, -0.018, -0.027
0.370, 0.550, 0.600, -0.024, -0.018, -0.027
0.320, 0.550, 0.600, -0.024, -0.018, -0.027
0.270, 0.550, 0.600, -0.024, -0.019, -0.028
0.220, 0.550, 0.600, -0.025, -0.021, -0.028
0.170, 0.550, 0.600, -0.027, -0.021, -0.028
0.120, 0.550, 0.600, -0.027, -0.021, -0.028
0.120, 0.600, 0.600, -0.027, -0.025, -0.027
0.170, 0.600, 0.600, -0.026, -0.021, -0.028
0.220, 0.600, 0.600, -0.026, -0.021, -0.028
0.270, 0.600, 0.600, -0.024, -0.021, -0.028
0.320, 0.600, 0.600, -0.024, -0.021, -0.027
0.370, 0.600, 0.600, -0.024, -0.021, -0.027
0.420, 0.600, 0.600, -0.024, -0.020, -0.027
0.470, 0.600, 0.600, -0.025, -0.019, -0.025
0.520, 0.600, 0.600, -0.027, -0.019, -0.024
0.570, 0.600, 0.600, -0.028, -0.019, -0.024
0.620, 0.600, 0.600, -0.031, -0.021, -0.023
0.120, 0.100, 0.700, -0.027, -0.027, -0.027
0.170, 0.100, 0.700, -0.026, -0.022, -0.028
0.220, 0.100, 0.700, -0.024, -0.021, -0.028
0.270, 0.100, 0.700, -0.023, -0.021, -0.028
0.320, 0.100, 0.700, -0.022, -0.021, -0.028
0.370, 0.100, 0.700, -0.021, -0.021, -0.028
0.420, 0.100, 0.700, -0.020, -0.022, -0.027
0.470, 0.100, 0.700, -0.019, -0.025, -0.027
0.520, 0.100, 0.700, -0.019, -0.027, -0.027
0.570, 0.100, 0.700, -0.018, -0.029, -0.025
0.620, 0.100, 0.700, -0.019, -0.030, -0.024
0.620, 0.150, 0.700, -0.021, -0.029, -0.024
0.570, 0.150, 0.700, -0.021, -0.023, -0.025
0.520, 0.150, 0.700, -0.020, -0.021, -0.027
0.470, 0.150, 0.700, -0.020, -0.021, -0.027
0.420, 0.150, 0.700, -0.021, -0.021, -0.027
0.370, 0.150, 0.700, -0.021, -0.021, -0.027
0.320, 0.150, 0.700, -0.022, -0.021, -0.028
0.270, 0.150, 0.700, -0.024, -0.019, -0.028
0.220, 0.150, 0.700, -0.024, -0.016, -0.028
0.170, 0.150, 0.700, -0.025, -0.013, -0.028
0.120, 0.150, 0.700, -0.027, -0.012, -0.028
0.120, 0.200, 0.700, -0.027, -0.010, -0.029
0.170, 0.200, 0.700, -0.026, -0.009, -0.029
0.220, 0.200, 0.700, -0.024, -0.009, -0.028
0.270, 0.200, 0.700, -0.024, -0.009, -0.028
0.320, 0.200, 0.700, -0.022, -0.009, -0.027
0.370, 0.200, 0.700, -0.021, -0.009, -0.027
0.420, 0.200, 0.700, -0.021, -0.009, -0.027
0.470, 0.200, 0.700, -0.021, -0.009, -0.027
0.520, 0.200, 0.700, -0.021, -0.009, -0.027
0.570, 0.200, 0.700, -0.022, -0.012, -0.025
0.620, 0.200, 0.700, -0.024, -0.015, -0.024
0.620, 0.250, 0.700, -0.024, -0.012, -0.024
0.570, 0.250, 0.700, -0.023, -0.009, -0.025
0.520, 0.250, 0.700, -0.022, -0.008, -0.027
0.470, 0.250, 0.700, -0.021, -0.007, -0.027
0.420, 0.250, 0.700, -0.021, -0.007, -0.027
0.370, 0.250, 0.700, -0.022, -0.006, -0.027
0.320, 0.250, 0.700, -0.022, -0.006, -0.027
0.270, 0.250, 0.700, -0.024, -0.007, -0.028
0.220, 0.250, 0.700, -0.024, -0.007, -0.028
0.170, 0.250, 0.700, -0.025, -0.008, -0.028
0.120, 0.250, 0.700, -0.027, -0.009, -0.029
0.120, 0.300, 0.700, -0.027, -0.008, -0.029
0.170, 0.300, 0.700, -0.026, -0.006, -0.028
0.220, 0.300, 0.700, -0.024, -0.006, -0.028
0.270, 0.300, 0.700, -0.024, -0.006, -0.027
0.320, 0.300, 0.700, -0.023, -0.006, -0.027
0.370, 0.300, 0.700, -0.022, -0.006, -0.027
0.420, 0.300, 0.700, -0.022, -0.006, -0.027
0.470, 0.300, 0.700, -0.022, -0.006, -0.027
0.520, 0.300, 0.700, -0.022, -0.006, -0.026
0.570, 0.300, 0.700, -0.024, -0.008, -0.025
0.620, 0.300, 0.700, -0.024, -0.010, -0.024
0.420, 0.350, 0.700, -0.022, -0.005, -0.027
0.370, 0.350, 0.700, -0.022, -0.004, -0.027
0.320, 0.350, 0.700, -0.023, -0.005, -0.027
0.270, 0.350, 0.700, -0.024, -0.004, -0.028
0.220, 0.350, 0.700, -0.024, -0.005, -0.028
0.170, 0.350, 0.700, -0.026, -0.006, -0.029
0.120, 0.350, 0.700, -0.027, -0.006, -0.029
0.120, 0.400, 0.700, -0.028, -0.006, -0.029
0.170, 0.400, 0.700, -0.027, -0.005, -0.028
0.220, 0.400, 0.700, -0.025, -0.004, -0.028
0.270, 0.400, 0.700, -0.024, -0.004, -0.028
0.320, 0.400, 0.700, -0.024, -0.004, -0.028
0.370, 0.400, 0.700, -0.023, -0.003, -0.027
0.420, 0.400, 0.700, -0.023, -0.003, -0.027
0.470, 0.400, 0.700, -0.023, -0.004, -0.027
0.520, 0.400, 0.700, -0.024, -0.005, -0.027
0.570, 0.400, 0.700, -0.024, -0.006, -0.025
0.620, 0.400, 0.700, -0.025, -0.009, -0.025
0.620, 0.450, 0.700, -0.026, -0.009, -0.026
0.570, 0.450, 0.700, -0.024, -0.006, -0.027
0.520, 0.450, 0.700, -0.024, -0.004, -0.027
0.470, 0.450, 0.700, -0.024, -0.003, -0.027
0.420, 0.450, 0.700, -0.023, -0.003, -0.027
0.370, 0.450, 0.700, -0.023, -0.003, -0.027
0.320, 0.450, 0.700, -0.024, -0.003, -0.028
0.270, 0.450, 0.700, -0.024, -0.003, -0.028
0.220, 0.450, 0.700, -0.025, -0.003, -0.028
0.170, 0.450, 0.700, -0.027, -0.003, -0.028
0.120, 0.450, 0.700, -0.028, -0.004, -0.029
0.120, 0.500, 0.700, -0.028, -0.004, -0.028
0.170, 0.500, 0.700, -0.027, -0.003, -0.029
0.220, 0.500, 0.700, -0.026, -0.003, -0.028
0.270, 0.500, 0.700, -0.024, -0.003, -0.028
0.320, 0.500, 0.700, -0.024, -0.003, -0.028
0.370, 0.500, 0.700, -0.024, -0.003, -0.028
0.420, 0.500, 0.700, -0.024, -0.003, -0.027
0.470, 0.500, 0.700, -0.024, -0.003, -0.027
0.520, 0.500, 0.700, -0.024, -0.004, -0.027
0.570, 0.500, 0.700, -0.025, -0.006, -0.027
0.620, 0.500, 0.700, -0.027, -0.008, -0.025
0.620, 0.550, 0.700, -0.027, -0.009, -0.026
0.570, 0.550, 0.700, -0.025, -0.006, -0.027
0.520, 0.550, 0.700, -0.024, -0.005, -0.027
0.470, 0.550, 0.700, -0.024, -0.004, -0.027
0.420, 0.550, 0.700, -0.024, -0.003, -0.028
0.370, 0.550, 0.700, -0.024, -0.003, -0.028
0.320, 0.550, 0.700, -0.024, -0.003, -0.029
0.270, 0.550, 0.700, -0.024, -0.003, -0.029
0.220, 0.550, 0.700, -0.025, -0.003, -0.029
0.170, 0.550, 0.700, -0.027, -0.003, -0.030
0.120, 0.550, 0.700, -0.028, -0.003, -0.029
0.120, 0.600, 0.700, -0.028, -0.004, -0.030
0.170, 0.600, 0.700, -0.027, -0.004, -0.030
0.220, 0.600, 0.700, -0.025, -0.004, -0.030
0.270, 0.600, 0.700, -0.024, -0.004, -0.030
0.320, 0.600, 0.700, -0.024, -0.004, -0.030
0.370, 0.600, 0.700, -0.024, -0.005, -0.030
0.420, 0.600, 0.700, -0.024, -0.005, -0.029
0.470, 0.600, 0.700, -0.024, -0.006, -0.028
0.520, 0.600, 0.700, -0.025, -0.007, -0.027
0.570, 0.600, 0.700, -0.027, -0.009, -0.027
0.620, 0.600, 0.700, -0.027, -0.010, -0.027
0.120, 0.100, 0.800, -0.026, -0.006, -0.024
0.170, 0.100, 0.800, -0.024, -0.006, -0.024
0.220, 0.100, 0.800, -0.022, -0.006, -0.024
0.270, 0.100, 0.800, -0.021, -0.006, -0.024
0.320, 0.100, 0.800, -0.020, -0.006, -0.024
0.370, 0.100, 0.800, -0.018, -0.007, -0.024
0.420, 0.100, 0.800, -0.018, -0.009, -0.024
0.470, 0.100, 0.800, -0.016, -0.009, -0.022
0.520, 0.100, 0.800, -0.015, -0.009, -0.021
0.570, 0.100, 0.800, -0.015, -0.012, -0.021
0.620, 0.100, 0.800, -0.013, -0.014, -0.018
0.620, 0.150, 0.800, -0.015, -0.012, -0.021
0.570, 0.150, 0.800, -0.016, -0.009, -0.021
0.520, 0.150, 0.800, -0.017, -0.008, -0.023
0.470, 0.150, 0.800, -0.018, -0.007, -0.024
0.420, 0.150, 0.800, -0.018, -0.006, -0.024
0.370, 0.150, 0.800, -0.019, -0.006, -0.025
0.320, 0.150, 0.800, -0.020, -0.006, -0.025
0.270, 0.150, 0.800, -0.021, -0.005, -0.026
0.220, 0.150, 0.800, -0.021, -0.009, -0.025
0.170, 0.150, 0.800, -0.023, -0.009, -0.025
0.120, 0.150, 0.800, -0.025, -0.009, -0.026
0.120, 0.200, 0.800, -0.025, -0.008, -0.027
0.170, 0.200, 0.800, -0.024, -0.009, -0.027
0.220, 0.200, 0.800, -0.022, -0.008, -0.027
0.270, 0.200, 0.800, -0.021, -0.008, -0.026
0.320, 0.200, 0.800, -0.020, -0.008, -0.025
0.370, 0.200, 0.800, -0.019, -0.009, -0.025
0.420, 0.200, 0.800, -0.018, -0.009, -0.024
0.470, 0.200, 0.800, -0.018, -0.009, -0.024
0.520, 0.200, 0.800, -0.016, -0.011, -0.024
0.570, 0.200, 0.800, -0.016, -0.012, -0.022
0.620, 0.200, 0.800, -0.015, -0.015, -0.021
0.620, 0.250, 0.800, -0.016, -0.013, -0.022
0.570, 0.250, 0.800, -0.017, -0.012, -0.024
0.520, 0.250, 0.800, -0.018, -0.009, -0.024
0.470, 0.250, 0.800, -0.018, -0.009, -0.024
0.420, 0.250, 0.800, -0.018, -0.008, -0.025
0.370, 0.250, 0.800, -0.019, -0.007, -0.025
0.320, 0.250, 0.800, -0.020, -0.007, -0.026
0.270, 0.250, 0.800, -0.021, -0.007, -0.027
0.220, 0.250, 0.800, -0.022, -0.007, -0.027
0.170, 0.250, 0.800, -0.024, -0.007, -0.027
0.120, 0.250, 0.800, -0.026, -0.006, -0.027
0.120, 0.300, 0.800, -0.026, -0.006, -0.027
0.170, 0.300, 0.800, -0.024, -0.006, -0.027
0.220, 0.300, 0.800, -0.023, -0.006, -0.027
0.270, 0.300, 0.800, -0.021, -0.006, -0.027
0.320, 0.300, 0.800, -0.021, -0.006, -0.027
0.370, 0.300, 0.800, -0.020, -0.006, -0.026
0.420, 0.300, 0.800, -0.019, -0.007, -0.025
0.470, 0.300, 0.800, -0.018, -0.008, -0.025
0.520, 0.300, 0.800, -0.018, -0.009, -0.024
0.570, 0.300, 0.800, -0.018, -0.010, -0.024
0.620, 0.300, 0.800, -0.017, -0.012, -0.024
0.420, 0.350, 0.800, -0.019, -0.007, -0.027
0.370, 0.350, 0.800, -0.021, -0.006, -0.027
0.320, 0.350, 0.800, -0.021, -0.006, -0.027
0.270, 0.350, 0.800, -0.022, -0.006, -0.027
0.220, 0.350, 0.800, -0.024, -0.006, -0.027
0.170, 0.350, 0.800, -0.025, -0.006, -0.027
0.120, 0.350, 0.800, -0.027, -0.006, -0.027
0.120, 0.400, 0.800, -0.027, -0.005, -0.027
0.170, 0.400, 0.800, -0.025, -0.006, -0.027
0.220, 0.400, 0.800, -0.024, -0.006, -0.027
0.270, 0.400, 0.800, -0.023, -0.006, -0.027
0.320, 0.400, 0.800, -0.021, -0.006, -0.027
0.370, 0.400, 0.800, -0.021, -0.006, -0.027
0.420, 0.400, 0.800, -0.021, -0.007, -0.027
0.470, 0.400, 0.800, -0.020, -0.008, -0.027
0.520, 0.400, 0.800, -0.019, -0.009, -0.026
0.570, 0.400, 0.800, -0.019, -0.010, -0.025
0.620, 0.400, 0.800, -0.018, -0.012, -0.024
0.620, 0.450, 0.800, -0.019, -0.012, -0.025
0.570, 0.450, 0.800, -0.020, -0.010, -0.027
0.520, 0.450, 0.800, -0.020, -0.009, -0.027
0.470, 0.450, 0.800, -0.021, -0.008, -0.027
0.420, 0.450, 0.800, -0.021, -0.006, -0.027
0.370, 0.450, 0.800, -0.021, -0.006, -0.027
0.320, 0.450, 0.800, -0.021, -0.006, -0.027
0.270, 0.450, 0.800, -0.023, -0.006, -0.028
0.220, 0.450, 0.800, -0.024, -0.006, -0.028
0.170, 0.450, 0.800, -0.026, -0.006, -0.028
0.120, 0.450, 0.800, -0.028, -0.005, -0.028
0.120, 0.500, 0.800, -0.028, -0.004, -0.028
0.170, 0.500, 0.800, -0.027, -0.005, -0.028
0.220, 0.500, 0.800, -0.024, -0.006, -0.029
0.270, 0.500, 0.800, -0.024, -0.006, -0.028
0.320, 0.500, 0.800, -0.022, -0.006, -0.028
0.370, 0.500, 0.800, -0.021, -0.006, -0.028
0.420, 0.500, 0.800, -0.021, -0.007, -0.028
0.470, 0.500, 0.800, -0.021, -0.008, -0.027
0.520, 0.500, 0.800, -0.021, -0.009, -0.027
0.570, 0.500, 0.800, -0.021, -0.010, -0.027
0.620, 0.500, 0.800, -0.019, -0.012, -0.027
0.620, 0.550, 0.800, -0.020, -0.012, -0.027
0.570, 0.550, 0.800, -0.021, -0.012, -0.028
0.520, 0.550, 0.800, -0.021, -0.009, -0.029
0.470, 0.550, 0.800, -0.021, -0.009, -0.030
0.420, 0.550, 0.800, -0.021, -0.008, -0.030
0.370, 0.550, 0.800, -0.021, -0.007, -0.030
0.320, 0.550, 0.800, -0.022, -0.006, -0.030
0.270, 0.550, 0.800, -0.024, -0.006, -0.030
0.220, 0.550, 0.800, -0.024, -0.006, -0.030
0.170, 0.550, 0.800, -0.026, -0.005, -0.030
0.120, 0.550, 0.800, -0.028, -0.004, -0.030
0.120, 0.600, 0.800, -0.028, -0.003, -0.030
0.170, 0.600, 0.800, -0.027, -0.005, -0.030
0.220, 0.600, 0.800, -0.025, -0.006, -0.030
0.270, 0.600, 0.800, -0.024, -0.006, -0.031
0.320, 0.600, 0.800, -0.022, -0.007, -0.031
0.370, 0.600, 0.800, -0.021, -0.008, -0.031
0.420, 0.600, 0.800, -0.021, -0.009, -0.031
0.470, 0.600, 0.800, -0.022, -0.009, -0.031
0.520, 0.600, 0.800, -0.022, -0.011, -0.031
0.570, 0.600, 0.800, -0.021, -0.012, -0.030
0.620, 0.600, 0.800, -0.022, -0.014, -0.030
0.000, 0.010, 0.400, -0.009, 0.004, -0.048
