0.000, 0.010, 0.400, -0.021, -0.021, -0.003
0.120, 0.100, 0.450, -0.019, -0.012, -0.007
0.170, 0.100, 0.450, -0.021, -0.012, -0.007
0.220, 0.100, 0.450, -0.022, -0.012, -0.007
0.270, 0.100, 0.450, -0.021, -0.012, -0.007
0.320, 0.100, 0.450, -0.021, -0.012, -0.008
0.370, 0.100, 0.450, -0.019, -0.011, -0.009
0.420, 0.100, 0.450, -0.018, -0.009, -0.009
0.470, 0.100, 0.450, -0.018, -0.006, -0.009
0.520, 0.100, 0.450, -0.018, -0.003, -0.009
0.570, 0.100, 0.450, -0.020, 0.000, -0.009
0.620, 0.100, 0.450, -0.024, 0.000, -0.009
0.620, 0.150, 0.450, -0.025, 0.000, -0.006
0.570, 0.150, 0.450, -0.021, 0.000, -0.006
0.520, 0.150, 0.450, -0.018, -0.006, -0.006
0.470, 0.150, 0.450, -0.017, -0.009, -0.006
0.420, 0.150, 0.450, -0.018, -0.011, -0.006
0.370, 0.150, 0.450, -0.018, -0.012, -0.006
0.320, 0.150, 0.450, -0.020, -0.014, -0.006
0.270, 0.150, 0.450, -0.021, -0.015, -0.005
0.220, 0.150, 0.450, -0.021, -0.015, -0.005
0.170, 0.150, 0.450, -0.021, -0.014, -0.005
0.120, 0.150, 0.450, -0.019, -0.014, -0.006
0.120, 0.200, 0.450, -0.020, -0.015, -0.005
0.170, 0.200, 0.450, -0.021, -0.016, -0.003
0.220, 0.200, 0.450, -0.021, -0.016, -0.003
0.270, 0.200, 0.450, -0.021, -0.016, -0.004
0.320, 0.200, 0.450, -0.020, -0.015, -0.004
0.370, 0.200, 0.450, -0.018, -0.015, -0.004
0.420, 0.200, 0.450, -0.017, -0.012, -0.004
0.470, 0.200, 0.450, -0.017, -0.010, -0.005
0.520, 0.200, 0.450, -0.018, -0.006, -0.004
0.570, 0.200, 0.450, -0.020, -0.003, -0.005
0.620, 0.200, 0.450, -0.025, 0.000, -0.004
0.620, 0.250, 0.450, -0.025, 0.000, -0.004
0.570, 0.250, 0.450, -0.021, -0.003, -0.004
0.520, 0.250, 0.450, -0.018, -0.008, -0.004
0.470, 0.250, 0.450, -0.016, -0.012, -0.003
0.420, 0.250, 0.450, -0.017, -0.014, -0.004
0.370, 0.250, 0.450, -0.018, -0.015, -0.004
0.320, 0.250, 0.450, -0.019, -0.017, -0.003
0.270, 0.250, 0.450, -0.021, -0.018, -0.003
0.220, 0.250, 0.450, -0.021, -0.017, -0.003
0.170, 0.250, 0.450, -0.021, -0.017, -0.003
0.120, 0.250, 0.450, -0.021, -0.015, -0.004
0.120, 0.300, 0.450, -0.021, -0.017, -0.004
0.170, 0.300, 0.450, -0.021, -0.018, -0.003
0.220, 0.300, 0.450, -0.021, -0.018, -0.003
0.270, 0.300, 0.450, -0.021, -0.018, -0.003
0.320, 0.300, 0.450, -0.019, -0.018, -0.003
0.370, 0.300, 0.450, -0.018, -0.017, -0.003
0.420, 0.300, 0.450, -0.017, -0.015, -0.003
0.470, 0.300, 0.450, -0.017, -0.012, -0.003
0.520, 0.300, 0.450, -0.018, -0.009, -0.003
0.570, 0.300, 0.450, -0.021, -0.004, -0.003
0.620, 0.300, 0.450, -0.025, 0.000, -0.003
0.420, 0.350, 0.450, -0.018, -0.016, -0.003
0.370, 0.350, 0.450, -0.018, -0.018, -0.003
0.320, 0.350, 0.450, -0.019, -0.019, -0.003
0.270, 0.350, 0.450, -0.021, -0.020, -0.003
0.220, 0.350, 0.450, -0.021, -0.020, -0.003
0.170, 0.350, 0.450, -0.022, -0.018, -0.003
0.120, 0.350, 0.450, -0.021, -0.018, -0.003
0.120, 0.400, 0.450, -0.022, -0.018, -0.003
0.170, 0.400, 0.450, -0.022, -0.019, -0.003
0.220, 0.400, 0.450, -0.021, -0.020, -0.003
0.270, 0.400, 0.450, -0.021, -0.021, -0.003
0.320, 0.400, 0.450, -0.019, -0.020, -0.003
0.370, 0.400, 0.450, -0.018, -0.018, -0.003
0.420, 0.400, 0.450, -0.017, -0.018, -0.003
0.470, 0.400, 0.450, -0.017, -0.015, -0.003
0.520, 0.400, 0.450, -0.018, -0.012, -0.003
0.570, 0.400, 0.450, -0.021, -0.007, -0.003
0.620, 0.400, 0.450, -0.025, -0.002, -0.003
0.620, 0.450, 0.450, -0.024, -0.002, -0.002
0.570, 0.450, 0.450, -0.021, -0.007, -0.003
0.520, 0.450, 0.450, -0.018, -0.011, -0.003
0.470, 0.450, 0.450, -0.017, -0.015, -0.003
0.420, 0.450, 0.450, -0.017, -0.017, -0.003
0.370, 0.450, 0.450, -0.018, -0.018, -0.003
0.320, 0.450, 0.450, -0.019, -0.020, -0.003
0.270, 0.450, 0.450, -0.021, -0.021, -0.003
0.220, 0.450, 0.450, -0.021, -0.020, -0.003
0.170, 0.450, 0.450, -0.022, -0.019, -0.002
0.120, 0.450, 0.450, -0.022, -0.018, -0.002
0.120, 0.500, 0.450, -0.021, -0.018, 0.000
0.170, 0.500, 0.450, -0.021, -0.019, 0.000
0.220, 0.500, 0.450, -0.021, -0.020, 0.000
0.270, 0.500, 0.450, -0.021, -0.021, -0.001
0.320, 0.500, 0.450, -0.019, -0.020, -0.001
0.370, 0.500, 0.450, -0.018, -0.019, -0.001
0.420, 0.500, 0.450, -0.017, -0.018, -0.001
0.470, 0.500, 0.450, -0.017, -0.015, -0.001
0.520, 0.500, 0.450, -0.018, -0.011, -0.001
0.570, 0.500, 0.450, -0.021, -0.007, 0.000
0.620, 0.500, 0.450, -0.025, -0.003, 0.000
0.620, 0.550, 0.450, -0.025, -0.003, 0.000
0.570, 0.550, 0.450, -0.021, -0.007, 0.000
0.520, 0.550, 0.450, -0.018, -0.011, 0.000
0.470, 0.550, 0.450, -0.018, -0.014, 0.000
0.420, 0.550, 0.450, -0.018, -0.017, 0.000
0.370, 0.550, 0.450, -0.018, -0.018, 0.000
0.320, 0.550, 0.450, -0.019, -0.020, 0.000
0.270, 0.550, 0.450, -0.020, -0.020, 0.000
0.220, 0.550, 0.450, -0.021, -0.020, 0.000
0.170, 0.550, 0.450, -0.021, -0.020, 0.000
0.120, 0.550, 0.450, -0.021, -0.019, 0.000
0.120, 0.600, 0.450, -0.018, -0.020, 0.003
0.170, 0.600, 0.450, -0.019, -0.020, 0.003
0.220, 0.600, 0.450, -0.020, -0.021, 0.002
0.270, 0.600, 0.450, -0.019, -0.021, 0.001
0.320, 0.600, 0.450, -0.018, -0.020, 0.001
0.370, 0.600, 0.450, -0.018, -0.018, 0.001
0.420, 0.600, 0.450, -0.018, -0.018, 0.001
0.470, 0.600, 0.450, -0.018, -0.015, 0.002
0.520, 0.600, 0.450, -0.019, -0.012, 0.003
0.570, 0.600, 0.450, -0.021, -0.007, 0.003
0.620, 0.600, 0.450, -0.025, -0.003, 0.003
0.120, 0.100, 0.550, -0.021, -0.021, -0.008
0.170, 0.100, 0.550, -0.022, -0.020, -0.008
0.220, 0.100, 0.550, -0.023, -0.018, -0.009
0.270, 0.100, 0.550, -0.022, -0.018, -0.009
0.320, 0.100, 0.550, -0.021, -0.018, -0.010
0.370, 0.100, 0.550, -0.021, -0.017, -0.011
0.420, 0.100, 0.550, -0.021, -0.016, -0.012
0.470, 0.100, 0.550, -0.021, -0.015, -0.013
0.520, 0.100, 0.550, -0.022, -0.015, -0.012
0.570, 0.100, 0.550, -0.025, -0.014, -0.010
0.620, 0.100, 0.550, -0.029, -0.014, -0.009
0.620, 0.150, 0.550, -0.030, -0.013, -0.006
0.570, 0.150, 0.550, -0.025, -0.014, -0.007
0.520, 0.150, 0.550, -0.022, -0.015, -0.008
0.470, 0.150, 0.550, -0.021, -0.015, -0.009
0.420, 0.150, 0.550, -0.021, -0.016, -0.008
0.370, 0.150, 0.550, -0.021, -0.018, -0.008
0.320, 0.150, 0.550, -0.021, -0.018, -0.008
0.270, 0.150, 0.550, -0.022, -0.018, -0.007
0.220, 0.150, 0.550, -0.022, -0.018, -0.006
0.170, 0.150, 0.550, -0.022, -0.020, -0.007
0.120, 0.150, 0.550, -0.021, -0.021, -0.006
0.120, 0.200, 0.550, -0.021, -0.021, -0.006
0.170, 0.200, 0.550, -0.021, -0.020, -0.006
0.220, 0.200, 0.550, -0.021, -0.018, -0.006
0.270, 0.200, 0.550, -0.021, -0.018, -0.006
0.320, 0.200, 0.550, -0.021, -0.018, -0.006
0.370, 0.200, 0.550, -0.021, -0.018, -0.006
0.420, 0.200, 0.550, -0.021, -0.017, -0.006
0.470, 0.200, 0.550, -0.021, -0.016, -0.006
0.520, 0.200, 0.550, -0.022, -0.015, -0.006
0.570, 0.200, 0.550, -0.025, -0.015, -0.006
0.620, 0.200, 0.550, -0.030, -0.015, -0.006
0.620, 0.250, 0.550, -0.030, -0.015, -0.004
0.570, 0.250, 0.550, -0.025, -0.015, -0.005
0.520, 0.250, 0.550, -0.022, -0.015, -0.005
0.470, 0.250, 0.550, -0.021, -0.016, -0.006
0.420, 0.250, 0.550, -0.021, -0.018, -0.006
0.370, 0.250, 0.550, -0.021, -0.018, -0.005
0.320, 0.250, 0.550, -0.021, -0.018, -0.006
0.270, 0.250, 0.550, -0.021, -0.019, -0.005
0.220, 0.250, 0.550, -0.021, -0.019, -0.006
0.170, 0.250, 0.550, -0.021, -0.021, -0.005
0.120, 0.250, 0.550, -0.021, -0.021, -0.005
0.120, 0.300, 0.550, -0.022, -0.021, -0.005
0.170, 0.300, 0.550, -0.022, -0.021, -0.004
0.220, 0.300, 0.550, -0.022, -0.020, -0.004
0.270, 0.300, 0.550, -0.021, -0.020, -0.004
0.320, 0.300, 0.550, -0.021, -0.019, -0.004
0.370, 0.300, 0.550, -0.021, -0.018, -0.004
0.420, 0.300, 0.550, -0.021, -0.018, -0.004
0.470, 0.300, 0.550, -0.021, -0.018, -0.005
0.520, 0.300, 0.550, -0.022, -0.016, -0.004
0.570, 0.300, 0.550, -0.025, -0.015, -0.005
0.620, 0.300, 0.550, -0.030, -0.015, -0.004
0.420, 0.350, 0.550, -0.021, -0.020, -0.003
0.370, 0.350, 0.550, -0.021, -0.021, -0.003
0.320, 0.350, 0.550, -0.021, -0.021, -0.003
0.270, 0.350, 0.550, -0.021, -0.021, -0.003
0.220, 0.350, 0.550, -0.021, -0.021, -0.003
0.170, 0.350, 0.550, -0.023, -0.021, -0.003
0.120, 0.350, 0.550, -0.023, -0.021, -0.004
0.120, 0.400, 0.550, -0.024, -0.021, -0.003
0.170, 0.400, 0.550, -0.023, -0.021, -0.003
0.220, 0.400, 0.550, -0.022, -0.021, -0.003
0.270, 0.400, 0.550, -0.021, -0.021, -0.003
0.320, 0.400, 0.550, -0.021, -0.021, -0.003
0.370, 0.400, 0.550, -0.021, -0.021, -0.003
0.420, 0.400, 0.550, -0.021, -0.021, -0.003
0.470, 0.400, 0.550, -0.021, -0.019, -0.003
0.520, 0.400, 0.550, -0.022, -0.018, -0.003
0.570, 0.400, 0.550, -0.025, -0.018, -0.003
0.620, 0.400, 0.550, -0.030, -0.018, -0.003
0.620, 0.450, 0.550, -0.030, -0.019, -0.003
0.570, 0.450, 0.550, -0.025, -0.019, -0.003
0.520, 0.450, 0.550, -0.023, -0.020, -0.003
0.470, 0.450, 0.550, -0.021, -0.021, -0.003
0.420, 0.450, 0.550, -0.021, -0.021, -0.003
0.370, 0.450, 0.550, -0.021, -0.021, -0.003
0.320, 0.450, 0.550, -0.021, -0.021, -0.003
0.270, 0.450, 0.550, -0.021, -0.021, -0.003
0.220, 0.450, 0.550, -0.022, -0.021, -0.003
0.170, 0.450, 0.550, -0.023, -0.021, -0.003
0.120, 0.450, 0.550, -0.024, -0.022, -0.003
0.120, 0.500, 0.550, -0.023, -0.025, -0.001
0.170, 0.500, 0.550, -0.023, -0.022, -0.001
0.220, 0.500, 0.550, -0.022, -0.021, -0.002
0.270, 0.500, 0.550, -0.021, -0.021, -0.002
0.320, 0.500, 0.550, -0.021, -0.021, -0.002
0.370, 0.500, 0.550, -0.021, -0.021, -0.002
0.420, 0.500, 0.550, -0.021, -0.021, -0.002
0.470, 0.500, 0.550, -0.021, -0.021, -0.002
0.520, 0.500, 0.550, -0.022, -0.021, -0.002
0.570, 0.500, 0.550, -0.025, -0.021, -0.001
0.620, 0.500, 0.550, -0.030, -0.021, -0.001
0.620, 0.550, 0.550, -0.030, -0.021, 0.000
0.570, 0.550, 0.550, -0.025, -0.021, 0.000
0.520, 0.550, 0.550, -0.022, -0.021, 0.000
0.470, 0.550, 0.550, -0.021, -0.021, 0.000
0.420, 0.550, 0.550, -0.021, -0.021, 0.000
0.370, 0.550, 0.550, -0.021, -0.022, 0.000
0.320, 0.550, 0.550, -0.021, -0.023, -0.001
0.270, 0.550, 0.550, -0.021, -0.025, 0.000
0.220, 0.550, 0.550, -0.022, -0.026, 0.000
0.170, 0.550, 0.550, -0.022, -0.027, 0.000
0.120, 0.550, 0.550, -0.022, -0.028, 0.000
0.120, 0.600, 0.550, -0.021, -0.030, 0.000
0.170, 0.600, 0.550, -0.021, -0.030, 0.000
0.220, 0.600, 0.550, -0.021, -0.028, 0.000
0.270, 0.600, 0.550, -0.021, -0.028, 0.000
0.320, 0.600, 0.550, -0.021, -0.028, 0.000
0.370, 0.600, 0.550, -0.021, -0.027, 0.000
0.420, 0.600, 0.550, -0.021, -0.027, 0.000
0.470, 0.600, 0.550, -0.021, -0.027, 0.000
0.520, 0.600, 0.550, -0.023, -0.025, 0.000
0.570, 0.600, 0.550, -0.026, -0.025, 0.000
0.620, 0.600, 0.550, -0.030, -0.025, 0.001
0.120, 0.100, 0.650, -0.026, -0.024, -0.005
0.170, 0.100, 0.650, -0.025, -0.021, -0.006
0.220, 0.100, 0.650, -0.024, -0.021, -0.006
0.270, 0.100, 0.650, -0.024, -0.021, -0.006
0.320, 0.100, 0.650, -0.022, -0.021, -0.007
0.370, 0.100, 0.650, -0.021, -0.021, -0.007
0.420, 0.100, 0.650, -0.021, -0.021, -0.008
0.470, 0.100, 0.650, -0.021, -0.021, -0.008
0.520, 0.100, 0.650, -0.022, -0.023, -0.007
0.570, 0.100, 0.650, -0.023, -0.027, -0.006
0.620, 0.100, 0.650, -0.024, -0.030, -0.006
0.620, 0.150, 0.650, -0.025, -0.027, -0.004
0.570, 0.150, 0.650, -0.024, -0.022, -0.006
0.520, 0.150, 0.650, -0.021, -0.021, -0.006
0.470, 0.150, 0.650, -0.021, -0.021, -0.006
0.420, 0.150, 0.650, -0.021, -0.021, -0.006
0.370, 0.150, 0.650, -0.021, -0.021, -0.006
0.320, 0.150, 0.650, -0.022, -0.021, -0.006
0.270, 0.150, 0.650, -0.022, -0.021, -0.006
0.220, 0.150, 0.650, -0.024, -0.021, -0.006
0.170, 0.150, 0.650, -0.024, -0.021, -0.005
0.120, 0.150, 0.650, -0.024, -0.021, -0.005
0.120, 0.200, 0.650, -0.024, -0.021, -0.004
0.170, 0.200, 0.650, -0.024, -0.021, -0.005
0.220, 0.200, 0.650, -0.023, -0.021, -0.005
0.270, 0.200, 0.650, -0.022, -0.021, -0.006
0.320, 0.200, 0.650, -0.021, -0.021, -0.006
0.370, 0.200, 0.650, -0.021, -0.021, -0.006
0.420, 0.200, 0.650, -0.021, -0.021, -0.006
0.470, 0.200, 0.650, -0.021, -0.021, -0.006
0.520, 0.200, 0.650, -0.022, -0.021, -0.006
0.570, 0.200, 0.650, -0.024, -0.021, -0.005
0.620, 0.200, 0.650, -0.028, -0.027, -0.004
0.620, 0.250, 0.650, -0.028, -0.027, -0.004
0.570, 0.250, 0.650, -0.025, -0.021, -0.005
0.520, 0.250, 0.650, -0.023, -0.021, -0.005
0.470, 0.250, 0.650, -0.021, -0.021, -0.005
0.420, 0.250, 0.650, -0.021, -0.020, -0.005
0.370, 0.250, 0.650, -0.021, -0.019, -0.005
0.320, 0.250, 0.650, -0.021, -0.020, -0.005
0.270, 0.250, 0.650, -0.021, -0.020, -0.005
0.220, 0.250, 0.650, -0.022, -0.019, -0.005
0.170, 0.250, 0.650, -0.024, -0.020, -0.005
0.120, 0.250, 0.650, -0.024, -0.021, -0.005
0.120, 0.300, 0.650, -0.024, -0.021, -0.004
0.170, 0.300, 0.650, -0.024, -0.020, -0.004
0.220, 0.300, 0.650, -0.022, -0.019, -0.005
0.270, 0.300, 0.650, -0.021, -0.019, -0.005
0.320, 0.300, 0.650, -0.021, -0.019, -0.005
0.370, 0.300, 0.650, -0.021, -0.019, -0.005
0.420, 0.300, 0.650, -0.021, -0.019, -0.005
0.470, 0.300, 0.650, -0.022, -0.021, -0.005
0.520, 0.300, 0.650, -0.024, -0.021, -0.004
0.570, 0.300, 0.650, -0.025, -0.021, -0.005
0.620, 0.300, 0.650, -0.029, -0.027, -0.004
0.420, 0.350, 0.650, -0.021, -0.020, -0.004
0.370, 0.350, 0.650, -0.021, -0.019, -0.004
0.320, 0.350, 0.650, -0.021, -0.019, -0.004
0.270, 0.350, 0.650, -0.021, -0.019, -0.004
0.220, 0.350, 0.650, -0.022, -0.019, -0.004
0.170, 0.350, 0.650, -0.023, -0.019, -0.004
0.120, 0.350, 0.650, -0.024, -0.020, -0.004
0.120, 0.400, 0.650, -0.024, -0.021, -0.004
0.170, 0.400, 0.650, -0.024, -0.020, -0.004
0.220, 0.400, 0.650, -0.022, -0.019, -0.004
0.270, 0.400, 0.650, -0.021, -0.019, -0.004
0.320, 0.400, 0.650, -0.021, -0.019, -0.004
0.370, 0.400, 0.650, -0.021, -0.020, -0.004
0.420, 0.400, 0.650, -0.021, -0.020, -0.005
0.470, 0.400, 0.650, -0.021, -0.021, -0.005
0.520, 0.400, 0.650, -0.023, -0.021, -0.005
0.570, 0.400, 0.650, -0.025, -0.021, -0.005
0.620, 0.400, 0.650, -0.027, -0.028, -0.005
0.620, 0.450, 0.650, -0.027, -0.029, -0.005
0.570, 0.450, 0.650, -0.024, -0.023, -0.005
0.520, 0.450, 0.650, -0.022, -0.021, -0.004
0.470, 0.450, 0.650, -0.021, -0.021, -0.005
0.420, 0.450, 0.650, -0.021, -0.021, -0.005
0.370, 0.450, 0.650, -0.021, -0.020, -0.005
0.320, 0.450, 0.650, -0.021, -0.020, -0.005
0.270, 0.450, 0.650, -0.021, -0.019, -0.004
0.220, 0.450, 0.650, -0.021, -0.020, -0.004
0.170, 0.450, 0.650, -0.022, -0.020, -0.004
0.120, 0.450, 0.650, -0.024, -0.020, -0.003
0.120, 0.500, 0.650, -0.024, -0.021, -0.003
0.170, 0.500, 0.650, -0.022, -0.021, -0.004
0.220, 0.500, 0.650, -0.021, -0.021, -0.004
0.270, 0.500, 0.650, -0.021, -0.021, -0.005
0.320, 0.500, 0.650, -0.020, -0.021, -0.004
0.370, 0.500, 0.650, -0.021, -0.021, -0.005
0.420, 0.500, 0.650, -0.021, -0.021, -0.005
0.470, 0.500, 0.650, -0.021, -0.021, -0.005
0.520, 0.500, 0.650, -0.023, -0.021, -0.004
0.570, 0.500, 0.650, -0.024, -0.027, -0.005
0.620, 0.500, 0.650, -0.027, -0.030, -0.005
0.620, 0.550, 0.650, -0.027, -0.031, -0.004
0.570, 0.550, 0.650, -0.024, -0.030, -0.004
0.520, 0.550, 0.650, -0.023, -0.027, -0.005
0.470, 0.550, 0.650, -0.021, -0.022, -0.005
0.420, 0.550, 0.650, -0.021, -0.021, -0.005
0.370, 0.550, 0.650, -0.020, -0.021, -0.005
0.320, 0.550, 0.650, -0.020, -0.021, -0.005
0.270, 0.550, 0.650, -0.021, -0.021, -0.005
0.220, 0.550, 0.650, -0.021, -0.021, -0.005
0.170, 0.550, 0.650, -0.022, -0.021, -0.004
0.120, 0.550, 0.650, -0.024, -0.021, -0.004
0.120, 0.600, 0.650, -0.023, -0.023, -0.005
0.170, 0.600, 0.650, -0.022, -0.021, -0.005
0.220, 0.600, 0.650, -0.021, -0.022, -0.005
0.270, 0.600, 0.650, -0.021, -0.022, -0.005
0.320, 0.600, 0.650, -0.020, -0.022, -0.005
0.370, 0.600, 0.650, -0.020, -0.025, -0.005
0.420, 0.600, 0.650, -0.021, -0.027, -0.005
0.470, 0.600, 0.650, -0.021, -0.028, -0.005
0.520, 0.600, 0.650, -0.022, -0.030, -0.005
0.570, 0.600, 0.650, -0.025, -0.030, -0.004
0.620, 0.600, 0.650, -0.027, -0.036, -0.003
0.120, 0.100, 0.750, -0.025, -0.018, -0.003
0.170, 0.100, 0.750, -0.024, -0.018, -0.003
0.220, 0.100, 0.750, -0.022, -0.019, -0.003
0.270, 0.100, 0.750, -0.021, -0.020, -0.004
0.320, 0.100, 0.750, -0.020, -0.021, -0.005
0.370, 0.100, 0.750, -0.019, -0.021, -0.004
0.389, 0.100, 0.750, -0.018, -0.021, -0.004
0.420, 0.100, 0.750, -0.018, -0.021, -0.003
0.520, 0.100, 0.750, -0.016, -0.024, -0.003
0.570, 0.100, 0.750, -0.016, -0.028, -0.002
0.620, 0.100, 0.750, -0.015, -0.030, 0.000
0.620, 0.150, 0.750, -0.017, -0.030, -0.001
0.570, 0.150, 0.750, -0.018, -0.027, -0.003
0.520, 0.150, 0.750, -0.018, -0.021, -0.003
0.470, 0.150, 0.750, -0.018, -0.021, -0.004
0.420, 0.150, 0.750, -0.018, -0.021, -0.004
0.370, 0.150, 0.750, -0.019, -0.019, -0.004
0.320, 0.150, 0.750, -0.020, -0.019, -0.005
0.270, 0.150, 0.750, -0.021, -0.018, -0.004
0.220, 0.150, 0.750, -0.022, -0.018, -0.004
0.170, 0.150, 0.750, -0.023, -0.018, -0.004
0.120, 0.150, 0.750, -0.024, -0.018, -0.003
0.120, 0.200, 0.750, -0.024, -0.017, -0.003
0.170, 0.200, 0.750, -0.023, -0.017, -0.004
0.220, 0.200, 0.750, -0.021, -0.018, -0.004
0.270, 0.200, 0.750, -0.021, -0.018, -0.004
0.320, 0.200, 0.750, -0.020, -0.018, -0.005
0.370, 0.200, 0.750, -0.019, -0.018, -0.005
0.420, 0.200, 0.750, -0.018, -0.020, -0.004
0.470, 0.200, 0.750, -0.018, -0.021, -0.004
0.520, 0.200, 0.750, -0.018, -0.021, -0.003
0.570, 0.200, 0.750, -0.018, -0.025, -0.003
0.620, 0.200, 0.750, -0.018, -0.030, -0.003
0.620, 0.250, 0.750, -0.019, -0.030, -0.003
0.570, 0.250, 0.750, -0.019, -0.024, -0.003
0.520, 0.250, 0.750, -0.018, -0.021, -0.003
0.470, 0.250, 0.750, -0.018, -0.021, -0.004
0.420, 0.250, 0.750, -0.019, -0.019, -0.005
0.370, 0.250, 0.750, -0.019, -0.018, -0.005
0.320, 0.250, 0.750, -0.019, -0.018, -0.005
0.270, 0.250, 0.750, -0.021, -0.018, -0.005
0.220, 0.250, 0.750, -0.021, -0.017, -0.004
0.170, 0.250, 0.750, -0.023, -0.017, -0.004
0.120, 0.250, 0.750, -0.024, -0.016, -0.004
0.120, 0.300, 0.750, -0.024, -0.016, -0.005
0.170, 0.300, 0.750, -0.023, -0.017, -0.004
0.220, 0.300, 0.750, -0.021, -0.017, -0.005
0.270, 0.300, 0.750, -0.021, -0.017, -0.004
0.320, 0.300, 0.750, -0.020, -0.018, -0.005
0.370, 0.300, 0.750, -0.019, -0.018, -0.005
0.420, 0.300, 0.750, -0.018, -0.019, -0.005
0.470, 0.300, 0.750, -0.018, -0.021, -0.005
0.520, 0.300, 0.750, -0.018, -0.021, -0.005
0.570, 0.300, 0.750, -0.018, -0.024, -0.005
0.620, 0.300, 0.750, -0.018, -0.030, -0.005
0.420, 0.350, 0.750, -0.019, -0.020, -0.006
0.320, 0.350, 0.750, -0.020, -0.018, -0.005
0.270, 0.350, 0.750, -0.021, -0.018, -0.005
0.220, 0.350, 0.750, -0.021, -0.018, -0.005
0.170, 0.350, 0.750, -0.023, -0.017, -0.005
0.120, 0.350, 0.750, -0.024, -0.018, -0.005
0.120, 0.400, 0.750, -0.024, -0.017, -0.005
0.170, 0.400, 0.750, -0.023, -0.018, -0.005
0.220, 0.400, 0.750, -0.021, -0.018, -0.005
0.270, 0.400, 0.750, -0.021, -0.018, -0.006
0.320, 0.400, 0.750, -0.020, -0.018, -0.006
0.370, 0.400, 0.750, -0.019, -0.019, -0.006
0.420, 0.400, 0.750, -0.018, -0.021, -0.006
0.470, 0.400, 0.750, -0.018, -0.021, -0.006
0.520, 0.400, 0.750, -0.018, -0.021, -0.006
0.570, 0.400, 0.750, -0.018, -0.027, -0.006
0.620, 0.400, 0.750, -0.018, -0.030, -0.006
0.620, 0.450, 0.750, -0.018, -0.030, -0.007
0.570, 0.450, 0.750, -0.018, -0.028, -0.007
0.520, 0.450, 0.750, -0.018, -0.023, -0.006
0.470, 0.450, 0.750, -0.018, -0.021, -0.006
0.420, 0.450, 0.750, -0.018, -0.021, -0.006
0.370, 0.450, 0.750, -0.019, -0.021, -0.006
0.320, 0.450, 0.750, -0.020, -0.020, -0.006
0.270, 0.450, 0.750, -0.021, -0.019, -0.006
0.220, 0.450, 0.750, -0.021, -0.018, -0.006
0.170, 0.450, 0.750, -0.024, -0.018, -0.006
0.120, 0.450, 0.750, -0.025, -0.018, -0.006
0.120, 0.500, 0.750, -0.024, -0.018, -0.006
0.170, 0.500, 0.750, -0.023, -0.018, -0.006
0.220, 0.500, 0.750, -0.021, -0.019, -0.006
0.270, 0.500, 0.750, -0.021, -0.020, -0.006
0.320, 0.500, 0.750, -0.020, -0.021, -0.006
0.370, 0.500, 0.750, -0.019, -0.021, -0.007
0.420, 0.500, 0.750, -0.018, -0.021, -0.007
0.470, 0.500, 0.750, -0.018, -0.021, -0.007
0.520, 0.500, 0.750, -0.018, -0.027, -0.008
0.570, 0.500, 0.750, -0.018, -0.030, -0.009
0.620, 0.500, 0.750, -0.017, -0.031, -0.009
0.620, 0.550, 0.750, -0.016, -0.033, -0.009
0.570, 0.550, 0.750, -0.018, -0.030, -0.009
0.520, 0.550, 0.750, -0.018, -0.028, -0.009
0.470, 0.550, 0.750, -0.018, -0.026, -0.009
0.420, 0.550, 0.750, -0.018, -0.021, -0.009
0.370, 0.550, 0.750, -0.018, -0.021, -0.008
0.320, 0.550, 0.750, -0.019, -0.021, -0.008
0.270, 0.550, 0.750, -0.021, -0.021, -0.008
0.220, 0.550, 0.750, -0.021, -0.021, -0.007
0.170, 0.550, 0.750, -0.023, -0.020, -0.007
0.120, 0.550, 0.750, -0.024, -0.020, -0.007
0.120, 0.600, 0.750, -0.024, -0.021, -0.008
0.170, 0.600, 0.750, -0.022, -0.021, -0.009
0.220, 0.600, 0.750, -0.021, -0.021, -0.009
0.270, 0.600, 0.750, -0.021, -0.021, -0.009
0.320, 0.600, 0.750, -0.019, -0.021, -0.009
0.370, 0.600, 0.750, -0.018, -0.022, -0.010
0.420, 0.600, 0.750, -0.018, -0.027, -0.011
0.470, 0.600, 0.750, -0.018, -0.029, -0.012
0.520, 0.600, 0.750, -0.018, -0.030, -0.013
0.570, 0.600, 0.750, -0.017, -0.032, -0.014
0.620, 0.600, 0.750, -0.015, -0.036, -0.015
0.120, 0.100, 0.850, -0.024, -0.015, -0.001
0.170, 0.100, 0.850, -0.022, -0.015, -0.001
0.220, 0.100, 0.850, -0.021, -0.017, -0.001
0.270, 0.100, 0.850, -0.020, -0.018, -0.002
0.320, 0.100, 0.850, -0.018, -0.018, -0.001
0.370, 0.100, 0.850, -0.017, -0.019, -0.001
0.420, 0.100, 0.850, -0.015, -0.021, -0.001
0.470, 0.100, 0.850, -0.015, -0.021, 0.000
0.520, 0.100, 0.850, -0.012, -0.021, 0.000
0.570, 0.100, 0.850, -0.011, -0.021, 0.000
0.620, 0.100, 0.850, -0.008, -0.025, 0.000
0.620, 0.150, 0.850, -0.009, -0.025, 0.000
0.570, 0.150, 0.850, -0.012, -0.021, 0.000
0.520, 0.150, 0.850, -0.014, -0.021, -0.001
0.470, 0.150, 0.850, -0.015, -0.021, -0.002
0.420, 0.150, 0.850, -0.016, -0.020, -0.002
0.370, 0.150, 0.850, -0.018, -0.018, -0.003
0.320, 0.150, 0.850, -0.018, -0.018, -0.003
0.270, 0.150, 0.850, -0.020, -0.018, -0.003
0.220, 0.150, 0.850, -0.021, -0.016, -0.003
0.203, 0.150, 0.850, -0.021, -0.016, -0.002
0.170, 0.150, 0.850, -0.023, -0.015, -0.002
0.120, 0.200, 0.850, -0.024, -0.015, -0.003
0.170, 0.200, 0.850, -0.022, -0.015, -0.003
0.220, 0.200, 0.850, -0.021, -0.016, -0.003
0.270, 0.200, 0.850, -0.020, -0.016, -0.003
0.320, 0.200, 0.850, -0.019, -0.018, -0.003
0.370, 0.200, 0.850, -0.018, -0.018, -0.003
0.420, 0.200, 0.850, -0.017, -0.019, -0.003
0.470, 0.200, 0.850, -0.015, -0.021, -0.003
0.520, 0.200, 0.850, -0.015, -0.021, -0.003
0.570, 0.200, 0.850, -0.012, -0.021, -0.002
0.620, 0.200, 0.850, -0.011, -0.025, -0.001
0.620, 0.250, 0.850, -0.011, -0.026, -0.003
0.570, 0.250, 0.850, -0.013, -0.021, -0.003
0.520, 0.250, 0.850, -0.015, -0.021, -0.003
0.470, 0.250, 0.850, -0.015, -0.020, -0.003
0.420, 0.250, 0.850, -0.017, -0.018, -0.003
0.370, 0.250, 0.850, -0.018, -0.018, -0.003
0.320, 0.250, 0.850, -0.018, -0.017, -0.003
0.270, 0.250, 0.850, -0.021, -0.017, -0.003
0.220, 0.250, 0.850, -0.021, -0.016, -0.003
0.170, 0.250, 0.850, -0.022, -0.015, -0.003
0.120, 0.250, 0.850, -0.024, -0.015, -0.003
0.120, 0.300, 0.850, -0.024, -0.015, -0.004
0.170, 0.300, 0.850, -0.022, -0.015, -0.004
0.220, 0.300, 0.850, -0.021, -0.015, -0.004
0.270, 0.300, 0.850, -0.020, -0.016, -0.004
0.320, 0.300, 0.850, -0.019, -0.017, -0.005
0.370, 0.300, 0.850, -0.018, -0.018, -0.005
0.420, 0.300, 0.850, -0.017, -0.019, -0.004
0.470, 0.300, 0.850, -0.015, -0.020, -0.005
0.520, 0.300, 0.850, -0.015, -0.021, -0.005
0.570, 0.300, 0.850, -0.013, -0.021, -0.004
0.620, 0.300, 0.850, -0.012, -0.026, -0.005
0.620, 0.300, 0.850, -0.011, -0.025, -0.005
0.420, 0.350, 0.850, -0.018, -0.018, -0.006
0.370, 0.350, 0.850, -0.018, -0.018, -0.005
0.320, 0.350, 0.850, -0.019, -0.018, -0.005
0.270, 0.350, 0.850, -0.020, -0.017, -0.005
0.220, 0.350, 0.850, -0.021, -0.015, -0.005
0.170, 0.350, 0.850, -0.023, -0.015, -0.005
0.120, 0.350, 0.850, -0.024, -0.015, -0.005
0.120, 0.400, 0.850, -0.024, -0.014, -0.005
0.170, 0.400, 0.850, -0.022, -0.015, -0.006
0.220, 0.400, 0.850, -0.021, -0.015, -0.006
0.270, 0.400, 0.850, -0.020, -0.016, -0.006
0.320, 0.400, 0.850, -0.019, -0.017, -0.006
0.370, 0.400, 0.850, -0.018, -0.018, -0.006
0.420, 0.400, 0.850, -0.017, -0.018, -0.006
0.470, 0.400, 0.850, -0.016, -0.020, -0.006
0.520, 0.400, 0.850, -0.015, -0.021, -0.006
0.570, 0.400, 0.850, -0.013, -0.021, -0.007
0.620, 0.400, 0.850, -0.011, -0.024, -0.008
0.620, 0.450, 0.850, -0.010, -0.025, -0.009
0.570, 0.450, 0.850, -0.012, -0.021, -0.009
0.520, 0.450, 0.850, -0.015, -0.021, -0.008
0.470, 0.450, 0.850, -0.016, -0.020, -0.008
0.420, 0.450, 0.850, -0.016, -0.018, -0.007
0.370, 0.450, 0.850, -0.018, -0.018, -0.007
0.320, 0.450, 0.850, -0.018, -0.017, -0.007
0.270, 0.450, 0.850, -0.020, -0.015, -0.006
0.220, 0.450, 0.850, -0.021, -0.015, -0.006
0.170, 0.450, 0.850, -0.021, -0.014, -0.006
0.120, 0.450, 0.850, -0.024, -0.013, -0.006
0.120, 0.500, 0.850, -0.024, -0.012, -0.006
0.170, 0.500, 0.850, -0.021, -0.014, -0.006
0.220, 0.500, 0.850, -0.021, -0.015, -0.007
0.270, 0.500, 0.850, -0.019, -0.015, -0.008
0.320, 0.500, 0.850, -0.018, -0.016, -0.008
0.370, 0.500, 0.850, -0.017, -0.017, -0.009
0.420, 0.500, 0.850, -0.016, -0.018, -0.009
0.470, 0.500, 0.850, -0.015, -0.019, -0.009
0.520, 0.500, 0.850, -0.014, -0.021, -0.010
0.570, 0.500, 0.850, -0.012, -0.021, -0.010
0.620, 0.500, 0.850, -0.009, -0.022, -0.011
0.620, 0.550, 0.850, -0.009, -0.022, -0.015
0.570, 0.550, 0.850, -0.012, -0.021, -0.015
0.520, 0.550, 0.850, -0.013, -0.021, -0.015
0.470, 0.550, 0.850, -0.015, -0.020, -0.014
0.420, 0.550, 0.850, -0.015, -0.018, -0.012
0.370, 0.550, 0.850, -0.017, -0.017, -0.011
0.320, 0.550, 0.850, -0.018, -0.016, -0.010
0.270, 0.550, 0.850, -0.018, -0.015, -0.009
0.220, 0.550, 0.850, -0.019, -0.015, -0.009
0.170, 0.550, 0.850, -0.021, -0.012, -0.008
0.120, 0.550, 0.850, -0.022, -0.012, -0.007
0.120, 0.600, 0.850, -0.022, -0.012, -0.009
0.170, 0.600, 0.850, -0.021, -0.012, -0.010
0.220, 0.600, 0.850, -0.019, -0.014, -0.010
0.270, 0.600, 0.850, -0.018, -0.015, -0.012
0.320, 0.600, 0.850, -0.016, -0.015, -0.015
0.370, 0.600, 0.850, -0.016, -0.017, -0.015
0.420, 0.600, 0.850, -0.015, -0.018, -0.016
0.470, 0.600, 0.850, -0.014, -0.020, -0.017
0.520, 0.600, 0.850, -0.013, -0.021, -0.017
0.570, 0.600, 0.850, -0.011, -0.021, -0.018
0.620, 0.600, 0.850, -0.008, -0.021, -0.018
0.000, 0.016, 0.400, -0.014, 0.001, -0.015
