0.000, 0.050, 0.500, -0.021, -0.021, 0.045
0.102, 0.152, 0.520, -0.039, -0.045, 0.076
0.152, 0.152, 0.520, -0.036, -0.048, 0.075
0.202, 0.152, 0.520, -0.036, -0.052, 0.073
0.252, 0.152, 0.520, -0.034, -0.055, 0.072
0.302, 0.152, 0.520, -0.033, -0.059, 0.070
0.352, 0.152, 0.520, -0.033, -0.063, 0.070
0.402, 0.152, 0.520, -0.033, -0.064, 0.070
0.452, 0.152, 0.520, -0.032, -0.072, 0.070
0.502, 0.152, 0.520, -0.030, -0.073, 0.073
0.552, 0.152, 0.520, -0.027, -0.080, 0.075
0.602, 0.152, 0.520, -0.021, -0.085, 0.079
0.602, 0.202, 0.520, -0.018, -0.076, 0.079
0.552, 0.202, 0.520, -0.023, -0.072, 0.076
0.502, 0.202, 0.520, -0.027, -0.065, 0.073
0.452, 0.202, 0.520, -0.030, -0.063, 0.073
0.402, 0.202, 0.520, -0.032, -0.059, 0.072
0.352, 0.202, 0.520, -0.033, -0.055, 0.072
0.302, 0.202, 0.520, -0.034, -0.051, 0.072
0.252, 0.202, 0.520, -0.035, -0.048, 0.073
0.202, 0.202, 0.520, -0.036, -0.044, 0.073
0.152, 0.202, 0.520, -0.036, -0.040, 0.075
0.102, 0.202, 0.520, -0.042, -0.037, 0.076
0.102, 0.252, 0.520, -0.043, -0.030, 0.075
0.152, 0.252, 0.520, -0.037, -0.033, 0.074
0.202, 0.252, 0.520, -0.036, -0.036, 0.073
0.252, 0.252, 0.520, -0.036, -0.039, 0.073
0.302, 0.252, 0.520, -0.034, -0.043, 0.072
0.352, 0.252, 0.520, -0.033, -0.046, 0.073
0.402, 0.252, 0.520, -0.031, -0.050, 0.073
0.452, 0.252, 0.520, -0.029, -0.054, 0.073
0.502, 0.252, 0.520, -0.026, -0.058, 0.073
0.552, 0.252, 0.520, -0.021, -0.062, 0.076
0.602, 0.252, 0.520, -0.014, -0.066, 0.077
0.602, 0.302, 0.520, -0.012, -0.057, 0.076
0.552, 0.302, 0.520, -0.018, -0.053, 0.074
0.502, 0.302, 0.520, -0.024, -0.050, 0.073
0.452, 0.302, 0.520, -0.027, -0.046, 0.073
0.402, 0.302, 0.520, -0.030, -0.042, 0.072
0.352, 0.302, 0.520, -0.032, -0.039, 0.072
0.302, 0.302, 0.520, -0.033, -0.035, 0.072
0.252, 0.302, 0.520, -0.036, -0.031, 0.073
0.202, 0.302, 0.520, -0.036, -0.030, 0.073
0.152, 0.302, 0.520, -0.037, -0.027, 0.073
0.102, 0.302, 0.520, -0.043, -0.021, 0.073
0.102, 0.352, 0.520, -0.043, -0.015, 0.071
0.152, 0.352, 0.520, -0.037, -0.019, 0.072
0.202, 0.352, 0.520, -0.036, -0.021, 0.071
0.252, 0.352, 0.520, -0.036, -0.027, 0.071
0.302, 0.352, 0.520, -0.034, -0.030, 0.070
0.352, 0.352, 0.520, -0.032, -0.030, 0.070
0.402, 0.352, 0.520, -0.030, -0.034, 0.070
0.452, 0.352, 0.520, -0.027, -0.038, 0.071
0.502, 0.352, 0.520, -0.024, -0.042, 0.072
0.552, 0.352, 0.520, -0.018, -0.045, 0.073
0.602, 0.352, 0.520, -0.011, -0.048, 0.073
0.402, 0.402, 0.520, -0.029, -0.029, 0.070
0.352, 0.402, 0.520, -0.031, -0.024, 0.070
0.302, 0.402, 0.520, -0.033, -0.021, 0.070
0.252, 0.402, 0.520, -0.035, -0.018, 0.070
0.202, 0.402, 0.520, -0.036, -0.015, 0.070
0.152, 0.402, 0.520, -0.037, -0.012, 0.070
0.102, 0.402, 0.520, -0.042, -0.007, 0.070
0.102, 0.452, 0.520, -0.042, 0.000, 0.067
0.152, 0.452, 0.520, -0.039, -0.003, 0.067
0.202, 0.452, 0.520, -0.036, -0.008, 0.066
0.252, 0.452, 0.520, -0.036, -0.012, 0.067
0.302, 0.452, 0.520, -0.033, -0.015, 0.067
0.352, 0.452, 0.520, -0.031, -0.018, 0.067
0.402, 0.452, 0.520, -0.029, -0.021, 0.067
0.452, 0.452, 0.520, -0.027, -0.024, 0.067
0.502, 0.452, 0.520, -0.022, -0.029, 0.068
0.552, 0.452, 0.520, -0.017, -0.030, 0.068
0.602, 0.452, 0.520, -0.009, -0.033, 0.069
0.602, 0.502, 0.520, -0.009, -0.027, 0.064
0.552, 0.502, 0.520, -0.016, -0.023, 0.064
0.502, 0.502, 0.520, -0.021, -0.021, 0.064
0.452, 0.502, 0.520, -0.025, -0.019, 0.064
0.402, 0.502, 0.520, -0.029, -0.015, 0.064
0.352, 0.502, 0.520, -0.031, -0.012, 0.064
0.302, 0.502, 0.520, -0.033, -0.008, 0.064
0.252, 0.502, 0.520, -0.035, -0.004, 0.064
0.202, 0.502, 0.520, -0.037, 0.000, 0.064
0.152, 0.502, 0.520, -0.040, 0.000, 0.064
0.102, 0.502, 0.520, -0.042, 0.002, 0.065
0.102, 0.552, 0.520, -0.042, 0.009, 0.064
0.152, 0.552, 0.520, -0.039, 0.005, 0.064
0.202, 0.552, 0.520, -0.037, 0.000, 0.063
0.252, 0.552, 0.520, -0.036, 0.000, 0.063
0.302, 0.552, 0.520, -0.033, -0.001, 0.062
0.352, 0.552, 0.520, -0.031, -0.005, 0.062
0.402, 0.552, 0.520, -0.029, -0.009, 0.062
0.452, 0.552, 0.520, -0.026, -0.012, 0.063
0.502, 0.552, 0.520, -0.022, -0.015, 0.063
0.552, 0.552, 0.520, -0.016, -0.018, 0.063
0.602, 0.552, 0.520, -0.009, -0.021, 0.063
0.602, 0.602, 0.520, -0.009, -0.014, 0.062
0.552, 0.602, 0.520, -0.016, -0.012, 0.061
0.502, 0.602, 0.520, -0.021, -0.009, 0.061
0.452, 0.602, 0.520, -0.025, -0.006, 0.061
0.402, 0.602, 0.520, -0.028, -0.001, 0.061
0.352, 0.602, 0.520, -0.031, 0.000, 0.061
0.302, 0.602, 0.520, -0.033, 0.000, 0.061
0.252, 0.602, 0.520, -0.036, 0.004, 0.062
0.202, 0.602, 0.520, -0.037, 0.009, 0.063
0.152, 0.602, 0.520, -0.039, 0.016, 0.064
0.102, 0.602, 0.520, -0.042, 0.021, 0.064
0.102, 0.652, 0.520, -0.045, 0.030, 0.065
0.152, 0.652, 0.520, -0.042, 0.024, 0.064
0.202, 0.652, 0.520, -0.039, 0.017, 0.062
0.252, 0.652, 0.520, -0.036, 0.012, 0.061
0.302, 0.652, 0.520, -0.033, 0.009, 0.061
0.352, 0.652, 0.520, -0.032, 0.004, 0.061
0.402, 0.652, 0.520, -0.029, 0.000, 0.061
0.452, 0.652, 0.520, -0.026, 0.000, 0.061
0.502, 0.652, 0.520, -0.021, -0.001, 0.061
0.552, 0.652, 0.520, -0.016, -0.003, 0.062
0.602, 0.652, 0.520, -0.009, -0.006, 0.063
0.102, 0.152, 0.570, -0.036, -0.040, 0.070
0.152, 0.152, 0.570, -0.033, -0.044, 0.067
0.202, 0.152, 0.570, -0.032, -0.048, 0.064
0.252, 0.152, 0.570, -0.030, -0.052, 0.063
0.302, 0.152, 0.570, -0.030, -0.055, 0.061
0.352, 0.152, 0.570, -0.030, -0.058, 0.061
0.402, 0.152, 0.570, -0.028, -0.062, 0.061
0.452, 0.152, 0.570, -0.027, -0.064, 0.061
0.502, 0.152, 0.570, -0.025, -0.070, 0.063
0.552, 0.152, 0.570, -0.023, -0.073, 0.065
0.602, 0.152, 0.570, -0.018, -0.076, 0.071
0.602, 0.202, 0.570, -0.015, -0.067, 0.070
0.552, 0.202, 0.570, -0.019, -0.064, 0.068
0.502, 0.202, 0.570, -0.024, -0.061, 0.064
0.452, 0.202, 0.570, -0.026, -0.058, 0.063
0.402, 0.202, 0.570, -0.028, -0.055, 0.062
0.352, 0.202, 0.570, -0.030, -0.051, 0.062
0.302, 0.202, 0.570, -0.030, -0.048, 0.062
0.252, 0.202, 0.570, -0.031, -0.045, 0.063
0.202, 0.202, 0.570, -0.033, -0.042, 0.064
0.152, 0.202, 0.570, -0.035, -0.037, 0.067
0.102, 0.202, 0.570, -0.036, -0.034, 0.069
0.102, 0.252, 0.570, -0.036, -0.029, 0.065
0.152, 0.252, 0.570, -0.036, -0.030, 0.064
0.202, 0.252, 0.570, -0.033, -0.034, 0.064
0.252, 0.252, 0.570, -0.032, -0.037, 0.064
0.302, 0.252, 0.570, -0.030, -0.041, 0.063
0.352, 0.252, 0.570, -0.029, -0.044, 0.063
0.402, 0.252, 0.570, -0.027, -0.048, 0.063
0.452, 0.252, 0.570, -0.025, -0.051, 0.064
0.502, 0.252, 0.570, -0.022, -0.054, 0.064
0.552, 0.252, 0.570, -0.018, -0.057, 0.067
0.602, 0.252, 0.570, -0.012, -0.058, 0.070
0.602, 0.302, 0.570, -0.009, -0.049, 0.067
0.552, 0.302, 0.570, -0.016, -0.048, 0.064
0.502, 0.302, 0.570, -0.021, -0.046, 0.063
0.452, 0.302, 0.570, -0.024, -0.043, 0.063
0.402, 0.302, 0.570, -0.027, -0.040, 0.062
0.352, 0.302, 0.570, -0.029, -0.037, 0.062
0.302, 0.302, 0.570, -0.030, -0.034, 0.063
0.252, 0.302, 0.570, -0.032, -0.031, 0.063
0.202, 0.302, 0.570, -0.033, -0.030, 0.063
0.152, 0.302, 0.570, -0.036, -0.026, 0.064
0.102, 0.302, 0.570, -0.036, -0.021, 0.064
0.102, 0.352, 0.570, -0.036, -0.015, 0.061
0.152, 0.352, 0.570, -0.036, -0.018, 0.061
0.202, 0.352, 0.570, -0.034, -0.021, 0.062
0.252, 0.352, 0.570, -0.033, -0.027, 0.061
0.302, 0.352, 0.570, -0.030, -0.030, 0.061
0.352, 0.352, 0.570, -0.029, -0.030, 0.061
0.402, 0.352, 0.570, -0.027, -0.033, 0.061
0.452, 0.352, 0.570, -0.024, -0.036, 0.062
0.502, 0.352, 0.570, -0.021, -0.039, 0.062
0.552, 0.352, 0.570, -0.015, -0.042, 0.063
0.602, 0.352, 0.570, -0.009, -0.042, 0.064
0.402, 0.402, 0.570, -0.026, -0.029, 0.061
0.352, 0.402, 0.570, -0.028, -0.024, 0.061
0.302, 0.402, 0.570, -0.030, -0.021, 0.060
0.252, 0.402, 0.570, -0.032, -0.019, 0.061
0.202, 0.402, 0.570, -0.033, -0.015, 0.061
0.152, 0.402, 0.570, -0.036, -0.012, 0.061
0.102, 0.402, 0.570, -0.036, -0.007, 0.061
0.102, 0.452, 0.570, -0.037, 0.000, 0.059
0.152, 0.452, 0.570, -0.036, -0.004, 0.059
0.202, 0.452, 0.570, -0.034, -0.009, 0.059
0.252, 0.452, 0.570, -0.032, -0.012, 0.059
0.302, 0.452, 0.570, -0.030, -0.016, 0.059
0.352, 0.452, 0.570, -0.029, -0.019, 0.059
0.402, 0.452, 0.570, -0.027, -0.021, 0.060
0.452, 0.452, 0.570, -0.024, -0.023, 0.060
0.502, 0.452, 0.570, -0.020, -0.027, 0.060
0.552, 0.452, 0.570, -0.015, -0.030, 0.060
0.602, 0.452, 0.570, -0.008, -0.030, 0.060
0.602, 0.502, 0.570, -0.008, -0.023, 0.058
0.552, 0.502, 0.570, -0.014, -0.021, 0.058
0.502, 0.502, 0.570, -0.018, -0.021, 0.058
0.452, 0.502, 0.570, -0.023, -0.018, 0.058
0.402, 0.502, 0.570, -0.025, -0.015, 0.058
0.352, 0.502, 0.570, -0.028, -0.012, 0.058
0.302, 0.502, 0.570, -0.030, -0.009, 0.058
0.252, 0.502, 0.570, -0.032, -0.006, 0.058
0.202, 0.502, 0.570, -0.033, -0.001, 0.058
0.152, 0.502, 0.570, -0.035, 0.000, 0.058
0.102, 0.502, 0.570, -0.037, 0.003, 0.058
0.102, 0.552, 0.570, -0.037, 0.011, 0.057
0.152, 0.552, 0.570, -0.035, 0.005, 0.057
0.202, 0.552, 0.570, -0.033, 0.000, 0.057
0.252, 0.552, 0.570, -0.032, 0.000, 0.057
0.302, 0.552, 0.570, -0.030, -0.002, 0.057
0.352, 0.552, 0.570, -0.028, -0.006, 0.057
0.402, 0.552, 0.570, -0.026, -0.009, 0.057
0.452, 0.552, 0.570, -0.023, -0.012, 0.057
0.502, 0.552, 0.570, -0.019, -0.014, 0.057
0.552, 0.552, 0.570, -0.015, -0.015, 0.057
0.602, 0.552, 0.570, -0.009, -0.015, 0.057
0.602, 0.602, 0.570, -0.009, -0.008, 0.056
0.552, 0.602, 0.570, -0.014, -0.008, 0.056
0.502, 0.602, 0.570, -0.018, -0.006, 0.055
0.452, 0.602, 0.570, -0.022, -0.003, 0.055
0.402, 0.602, 0.570, -0.025, -0.001, 0.055
0.352, 0.602, 0.570, -0.027, 0.000, 0.055
0.302, 0.602, 0.570, -0.030, 0.000, 0.055
0.252, 0.602, 0.570, -0.031, 0.004, 0.055
0.202, 0.602, 0.570, -0.033, 0.009, 0.056
0.152, 0.602, 0.570, -0.035, 0.014, 0.056
0.102, 0.602, 0.570, -0.036, 0.020, 0.057
0.102, 0.652, 0.570, -0.037, 0.030, 0.056
0.152, 0.652, 0.570, -0.036, 0.023, 0.055
0.202, 0.652, 0.570, -0.034, 0.018, 0.055
0.252, 0.652, 0.570, -0.032, 0.012, 0.055
0.302, 0.652, 0.570, -0.030, 0.009, 0.054
0.352, 0.652, 0.570, -0.028, 0.005, 0.054
0.402, 0.652, 0.570, -0.026, 0.002, 0.055
0.452, 0.652, 0.570, -0.024, 0.000, 0.054
0.502, 0.652, 0.570, -0.019, 0.000, 0.055
0.552, 0.652, 0.570, -0.015, 0.000, 0.055
0.602, 0.652, 0.570, -0.009, 0.000, 0.055
0.102, 0.152, 0.620, -0.031, -0.042, 0.061
0.152, 0.152, 0.620, -0.030, -0.046, 0.058
0.202, 0.152, 0.620, -0.028, -0.049, 0.058
0.252, 0.152, 0.620, -0.027, -0.052, 0.057
0.302, 0.152, 0.620, -0.027, -0.055, 0.055
0.352, 0.152, 0.620, -0.025, -0.058, 0.055
0.402, 0.152, 0.620, -0.024, -0.061, 0.055
0.452, 0.152, 0.620, -0.024, -0.064, 0.055
0.502, 0.152, 0.620, -0.021, -0.066, 0.056
0.552, 0.152, 0.620, -0.018, -0.071, 0.058
0.602, 0.152, 0.620, -0.015, -0.073, 0.061
0.602, 0.202, 0.620, -0.012, -0.063, 0.060
0.552, 0.202, 0.620, -0.017, -0.061, 0.058
0.502, 0.202, 0.620, -0.020, -0.060, 0.057
0.452, 0.202, 0.620, -0.022, -0.057, 0.056
0.402, 0.202, 0.620, -0.024, -0.054, 0.056
0.352, 0.202, 0.620, -0.025, -0.052, 0.055
0.302, 0.202, 0.620, -0.027, -0.048, 0.057
0.252, 0.202, 0.620, -0.027, -0.045, 0.057
0.202, 0.202, 0.620, -0.029, -0.042, 0.058
0.152, 0.202, 0.620, -0.030, -0.038, 0.058
0.102, 0.202, 0.620, -0.032, -0.033, 0.059
0.102, 0.252, 0.620, -0.033, -0.030, 0.058
0.152, 0.252, 0.620, -0.030, -0.030, 0.058
0.202, 0.252, 0.620, -0.030, -0.034, 0.057
0.252, 0.252, 0.620, -0.028, -0.038, 0.057
0.302, 0.252, 0.620, -0.027, -0.041, 0.057
0.352, 0.252, 0.620, -0.025, -0.044, 0.057
0.402, 0.252, 0.620, -0.024, -0.046, 0.056
0.452, 0.252, 0.620, -0.021, -0.049, 0.057
0.502, 0.252, 0.620, -0.019, -0.052, 0.058
0.552, 0.252, 0.620, -0.015, -0.053, 0.058
0.602, 0.252, 0.620, -0.010, -0.054, 0.060
0.602, 0.302, 0.620, -0.009, -0.045, 0.058
0.552, 0.302, 0.620, -0.013, -0.045, 0.058
0.502, 0.302, 0.620, -0.018, -0.044, 0.057
0.452, 0.302, 0.620, -0.021, -0.042, 0.057
0.402, 0.302, 0.620, -0.024, -0.039, 0.056
0.352, 0.302, 0.620, -0.025, -0.036, 0.056
0.302, 0.302, 0.620, -0.027, -0.033, 0.056
0.252, 0.302, 0.620, -0.028, -0.031, 0.056
0.202, 0.302, 0.620, -0.030, -0.030, 0.057
0.152, 0.302, 0.620, -0.031, -0.026, 0.057
0.102, 0.302, 0.620, -0.033, -0.021, 0.057
0.102, 0.352, 0.620, -0.033, -0.015, 0.055
0.152, 0.352, 0.620, -0.031, -0.019, 0.055
0.202, 0.352, 0.620, -0.030, -0.021, 0.055
0.252, 0.352, 0.620, -0.028, -0.027, 0.055
0.302, 0.352, 0.620, -0.027, -0.030, 0.055
0.352, 0.352, 0.620, -0.025, -0.030, 0.055
0.402, 0.352, 0.620, -0.024, -0.033, 0.055
0.452, 0.352, 0.620, -0.021, -0.035, 0.055
0.502, 0.352, 0.620, -0.018, -0.037, 0.056
0.552, 0.352, 0.620, -0.014, -0.038, 0.057
0.602, 0.352, 0.620, -0.008, -0.038, 0.057
0.402, 0.402, 0.620, -0.022, -0.027, 0.055
0.352, 0.402, 0.620, -0.024, -0.022, 0.054
0.302, 0.402, 0.620, -0.027, -0.021, 0.055
0.252, 0.402, 0.620, -0.027, -0.018, 0.055
0.202, 0.402, 0.620, -0.030, -0.015, 0.055
0.152, 0.402, 0.620, -0.030, -0.012, 0.054
0.102, 0.402, 0.620, -0.032, -0.006, 0.055
0.102, 0.452, 0.620, -0.031, 0.000, 0.052
0.152, 0.452, 0.620, -0.030, -0.003, 0.052
0.202, 0.452, 0.620, -0.030, -0.009, 0.053
0.252, 0.452, 0.620, -0.028, -0.012, 0.053
0.302, 0.452, 0.620, -0.027, -0.015, 0.053
0.352, 0.452, 0.620, -0.024, -0.018, 0.054
0.402, 0.452, 0.620, -0.023, -0.021, 0.054
0.452, 0.452, 0.620, -0.021, -0.021, 0.054
0.502, 0.452, 0.620, -0.018, -0.021, 0.054
0.552, 0.452, 0.620, -0.013, -0.022, 0.054
0.602, 0.452, 0.620, -0.008, -0.022, 0.054
0.602, 0.502, 0.620, -0.009, -0.018, 0.052
0.552, 0.502, 0.620, -0.013, -0.018, 0.052
0.502, 0.502, 0.620, -0.017, -0.018, 0.052
0.452, 0.502, 0.620, -0.021, -0.015, 0.052
0.402, 0.502, 0.620, -0.023, -0.014, 0.052
0.352, 0.502, 0.620, -0.024, -0.011, 0.052
0.302, 0.502, 0.620, -0.026, -0.008, 0.052
0.252, 0.502, 0.620, -0.027, -0.004, 0.051
0.202, 0.502, 0.620, -0.029, 0.000, 0.052
0.152, 0.502, 0.620, -0.030, 0.000, 0.051
0.102, 0.502, 0.620, -0.031, 0.003, 0.051
0.102, 0.552, 0.620, -0.030, 0.012, 0.049
0.152, 0.552, 0.620, -0.030, 0.006, 0.049
0.202, 0.552, 0.620, -0.028, 0.001, 0.049
0.252, 0.552, 0.620, -0.027, 0.000, 0.050
0.302, 0.552, 0.620, -0.026, -0.001, 0.050
0.352, 0.552, 0.620, -0.024, -0.003, 0.050
0.402, 0.552, 0.620, -0.023, -0.006, 0.050
0.452, 0.552, 0.620, -0.021, -0.009, 0.050
0.502, 0.552, 0.620, -0.018, -0.010, 0.051
0.552, 0.552, 0.620, -0.014, -0.011, 0.051
0.602, 0.552, 0.620, -0.009, -0.009, 0.050
0.602, 0.602, 0.620, -0.009, -0.002, 0.049
0.552, 0.602, 0.620, -0.013, -0.003, 0.049
0.502, 0.602, 0.620, -0.018, -0.003, 0.048
0.452, 0.602, 0.620, -0.021, 0.000, 0.048
0.402, 0.602, 0.620, -0.022, 0.000, 0.048
0.352, 0.602, 0.620, -0.024, 0.000, 0.049
0.302, 0.602, 0.620, -0.026, 0.001, 0.048
0.252, 0.602, 0.620, -0.027, 0.005, 0.049
0.202, 0.602, 0.620, -0.028, 0.009, 0.048
0.152, 0.602, 0.620, -0.029, 0.015, 0.048
0.102, 0.602, 0.620, -0.030, 0.021, 0.048
0.102, 0.652, 0.620, -0.030, 0.033, 0.046
0.152, 0.652, 0.620, -0.029, 0.027, 0.046
0.202, 0.652, 0.620, -0.028, 0.018, 0.046
0.252, 0.652, 0.620, -0.027, 0.015, 0.046
0.302, 0.652, 0.620, -0.026, 0.009, 0.046
0.352, 0.652, 0.620, -0.024, 0.006, 0.046
0.402, 0.652, 0.620, -0.022, 0.003, 0.047
0.452, 0.652, 0.620, -0.021, 0.001, 0.047
0.502, 0.652, 0.620, -0.018, 0.000, 0.047
0.552, 0.652, 0.620, -0.015, 0.000, 0.048
0.602, 0.652, 0.620, -0.010, 0.001, 0.048
0.102, 0.152, 0.670, -0.027, -0.039, 0.054
0.152, 0.152, 0.670, -0.026, -0.043, 0.052
0.202, 0.152, 0.670, -0.025, -0.046, 0.051
0.252, 0.152, 0.670, -0.024, -0.048, 0.051
0.302, 0.152, 0.670, -0.024, -0.052, 0.049
0.352, 0.152, 0.670, -0.023, -0.054, 0.049
0.402, 0.152, 0.670, -0.022, -0.056, 0.049
0.452, 0.152, 0.670, -0.021, -0.059, 0.049
0.502, 0.152, 0.670, -0.019, -0.061, 0.049
0.552, 0.152, 0.670, -0.017, -0.064, 0.051
0.602, 0.152, 0.670, -0.014, -0.066, 0.052
0.602, 0.202, 0.670, -0.012, -0.057, 0.052
0.552, 0.202, 0.670, -0.015, -0.056, 0.052
0.502, 0.202, 0.670, -0.018, -0.054, 0.051
0.452, 0.202, 0.670, -0.020, -0.052, 0.050
0.402, 0.202, 0.670, -0.021, -0.050, 0.050
0.352, 0.202, 0.670, -0.023, -0.048, 0.050
0.302, 0.202, 0.670, -0.024, -0.045, 0.050
0.252, 0.202, 0.670, -0.024, -0.042, 0.051
0.202, 0.202, 0.670, -0.025, -0.039, 0.052
0.152, 0.202, 0.670, -0.027, -0.036, 0.052
0.102, 0.202, 0.670, -0.027, -0.032, 0.053
0.102, 0.252, 0.670, -0.028, -0.027, 0.052
0.152, 0.252, 0.670, -0.027, -0.030, 0.052
0.202, 0.252, 0.670, -0.026, -0.033, 0.051
0.252, 0.252, 0.670, -0.025, -0.036, 0.051
0.302, 0.252, 0.670, -0.024, -0.038, 0.051
0.352, 0.252, 0.670, -0.023, -0.040, 0.051
0.402, 0.252, 0.670, -0.021, -0.043, 0.051
0.452, 0.252, 0.670, -0.020, -0.045, 0.051
0.502, 0.252, 0.670, -0.018, -0.046, 0.051
0.552, 0.252, 0.670, -0.015, -0.048, 0.052
0.602, 0.252, 0.670, -0.010, -0.048, 0.052
0.602, 0.302, 0.670, -0.009, -0.042, 0.052
0.552, 0.302, 0.670, -0.014, -0.040, 0.051
0.502, 0.302, 0.670, -0.017, -0.039, 0.051
0.452, 0.302, 0.670, -0.019, -0.039, 0.051
0.402, 0.302, 0.670, -0.021, -0.037, 0.050
0.352, 0.302, 0.670, -0.024, -0.033, 0.050
0.302, 0.302, 0.670, -0.024, -0.032, 0.051
0.252, 0.302, 0.670, -0.025, -0.030, 0.051
0.202, 0.302, 0.670, -0.027, -0.029, 0.051
0.152, 0.302, 0.670, -0.027, -0.022, 0.051
0.102, 0.302, 0.670, -0.028, -0.021, 0.051
0.102, 0.352, 0.670, -0.028, -0.014, 0.049
0.152, 0.352, 0.670, -0.027, -0.018, 0.050
0.202, 0.352, 0.670, -0.027, -0.021, 0.049
0.252, 0.352, 0.670, -0.025, -0.023, 0.049
0.302, 0.352, 0.670, -0.024, -0.028, 0.049
0.352, 0.352, 0.670, -0.023, -0.030, 0.049
0.402, 0.352, 0.670, -0.021, -0.030, 0.050
0.452, 0.352, 0.670, -0.019, -0.033, 0.050
0.502, 0.352, 0.670, -0.017, -0.033, 0.050
0.552, 0.352, 0.670, -0.013, -0.033, 0.051
0.602, 0.352, 0.670, -0.010, -0.033, 0.051
0.402, 0.402, 0.670, -0.021, -0.027, 0.048
0.352, 0.402, 0.670, -0.023, -0.021, 0.049
0.302, 0.402, 0.670, -0.024, -0.021, 0.048
0.252, 0.402, 0.670, -0.025, -0.018, 0.049
0.202, 0.402, 0.670, -0.026, -0.015, 0.048
0.152, 0.402, 0.670, -0.027, -0.012, 0.048
0.102, 0.402, 0.670, -0.027, -0.006, 0.048
0.102, 0.452, 0.670, -0.027, 0.000, 0.046
0.152, 0.452, 0.670, -0.027, -0.004, 0.046
0.202, 0.452, 0.670, -0.026, -0.009, 0.047
0.252, 0.452, 0.670, -0.025, -0.012, 0.047
0.302, 0.452, 0.670, -0.024, -0.015, 0.047
0.352, 0.452, 0.670, -0.022, -0.018, 0.048
0.402, 0.452, 0.670, -0.021, -0.021, 0.048
0.452, 0.452, 0.670, -0.019, -0.021, 0.048
0.502, 0.452, 0.670, -0.016, -0.021, 0.048
0.552, 0.452, 0.670, -0.014, -0.021, 0.048
0.602, 0.452, 0.670, -0.010, -0.021, 0.048
0.602, 0.502, 0.670, -0.010, -0.015, 0.045
0.552, 0.502, 0.670, -0.013, -0.016, 0.045
0.502, 0.502, 0.670, -0.016, -0.016, 0.046
0.452, 0.502, 0.670, -0.018, -0.015, 0.046
0.402, 0.502, 0.670, -0.021, -0.014, 0.046
0.352, 0.502, 0.670, -0.022, -0.012, 0.046
0.302, 0.502, 0.670, -0.024, -0.009, 0.046
0.252, 0.502, 0.670, -0.024, -0.006, 0.045
0.202, 0.502, 0.670, -0.025, -0.003, 0.045
0.152, 0.502, 0.670, -0.025, 0.000, 0.045
0.102, 0.502, 0.670, -0.025, 0.000, 0.044
0.102, 0.552, 0.670, -0.024, 0.009, 0.042
0.152, 0.552, 0.670, -0.025, 0.003, 0.043
0.202, 0.552, 0.670, -0.025, 0.000, 0.042
0.252, 0.552, 0.670, -0.024, 0.000, 0.043
0.302, 0.552, 0.670, -0.024, -0.002, 0.043
0.352, 0.552, 0.670, -0.022, -0.005, 0.044
0.402, 0.552, 0.670, -0.021, -0.007, 0.044
0.452, 0.552, 0.670, -0.019, -0.009, 0.044
0.502, 0.552, 0.670, -0.017, -0.009, 0.044
0.552, 0.552, 0.670, -0.015, -0.009, 0.044
0.602, 0.552, 0.670, -0.012, -0.008, 0.044
0.602, 0.602, 0.670, -0.012, 0.000, 0.042
0.552, 0.602, 0.670, -0.015, -0.003, 0.042
0.502, 0.602, 0.670, -0.017, -0.003, 0.042
0.452, 0.602, 0.670, -0.019, -0.002, 0.042
0.402, 0.602, 0.670, -0.021, 0.000, 0.042
0.352, 0.602, 0.670, -0.022, 0.000, 0.042
0.302, 0.602, 0.670, -0.023, 0.000, 0.042
0.252, 0.602, 0.670, -0.024, 0.003, 0.040
0.202, 0.602, 0.670, -0.024, 0.006, 0.039
0.152, 0.602, 0.670, -0.024, 0.012, 0.037
0.102, 0.602, 0.670, -0.024, 0.018, 0.037
0.102, 0.652, 0.670, -0.022, 0.030, 0.033
0.152, 0.652, 0.670, -0.024, 0.021, 0.034
0.202, 0.652, 0.670, -0.024, 0.015, 0.035
0.252, 0.652, 0.670, -0.024, 0.010, 0.036
0.302, 0.652, 0.670, -0.022, 0.007, 0.036
0.352, 0.652, 0.670, -0.022, 0.004, 0.036
0.402, 0.652, 0.670, -0.021, 0.001, 0.036
0.452, 0.652, 0.670, -0.019, 0.000, 0.037
0.502, 0.652, 0.670, -0.018, 0.000, 0.037
0.552, 0.652, 0.670, -0.015, 0.000, 0.037
0.602, 0.652, 0.670, -0.012, 0.002, 0.037
0.102, 0.152, 0.720, -0.024, -0.041, 0.047
0.152, 0.152, 0.720, -0.024, -0.044, 0.046
0.202, 0.152, 0.720, -0.023, -0.047, 0.045
0.252, 0.152, 0.720, -0.022, -0.049, 0.045
0.302, 0.152, 0.720, -0.021, -0.052, 0.044
0.352, 0.152, 0.720, -0.021, -0.054, 0.043
0.402, 0.152, 0.720, -0.020, -0.055, 0.043
0.452, 0.152, 0.720, -0.019, -0.058, 0.043
0.502, 0.152, 0.720, -0.017, -0.059, 0.043
0.552, 0.152, 0.720, -0.015, -0.061, 0.043
0.602, 0.152, 0.720, -0.012, -0.063, 0.044
0.602, 0.202, 0.720, -0.012, -0.055, 0.045
0.552, 0.202, 0.720, -0.014, -0.054, 0.045
0.502, 0.202, 0.720, -0.016, -0.052, 0.045
0.452, 0.202, 0.720, -0.018, -0.051, 0.044
0.402, 0.202, 0.720, -0.020, -0.049, 0.044
0.352, 0.202, 0.720, -0.021, -0.047, 0.045
0.302, 0.202, 0.720, -0.021, -0.045, 0.045
0.252, 0.202, 0.720, -0.022, -0.042, 0.045
0.202, 0.202, 0.720, -0.024, -0.040, 0.045
0.152, 0.202, 0.720, -0.024, -0.036, 0.046
0.102, 0.202, 0.720, -0.024, -0.033, 0.046
0.102, 0.252, 0.720, -0.025, -0.029, 0.045
0.152, 0.252, 0.720, -0.024, -0.030, 0.046
0.202, 0.252, 0.720, -0.024, -0.033, 0.046
0.252, 0.252, 0.720, -0.023, -0.036, 0.045
0.302, 0.252, 0.720, -0.022, -0.039, 0.045
0.352, 0.252, 0.720, -0.021, -0.040, 0.045
0.402, 0.252, 0.720, -0.020, -0.042, 0.045
0.452, 0.252, 0.720, -0.018, -0.045, 0.045
0.502, 0.252, 0.720, -0.016, -0.046, 0.045
0.552, 0.252, 0.720, -0.014, -0.046, 0.045
0.602, 0.252, 0.720, -0.012, -0.046, 0.045
0.602, 0.302, 0.720, -0.011, -0.041, 0.045
0.552, 0.302, 0.720, -0.014, -0.040, 0.045
0.502, 0.302, 0.720, -0.015, -0.039, 0.045
0.452, 0.302, 0.720, -0.018, -0.038, 0.045
0.402, 0.302, 0.720, -0.019, -0.036, 0.045
0.352, 0.302, 0.720, -0.021, -0.034, 0.045
0.302, 0.302, 0.720, -0.022, -0.032, 0.045
0.252, 0.302, 0.720, -0.023, -0.030, 0.045
0.202, 0.302, 0.720, -0.024, -0.030, 0.045
0.152, 0.302, 0.720, -0.024, -0.026, 0.045
0.102, 0.302, 0.720, -0.024, -0.021, 0.045
0.102, 0.352, 0.720, -0.024, -0.016, 0.043
0.152, 0.352, 0.720, -0.024, -0.020, 0.044
0.202, 0.352, 0.720, -0.024, -0.021, 0.045
0.252, 0.352, 0.720, -0.023, -0.026, 0.044
0.302, 0.352, 0.720, -0.022, -0.029, 0.044
0.352, 0.352, 0.720, -0.021, -0.030, 0.045
0.402, 0.352, 0.720, -0.020, -0.030, 0.045
0.452, 0.352, 0.720, -0.018, -0.032, 0.045
0.502, 0.352, 0.720, -0.016, -0.033, 0.045
0.552, 0.352, 0.720, -0.014, -0.033, 0.044
0.602, 0.352, 0.720, -0.012, -0.032, 0.045
0.402, 0.402, 0.720, -0.019, -0.027, 0.043
0.352, 0.402, 0.720, -0.021, -0.022, 0.043
0.302, 0.402, 0.720, -0.021, -0.021, 0.043
0.252, 0.402, 0.720, -0.022, -0.019, 0.043
0.202, 0.402, 0.720, -0.023, -0.016, 0.043
0.152, 0.402, 0.720, -0.024, -0.012, 0.042
0.102, 0.402, 0.720, -0.024, -0.009, 0.042
0.102, 0.452, 0.720, -0.022, -0.003, 0.037
0.152, 0.452, 0.720, -0.023, -0.006, 0.039
0.202, 0.452, 0.720, -0.023, -0.009, 0.041
0.252, 0.452, 0.720, -0.022, -0.012, 0.041
0.302, 0.452, 0.720, -0.021, -0.015, 0.042
0.352, 0.452, 0.720, -0.021, -0.018, 0.042
0.402, 0.452, 0.720, -0.019, -0.020, 0.042
0.452, 0.452, 0.720, -0.018, -0.021, 0.042
0.502, 0.452, 0.720, -0.016, -0.021, 0.042
0.552, 0.452, 0.720, -0.015, -0.021, 0.042
0.602, 0.452, 0.720, -0.012, -0.021, 0.042
0.602, 0.502, 0.720, -0.013, -0.015, 0.037
0.552, 0.502, 0.720, -0.015, -0.016, 0.038
0.502, 0.502, 0.720, -0.016, -0.016, 0.037
0.452, 0.502, 0.720, -0.018, -0.015, 0.038
0.402, 0.502, 0.720, -0.019, -0.014, 0.037
0.352, 0.502, 0.720, -0.020, -0.012, 0.038
0.302, 0.502, 0.720, -0.021, -0.009, 0.036
0.252, 0.502, 0.720, -0.021, -0.006, 0.037
0.202, 0.502, 0.720, -0.022, -0.003, 0.036
0.152, 0.502, 0.720, -0.021, 0.000, 0.036
0.102, 0.502, 0.720, -0.021, 0.000, 0.035
0.102, 0.552, 0.720, -0.019, 0.006, 0.032
0.152, 0.552, 0.720, -0.021, 0.001, 0.033
0.202, 0.552, 0.720, -0.021, 0.000, 0.033
0.252, 0.552, 0.720, -0.021, 0.000, 0.034
0.302, 0.552, 0.720, -0.021, -0.003, 0.035
0.352, 0.552, 0.720, -0.021, -0.006, 0.036
0.402, 0.552, 0.720, -0.019, -0.008, 0.036
0.452, 0.552, 0.720, -0.018, -0.009, 0.036
0.502, 0.552, 0.720, -0.017, -0.009, 0.036
0.552, 0.552, 0.720, -0.015, -0.009, 0.035
0.602, 0.552, 0.720, -0.014, -0.009, 0.035
0.602, 0.602, 0.720, -0.015, -0.001, 0.033
0.552, 0.602, 0.720, -0.015, -0.003, 0.033
0.502, 0.602, 0.720, -0.017, -0.003, 0.033
0.452, 0.602, 0.720, -0.018, -0.003, 0.033
0.402, 0.602, 0.720, -0.019, 0.000, 0.033
0.352, 0.602, 0.720, -0.020, 0.000, 0.033
0.302, 0.602, 0.720, -0.021, 0.000, 0.032
0.252, 0.602, 0.720, -0.021, 0.001, 0.032
0.202, 0.602, 0.720, -0.020, 0.004, 0.030
0.152, 0.602, 0.720, -0.019, 0.009, 0.030
0.102, 0.602, 0.720, -0.018, 0.014, 0.029
0.102, 0.652, 0.720, -0.015, 0.023, 0.024
0.152, 0.652, 0.720, -0.018, 0.018, 0.026
0.202, 0.652, 0.720, -0.019, 0.012, 0.027
0.252, 0.652, 0.720, -0.020, 0.009, 0.028
0.302, 0.652, 0.720, -0.020, 0.006, 0.029
0.352, 0.652, 0.720, -0.020, 0.003, 0.030
0.402, 0.652, 0.720, -0.019, 0.000, 0.030
0.452, 0.652, 0.720, -0.018, 0.000, 0.030
0.502, 0.652, 0.720, -0.018, 0.000, 0.030
0.552, 0.652, 0.720, -0.017, 0.000, 0.030
0.602, 0.652, 0.720, -0.015, 0.001, 0.029
0.102, 0.152, 0.770, -0.021, -0.039, 0.037
0.152, 0.152, 0.770, -0.021, -0.041, 0.037
0.202, 0.152, 0.770, -0.021, -0.043, 0.037
0.252, 0.152, 0.770, -0.021, -0.046, 0.036
0.302, 0.152, 0.770, -0.020, -0.048, 0.036
0.352, 0.152, 0.770, -0.019, -0.049, 0.035
0.402, 0.152, 0.770, -0.018, -0.052, 0.035
0.452, 0.152, 0.770, -0.018, -0.052, 0.035
0.502, 0.152, 0.770, -0.015, -0.054, 0.034
0.552, 0.152, 0.770, -0.015, -0.055, 0.034
0.602, 0.152, 0.770, -0.012, -0.055, 0.034
0.602, 0.202, 0.770, -0.012, -0.049, 0.036
0.552, 0.202, 0.770, -0.014, -0.049, 0.036
0.502, 0.202, 0.770, -0.015, -0.048, 0.036
0.452, 0.202, 0.770, -0.017, -0.046, 0.036
0.402, 0.202, 0.770, -0.018, -0.045, 0.037
0.352, 0.202, 0.770, -0.018, -0.044, 0.037
0.302, 0.202, 0.770, -0.020, -0.042, 0.037
0.252, 0.202, 0.770, -0.021, -0.039, 0.037
0.202, 0.202, 0.770, -0.021, -0.037, 0.038
0.152, 0.202, 0.770, -0.021, -0.035, 0.039
0.102, 0.202, 0.770, -0.021, -0.032, 0.039
0.102, 0.252, 0.770, -0.021, -0.029, 0.037
0.152, 0.252, 0.770, -0.021, -0.030, 0.038
0.202, 0.252, 0.770, -0.021, -0.031, 0.037
0.252, 0.252, 0.770, -0.021, -0.034, 0.037
0.302, 0.252, 0.770, -0.020, -0.036, 0.037
0.352, 0.252, 0.770, -0.019, -0.038, 0.037
0.402, 0.252, 0.770, -0.018, -0.039, 0.037
0.452, 0.252, 0.770, -0.018, -0.041, 0.037
0.502, 0.252, 0.770, -0.015, -0.042, 0.036
0.552, 0.252, 0.770, -0.014, -0.042, 0.037
0.602, 0.252, 0.770, -0.012, -0.042, 0.037
0.602, 0.302, 0.770, -0.012, -0.036, 0.036
0.552, 0.302, 0.770, -0.014, -0.036, 0.037
0.502, 0.302, 0.770, -0.015, -0.036, 0.037
0.452, 0.302, 0.770, -0.017, -0.036, 0.037
0.402, 0.302, 0.770, -0.018, -0.033, 0.037
0.352, 0.302, 0.770, -0.019, -0.032, 0.037
0.302, 0.302, 0.770, -0.021, -0.030, 0.037
0.252, 0.302, 0.770, -0.021, -0.030, 0.037
0.202, 0.302, 0.770, -0.021, -0.028, 0.037
0.152, 0.302, 0.770, -0.021, -0.024, 0.037
0.102, 0.302, 0.770, -0.021, -0.021, 0.036
0.102, 0.352, 0.770, -0.021, -0.017, 0.036
0.152, 0.352, 0.770, -0.021, -0.020, 0.036
0.202, 0.352, 0.770, -0.021, -0.021, 0.036
0.252, 0.352, 0.770, -0.021, -0.024, 0.036
0.302, 0.352, 0.770, -0.020, -0.027, 0.036
0.352, 0.352, 0.770, -0.019, -0.030, 0.036
0.402, 0.352, 0.770, -0.018, -0.030, 0.037
0.452, 0.352, 0.770, -0.018, -0.030, 0.036
0.502, 0.352, 0.770, -0.016, -0.030, 0.036
0.552, 0.352, 0.770, -0.015, -0.030, 0.036
0.602, 0.352, 0.770, -0.013, -0.030, 0.036
0.402, 0.402, 0.770, -0.018, -0.022, 0.036
0.352, 0.402, 0.770, -0.019, -0.021, 0.036
0.302, 0.402, 0.770, -0.020, -0.021, 0.035
0.252, 0.402, 0.770, -0.020, -0.019, 0.035
0.202, 0.402, 0.770, -0.021, -0.017, 0.035
0.152, 0.402, 0.770, -0.021, -0.014, 0.034
0.102, 0.402, 0.770, -0.020, -0.011, 0.033
0.102, 0.452, 0.770, -0.018, -0.005, 0.031
0.152, 0.452, 0.770, -0.020, -0.009, 0.032
0.202, 0.452, 0.770, -0.020, -0.011, 0.033
0.252, 0.452, 0.770, -0.021, -0.014, 0.033
0.302, 0.452, 0.770, -0.020, -0.016, 0.033
0.352, 0.452, 0.770, -0.019, -0.018, 0.034
0.402, 0.452, 0.770, -0.018, -0.020, 0.034
0.452, 0.452, 0.770, -0.018, -0.021, 0.033
0.502, 0.452, 0.770, -0.016, -0.021, 0.033
0.552, 0.452, 0.770, -0.015, -0.021, 0.033
0.602, 0.452, 0.770, -0.015, -0.021, 0.033
0.602, 0.502, 0.770, -0.015, -0.015, 0.031
0.552, 0.502, 0.770, -0.015, -0.016, 0.032
0.502, 0.502, 0.770, -0.017, -0.016, 0.033
0.452, 0.502, 0.770, -0.018, -0.016, 0.033
0.402, 0.502, 0.770, -0.018, -0.015, 0.032
0.352, 0.502, 0.770, -0.018, -0.013, 0.032
0.302, 0.502, 0.770, -0.019, -0.011, 0.031
0.252, 0.502, 0.770, -0.019, -0.009, 0.031
0.202, 0.502, 0.770, -0.018, -0.006, 0.030
0.152, 0.502, 0.770, -0.018, -0.003, 0.030
0.102, 0.502, 0.770, -0.017, 0.000, 0.029
0.102, 0.552, 0.770, -0.015, 0.000, 0.026
0.152, 0.552, 0.770, -0.018, 0.000, 0.027
0.202, 0.552, 0.770, -0.018, 0.000, 0.028
0.252, 0.552, 0.770, -0.019, -0.003, 0.029
0.302, 0.552, 0.770, -0.019, -0.006, 0.030
0.352, 0.552, 0.770, -0.018, -0.007, 0.030
0.402, 0.552, 0.770, -0.018, -0.009, 0.030
0.452, 0.552, 0.770, -0.018, -0.010, 0.030
0.502, 0.552, 0.770, -0.017, -0.012, 0.030
0.552, 0.552, 0.770, -0.016, -0.011, 0.030
0.602, 0.552, 0.770, -0.016, -0.009, 0.030
0.602, 0.602, 0.770, -0.017, -0.004, 0.027
0.552, 0.602, 0.770, -0.017, -0.005, 0.027
0.502, 0.602, 0.770, -0.018, -0.006, 0.027
0.452, 0.602, 0.770, -0.018, -0.005, 0.027
0.402, 0.602, 0.770, -0.018, -0.003, 0.027
0.352, 0.602, 0.770, -0.018, -0.002, 0.027
0.302, 0.602, 0.770, -0.018, 0.000, 0.027
0.252, 0.602, 0.770, -0.018, 0.000, 0.026
0.202, 0.602, 0.770, -0.017, 0.000, 0.025
0.152, 0.602, 0.770, -0.015, 0.003, 0.024
0.102, 0.602, 0.770, -0.013, 0.006, 0.022
0.102, 0.652, 0.770, -0.011, 0.016, 0.018
0.152, 0.652, 0.770, -0.014, 0.010, 0.019
0.202, 0.652, 0.770, -0.015, 0.006, 0.021
0.252, 0.652, 0.770, -0.017, 0.003, 0.022
0.302, 0.652, 0.770, -0.018, 0.000, 0.023
0.352, 0.652, 0.770, -0.018, 0.000, 0.024
0.402, 0.652, 0.770, -0.018, 0.000, 0.024
0.452, 0.652, 0.770, -0.018, 0.000, 0.024
0.502, 0.652, 0.770, -0.018, 0.000, 0.024
0.552, 0.652, 0.770, -0.018, 0.000, 0.024
0.602, 0.652, 0.770, -0.018, 0.000, 0.023
0.102, 0.152, 0.820, -0.020, -0.039, 0.032
0.152, 0.152, 0.820, -0.020, -0.040, 0.032
0.202, 0.152, 0.820, -0.019, -0.042, 0.032
0.252, 0.152, 0.820, -0.018, -0.045, 0.031
0.302, 0.152, 0.820, -0.018, -0.046, 0.031
0.352, 0.152, 0.820, -0.018, -0.048, 0.030
0.402, 0.152, 0.820, -0.017, -0.049, 0.030
0.452, 0.152, 0.820, -0.016, -0.051, 0.030
0.502, 0.152, 0.820, -0.015, -0.052, 0.030
0.552, 0.152, 0.820, -0.013, -0.052, 0.030
0.602, 0.152, 0.820, -0.012, -0.052, 0.029
0.602, 0.202, 0.820, -0.012, -0.047, 0.031
0.552, 0.202, 0.820, -0.014, -0.048, 0.030
0.502, 0.202, 0.820, -0.015, -0.047, 0.031
0.452, 0.202, 0.820, -0.016, -0.046, 0.031
0.402, 0.202, 0.820, -0.017, -0.045, 0.032
0.352, 0.202, 0.820, -0.018, -0.043, 0.033
0.302, 0.202, 0.820, -0.018, -0.042, 0.033
0.252, 0.202, 0.820, -0.018, -0.040, 0.033
0.202, 0.202, 0.820, -0.019, -0.038, 0.033
0.152, 0.202, 0.820, -0.019, -0.036, 0.033
0.102, 0.202, 0.820, -0.019, -0.034, 0.033
0.102, 0.252, 0.820, -0.018, -0.030, 0.033
0.152, 0.252, 0.820, -0.019, -0.031, 0.033
0.202, 0.252, 0.820, -0.019, -0.033, 0.033
0.252, 0.252, 0.820, -0.019, -0.036, 0.033
0.302, 0.252, 0.820, -0.018, -0.037, 0.033
0.352, 0.252, 0.820, -0.018, -0.039, 0.033
0.402, 0.252, 0.820, -0.017, -0.039, 0.033
0.452, 0.252, 0.820, -0.016, -0.041, 0.032
0.502, 0.252, 0.820, -0.015, -0.042, 0.032
0.552, 0.252, 0.820, -0.014, -0.042, 0.032
0.602, 0.252, 0.820, -0.013, -0.042, 0.031
0.602, 0.302, 0.820, -0.013, -0.036, 0.031
0.552, 0.302, 0.820, -0.015, -0.037, 0.031
0.502, 0.302, 0.820, -0.015, -0.037, 0.033
0.452, 0.302, 0.820, -0.016, -0.036, 0.033
0.402, 0.302, 0.820, -0.017, -0.035, 0.033
0.352, 0.302, 0.820, -0.018, -0.033, 0.033
0.302, 0.302, 0.820, -0.018, -0.032, 0.033
0.252, 0.302, 0.820, -0.018, -0.030, 0.033
0.202, 0.302, 0.820, -0.019, -0.030, 0.033
0.152, 0.302, 0.820, -0.019, -0.028, 0.032
0.102, 0.302, 0.820, -0.018, -0.025, 0.032
0.102, 0.352, 0.820, -0.018, -0.021, 0.030
0.152, 0.352, 0.820, -0.018, -0.021, 0.031
0.202, 0.352, 0.820, -0.019, -0.025, 0.031
0.252, 0.352, 0.820, -0.019, -0.028, 0.031
0.302, 0.352, 0.820, -0.018, -0.030, 0.031
0.352, 0.352, 0.820, -0.018, -0.030, 0.032
0.402, 0.352, 0.820, -0.018, -0.030, 0.032
0.452, 0.352, 0.820, -0.016, -0.031, 0.032
0.502, 0.352, 0.820, -0.016, -0.032, 0.032
0.552, 0.352, 0.820, -0.015, -0.032, 0.031
0.602, 0.352, 0.820, -0.014, -0.031, 0.030
0.402, 0.402, 0.820, -0.018, -0.027, 0.031
0.352, 0.402, 0.820, -0.018, -0.026, 0.030
0.302, 0.402, 0.820, -0.018, -0.021, 0.030
0.252, 0.402, 0.820, -0.018, -0.021, 0.030
0.202, 0.402, 0.820, -0.018, -0.020, 0.030
0.152, 0.402, 0.820, -0.018, -0.018, 0.030
0.102, 0.402, 0.820, -0.017, -0.015, 0.029
0.102, 0.452, 0.820, -0.015, -0.009, 0.027
0.152, 0.452, 0.820, -0.017, -0.012, 0.027
0.202, 0.452, 0.820, -0.018, -0.015, 0.028
0.252, 0.452, 0.820, -0.018, -0.017, 0.029
0.302, 0.452, 0.820, -0.018, -0.019, 0.030
0.352, 0.452, 0.820, -0.018, -0.021, 0.030
0.402, 0.452, 0.820, -0.017, -0.021, 0.030
0.452, 0.452, 0.820, -0.017, -0.021, 0.030
0.502, 0.452, 0.820, -0.016, -0.021, 0.030
0.552, 0.452, 0.820, -0.015, -0.021, 0.030
0.602, 0.452, 0.820, -0.015, -0.021, 0.029
0.602, 0.502, 0.820, -0.016, -0.018, 0.027
0.552, 0.502, 0.820, -0.016, -0.019, 0.027
0.502, 0.502, 0.820, -0.016, -0.019, 0.027
0.452, 0.502, 0.820, -0.017, -0.018, 0.027
0.402, 0.502, 0.820, -0.017, -0.018, 0.027
0.352, 0.502, 0.820, -0.018, -0.015, 0.027
0.302, 0.502, 0.820, -0.018, -0.015, 0.027
0.252, 0.502, 0.820, -0.017, -0.012, 0.027
0.202, 0.502, 0.820, -0.017, -0.009, 0.027
0.152, 0.502, 0.820, -0.015, -0.007, 0.025
0.102, 0.502, 0.820, -0.015, -0.005, 0.024
0.102, 0.552, 0.820, -0.012, 0.000, 0.021
0.152, 0.552, 0.820, -0.015, -0.003, 0.023
0.202, 0.552, 0.820, -0.016, -0.005, 0.024
0.252, 0.552, 0.820, -0.017, -0.007, 0.024
0.302, 0.552, 0.820, -0.017, -0.009, 0.025
0.352, 0.552, 0.820, -0.018, -0.011, 0.025
0.402, 0.552, 0.820, -0.017, -0.012, 0.026
0.452, 0.552, 0.820, -0.017, -0.014, 0.025
0.502, 0.552, 0.820, -0.017, -0.014, 0.025
0.552, 0.552, 0.820, -0.017, -0.014, 0.025
0.602, 0.552, 0.820, -0.017, -0.013, 0.024
0.602, 0.602, 0.820, -0.018, -0.009, 0.022
0.552, 0.602, 0.820, -0.017, -0.009, 0.022
0.502, 0.602, 0.820, -0.017, -0.009, 0.023
0.452, 0.602, 0.820, -0.016, -0.009, 0.023
0.402, 0.602, 0.820, -0.017, -0.007, 0.023
0.352, 0.602, 0.820, -0.017, -0.006, 0.023
0.302, 0.602, 0.820, -0.016, -0.004, 0.022
0.252, 0.602, 0.820, -0.015, -0.002, 0.021
0.202, 0.602, 0.820, -0.015, 0.000, 0.021
0.152, 0.602, 0.820, -0.013, 0.000, 0.019
0.102, 0.602, 0.820, -0.010, 0.000, 0.018
0.102, 0.652, 0.820, -0.009, 0.003, 0.009
0.152, 0.652, 0.820, -0.011, 0.001, 0.015
0.202, 0.652, 0.820, -0.013, 0.000, 0.016
0.252, 0.652, 0.820, -0.015, 0.000, 0.018
0.302, 0.652, 0.820, -0.015, 0.000, 0.018
0.352, 0.652, 0.820, -0.016, -0.001, 0.018
0.402, 0.652, 0.820, -0.016, -0.003, 0.019
0.452, 0.652, 0.820, -0.017, -0.003, 0.019
0.502, 0.652, 0.820, -0.017, -0.004, 0.019
0.552, 0.652, 0.820, -0.018, -0.004, 0.018
0.602, 0.652, 0.820, -0.018, -0.003, 0.018
0.102, 0.152, 0.870, -0.018, -0.037, 0.028
0.152, 0.152, 0.870, -0.018, -0.039, 0.028
0.202, 0.152, 0.870, -0.018, -0.040, 0.028
0.252, 0.152, 0.870, -0.018, -0.042, 0.028
0.302, 0.152, 0.870, -0.017, -0.044, 0.028
0.352, 0.152, 0.870, -0.016, -0.046, 0.027
0.402, 0.152, 0.870, -0.015, -0.046, 0.027
0.452, 0.152, 0.870, -0.015, -0.047, 0.027
0.502, 0.152, 0.870, -0.015, -0.048, 0.027
0.552, 0.152, 0.870, -0.013, -0.048, 0.027
0.602, 0.152, 0.870, -0.012, -0.047, 0.026
0.602, 0.202, 0.870, -0.013, -0.043, 0.027
0.552, 0.202, 0.870, -0.013, -0.045, 0.027
0.502, 0.202, 0.870, -0.015, -0.044, 0.027
0.452, 0.202, 0.870, -0.015, -0.043, 0.028
0.402, 0.202, 0.870, -0.015, -0.042, 0.028
0.352, 0.202, 0.870, -0.016, -0.042, 0.028
0.302, 0.202, 0.870, -0.017, -0.039, 0.028
0.252, 0.202, 0.870, -0.018, -0.038, 0.028
0.202, 0.202, 0.870, -0.018, -0.036, 0.029
0.152, 0.202, 0.870, -0.018, -0.034, 0.029
0.102, 0.202, 0.870, -0.018, -0.033, 0.029
0.102, 0.252, 0.870, -0.017, -0.030, 0.028
0.152, 0.252, 0.870, -0.018, -0.030, 0.028
0.202, 0.252, 0.870, -0.018, -0.032, 0.029
0.252, 0.252, 0.870, -0.018, -0.033, 0.029
0.302, 0.252, 0.870, -0.018, -0.035, 0.029
0.352, 0.252, 0.870, -0.017, -0.037, 0.029
0.402, 0.252, 0.870, -0.016, -0.038, 0.028
0.452, 0.252, 0.870, -0.015, -0.039, 0.028
0.502, 0.252, 0.870, -0.015, -0.039, 0.028
0.552, 0.252, 0.870, -0.015, -0.040, 0.028
0.602, 0.252, 0.870, -0.014, -0.040, 0.027
0.602, 0.302, 0.870, -0.014, -0.035, 0.027
0.552, 0.302, 0.870, -0.015, -0.036, 0.028
0.502, 0.302, 0.870, -0.015, -0.036, 0.028
0.452, 0.302, 0.870, -0.015, -0.034, 0.028
0.402, 0.302, 0.870, -0.016, -0.033, 0.028
0.352, 0.302, 0.870, -0.017, -0.033, 0.028
0.302, 0.302, 0.870, -0.017, -0.030, 0.028
0.252, 0.302, 0.870, -0.018, -0.030, 0.028
0.202, 0.302, 0.870, -0.018, -0.030, 0.028
0.152, 0.302, 0.870, -0.017, -0.028, 0.028
0.102, 0.302, 0.870, -0.016, -0.027, 0.027
0.102, 0.352, 0.870, -0.016, -0.021, 0.027
0.152, 0.352, 0.870, -0.016, -0.021, 0.027
0.202, 0.352, 0.870, -0.017, -0.025, 0.027
0.252, 0.352, 0.870, -0.017, -0.027, 0.027
0.302, 0.352, 0.870, -0.018, -0.030, 0.027
0.352, 0.352, 0.870, -0.017, -0.030, 0.028
0.402, 0.352, 0.870, -0.016, -0.030, 0.027
0.452, 0.352, 0.870, -0.016, -0.030, 0.027
0.502, 0.352, 0.870, -0.015, -0.030, 0.027
0.552, 0.352, 0.870, -0.015, -0.031, 0.027
0.602, 0.352, 0.870, -0.015, -0.030, 0.027
0.402, 0.402, 0.870, -0.016, -0.027, 0.027
0.352, 0.402, 0.870, -0.017, -0.024, 0.027
0.302, 0.402, 0.870, -0.017, -0.021, 0.027
0.252, 0.402, 0.870, -0.017, -0.021, 0.027
0.202, 0.402, 0.870, -0.016, -0.021, 0.026
0.152, 0.402, 0.870, -0.016, -0.019, 0.025
0.102, 0.402, 0.870, -0.015, -0.018, 0.025
0.102, 0.452, 0.870, -0.014, -0.013, 0.023
0.152, 0.452, 0.870, -0.015, -0.015, 0.024
0.202, 0.452, 0.870, -0.016, -0.017, 0.024
0.252, 0.452, 0.870, -0.016, -0.018, 0.025
0.302, 0.452, 0.870, -0.017, -0.020, 0.025
0.352, 0.452, 0.870, -0.016, -0.021, 0.025
0.402, 0.452, 0.870, -0.016, -0.021, 0.025
0.452, 0.452, 0.870, -0.016, -0.021, 0.025
0.502, 0.452, 0.870, -0.016, -0.021, 0.025
0.552, 0.452, 0.870, -0.015, -0.021, 0.025
0.602, 0.452, 0.870, -0.016, -0.022, 0.024
0.602, 0.502, 0.870, -0.017, -0.020, 0.023
0.552, 0.502, 0.870, -0.017, -0.021, 0.024
0.502, 0.502, 0.870, -0.016, -0.020, 0.024
0.452, 0.502, 0.870, -0.016, -0.019, 0.024
0.402, 0.502, 0.870, -0.016, -0.018, 0.024
0.352, 0.502, 0.870, -0.016, -0.017, 0.024
0.302, 0.502, 0.870, -0.015, -0.015, 0.024
0.252, 0.502, 0.870, -0.015, -0.014, 0.023
0.202, 0.502, 0.870, -0.015, -0.012, 0.022
0.152, 0.502, 0.870, -0.014, -0.010, 0.021
0.102, 0.502, 0.870, -0.012, -0.009, 0.021
0.102, 0.552, 0.870, -0.012, -0.005, 0.018
0.152, 0.552, 0.870, -0.013, -0.006, 0.018
0.202, 0.552, 0.870, -0.015, -0.008, 0.020
0.252, 0.552, 0.870, -0.015, -0.009, 0.021
0.302, 0.552, 0.870, -0.015, -0.011, 0.021
0.352, 0.552, 0.870, -0.016, -0.012, 0.021
0.402, 0.552, 0.870, -0.016, -0.014, 0.021
0.452, 0.552, 0.870, -0.016, -0.015, 0.021
0.502, 0.552, 0.870, -0.017, -0.015, 0.021
0.552, 0.552, 0.870, -0.017, -0.015, 0.021
0.602, 0.552, 0.870, -0.018, -0.016, 0.021
0.602, 0.602, 0.870, -0.018, -0.012, 0.018
0.552, 0.602, 0.870, -0.017, -0.012, 0.019
0.502, 0.602, 0.870, -0.016, -0.012, 0.018
0.452, 0.602, 0.870, -0.016, -0.011, 0.019
0.402, 0.602, 0.870, -0.016, -0.010, 0.019
0.352, 0.602, 0.870, -0.015, -0.009, 0.018
0.302, 0.602, 0.870, -0.015, -0.007, 0.018
0.252, 0.602, 0.870, -0.014, -0.006, 0.018
0.202, 0.602, 0.870, -0.013, -0.005, 0.017
0.152, 0.602, 0.870, -0.012, -0.003, 0.015
0.102, 0.602, 0.870, -0.009, -0.002, 0.015
0.102, 0.652, 0.870, -0.007, 0.000, 0.007
0.152, 0.652, 0.870, -0.009, 0.000, 0.009
0.202, 0.652, 0.870, -0.012, -0.001, 0.010
0.252, 0.652, 0.870, -0.013, -0.003, 0.015
0.302, 0.652, 0.870, -0.014, -0.004, 0.015
0.352, 0.652, 0.870, -0.015, -0.006, 0.015
0.402, 0.652, 0.870, -0.015, -0.006, 0.015
0.452, 0.652, 0.870, -0.016, -0.008, 0.015
0.502, 0.652, 0.870, -0.017, -0.009, 0.015
0.552, 0.652, 0.870, -0.018, -0.009, 0.015
0.602, 0.652, 0.870, -0.019, -0.009, 0.015
0.102, 0.152, 0.920, -0.016, -0.036, 0.025
0.152, 0.152, 0.920, -0.017, -0.038, 0.025
0.202, 0.152, 0.920, -0.016, -0.040, 0.025
0.252, 0.152, 0.920, -0.016, -0.042, 0.025
0.302, 0.152, 0.920, -0.015, -0.042, 0.025
0.352, 0.152, 0.920, -0.015, -0.044, 0.025
0.402, 0.152, 0.920, -0.015, -0.045, 0.024
0.452, 0.152, 0.920, -0.015, -0.045, 0.024
0.502, 0.152, 0.920, -0.014, -0.046, 0.024
0.552, 0.152, 0.920, -0.014, -0.046, 0.024
0.602, 0.152, 0.920, -0.014, -0.045, 0.024
0.602, 0.202, 0.920, -0.014, -0.043, 0.024
0.552, 0.202, 0.920, -0.015, -0.043, 0.024
0.502, 0.202, 0.920, -0.015, -0.043, 0.024
0.452, 0.202, 0.920, -0.015, -0.042, 0.024
0.402, 0.202, 0.920, -0.015, -0.042, 0.024
0.352, 0.202, 0.920, -0.015, -0.041, 0.025
0.302, 0.202, 0.920, -0.015, -0.039, 0.025
0.252, 0.202, 0.920, -0.016, -0.039, 0.025
0.202, 0.202, 0.920, -0.016, -0.037, 0.025
0.152, 0.202, 0.920, -0.016, -0.036, 0.025
0.102, 0.202, 0.920, -0.016, -0.033, 0.025
0.102, 0.252, 0.920, -0.016, -0.030, 0.024
0.152, 0.252, 0.920, -0.016, -0.032, 0.025
0.202, 0.252, 0.920, -0.016, -0.033, 0.025
0.252, 0.252, 0.920, -0.016, -0.035, 0.025
0.302, 0.252, 0.920, -0.015, -0.036, 0.025
0.352, 0.252, 0.920, -0.016, -0.037, 0.025
0.402, 0.252, 0.920, -0.015, -0.039, 0.025
0.452, 0.252, 0.920, -0.015, -0.039, 0.024
0.502, 0.252, 0.920, -0.015, -0.040, 0.024
0.552, 0.252, 0.920, -0.015, -0.040, 0.024
0.602, 0.252, 0.920, -0.015, -0.040, 0.024
0.602, 0.302, 0.920, -0.015, -0.036, 0.024
0.552, 0.302, 0.920, -0.015, -0.036, 0.024
0.502, 0.302, 0.920, -0.015, -0.036, 0.024
0.452, 0.302, 0.920, -0.015, -0.036, 0.024
0.402, 0.302, 0.920, -0.015, -0.035, 0.024
0.352, 0.302, 0.920, -0.015, -0.033, 0.024
0.302, 0.302, 0.920, -0.015, -0.033, 0.024
0.252, 0.302, 0.920, -0.016, -0.031, 0.025
0.202, 0.302, 0.920, -0.015, -0.030, 0.024
0.152, 0.302, 0.920, -0.015, -0.030, 0.024
0.102, 0.302, 0.920, -0.015, -0.030, 0.024
0.102, 0.352, 0.920, -0.015, -0.025, 0.024
0.152, 0.352, 0.920, -0.015, -0.027, 0.024
0.202, 0.352, 0.920, -0.015, -0.029, 0.024
0.252, 0.352, 0.920, -0.016, -0.030, 0.024
0.302, 0.352, 0.920, -0.015, -0.030, 0.024
0.352, 0.352, 0.920, -0.015, -0.030, 0.024
0.402, 0.352, 0.920, -0.015, -0.031, 0.024
0.452, 0.352, 0.920, -0.015, -0.032, 0.024
0.502, 0.352, 0.920, -0.015, -0.033, 0.024
0.552, 0.352, 0.920, -0.015, -0.033, 0.024
0.602, 0.352, 0.920, -0.015, -0.033, 0.023
0.402, 0.402, 0.920, -0.015, -0.030, 0.024
0.352, 0.402, 0.920, -0.015, -0.028, 0.024
0.302, 0.402, 0.920, -0.015, -0.027, 0.023
0.252, 0.402, 0.920, -0.015, -0.024, 0.023
0.202, 0.402, 0.920, -0.015, -0.021, 0.022
0.152, 0.402, 0.920, -0.015, -0.021, 0.022
0.102, 0.402, 0.920, -0.014, -0.021, 0.021
0.102, 0.452, 0.920, -0.013, -0.018, 0.020
0.152, 0.452, 0.920, -0.014, -0.019, 0.021
0.202, 0.452, 0.920, -0.015, -0.021, 0.021
0.252, 0.452, 0.920, -0.015, -0.021, 0.021
0.302, 0.452, 0.920, -0.015, -0.021, 0.021
0.352, 0.452, 0.920, -0.015, -0.021, 0.022
0.402, 0.452, 0.920, -0.015, -0.023, 0.021
0.452, 0.452, 0.920, -0.015, -0.026, 0.022
0.502, 0.452, 0.920, -0.015, -0.027, 0.021
0.552, 0.452, 0.920, -0.016, -0.028, 0.021
0.602, 0.452, 0.920, -0.017, -0.028, 0.021
0.602, 0.502, 0.920, -0.017, -0.022, 0.020
0.552, 0.502, 0.920, -0.016, -0.021, 0.021
0.502, 0.502, 0.920, -0.015, -0.021, 0.021
0.452, 0.502, 0.920, -0.015, -0.021, 0.021
0.402, 0.502, 0.920, -0.015, -0.021, 0.021
0.352, 0.502, 0.920, -0.015, -0.021, 0.020
0.302, 0.502, 0.920, -0.015, -0.019, 0.020
0.252, 0.502, 0.920, -0.014, -0.018, 0.020
0.202, 0.502, 0.920, -0.014, -0.017, 0.018
0.152, 0.502, 0.920, -0.012, -0.015, 0.018
0.102, 0.502, 0.920, -0.012, -0.015, 0.018
0.102, 0.552, 0.920, -0.011, -0.012, 0.015
0.152, 0.552, 0.920, -0.012, -0.012, 0.015
0.202, 0.552, 0.920, -0.013, -0.013, 0.017
0.252, 0.552, 0.920, -0.014, -0.015, 0.018
0.302, 0.552, 0.920, -0.015, -0.015, 0.018
0.352, 0.552, 0.920, -0.015, -0.017, 0.018
0.402, 0.552, 0.920, -0.015, -0.018, 0.018
0.452, 0.552, 0.920, -0.015, -0.018, 0.018
0.502, 0.552, 0.920, -0.015, -0.019, 0.018
0.552, 0.552, 0.920, -0.016, -0.021, 0.018
0.602, 0.552, 0.920, -0.018, -0.021, 0.018
0.602, 0.602, 0.920, -0.018, -0.018, 0.015
0.552, 0.602, 0.920, -0.016, -0.018, 0.015
0.502, 0.602, 0.920, -0.015, -0.016, 0.016
0.452, 0.602, 0.920, -0.015, -0.015, 0.016
0.402, 0.602, 0.920, -0.015, -0.015, 0.015
0.352, 0.602, 0.920, -0.015, -0.013, 0.015
0.302, 0.602, 0.920, -0.013, -0.012, 0.015
0.252, 0.602, 0.920, -0.012, -0.012, 0.015
0.202, 0.602, 0.920, -0.012, -0.010, 0.014
0.152, 0.602, 0.920, -0.011, -0.009, 0.011
0.102, 0.602, 0.920, -0.009, -0.009, 0.009
0.102, 0.652, 0.920, -0.007, -0.007, 0.006
0.152, 0.652, 0.920, -0.009, -0.007, 0.007
0.202, 0.652, 0.920, -0.011, -0.008, 0.008
0.252, 0.652, 0.920, -0.012, -0.009, 0.009
0.302, 0.652, 0.920, -0.012, -0.009, 0.009
0.352, 0.652, 0.920, -0.014, -0.011, 0.010
0.402, 0.652, 0.920, -0.015, -0.012, 0.011
0.452, 0.652, 0.920, -0.015, -0.012, 0.011
0.502, 0.652, 0.920, -0.016, -0.013, 0.011
0.552, 0.652, 0.920, -0.017, -0.015, 0.010
0.602, 0.652, 0.920, -0.018, -0.015, 0.010
0.003, 0.050, 0.500, 0.018, -0.042, -0.089
