0.000, 0.050, 0.500, -0.078, -0.001, 0.076
0.120, 0.170, 0.520, -0.065, 0.007, 0.115
0.170, 0.170, 0.520, -0.069, 0.000, 0.115
0.220, 0.170, 0.520, -0.070, -0.003, 0.115
0.270, 0.170, 0.520, -0.073, -0.009, 0.115
0.320, 0.170, 0.520, -0.076, -0.018, 0.115
0.370, 0.170, 0.520, -0.080, -0.021, 0.115
0.420, 0.170, 0.520, -0.084, -0.028, 0.116
0.470, 0.170, 0.520, -0.087, -0.035, 0.118
0.520, 0.170, 0.520, -0.090, -0.042, 0.120
0.570, 0.170, 0.520, -0.091, -0.048, 0.123
0.620, 0.170, 0.520, -0.091, -0.053, 0.127
0.620, 0.220, 0.520, -0.085, -0.051, 0.121
0.570, 0.220, 0.520, -0.086, -0.045, 0.118
0.520, 0.220, 0.520, -0.085, -0.039, 0.115
0.470, 0.220, 0.520, -0.084, -0.032, 0.113
0.420, 0.220, 0.520, -0.081, -0.027, 0.112
0.370, 0.220, 0.520, -0.079, -0.018, 0.111
0.320, 0.220, 0.520, -0.075, -0.015, 0.110
0.270, 0.220, 0.520, -0.071, -0.008, 0.109
0.220, 0.220, 0.520, -0.070, 0.000, 0.109
0.170, 0.220, 0.520, -0.068, 0.001, 0.109
0.120, 0.220, 0.520, -0.064, 0.009, 0.108
0.120, 0.270, 0.520, -0.063, 0.013, 0.102
0.170, 0.270, 0.520, -0.065, 0.005, 0.103
0.220, 0.270, 0.520, -0.070, 0.000, 0.103
0.270, 0.270, 0.520, -0.070, -0.004, 0.103
0.320, 0.270, 0.520, -0.073, -0.009, 0.103
0.370, 0.270, 0.520, -0.077, -0.018, 0.104
0.420, 0.270, 0.520, -0.080, -0.022, 0.106
0.470, 0.270, 0.520, -0.083, -0.029, 0.106
0.520, 0.270, 0.520, -0.085, -0.036, 0.108
0.570, 0.270, 0.520, -0.085, -0.043, 0.109
0.620, 0.270, 0.520, -0.084, -0.048, 0.110
0.620, 0.320, 0.520, -0.079, -0.044, 0.103
0.570, 0.320, 0.520, -0.082, -0.039, 0.101
0.520, 0.320, 0.520, -0.081, -0.033, 0.101
0.470, 0.320, 0.520, -0.080, -0.027, 0.100
0.420, 0.320, 0.520, -0.078, -0.018, 0.099
0.370, 0.320, 0.520, -0.075, -0.014, 0.098
0.320, 0.320, 0.520, -0.072, -0.007, 0.097
0.270, 0.320, 0.520, -0.070, 0.000, 0.097
0.220, 0.320, 0.520, -0.069, 0.003, 0.097
0.170, 0.320, 0.520, -0.064, 0.009, 0.095
0.120, 0.320, 0.520, -0.061, 0.018, 0.095
0.120, 0.370, 0.520, -0.061, 0.021, 0.085
0.170, 0.370, 0.520, -0.063, 0.013, 0.086
0.220, 0.370, 0.520, -0.069, 0.006, 0.086
0.270, 0.370, 0.520, -0.070, 0.000, 0.086
0.320, 0.370, 0.520, -0.072, -0.003, 0.087
0.370, 0.370, 0.520, -0.075, -0.009, 0.088
0.420, 0.370, 0.520, -0.077, -0.018, 0.088
0.470, 0.370, 0.520, -0.079, -0.021, 0.089
0.520, 0.370, 0.520, -0.079, -0.028, 0.089
0.570, 0.370, 0.520, -0.081, -0.034, 0.089
0.620, 0.370, 0.520, -0.079, -0.039, 0.091
0.420, 0.420, 0.520, -0.076, -0.009, 0.081
0.370, 0.420, 0.520, -0.073, -0.005, 0.081
0.320, 0.420, 0.520, -0.070, 0.000, 0.079
0.270, 0.420, 0.520, -0.070, 0.003, 0.079
0.220, 0.420, 0.520, -0.066, 0.010, 0.079
0.170, 0.420, 0.520, -0.062, 0.018, 0.079
0.120, 0.420, 0.520, -0.061, 0.027, 0.079
0.120, 0.470, 0.520, -0.061, 0.033, 0.073
0.170, 0.470, 0.520, -0.063, 0.027, 0.073
0.220, 0.470, 0.520, -0.069, 0.015, 0.072
0.270, 0.470, 0.520, -0.070, 0.008, 0.072
0.320, 0.470, 0.520, -0.071, 0.003, 0.072
0.370, 0.470, 0.520, -0.073, 0.000, 0.073
0.420, 0.470, 0.520, -0.076, -0.007, 0.073
0.470, 0.470, 0.520, -0.077, -0.014, 0.073
0.520, 0.470, 0.520, -0.078, -0.018, 0.073
0.570, 0.470, 0.520, -0.079, -0.027, 0.073
0.620, 0.470, 0.520, -0.078, -0.030, 0.073
0.620, 0.520, 0.520, -0.076, -0.027, 0.062
0.570, 0.520, 0.520, -0.077, -0.020, 0.062
0.520, 0.520, 0.520, -0.077, -0.016, 0.063
0.470, 0.520, 0.520, -0.076, -0.009, 0.062
0.420, 0.520, 0.520, -0.075, -0.003, 0.062
0.370, 0.520, 0.520, -0.073, 0.001, 0.061
0.320, 0.520, 0.520, -0.070, 0.006, 0.062
0.270, 0.520, 0.520, -0.070, 0.013, 0.062
0.220, 0.520, 0.520, -0.069, 0.021, 0.062
0.170, 0.520, 0.520, -0.063, 0.028, 0.063
0.120, 0.520, 0.520, -0.061, 0.038, 0.063
0.120, 0.570, 0.520, -0.063, 0.043, 0.058
0.170, 0.570, 0.520, -0.067, 0.034, 0.055
0.220, 0.570, 0.520, -0.070, 0.026, 0.055
0.270, 0.570, 0.520, -0.070, 0.018, 0.054
0.320, 0.570, 0.520, -0.072, 0.012, 0.054
0.370, 0.570, 0.520, -0.073, 0.003, 0.053
0.420, 0.570, 0.520, -0.076, 0.000, 0.053
0.470, 0.570, 0.520, -0.076, -0.004, 0.054
0.520, 0.570, 0.520, -0.077, -0.009, 0.054
0.570, 0.570, 0.520, -0.078, -0.018, 0.054
0.620, 0.570, 0.520, -0.077, -0.021, 0.054
0.620, 0.620, 0.520, -0.076, -0.018, 0.046
0.570, 0.620, 0.520, -0.076, -0.009, 0.046
0.520, 0.620, 0.520, -0.076, -0.006, 0.046
0.470, 0.620, 0.520, -0.076, 0.000, 0.046
0.420, 0.620, 0.520, -0.075, 0.003, 0.046
0.370, 0.620, 0.520, -0.073, 0.009, 0.046
0.320, 0.620, 0.520, -0.072, 0.017, 0.046
0.270, 0.620, 0.520, -0.070, 0.024, 0.046
0.220, 0.620, 0.520, -0.070, 0.035, 0.048
0.170, 0.620, 0.520, -0.070, 0.038, 0.049
0.120, 0.620, 0.520, -0.065, 0.047, 0.051
0.120, 0.670, 0.520, -0.071, 0.057, 0.045
0.170, 0.670, 0.520, -0.070, 0.048, 0.042
0.220, 0.670, 0.520, -0.070, 0.043, 0.038
0.270, 0.670, 0.520, -0.072, 0.035, 0.036
0.320, 0.670, 0.520, -0.073, 0.024, 0.036
0.370, 0.670, 0.520, -0.074, 0.018, 0.035
0.420, 0.670, 0.520, -0.076, 0.009, 0.035
0.470, 0.670, 0.520, -0.076, 0.003, 0.036
0.520, 0.670, 0.520, -0.077, 0.000, 0.036
0.570, 0.670, 0.520, -0.077, -0.005, 0.036
0.620, 0.670, 0.520, -0.076, -0.009, 0.036
0.120, 0.170, 0.560, -0.060, 0.002, 0.113
0.170, 0.170, 0.560, -0.061, -0.001, 0.114
0.220, 0.170, 0.560, -0.063, -0.009, 0.114
0.270, 0.170, 0.560, -0.070, -0.016, 0.114
0.320, 0.170, 0.560, -0.070, -0.021, 0.115
0.370, 0.170, 0.560, -0.075, -0.028, 0.115
0.420, 0.170, 0.560, -0.079, -0.033, 0.115
0.470, 0.170, 0.560, -0.082, -0.040, 0.117
0.520, 0.170, 0.560, -0.085, -0.045, 0.119
0.570, 0.170, 0.560, -0.088, -0.052, 0.122
0.620, 0.170, 0.560, -0.088, -0.055, 0.126
0.620, 0.220, 0.560, -0.082, -0.054, 0.118
0.570, 0.220, 0.560, -0.082, -0.049, 0.115
0.520, 0.220, 0.560, -0.082, -0.044, 0.113
0.470, 0.220, 0.560, -0.079, -0.038, 0.112
0.420, 0.220, 0.560, -0.076, -0.031, 0.110
0.370, 0.220, 0.560, -0.073, -0.028, 0.109
0.320, 0.220, 0.560, -0.070, -0.021, 0.109
0.270, 0.220, 0.560, -0.067, -0.015, 0.108
0.220, 0.220, 0.560, -0.062, -0.007, 0.107
0.170, 0.220, 0.560, -0.061, 0.000, 0.106
0.120, 0.220, 0.560, -0.059, 0.003, 0.104
0.120, 0.270, 0.560, -0.058, 0.006, 0.100
0.170, 0.270, 0.560, -0.061, 0.000, 0.100
0.220, 0.270, 0.560, -0.061, -0.004, 0.101
0.270, 0.270, 0.560, -0.064, -0.012, 0.101
0.320, 0.270, 0.560, -0.070, -0.018, 0.102
0.370, 0.270, 0.560, -0.072, -0.025, 0.103
0.420, 0.270, 0.560, -0.075, -0.030, 0.103
0.470, 0.270, 0.560, -0.078, -0.036, 0.105
0.520, 0.270, 0.560, -0.079, -0.042, 0.106
0.570, 0.270, 0.560, -0.081, -0.048, 0.108
0.620, 0.270, 0.560, -0.081, -0.052, 0.109
0.620, 0.320, 0.560, -0.076, -0.049, 0.100
0.570, 0.320, 0.560, -0.077, -0.045, 0.100
0.520, 0.320, 0.560, -0.077, -0.038, 0.099
0.470, 0.320, 0.560, -0.075, -0.032, 0.097
0.420, 0.320, 0.560, -0.073, -0.029, 0.097
0.370, 0.320, 0.560, -0.070, -0.021, 0.095
0.320, 0.320, 0.560, -0.070, -0.015, 0.092
0.270, 0.320, 0.560, -0.064, -0.008, 0.092
0.220, 0.320, 0.560, -0.061, -0.001, 0.091
0.170, 0.320, 0.560, -0.060, 0.001, 0.091
0.120, 0.320, 0.560, -0.057, 0.010, 0.090
0.120, 0.370, 0.560, -0.057, 0.015, 0.083
0.170, 0.370, 0.560, -0.060, 0.006, 0.084
0.220, 0.370, 0.560, -0.061, 0.000, 0.084
0.270, 0.370, 0.560, -0.064, -0.004, 0.085
0.320, 0.370, 0.560, -0.070, -0.012, 0.085
0.370, 0.370, 0.560, -0.070, -0.018, 0.085
0.420, 0.370, 0.560, -0.073, -0.022, 0.085
0.470, 0.370, 0.560, -0.075, -0.028, 0.086
0.520, 0.370, 0.560, -0.076, -0.035, 0.087
0.570, 0.370, 0.560, -0.076, -0.041, 0.088
0.620, 0.370, 0.560, -0.076, -0.045, 0.088
0.420, 0.420, 0.560, -0.071, -0.018, 0.078
0.370, 0.420, 0.560, -0.069, -0.012, 0.078
0.320, 0.420, 0.560, -0.067, -0.006, 0.077
0.270, 0.420, 0.560, -0.062, 0.000, 0.077
0.220, 0.420, 0.560, -0.060, 0.003, 0.076
0.170, 0.420, 0.560, -0.058, 0.010, 0.076
0.120, 0.420, 0.560, -0.055, 0.019, 0.076
0.120, 0.470, 0.560, -0.056, 0.025, 0.069
0.170, 0.470, 0.560, -0.060, 0.016, 0.069
0.220, 0.470, 0.560, -0.061, 0.007, 0.068
0.270, 0.470, 0.560, -0.064, 0.003, 0.068
0.320, 0.470, 0.560, -0.069, -0.002, 0.069
0.370, 0.470, 0.560, -0.069, -0.009, 0.069
0.420, 0.470, 0.560, -0.071, -0.015, 0.070
0.470, 0.470, 0.560, -0.073, -0.018, 0.069
0.520, 0.470, 0.560, -0.073, -0.027, 0.070
0.570, 0.470, 0.560, -0.074, -0.031, 0.070
0.620, 0.470, 0.560, -0.074, -0.036, 0.070
0.620, 0.520, 0.560, -0.073, -0.031, 0.059
0.570, 0.520, 0.560, -0.073, -0.027, 0.060
0.520, 0.520, 0.560, -0.073, -0.021, 0.060
0.470, 0.520, 0.560, -0.072, -0.018, 0.059
0.420, 0.520, 0.560, -0.070, -0.009, 0.059
0.370, 0.520, 0.560, -0.068, -0.004, 0.058
0.320, 0.520, 0.560, -0.067, 0.000, 0.058
0.270, 0.520, 0.560, -0.063, 0.005, 0.058
0.220, 0.520, 0.560, -0.061, 0.012, 0.058
0.170, 0.520, 0.560, -0.061, 0.021, 0.059
0.120, 0.520, 0.560, -0.057, 0.030, 0.060
0.120, 0.570, 0.560, -0.058, 0.034, 0.053
0.170, 0.570, 0.560, -0.061, 0.027, 0.051
0.220, 0.570, 0.560, -0.062, 0.018, 0.050
0.270, 0.570, 0.560, -0.064, 0.011, 0.049
0.320, 0.570, 0.560, -0.070, 0.003, 0.048
0.370, 0.570, 0.560, -0.069, 0.000, 0.049
0.420, 0.570, 0.560, -0.070, -0.005, 0.048
0.470, 0.570, 0.560, -0.072, -0.009, 0.049
0.520, 0.570, 0.560, -0.073, -0.018, 0.050
0.570, 0.570, 0.560, -0.073, -0.021, 0.050
0.620, 0.570, 0.560, -0.073, -0.027, 0.049
0.620, 0.620, 0.560, -0.073, -0.019, 0.042
0.570, 0.620, 0.560, -0.073, -0.018, 0.042
0.520, 0.620, 0.560, -0.073, -0.009, 0.042
0.470, 0.620, 0.560, -0.072, -0.006, 0.041
0.420, 0.620, 0.560, -0.070, 0.000, 0.039
0.370, 0.620, 0.560, -0.069, 0.003, 0.039
0.320, 0.620, 0.560, -0.069, 0.010, 0.039
0.270, 0.620, 0.560, -0.066, 0.017, 0.042
0.220, 0.620, 0.560, -0.063, 0.025, 0.042
0.170, 0.620, 0.560, -0.061, 0.034, 0.044
0.120, 0.620, 0.560, -0.061, 0.043, 0.046
0.120, 0.670, 0.560, -0.061, 0.048, 0.036
0.170, 0.670, 0.560, -0.063, 0.042, 0.033
0.220, 0.670, 0.560, -0.065, 0.033, 0.031
0.270, 0.670, 0.560, -0.070, 0.024, 0.030
0.320, 0.670, 0.560, -0.070, 0.018, 0.030
0.370, 0.670, 0.560, -0.069, 0.009, 0.030
0.420, 0.670, 0.560, -0.070, 0.003, 0.030
0.470, 0.670, 0.560, -0.072, 0.000, 0.030
0.520, 0.670, 0.560, -0.073, -0.005, 0.030
0.570, 0.670, 0.560, -0.073, -0.009, 0.031
0.620, 0.670, 0.560, -0.073, -0.015, 0.031
0.120, 0.170, 0.600, -0.050, 0.000, 0.113
0.170, 0.170, 0.600, -0.056, -0.009, 0.114
0.220, 0.170, 0.600, -0.059, -0.017, 0.114
0.270, 0.170, 0.600, -0.061, -0.021, 0.114
0.320, 0.170, 0.600, -0.067, -0.030, 0.114
0.370, 0.170, 0.600, -0.069, -0.035, 0.115
0.420, 0.170, 0.600, -0.074, -0.042, 0.115
0.470, 0.170, 0.600, -0.078, -0.048, 0.117
0.520, 0.170, 0.600, -0.082, -0.053, 0.119
0.570, 0.170, 0.600, -0.085, -0.057, 0.122
0.620, 0.170, 0.600, -0.085, -0.061, 0.125
0.620, 0.220, 0.600, -0.079, -0.060, 0.118
0.570, 0.220, 0.600, -0.079, -0.056, 0.115
0.520, 0.220, 0.600, -0.076, -0.051, 0.112
0.470, 0.220, 0.600, -0.074, -0.045, 0.111
0.420, 0.220, 0.600, -0.070, -0.039, 0.109
0.370, 0.220, 0.600, -0.067, -0.033, 0.109
0.320, 0.220, 0.600, -0.063, -0.030, 0.108
0.270, 0.220, 0.600, -0.060, -0.021, 0.105
0.220, 0.220, 0.600, -0.058, -0.015, 0.103
0.170, 0.220, 0.600, -0.055, -0.006, 0.103
0.120, 0.220, 0.600, -0.048, 0.000, 0.103
0.120, 0.270, 0.600, -0.048, 0.000, 0.097
0.170, 0.270, 0.600, -0.054, -0.003, 0.099
0.220, 0.270, 0.600, -0.058, -0.012, 0.100
0.270, 0.270, 0.600, -0.058, -0.019, 0.100
0.320, 0.270, 0.600, -0.063, -0.026, 0.100
0.370, 0.270, 0.600, -0.066, -0.030, 0.100
0.420, 0.270, 0.600, -0.070, -0.036, 0.102
0.470, 0.270, 0.600, -0.073, -0.042, 0.103
0.520, 0.270, 0.600, -0.075, -0.048, 0.105
0.570, 0.270, 0.600, -0.076, -0.053, 0.106
0.620, 0.270, 0.600, -0.076, -0.058, 0.108
0.620, 0.320, 0.600, -0.073, -0.054, 0.099
0.570, 0.320, 0.600, -0.073, -0.051, 0.098
0.520, 0.320, 0.600, -0.072, -0.045, 0.097
0.470, 0.320, 0.600, -0.070, -0.039, 0.093
0.420, 0.320, 0.600, -0.067, -0.033, 0.091
0.370, 0.320, 0.600, -0.064, -0.030, 0.091
0.320, 0.320, 0.600, -0.061, -0.021, 0.090
0.270, 0.320, 0.600, -0.058, -0.015, 0.089
0.220, 0.320, 0.600, -0.057, -0.009, 0.088
0.170, 0.320, 0.600, -0.051, 0.000, 0.088
0.120, 0.320, 0.600, -0.048, 0.003, 0.088
0.120, 0.370, 0.600, -0.048, 0.007, 0.080
0.170, 0.370, 0.600, -0.051, 0.000, 0.080
0.220, 0.370, 0.600, -0.057, -0.003, 0.081
0.270, 0.370, 0.600, -0.058, -0.011, 0.082
0.320, 0.370, 0.600, -0.061, -0.018, 0.082
0.370, 0.370, 0.600, -0.064, -0.023, 0.082
0.420, 0.370, 0.600, -0.067, -0.030, 0.082
0.470, 0.370, 0.600, -0.070, -0.035, 0.084
0.520, 0.370, 0.600, -0.071, -0.041, 0.085
0.570, 0.370, 0.600, -0.072, -0.045, 0.085
0.620, 0.370, 0.600, -0.072, -0.051, 0.085
0.420, 0.420, 0.600, -0.065, -0.027, 0.075
0.370, 0.420, 0.600, -0.063, -0.021, 0.074
0.320, 0.420, 0.600, -0.060, -0.013, 0.074
0.270, 0.420, 0.600, -0.058, -0.006, 0.073
0.220, 0.420, 0.600, -0.056, 0.000, 0.073
0.170, 0.420, 0.600, -0.049, 0.003, 0.073
0.120, 0.420, 0.600, -0.048, 0.013, 0.073
0.120, 0.470, 0.600, -0.048, 0.018, 0.064
0.170, 0.470, 0.600, -0.049, 0.009, 0.063
0.220, 0.470, 0.600, -0.056, 0.000, 0.062
0.270, 0.470, 0.600, -0.058, -0.001, 0.063
0.320, 0.470, 0.600, -0.060, -0.008, 0.063
0.370, 0.470, 0.600, -0.063, -0.015, 0.063
0.420, 0.470, 0.600, -0.066, -0.021, 0.063
0.470, 0.470, 0.600, -0.067, -0.027, 0.064
0.520, 0.470, 0.600, -0.069, -0.030, 0.064
0.570, 0.470, 0.600, -0.070, -0.036, 0.065
0.620, 0.470, 0.600, -0.070, -0.040, 0.064
0.620, 0.520, 0.600, -0.070, -0.035, 0.056
0.570, 0.520, 0.600, -0.070, -0.030, 0.056
0.520, 0.520, 0.600, -0.068, -0.027, 0.055
0.470, 0.520, 0.600, -0.067, -0.018, 0.055
0.420, 0.520, 0.600, -0.064, -0.015, 0.055
0.370, 0.520, 0.600, -0.062, -0.009, 0.055
0.320, 0.520, 0.600, -0.059, -0.002, 0.055
0.270, 0.520, 0.600, -0.058, 0.000, 0.054
0.220, 0.520, 0.600, -0.056, 0.006, 0.055
0.170, 0.520, 0.600, -0.049, 0.015, 0.055
0.120, 0.520, 0.600, -0.048, 0.025, 0.056
0.120, 0.570, 0.600, -0.048, 0.031, 0.048
0.170, 0.570, 0.600, -0.053, 0.022, 0.047
0.220, 0.570, 0.600, -0.057, 0.013, 0.046
0.270, 0.570, 0.600, -0.058, 0.005, 0.045
0.320, 0.570, 0.600, -0.060, 0.000, 0.045
0.370, 0.570, 0.600, -0.063, -0.003, 0.045
0.420, 0.570, 0.600, -0.064, -0.009, 0.046
0.470, 0.570, 0.600, -0.067, -0.016, 0.045
0.520, 0.570, 0.600, -0.069, -0.019, 0.046
0.570, 0.570, 0.600, -0.070, -0.027, 0.046
0.620, 0.570, 0.600, -0.070, -0.029, 0.046
0.620, 0.620, 0.600, -0.070, -0.026, 0.035
0.570, 0.620, 0.600, -0.069, -0.018, 0.035
0.520, 0.620, 0.600, -0.067, -0.016, 0.034
0.470, 0.620, 0.600, -0.066, -0.009, 0.034
0.420, 0.620, 0.600, -0.064, -0.003, 0.034
0.370, 0.620, 0.600, -0.062, 0.000, 0.033
0.320, 0.620, 0.600, -0.060, 0.003, 0.033
0.270, 0.620, 0.600, -0.058, 0.011, 0.034
0.220, 0.620, 0.600, -0.058, 0.019, 0.035
0.170, 0.620, 0.600, -0.055, 0.030, 0.036
0.120, 0.620, 0.600, -0.049, 0.037, 0.041
0.120, 0.670, 0.600, -0.055, 0.045, 0.030
0.170, 0.670, 0.600, -0.058, 0.036, 0.027
0.220, 0.670, 0.600, -0.058, 0.027, 0.025
0.270, 0.670, 0.600, -0.060, 0.019, 0.024
0.320, 0.670, 0.600, -0.061, 0.012, 0.024
0.370, 0.670, 0.600, -0.064, 0.004, 0.024
0.420, 0.670, 0.600, -0.065, 0.000, 0.024
0.470, 0.670, 0.600, -0.067, -0.003, 0.024
0.520, 0.670, 0.600, -0.068, -0.009, 0.025
0.570, 0.670, 0.600, -0.069, -0.015, 0.027
0.620, 0.670, 0.600, -0.070, -0.018, 0.027
0.120, 0.170, 0.640, -0.045, -0.007, 0.112
0.170, 0.170, 0.640, -0.048, -0.016, 0.113
0.220, 0.170, 0.640, -0.054, -0.021, 0.114
0.270, 0.170, 0.640, -0.058, -0.030, 0.114
0.320, 0.170, 0.640, -0.060, -0.036, 0.114
0.370, 0.170, 0.640, -0.064, -0.041, 0.115
0.420, 0.170, 0.640, -0.069, -0.046, 0.115
0.470, 0.170, 0.640, -0.073, -0.053, 0.117
0.520, 0.170, 0.640, -0.077, -0.058, 0.118
0.570, 0.170, 0.640, -0.081, -0.063, 0.121
0.620, 0.170, 0.640, -0.084, -0.063, 0.125
0.620, 0.220, 0.640, -0.078, -0.064, 0.116
0.570, 0.220, 0.640, -0.076, -0.060, 0.114
0.520, 0.220, 0.640, -0.073, -0.051, 0.112
0.470, 0.220, 0.640, -0.070, -0.045, 0.110
0.420, 0.220, 0.640, -0.067, -0.038, 0.109
0.370, 0.220, 0.640, -0.063, -0.033, 0.108
0.320, 0.220, 0.640, -0.058, -0.027, 0.107
0.270, 0.220, 0.640, -0.057, -0.021, 0.103
0.220, 0.220, 0.640, -0.050, -0.018, 0.103
0.170, 0.220, 0.640, -0.048, -0.011, 0.102
0.120, 0.220, 0.640, -0.043, -0.001, 0.102
0.120, 0.270, 0.640, -0.042, 0.000, 0.096
0.170, 0.270, 0.640, -0.047, -0.008, 0.097
0.220, 0.270, 0.640, -0.049, -0.016, 0.097
0.270, 0.270, 0.640, -0.057, -0.021, 0.097
0.320, 0.270, 0.640, -0.058, -0.030, 0.099
0.370, 0.270, 0.640, -0.062, -0.036, 0.099
0.420, 0.270, 0.640, -0.066, -0.040, 0.100
0.470, 0.270, 0.640, -0.069, -0.043, 0.101
0.520, 0.270, 0.640, -0.072, -0.048, 0.103
0.570, 0.270, 0.640, -0.076, -0.050, 0.106
0.620, 0.270, 0.640, -0.076, -0.058, 0.107
0.620, 0.320, 0.640, -0.073, -0.055, 0.097
0.570, 0.320, 0.640, -0.072, -0.049, 0.096
0.520, 0.320, 0.640, -0.069, -0.047, 0.091
0.470, 0.320, 0.640, -0.067, -0.040, 0.091
0.420, 0.320, 0.640, -0.064, -0.033, 0.089
0.370, 0.320, 0.640, -0.060, -0.030, 0.088
0.320, 0.320, 0.640, -0.058, -0.021, 0.088
0.270, 0.320, 0.640, -0.055, -0.019, 0.087
0.220, 0.320, 0.640, -0.048, -0.008, 0.087
0.170, 0.320, 0.640, -0.046, -0.003, 0.086
0.120, 0.320, 0.640, -0.040, 0.003, 0.085
0.120, 0.370, 0.640, -0.040, 0.005, 0.078
0.170, 0.370, 0.640, -0.045, 0.000, 0.078
0.220, 0.370, 0.640, -0.048, -0.008, 0.079
0.270, 0.370, 0.640, -0.055, -0.012, 0.079
0.320, 0.370, 0.640, -0.058, -0.019, 0.079
0.370, 0.370, 0.640, -0.060, -0.022, 0.079
0.420, 0.370, 0.640, -0.063, -0.032, 0.080
0.470, 0.370, 0.640, -0.066, -0.036, 0.082
0.520, 0.370, 0.640, -0.068, -0.044, 0.082
0.570, 0.370, 0.640, -0.070, -0.050, 0.082
0.620, 0.370, 0.640, -0.070, -0.055, 0.084
0.420, 0.420, 0.640, -0.061, -0.033, 0.073
0.370, 0.420, 0.640, -0.058, -0.030, 0.071
0.320, 0.420, 0.640, -0.057, -0.025, 0.071
0.270, 0.420, 0.640, -0.054, -0.018, 0.070
0.220, 0.420, 0.640, -0.048, -0.012, 0.070
0.170, 0.420, 0.640, -0.046, -0.003, 0.070
0.120, 0.420, 0.640, -0.040, 0.000, 0.070
0.120, 0.470, 0.640, -0.040, 0.005, 0.060
0.170, 0.470, 0.640, -0.046, 0.000, 0.060
0.220, 0.470, 0.640, -0.048, -0.006, 0.059
0.270, 0.470, 0.640, -0.054, -0.014, 0.059
0.320, 0.470, 0.640, -0.058, -0.021, 0.060
0.370, 0.470, 0.640, -0.058, -0.027, 0.060
0.420, 0.470, 0.640, -0.061, -0.031, 0.061
0.470, 0.470, 0.640, -0.063, -0.037, 0.061
0.520, 0.470, 0.640, -0.065, -0.042, 0.061
0.570, 0.470, 0.640, -0.067, -0.047, 0.061
0.620, 0.470, 0.640, -0.069, -0.052, 0.061
0.620, 0.520, 0.640, -0.068, -0.046, 0.052
0.570, 0.520, 0.640, -0.066, -0.042, 0.052
0.520, 0.520, 0.640, -0.064, -0.037, 0.052
0.470, 0.520, 0.640, -0.062, -0.031, 0.052
0.420, 0.520, 0.640, -0.060, -0.028, 0.051
0.370, 0.520, 0.640, -0.058, -0.021, 0.051
0.320, 0.520, 0.640, -0.057, -0.015, 0.051
0.270, 0.520, 0.640, -0.054, -0.008, 0.050
0.220, 0.520, 0.640, -0.048, 0.000, 0.051
0.170, 0.520, 0.640, -0.046, 0.002, 0.051
0.120, 0.520, 0.640, -0.040, 0.012, 0.052
0.120, 0.570, 0.640, -0.042, 0.018, 0.044
0.170, 0.570, 0.640, -0.047, 0.009, 0.042
0.220, 0.570, 0.640, -0.048, 0.000, 0.042
0.270, 0.570, 0.640, -0.055, -0.002, 0.040
0.320, 0.570, 0.640, -0.058, -0.009, 0.039
0.370, 0.570, 0.640, -0.058, -0.016, 0.041
0.420, 0.570, 0.640, -0.060, -0.021, 0.040
0.470, 0.570, 0.640, -0.062, -0.029, 0.041
0.520, 0.570, 0.640, -0.064, -0.031, 0.042
0.570, 0.570, 0.640, -0.067, -0.036, 0.042
0.620, 0.570, 0.640, -0.068, -0.040, 0.042
0.620, 0.620, 0.640, -0.068, -0.034, 0.030
0.570, 0.620, 0.640, -0.066, -0.030, 0.030
0.520, 0.620, 0.640, -0.064, -0.028, 0.030
0.470, 0.620, 0.640, -0.061, -0.021, 0.030
0.420, 0.620, 0.640, -0.060, -0.016, 0.030
0.370, 0.620, 0.640, -0.058, -0.009, 0.030
0.320, 0.620, 0.640, -0.058, -0.002, 0.030
0.270, 0.620, 0.640, -0.055, 0.000, 0.030
0.220, 0.620, 0.640, -0.049, 0.007, 0.030
0.170, 0.620, 0.640, -0.048, 0.015, 0.031
0.120, 0.620, 0.640, -0.044, 0.025, 0.033
0.120, 0.670, 0.640, -0.047, 0.033, 0.024
0.170, 0.670, 0.640, -0.048, 0.024, 0.021
0.220, 0.670, 0.640, -0.054, 0.015, 0.020
0.270, 0.670, 0.640, -0.057, 0.007, 0.018
0.320, 0.670, 0.640, -0.058, 0.001, 0.018
0.370, 0.670, 0.640, -0.058, -0.001, 0.018
0.420, 0.670, 0.640, -0.060, -0.008, 0.018
0.470, 0.670, 0.640, -0.061, -0.013, 0.018
0.520, 0.670, 0.640, -0.063, -0.018, 0.019
0.570, 0.670, 0.640, -0.066, -0.022, 0.020
0.620, 0.670, 0.640, -0.067, -0.027, 0.021
0.120, 0.170, 0.680, -0.037, -0.021, 0.112
0.170, 0.170, 0.680, -0.043, -0.030, 0.112
0.220, 0.170, 0.680, -0.048, -0.033, 0.112
0.270, 0.170, 0.680, -0.053, -0.042, 0.113
0.320, 0.170, 0.680, -0.058, -0.048, 0.113
0.370, 0.170, 0.680, -0.060, -0.054, 0.114
0.420, 0.170, 0.680, -0.064, -0.060, 0.115
0.470, 0.170, 0.680, -0.069, -0.064, 0.116
0.520, 0.170, 0.680, -0.073, -0.071, 0.118
0.570, 0.170, 0.680, -0.077, -0.073, 0.121
0.620, 0.170, 0.680, -0.081, -0.076, 0.125
0.620, 0.220, 0.680, -0.076, -0.074, 0.115
0.570, 0.220, 0.680, -0.073, -0.073, 0.112
0.520, 0.220, 0.680, -0.070, -0.069, 0.109
0.470, 0.220, 0.680, -0.066, -0.064, 0.108
0.420, 0.220, 0.680, -0.062, -0.058, 0.107
0.370, 0.220, 0.680, -0.058, -0.052, 0.106
0.320, 0.220, 0.680, -0.057, -0.045, 0.103
0.270, 0.220, 0.680, -0.049, -0.039, 0.103
0.220, 0.220, 0.680, -0.048, -0.032, 0.101
0.170, 0.220, 0.680, -0.042, -0.027, 0.100
0.120, 0.220, 0.680, -0.037, -0.018, 0.100
0.120, 0.270, 0.680, -0.035, -0.015, 0.091
0.170, 0.270, 0.680, -0.041, -0.021, 0.092
0.220, 0.270, 0.680, -0.046, -0.030, 0.093
0.270, 0.270, 0.680, -0.048, -0.036, 0.094
0.320, 0.270, 0.680, -0.055, -0.042, 0.096
0.370, 0.270, 0.680, -0.058, -0.048, 0.097
0.420, 0.270, 0.680, -0.061, -0.054, 0.097
0.470, 0.270, 0.680, -0.064, -0.060, 0.099
0.520, 0.270, 0.680, -0.067, -0.064, 0.100
0.570, 0.270, 0.680, -0.070, -0.070, 0.103
0.620, 0.270, 0.680, -0.073, -0.073, 0.105
0.620, 0.320, 0.680, -0.069, -0.071, 0.093
0.570, 0.320, 0.680, -0.067, -0.064, 0.091
0.520, 0.320, 0.680, -0.064, -0.062, 0.088
0.470, 0.320, 0.680, -0.062, -0.056, 0.088
0.420, 0.320, 0.680, -0.058, -0.051, 0.086
0.370, 0.320, 0.680, -0.058, -0.045, 0.085
0.320, 0.320, 0.680, -0.054, -0.039, 0.085
0.270, 0.320, 0.680, -0.048, -0.032, 0.085
0.220, 0.320, 0.680, -0.045, -0.028, 0.084
0.170, 0.320, 0.680, -0.037, -0.021, 0.083
0.120, 0.320, 0.680, -0.034, -0.012, 0.082
0.120, 0.370, 0.680, -0.033, -0.007, 0.075
0.170, 0.370, 0.680, -0.037, -0.015, 0.076
0.220, 0.370, 0.680, -0.045, -0.021, 0.076
0.270, 0.370, 0.680, -0.046, -0.030, 0.076
0.320, 0.370, 0.680, -0.054, -0.034, 0.076
0.370, 0.370, 0.680, -0.057, -0.040, 0.076
0.420, 0.370, 0.680, -0.058, -0.046, 0.077
0.470, 0.370, 0.680, -0.061, -0.052, 0.079
0.520, 0.370, 0.680, -0.063, -0.058, 0.079
0.570, 0.370, 0.680, -0.066, -0.063, 0.080
0.620, 0.370, 0.680, -0.067, -0.064, 0.082
0.420, 0.420, 0.680, -0.056, -0.042, 0.069
0.370, 0.420, 0.680, -0.056, -0.036, 0.067
0.320, 0.420, 0.680, -0.050, -0.030, 0.065
0.270, 0.420, 0.680, -0.045, -0.022, 0.064
0.220, 0.420, 0.680, -0.044, -0.018, 0.064
0.170, 0.420, 0.680, -0.036, -0.010, 0.064
0.120, 0.420, 0.680, -0.033, -0.001, 0.064
0.120, 0.470, 0.680, -0.033, 0.000, 0.055
0.170, 0.470, 0.680, -0.036, -0.006, 0.055
0.220, 0.470, 0.680, -0.045, -0.012, 0.055
0.270, 0.470, 0.680, -0.046, -0.020, 0.055
0.320, 0.470, 0.680, -0.051, -0.027, 0.055
0.370, 0.470, 0.680, -0.056, -0.030, 0.056
0.420, 0.470, 0.680, -0.055, -0.036, 0.057
0.470, 0.470, 0.680, -0.058, -0.042, 0.057
0.520, 0.470, 0.680, -0.061, -0.048, 0.058
0.570, 0.470, 0.680, -0.064, -0.052, 0.058
0.620, 0.470, 0.680, -0.067, -0.056, 0.058
0.620, 0.520, 0.680, -0.066, -0.052, 0.048
0.570, 0.520, 0.680, -0.063, -0.048, 0.048
0.520, 0.520, 0.680, -0.061, -0.043, 0.048
0.470, 0.520, 0.680, -0.058, -0.037, 0.048
0.420, 0.520, 0.680, -0.055, -0.030, 0.047
0.370, 0.520, 0.680, -0.055, -0.028, 0.047
0.320, 0.520, 0.680, -0.049, -0.021, 0.046
0.270, 0.520, 0.680, -0.045, -0.015, 0.046
0.220, 0.520, 0.680, -0.044, -0.007, 0.046
0.170, 0.520, 0.680, -0.036, 0.000, 0.047
0.120, 0.520, 0.680, -0.033, 0.003, 0.048
0.120, 0.570, 0.680, -0.034, 0.009, 0.037
0.170, 0.570, 0.680, -0.037, 0.001, 0.036
0.220, 0.570, 0.680, -0.045, -0.001, 0.034
0.270, 0.570, 0.680, -0.046, -0.009, 0.033
0.320, 0.570, 0.680, -0.050, -0.015, 0.033
0.370, 0.570, 0.680, -0.055, -0.021, 0.033
0.420, 0.570, 0.680, -0.055, -0.028, 0.034
0.470, 0.570, 0.680, -0.058, -0.030, 0.034
0.520, 0.570, 0.680, -0.060, -0.036, 0.035
0.570, 0.570, 0.680, -0.063, -0.041, 0.036
0.620, 0.570, 0.680, -0.066, -0.045, 0.036
0.620, 0.620, 0.680, -0.065, -0.039, 0.027
0.570, 0.620, 0.680, -0.063, -0.035, 0.027
0.520, 0.620, 0.680, -0.060, -0.030, 0.025
0.470, 0.620, 0.680, -0.057, -0.025, 0.024
0.420, 0.620, 0.680, -0.055, -0.018, 0.024
0.370, 0.620, 0.680, -0.055, -0.012, 0.024
0.320, 0.620, 0.680, -0.050, -0.006, 0.024
0.270, 0.620, 0.680, -0.047, 0.000, 0.024
0.220, 0.620, 0.680, -0.045, 0.003, 0.024
0.170, 0.620, 0.680, -0.039, 0.013, 0.025
0.120, 0.620, 0.680, -0.035, 0.021, 0.027
0.120, 0.670, 0.680, -0.039, 0.028, 0.017
0.170, 0.670, 0.680, -0.043, 0.021, 0.015
0.220, 0.670, 0.680, -0.048, 0.009, 0.012
0.270, 0.670, 0.680, -0.048, 0.003, 0.012
0.320, 0.670, 0.680, -0.051, 0.000, 0.011
0.370, 0.670, 0.680, -0.055, -0.006, 0.012
0.420, 0.670, 0.680, -0.055, -0.014, 0.012
0.470, 0.670, 0.680, -0.057, -0.021, 0.013
0.520, 0.670, 0.680, -0.059, -0.027, 0.014
0.570, 0.670, 0.680, -0.062, -0.030, 0.015
0.620, 0.670, 0.680, -0.065, -0.033, 0.015
0.120, 0.170, 0.720, -0.031, -0.030, 0.112
0.170, 0.170, 0.720, -0.036, -0.037, 0.112
0.220, 0.170, 0.720, -0.042, -0.046, 0.112
0.270, 0.170, 0.720, -0.045, -0.052, 0.112
0.320, 0.170, 0.720, -0.052, -0.058, 0.112
0.370, 0.170, 0.720, -0.057, -0.064, 0.113
0.420, 0.170, 0.720, -0.060, -0.067, 0.115
0.470, 0.170, 0.720, -0.065, -0.070, 0.116
0.520, 0.170, 0.720, -0.070, -0.073, 0.118
0.570, 0.170, 0.720, -0.074, -0.082, 0.121
0.620, 0.170, 0.720, -0.079, -0.083, 0.124
0.620, 0.220, 0.720, -0.073, -0.082, 0.113
0.570, 0.220, 0.720, -0.070, -0.079, 0.111
0.520, 0.220, 0.720, -0.066, -0.073, 0.109
0.470, 0.220, 0.720, -0.062, -0.069, 0.107
0.420, 0.220, 0.720, -0.057, -0.064, 0.106
0.370, 0.220, 0.720, -0.055, -0.061, 0.103
0.320, 0.220, 0.720, -0.048, -0.055, 0.103
0.270, 0.220, 0.720, -0.045, -0.051, 0.101
0.220, 0.220, 0.720, -0.042, -0.044, 0.100
0.170, 0.220, 0.720, -0.036, -0.037, 0.099
0.120, 0.220, 0.720, -0.030, -0.030, 0.099
0.120, 0.270, 0.720, -0.028, -0.029, 0.089
0.170, 0.270, 0.720, -0.036, -0.034, 0.090
0.220, 0.270, 0.720, -0.041, -0.040, 0.091
0.270, 0.270, 0.720, -0.045, -0.047, 0.091
0.320, 0.270, 0.720, -0.048, -0.053, 0.091
0.370, 0.270, 0.720, -0.055, -0.059, 0.092
0.420, 0.270, 0.720, -0.057, -0.064, 0.095
0.470, 0.270, 0.720, -0.060, -0.070, 0.097
0.520, 0.270, 0.720, -0.064, -0.073, 0.099
0.570, 0.270, 0.720, -0.067, -0.081, 0.100
0.620, 0.270, 0.720, -0.070, -0.083, 0.103
0.620, 0.320, 0.720, -0.067, -0.082, 0.090
0.570, 0.320, 0.720, -0.064, -0.074, 0.088
0.520, 0.320, 0.720, -0.061, -0.072, 0.087
0.470, 0.320, 0.720, -0.057, -0.064, 0.085
0.420, 0.320, 0.720, -0.055, -0.061, 0.085
0.370, 0.320, 0.720, -0.054, -0.054, 0.084
0.320, 0.320, 0.720, -0.046, -0.049, 0.083
0.270, 0.320, 0.720, -0.045, -0.042, 0.082
0.220, 0.320, 0.720, -0.037, -0.036, 0.082
0.170, 0.320, 0.720, -0.034, -0.030, 0.081
0.120, 0.320, 0.720, -0.027, -0.021, 0.080
0.120, 0.370, 0.720, -0.027, -0.020, 0.073
0.170, 0.370, 0.720, -0.033, -0.027, 0.073
0.220, 0.370, 0.720, -0.036, -0.031, 0.073
0.270, 0.370, 0.720, -0.045, -0.039, 0.073
0.320, 0.370, 0.720, -0.046, -0.045, 0.073
0.370, 0.370, 0.720, -0.054, -0.051, 0.074
0.420, 0.370, 0.720, -0.055, -0.057, 0.076
0.470, 0.370, 0.720, -0.058, -0.057, 0.076
0.520, 0.370, 0.720, -0.061, -0.064, 0.077
0.570, 0.370, 0.720, -0.064, -0.064, 0.078
0.620, 0.370, 0.720, -0.066, -0.071, 0.079
0.420, 0.420, 0.720, -0.055, -0.048, 0.063
0.370, 0.420, 0.720, -0.048, -0.049, 0.062
0.320, 0.420, 0.720, -0.046, -0.044, 0.062
0.270, 0.420, 0.720, -0.043, -0.039, 0.061
0.220, 0.420, 0.720, -0.036, -0.031, 0.061
0.170, 0.420, 0.720, -0.033, -0.027, 0.061
0.120, 0.420, 0.720, -0.026, -0.018, 0.061
0.120, 0.470, 0.720, -0.026, -0.013, 0.052
0.170, 0.470, 0.720, -0.033, -0.021, 0.052
0.220, 0.470, 0.720, -0.036, -0.029, 0.052
0.270, 0.470, 0.720, -0.044, -0.033, 0.052
0.320, 0.470, 0.720, -0.045, -0.039, 0.052
0.370, 0.470, 0.720, -0.048, -0.046, 0.052
0.420, 0.470, 0.720, -0.055, -0.052, 0.053
0.470, 0.470, 0.720, -0.055, -0.057, 0.053
0.520, 0.470, 0.720, -0.058, -0.063, 0.054
0.570, 0.470, 0.720, -0.061, -0.065, 0.055
0.620, 0.470, 0.720, -0.064, -0.072, 0.055
0.620, 0.520, 0.720, -0.063, -0.064, 0.046
0.570, 0.520, 0.720, -0.059, -0.063, 0.045
0.520, 0.520, 0.720, -0.056, -0.058, 0.045
0.470, 0.520, 0.720, -0.055, -0.052, 0.044
0.420, 0.520, 0.720, -0.053, -0.046, 0.044
0.370, 0.520, 0.720, -0.048, -0.040, 0.043
0.320, 0.520, 0.720, -0.045, -0.034, 0.043
0.270, 0.520, 0.720, -0.043, -0.030, 0.043
0.220, 0.520, 0.720, -0.036, -0.021, 0.043
0.170, 0.520, 0.720, -0.033, -0.016, 0.043
0.120, 0.520, 0.720, -0.026, -0.008, 0.043
0.120, 0.570, 0.720, -0.027, -0.003, 0.033
0.170, 0.570, 0.720, -0.034, -0.009, 0.031
0.220, 0.570, 0.720, -0.036, -0.018, 0.030
0.270, 0.570, 0.720, -0.044, -0.022, 0.030
0.320, 0.570, 0.720, -0.045, -0.030, 0.030
0.370, 0.570, 0.720, -0.048, -0.035, 0.030
0.420, 0.570, 0.720, -0.053, -0.041, 0.030
0.470, 0.570, 0.720, -0.055, -0.047, 0.031
0.520, 0.570, 0.720, -0.057, -0.052, 0.031
0.570, 0.570, 0.720, -0.060, -0.057, 0.031
0.620, 0.570, 0.720, -0.063, -0.062, 0.033
0.620, 0.620, 0.720, -0.062, -0.057, 0.025
0.570, 0.620, 0.720, -0.058, -0.052, 0.023
0.520, 0.620, 0.720, -0.055, -0.047, 0.022
0.470, 0.620, 0.720, -0.055, -0.041, 0.021
0.420, 0.620, 0.720, -0.050, -0.036, 0.020
0.370, 0.620, 0.720, -0.047, -0.030, 0.019
0.320, 0.620, 0.720, -0.045, -0.023, 0.019
0.270, 0.620, 0.720, -0.044, -0.018, 0.020
0.220, 0.620, 0.720, -0.037, -0.012, 0.021
0.170, 0.620, 0.720, -0.035, -0.003, 0.021
0.120, 0.620, 0.720, -0.028, 0.000, 0.023
0.120, 0.670, 0.720, -0.032, 0.006, 0.009
0.170, 0.670, 0.720, -0.036, 0.000, 0.010
0.220, 0.670, 0.720, -0.042, -0.004, 0.008
0.270, 0.670, 0.720, -0.045, -0.012, 0.007
0.320, 0.670, 0.720, -0.045, -0.018, 0.007
0.370, 0.670, 0.720, -0.048, -0.022, 0.008
0.420, 0.670, 0.720, -0.051, -0.030, 0.008
0.470, 0.670, 0.720, -0.055, -0.034, 0.009
0.520, 0.670, 0.720, -0.055, -0.040, 0.009
0.570, 0.670, 0.720, -0.058, -0.046, 0.011
0.620, 0.670, 0.720, -0.061, -0.050, 0.012
0.120, 0.170, 0.760, -0.025, -0.048, 0.111
0.170, 0.170, 0.760, -0.033, -0.055, 0.112
0.220, 0.170, 0.760, -0.036, -0.061, 0.112
0.270, 0.170, 0.760, -0.044, -0.065, 0.112
0.320, 0.170, 0.760, -0.046, -0.073, 0.112
0.370, 0.170, 0.760, -0.054, -0.076, 0.112
0.420, 0.170, 0.760, -0.055, -0.082, 0.114
0.470, 0.170, 0.760, -0.061, -0.087, 0.115
0.520, 0.170, 0.760, -0.065, -0.093, 0.117
0.570, 0.170, 0.760, -0.069, -0.098, 0.120
0.620, 0.170, 0.760, -0.074, -0.103, 0.124
0.620, 0.220, 0.760, -0.069, -0.100, 0.112
0.570, 0.220, 0.760, -0.065, -0.094, 0.109
0.520, 0.220, 0.760, -0.061, -0.088, 0.107
0.470, 0.220, 0.760, -0.057, -0.082, 0.106
0.420, 0.220, 0.760, -0.055, -0.078, 0.104
0.370, 0.220, 0.760, -0.048, -0.073, 0.103
0.320, 0.220, 0.760, -0.045, -0.068, 0.103
0.270, 0.220, 0.760, -0.042, -0.062, 0.100
0.220, 0.220, 0.760, -0.036, -0.056, 0.099
0.170, 0.220, 0.760, -0.031, -0.049, 0.097
0.120, 0.220, 0.760, -0.024, -0.040, 0.097
0.120, 0.270, 0.760, -0.022, -0.036, 0.088
0.170, 0.270, 0.760, -0.030, -0.043, 0.088
0.220, 0.270, 0.760, -0.036, -0.049, 0.088
0.270, 0.270, 0.760, -0.042, -0.055, 0.088
0.320, 0.270, 0.760, -0.045, -0.061, 0.090
0.370, 0.270, 0.760, -0.049, -0.064, 0.091
0.420, 0.270, 0.760, -0.055, -0.072, 0.091
0.470, 0.270, 0.760, -0.057, -0.074, 0.095
0.520, 0.270, 0.760, -0.060, -0.082, 0.097
0.570, 0.270, 0.760, -0.063, -0.088, 0.100
0.620, 0.270, 0.760, -0.066, -0.094, 0.101
0.620, 0.320, 0.760, -0.064, -0.088, 0.088
0.570, 0.320, 0.760, -0.061, -0.083, 0.086
0.520, 0.320, 0.760, -0.057, -0.075, 0.085
0.470, 0.320, 0.760, -0.055, -0.073, 0.084
0.420, 0.320, 0.760, -0.051, -0.069, 0.082
0.370, 0.320, 0.760, -0.046, -0.064, 0.082
0.320, 0.320, 0.760, -0.045, -0.058, 0.081
0.270, 0.320, 0.760, -0.037, -0.054, 0.080
0.220, 0.320, 0.760, -0.035, -0.048, 0.079
0.170, 0.320, 0.760, -0.029, -0.042, 0.079
0.120, 0.320, 0.760, -0.021, -0.036, 0.079
0.120, 0.370, 0.760, -0.021, -0.030, 0.070
0.170, 0.370, 0.760, -0.028, -0.038, 0.070
0.220, 0.370, 0.760, -0.036, -0.045, 0.070
0.270, 0.370, 0.760, -0.041, -0.051, 0.070
0.320, 0.370, 0.760, -0.045, -0.057, 0.071
0.370, 0.370, 0.760, -0.047, -0.063, 0.072
0.420, 0.370, 0.760, -0.052, -0.066, 0.073
0.470, 0.370, 0.760, -0.055, -0.073, 0.073
0.520, 0.370, 0.760, -0.057, -0.076, 0.075
0.570, 0.370, 0.760, -0.060, -0.082, 0.076
0.620, 0.370, 0.760, -0.062, -0.087, 0.076
0.420, 0.420, 0.760, -0.048, -0.064, 0.061
0.370, 0.420, 0.760, -0.045, -0.058, 0.061
0.320, 0.420, 0.760, -0.043, -0.052, 0.060
0.270, 0.420, 0.760, -0.036, -0.046, 0.060
0.220, 0.420, 0.760, -0.034, -0.039, 0.059
0.170, 0.420, 0.760, -0.027, -0.033, 0.058
0.120, 0.420, 0.760, -0.020, -0.029, 0.058
0.120, 0.470, 0.760, -0.019, -0.021, 0.049
0.170, 0.470, 0.760, -0.027, -0.030, 0.048
0.220, 0.470, 0.760, -0.034, -0.035, 0.049
0.270, 0.470, 0.760, -0.037, -0.041, 0.049
0.320, 0.470, 0.760, -0.044, -0.047, 0.049
0.370, 0.470, 0.760, -0.045, -0.052, 0.048
0.420, 0.470, 0.760, -0.048, -0.058, 0.049
0.470, 0.470, 0.760, -0.054, -0.064, 0.050
0.520, 0.470, 0.760, -0.055, -0.069, 0.051
0.570, 0.470, 0.760, -0.057, -0.073, 0.051
0.620, 0.470, 0.760, -0.061, -0.076, 0.051
0.620, 0.520, 0.760, -0.060, -0.073, 0.042
0.570, 0.520, 0.760, -0.056, -0.070, 0.042
0.520, 0.520, 0.760, -0.055, -0.064, 0.041
0.470, 0.520, 0.760, -0.049, -0.060, 0.038
0.420, 0.520, 0.760, -0.046, -0.054, 0.038
0.370, 0.520, 0.760, -0.045, -0.048, 0.036
0.320, 0.520, 0.760, -0.042, -0.042, 0.036
0.270, 0.520, 0.760, -0.036, -0.036, 0.036
0.220, 0.520, 0.760, -0.033, -0.030, 0.036
0.170, 0.520, 0.760, -0.027, -0.023, 0.036
0.120, 0.520, 0.760, -0.019, -0.018, 0.037
0.120, 0.570, 0.760, -0.021, -0.010, 0.028
0.170, 0.570, 0.760, -0.027, -0.013, 0.027
0.220, 0.570, 0.760, -0.033, -0.020, 0.026
0.270, 0.570, 0.760, -0.036, -0.027, 0.025
0.320, 0.570, 0.760, -0.043, -0.031, 0.025
0.370, 0.570, 0.760, -0.045, -0.037, 0.025
0.420, 0.570, 0.760, -0.047, -0.044, 0.026
0.470, 0.570, 0.760, -0.052, -0.049, 0.027
0.520, 0.570, 0.760, -0.055, -0.055, 0.027
0.570, 0.570, 0.760, -0.057, -0.060, 0.027
0.620, 0.570, 0.760, -0.061, -0.063, 0.027
0.620, 0.620, 0.760, -0.060, -0.064, 0.018
0.570, 0.620, 0.760, -0.055, -0.055, 0.018
0.520, 0.620, 0.760, -0.055, -0.048, 0.017
0.470, 0.620, 0.760, -0.048, -0.045, 0.016
0.420, 0.620, 0.760, -0.045, -0.040, 0.015
0.370, 0.620, 0.760, -0.045, -0.036, 0.015
0.320, 0.620, 0.760, -0.042, -0.031, 0.015
0.270, 0.620, 0.760, -0.036, -0.027, 0.015
0.220, 0.620, 0.760, -0.034, -0.021, 0.015
0.170, 0.620, 0.760, -0.029, -0.014, 0.016
0.120, 0.620, 0.760, -0.022, -0.007, 0.018
0.120, 0.670, 0.760, -0.025, 0.000, 0.006
0.170, 0.670, 0.760, -0.031, -0.007, 0.005
0.220, 0.670, 0.760, -0.036, -0.015, 0.003
0.270, 0.670, 0.760, -0.037, -0.021, 0.003
0.320, 0.670, 0.760, -0.043, -0.027, 0.003
0.370, 0.670, 0.760, -0.045, -0.031, 0.003
0.420, 0.670, 0.760, -0.045, -0.038, 0.003
0.470, 0.670, 0.760, -0.048, -0.043, 0.004
0.520, 0.670, 0.760, -0.053, -0.050, 0.005
0.570, 0.670, 0.760, -0.055, -0.055, 0.006
0.620, 0.670, 0.760, -0.058, -0.061, 0.006
0.120, 0.170, 0.800, -0.020, -0.066, 0.107
0.170, 0.170, 0.800, -0.027, -0.072, 0.107
0.220, 0.170, 0.800, -0.034, -0.075, 0.109
0.270, 0.170, 0.800, -0.037, -0.082, 0.109
0.320, 0.170, 0.800, -0.045, -0.085, 0.109
0.370, 0.170, 0.800, -0.046, -0.091, 0.110
0.420, 0.170, 0.800, -0.053, -0.096, 0.111
0.470, 0.170, 0.800, -0.055, -0.103, 0.112
0.520, 0.170, 0.800, -0.060, -0.108, 0.115
0.570, 0.170, 0.800, -0.064, -0.114, 0.117
0.620, 0.170, 0.800, -0.070, -0.117, 0.121
0.620, 0.220, 0.800, -0.064, -0.115, 0.109
0.570, 0.220, 0.800, -0.060, -0.109, 0.106
0.520, 0.220, 0.800, -0.056, -0.103, 0.104
0.470, 0.220, 0.800, -0.055, -0.097, 0.103
0.420, 0.220, 0.800, -0.049, -0.091, 0.101
0.370, 0.220, 0.800, -0.045, -0.086, 0.100
0.320, 0.220, 0.800, -0.042, -0.082, 0.099
0.270, 0.220, 0.800, -0.035, -0.076, 0.099
0.220, 0.220, 0.800, -0.032, -0.073, 0.097
0.170, 0.220, 0.800, -0.027, -0.065, 0.096
0.120, 0.220, 0.800, -0.019, -0.062, 0.094
0.120, 0.270, 0.800, -0.018, -0.057, 0.084
0.170, 0.270, 0.800, -0.026, -0.063, 0.085
0.220, 0.270, 0.800, -0.032, -0.068, 0.085
0.270, 0.270, 0.800, -0.035, -0.073, 0.085
0.320, 0.270, 0.800, -0.043, -0.076, 0.086
0.370, 0.270, 0.800, -0.045, -0.082, 0.087
0.420, 0.270, 0.800, -0.049, -0.087, 0.088
0.470, 0.270, 0.800, -0.055, -0.092, 0.089
0.520, 0.270, 0.800, -0.055, -0.098, 0.091
0.570, 0.270, 0.800, -0.058, -0.104, 0.096
0.620, 0.270, 0.800, -0.063, -0.110, 0.098
0.620, 0.320, 0.800, -0.059, -0.106, 0.085
0.570, 0.320, 0.800, -0.056, -0.099, 0.083
0.520, 0.320, 0.800, -0.055, -0.094, 0.082
0.470, 0.320, 0.800, -0.049, -0.088, 0.080
0.420, 0.320, 0.800, -0.046, -0.082, 0.079
0.370, 0.320, 0.800, -0.045, -0.076, 0.079
0.320, 0.320, 0.800, -0.038, -0.073, 0.078
0.270, 0.320, 0.800, -0.033, -0.066, 0.077
0.220, 0.320, 0.800, -0.030, -0.061, 0.076
0.170, 0.320, 0.800, -0.024, -0.054, 0.076
0.120, 0.320, 0.800, -0.015, -0.048, 0.075
0.120, 0.370, 0.800, -0.015, -0.044, 0.064
0.170, 0.370, 0.800, -0.024, -0.049, 0.064
0.220, 0.370, 0.800, -0.030, -0.055, 0.064
0.270, 0.370, 0.800, -0.033, -0.061, 0.064
0.320, 0.370, 0.800, -0.041, -0.064, 0.067
0.370, 0.370, 0.800, -0.045, -0.073, 0.068
0.420, 0.370, 0.800, -0.046, -0.073, 0.070
0.470, 0.370, 0.800, -0.050, -0.079, 0.070
0.520, 0.370, 0.800, -0.055, -0.085, 0.072
0.570, 0.370, 0.800, -0.056, -0.088, 0.073
0.620, 0.370, 0.800, -0.058, -0.098, 0.073
0.420, 0.420, 0.800, -0.044, -0.073, 0.058
0.370, 0.420, 0.800, -0.042, -0.073, 0.057
0.320, 0.420, 0.800, -0.036, -0.064, 0.057
0.270, 0.420, 0.800, -0.033, -0.061, 0.056
0.220, 0.420, 0.800, -0.029, -0.056, 0.055
0.170, 0.420, 0.800, -0.023, -0.051, 0.055
0.120, 0.420, 0.800, -0.015, -0.045, 0.055
0.120, 0.470, 0.800, -0.015, -0.039, 0.046
0.170, 0.470, 0.800, -0.024, -0.046, 0.045
0.220, 0.470, 0.800, -0.030, -0.052, 0.046
0.270, 0.470, 0.800, -0.033, -0.057, 0.046
0.320, 0.470, 0.800, -0.037, -0.063, 0.046
0.370, 0.470, 0.800, -0.042, -0.067, 0.046
0.420, 0.470, 0.800, -0.044, -0.073, 0.048
0.470, 0.470, 0.800, -0.048, -0.076, 0.048
0.520, 0.470, 0.800, -0.051, -0.082, 0.049
0.570, 0.470, 0.800, -0.054, -0.088, 0.049
0.620, 0.470, 0.800, -0.057, -0.092, 0.050
0.620, 0.520, 0.800, -0.057, -0.088, 0.038
0.570, 0.520, 0.800, -0.052, -0.082, 0.038
0.520, 0.520, 0.800, -0.048, -0.078, 0.036
0.470, 0.520, 0.800, -0.045, -0.073, 0.036
0.420, 0.520, 0.800, -0.042, -0.068, 0.036
0.370, 0.520, 0.800, -0.042, -0.063, 0.035
0.320, 0.520, 0.800, -0.035, -0.057, 0.034
0.270, 0.520, 0.800, -0.033, -0.052, 0.034
0.220, 0.520, 0.800, -0.029, -0.046, 0.034
0.170, 0.520, 0.800, -0.023, -0.039, 0.034
0.120, 0.520, 0.800, -0.015, -0.033, 0.034
0.120, 0.570, 0.800, -0.015, -0.030, 0.026
0.170, 0.570, 0.800, -0.024, -0.034, 0.024
0.220, 0.570, 0.800, -0.030, -0.039, 0.024
0.270, 0.570, 0.800, -0.033, -0.045, 0.024
0.320, 0.570, 0.800, -0.036, -0.049, 0.024
0.370, 0.570, 0.800, -0.042, -0.052, 0.024
0.420, 0.570, 0.800, -0.043, -0.058, 0.024
0.470, 0.570, 0.800, -0.046, -0.064, 0.024
0.520, 0.570, 0.800, -0.049, -0.070, 0.025
0.570, 0.570, 0.800, -0.053, -0.073, 0.027
0.620, 0.570, 0.800, -0.058, -0.077, 0.027
0.620, 0.620, 0.800, -0.057, -0.073, 0.016
0.570, 0.620, 0.800, -0.052, -0.069, 0.015
0.520, 0.620, 0.800, -0.048, -0.063, 0.015
0.470, 0.620, 0.800, -0.045, -0.056, 0.014
0.420, 0.620, 0.800, -0.042, -0.052, 0.013
0.370, 0.620, 0.800, -0.041, -0.046, 0.012
0.320, 0.620, 0.800, -0.035, -0.040, 0.012
0.270, 0.620, 0.800, -0.033, -0.036, 0.012
0.220, 0.620, 0.800, -0.030, -0.033, 0.012
0.170, 0.620, 0.800, -0.024, -0.030, 0.012
0.120, 0.620, 0.800, -0.017, -0.021, 0.015
0.120, 0.670, 0.800, -0.020, -0.021, 0.003
0.170, 0.670, 0.800, -0.027, -0.028, 0.002
0.220, 0.670, 0.800, -0.032, -0.032, 0.000
0.270, 0.670, 0.800, -0.033, -0.038, 0.000
0.320, 0.670, 0.800, -0.036, -0.043, 0.000
0.370, 0.670, 0.800, -0.041, -0.050, 0.000
0.420, 0.670, 0.800, -0.042, -0.055, 0.001
0.470, 0.670, 0.800, -0.043, -0.062, 0.002
0.520, 0.670, 0.800, -0.047, -0.064, 0.003
0.570, 0.670, 0.800, -0.050, -0.073, 0.004
0.620, 0.670, 0.800, -0.055, -0.076, 0.005
0.120, 0.170, 0.840, -0.015, -0.078, 0.102
0.170, 0.170, 0.840, -0.021, -0.084, 0.103
0.220, 0.170, 0.840, -0.029, -0.087, 0.103
0.270, 0.170, 0.840, -0.033, -0.093, 0.103
0.320, 0.170, 0.840, -0.037, -0.097, 0.103
0.370, 0.170, 0.840, -0.042, -0.103, 0.106
0.420, 0.170, 0.840, -0.047, -0.107, 0.107
0.470, 0.170, 0.840, -0.053, -0.114, 0.109
0.520, 0.170, 0.840, -0.055, -0.115, 0.111
0.570, 0.170, 0.840, -0.060, -0.119, 0.114
0.620, 0.170, 0.840, -0.064, -0.127, 0.117
0.620, 0.220, 0.840, -0.059, -0.124, 0.106
0.570, 0.220, 0.840, -0.055, -0.116, 0.103
0.520, 0.220, 0.840, -0.052, -0.113, 0.100
0.470, 0.220, 0.840, -0.048, -0.107, 0.099
0.420, 0.220, 0.840, -0.043, -0.102, 0.097
0.370, 0.220, 0.840, -0.042, -0.097, 0.096
0.320, 0.220, 0.840, -0.035, -0.091, 0.092
0.270, 0.220, 0.840, -0.033, -0.088, 0.092
0.220, 0.220, 0.840, -0.027, -0.083, 0.091
0.170, 0.220, 0.840, -0.021, -0.082, 0.091
0.120, 0.220, 0.840, -0.014, -0.076, 0.090
0.120, 0.270, 0.840, -0.012, -0.072, 0.080
0.170, 0.270, 0.840, -0.021, -0.076, 0.080
0.220, 0.270, 0.840, -0.027, -0.080, 0.081
0.270, 0.270, 0.840, -0.033, -0.082, 0.082
0.320, 0.270, 0.840, -0.035, -0.088, 0.082
0.370, 0.270, 0.840, -0.042, -0.092, 0.082
0.420, 0.270, 0.840, -0.043, -0.097, 0.084
0.470, 0.270, 0.840, -0.047, -0.103, 0.085
0.520, 0.270, 0.840, -0.051, -0.109, 0.087
0.570, 0.270, 0.840, -0.054, -0.115, 0.088
0.620, 0.270, 0.840, -0.057, -0.119, 0.091
0.620, 0.320, 0.840, -0.054, -0.115, 0.080
0.570, 0.320, 0.840, -0.051, -0.109, 0.079
0.520, 0.320, 0.840, -0.048, -0.103, 0.077
0.470, 0.320, 0.840, -0.045, -0.097, 0.076
0.420, 0.320, 0.840, -0.042, -0.091, 0.076
0.370, 0.320, 0.840, -0.038, -0.087, 0.074
0.320, 0.320, 0.840, -0.033, -0.082, 0.073
0.270, 0.320, 0.840, -0.031, -0.077, 0.073
0.220, 0.320, 0.840, -0.026, -0.073, 0.073
0.170, 0.320, 0.840, -0.019, -0.069, 0.072
0.120, 0.320, 0.840, -0.012, -0.064, 0.071
0.120, 0.370, 0.840, -0.010, -0.056, 0.060
0.170, 0.370, 0.840, -0.018, -0.060, 0.060
0.220, 0.370, 0.840, -0.026, -0.064, 0.061
0.270, 0.370, 0.840, -0.032, -0.071, 0.061
0.320, 0.370, 0.840, -0.033, -0.073, 0.061
0.370, 0.370, 0.840, -0.040, -0.077, 0.062
0.420, 0.370, 0.840, -0.042, -0.082, 0.063
0.470, 0.370, 0.840, -0.046, -0.086, 0.063
0.520, 0.370, 0.840, -0.049, -0.092, 0.065
0.570, 0.370, 0.840, -0.052, -0.097, 0.069
0.620, 0.370, 0.840, -0.054, -0.109, 0.070
0.420, 0.420, 0.840, -0.042, -0.082, 0.054
0.370, 0.420, 0.840, -0.036, -0.079, 0.053
0.320, 0.420, 0.840, -0.033, -0.073, 0.052
0.270, 0.420, 0.840, -0.030, -0.070, 0.051
0.220, 0.420, 0.840, -0.025, -0.064, 0.051
0.170, 0.420, 0.840, -0.018, -0.061, 0.051
0.120, 0.420, 0.840, -0.010, -0.055, 0.050
0.120, 0.470, 0.840, -0.010, -0.051, 0.042
0.170, 0.470, 0.840, -0.018, -0.055, 0.042
0.220, 0.470, 0.840, -0.025, -0.061, 0.042
0.270, 0.470, 0.840, -0.031, -0.064, 0.042
0.320, 0.470, 0.840, -0.033, -0.070, 0.042
0.370, 0.470, 0.840, -0.037, -0.073, 0.042
0.420, 0.470, 0.840, -0.042, -0.081, 0.043
0.470, 0.470, 0.840, -0.042, -0.083, 0.044
0.520, 0.470, 0.840, -0.046, -0.089, 0.045
0.570, 0.470, 0.840, -0.048, -0.094, 0.045
0.620, 0.470, 0.840, -0.052, -0.102, 0.046
0.620, 0.520, 0.840, -0.052, -0.097, 0.034
0.570, 0.520, 0.840, -0.048, -0.091, 0.033
0.520, 0.520, 0.840, -0.045, -0.085, 0.033
0.470, 0.520, 0.840, -0.042, -0.082, 0.033
0.420, 0.520, 0.840, -0.040, -0.073, 0.031
0.370, 0.520, 0.840, -0.035, -0.072, 0.030
0.320, 0.520, 0.840, -0.033, -0.064, 0.030
0.270, 0.520, 0.840, -0.030, -0.061, 0.030
0.220, 0.520, 0.840, -0.024, -0.056, 0.030
0.170, 0.520, 0.840, -0.018, -0.051, 0.030
0.120, 0.520, 0.840, -0.010, -0.046, 0.030
0.120, 0.570, 0.840, -0.012, -0.042, 0.021
0.170, 0.570, 0.840, -0.019, -0.046, 0.021
0.220, 0.570, 0.840, -0.026, -0.052, 0.020
0.270, 0.570, 0.840, -0.030, -0.057, 0.019
0.320, 0.570, 0.840, -0.033, -0.061, 0.020
0.370, 0.570, 0.840, -0.035, -0.064, 0.020
0.420, 0.570, 0.840, -0.041, -0.072, 0.021
0.470, 0.570, 0.840, -0.042, -0.074, 0.021
0.520, 0.570, 0.840, -0.044, -0.082, 0.023
0.570, 0.570, 0.840, -0.048, -0.086, 0.024
0.620, 0.570, 0.840, -0.052, -0.092, 0.027
0.620, 0.620, 0.840, -0.051, -0.089, 0.013
0.570, 0.620, 0.840, -0.046, -0.082, 0.012
0.520, 0.620, 0.840, -0.043, -0.077, 0.012
0.470, 0.620, 0.840, -0.042, -0.073, 0.011
0.420, 0.620, 0.840, -0.037, -0.064, 0.010
0.370, 0.620, 0.840, -0.033, -0.060, 0.009
0.320, 0.620, 0.840, -0.033, -0.053, 0.009
0.270, 0.620, 0.840, -0.030, -0.048, 0.008
0.220, 0.620, 0.840, -0.026, -0.045, 0.009
0.170, 0.620, 0.840, -0.020, -0.039, 0.009
0.120, 0.620, 0.840, -0.012, -0.033, 0.008
0.120, 0.670, 0.840, -0.015, -0.030, 0.000
0.170, 0.670, 0.840, -0.022, -0.036, 0.000
0.220, 0.670, 0.840, -0.027, -0.041, -0.001
0.270, 0.670, 0.840, -0.031, -0.046, -0.001
0.320, 0.670, 0.840, -0.033, -0.052, -0.001
0.370, 0.670, 0.840, -0.033, -0.055, -0.001
0.420, 0.670, 0.840, -0.036, -0.060, 0.000
0.470, 0.670, 0.840, -0.042, -0.064, 0.000
0.520, 0.670, 0.840, -0.042, -0.072, 0.000
0.570, 0.670, 0.840, -0.046, -0.076, 0.000
0.620, 0.670, 0.840, -0.051, -0.083, 0.002
0.120, 0.170, 0.880, -0.012, -0.096, 0.097
0.170, 0.170, 0.880, -0.019, -0.100, 0.097
0.220, 0.170, 0.880, -0.026, -0.103, 0.099
0.270, 0.170, 0.880, -0.031, -0.108, 0.100
0.320, 0.170, 0.880, -0.033, -0.112, 0.101
0.370, 0.170, 0.880, -0.040, -0.115, 0.102
0.420, 0.170, 0.880, -0.042, -0.120, 0.103
0.470, 0.170, 0.880, -0.046, -0.125, 0.103
0.520, 0.170, 0.880, -0.051, -0.131, 0.106
0.570, 0.170, 0.880, -0.055, -0.137, 0.109
0.620, 0.170, 0.880, -0.058, -0.145, 0.112
0.620, 0.220, 0.880, -0.054, -0.138, 0.100
0.570, 0.220, 0.880, -0.050, -0.130, 0.098
0.520, 0.220, 0.880, -0.047, -0.124, 0.096
0.470, 0.220, 0.880, -0.043, -0.119, 0.091
0.420, 0.220, 0.880, -0.042, -0.115, 0.090
0.370, 0.220, 0.880, -0.036, -0.112, 0.088
0.320, 0.220, 0.880, -0.033, -0.107, 0.088
0.270, 0.220, 0.880, -0.030, -0.103, 0.088
0.220, 0.220, 0.880, -0.024, -0.099, 0.087
0.170, 0.220, 0.880, -0.018, -0.094, 0.086
0.120, 0.220, 0.880, -0.011, -0.091, 0.085
0.120, 0.270, 0.880, -0.010, -0.085, 0.076
0.170, 0.270, 0.880, -0.018, -0.088, 0.076
0.220, 0.270, 0.880, -0.024, -0.091, 0.077
0.270, 0.270, 0.880, -0.030, -0.096, 0.078
0.320, 0.270, 0.880, -0.033, -0.100, 0.079
0.370, 0.270, 0.880, -0.036, -0.106, 0.079
0.420, 0.270, 0.880, -0.042, -0.110, 0.080
0.470, 0.270, 0.880, -0.043, -0.115, 0.082
0.520, 0.270, 0.880, -0.046, -0.118, 0.083
0.570, 0.270, 0.880, -0.048, -0.124, 0.085
0.620, 0.270, 0.880, -0.051, -0.131, 0.087
0.620, 0.320, 0.880, -0.049, -0.126, 0.076
0.570, 0.320, 0.880, -0.046, -0.118, 0.075
0.520, 0.320, 0.880, -0.044, -0.115, 0.073
0.470, 0.320, 0.880, -0.042, -0.109, 0.073
0.420, 0.320, 0.880, -0.038, -0.103, 0.072
0.370, 0.320, 0.880, -0.034, -0.095, 0.071
0.320, 0.320, 0.880, -0.033, -0.090, 0.070
0.270, 0.320, 0.880, -0.028, -0.085, 0.070
0.220, 0.320, 0.880, -0.023, -0.083, 0.068
0.170, 0.320, 0.880, -0.016, -0.082, 0.066
0.120, 0.320, 0.880, -0.009, -0.076, 0.064
0.120, 0.370, 0.880, -0.007, -0.073, 0.055
0.170, 0.370, 0.880, -0.015, -0.074, 0.056
0.220, 0.370, 0.880, -0.022, -0.076, 0.057
0.270, 0.370, 0.880, -0.028, -0.082, 0.057
0.320, 0.370, 0.880, -0.033, -0.088, 0.058
0.370, 0.370, 0.880, -0.034, -0.091, 0.058
0.420, 0.370, 0.880, -0.038, -0.098, 0.060
0.470, 0.370, 0.880, -0.042, -0.100, 0.061
0.520, 0.370, 0.880, -0.044, -0.106, 0.061
0.570, 0.370, 0.880, -0.046, -0.113, 0.062
0.620, 0.370, 0.880, -0.049, -0.115, 0.064
0.420, 0.420, 0.880, -0.036, -0.091, 0.050
0.370, 0.420, 0.880, -0.033, -0.091, 0.049
0.320, 0.420, 0.880, -0.031, -0.087, 0.049
0.270, 0.420, 0.880, -0.027, -0.082, 0.048
0.220, 0.420, 0.880, -0.021, -0.082, 0.048
0.170, 0.420, 0.880, -0.015, -0.076, 0.047
0.120, 0.420, 0.880, -0.007, -0.074, 0.046
0.120, 0.470, 0.880, -0.006, -0.069, 0.036
0.170, 0.470, 0.880, -0.015, -0.073, 0.036
0.220, 0.470, 0.880, -0.021, -0.074, 0.036
0.270, 0.470, 0.880, -0.027, -0.081, 0.036
0.320, 0.470, 0.880, -0.032, -0.082, 0.037
0.370, 0.470, 0.880, -0.033, -0.087, 0.037
0.420, 0.470, 0.880, -0.036, -0.092, 0.040
0.470, 0.470, 0.880, -0.042, -0.098, 0.042
0.520, 0.470, 0.880, -0.042, -0.103, 0.042
0.570, 0.470, 0.880, -0.044, -0.110, 0.043
0.620, 0.470, 0.880, -0.047, -0.115, 0.043
0.620, 0.520, 0.880, -0.046, -0.114, 0.032
0.570, 0.520, 0.880, -0.042, -0.106, 0.031
0.520, 0.520, 0.880, -0.042, -0.100, 0.030
0.470, 0.520, 0.880, -0.037, -0.094, 0.030
0.420, 0.520, 0.880, -0.034, -0.088, 0.029
0.370, 0.520, 0.880, -0.032, -0.083, 0.029
0.320, 0.520, 0.880, -0.030, -0.082, 0.028
0.270, 0.520, 0.880, -0.026, -0.073, 0.027
0.220, 0.520, 0.880, -0.021, -0.073, 0.027
0.170, 0.520, 0.880, -0.015, -0.066, 0.027
0.120, 0.520, 0.880, -0.007, -0.064, 0.027
0.120, 0.570, 0.880, -0.008, -0.060, 0.018
0.170, 0.570, 0.880, -0.016, -0.064, 0.018
0.220, 0.570, 0.880, -0.021, -0.066, 0.018
0.270, 0.570, 0.880, -0.027, -0.073, 0.017
0.320, 0.570, 0.880, -0.031, -0.075, 0.018
0.370, 0.570, 0.880, -0.031, -0.082, 0.018
0.420, 0.570, 0.880, -0.034, -0.085, 0.018
0.470, 0.570, 0.880, -0.037, -0.090, 0.019
0.520, 0.570, 0.880, -0.041, -0.096, 0.021
0.570, 0.570, 0.880, -0.042, -0.103, 0.021
0.620, 0.570, 0.880, -0.046, -0.110, 0.022
0.620, 0.620, 0.880, -0.045, -0.107, 0.012
0.570, 0.620, 0.880, -0.041, -0.100, 0.012
0.520, 0.620, 0.880, -0.038, -0.093, 0.010
0.470, 0.620, 0.880, -0.035, -0.088, 0.009
0.420, 0.620, 0.880, -0.033, -0.082, 0.009
0.370, 0.620, 0.880, -0.030, -0.076, 0.007
0.320, 0.620, 0.880, -0.030, -0.073, 0.007
0.270, 0.620, 0.880, -0.027, -0.070, 0.006
0.220, 0.620, 0.880, -0.021, -0.064, 0.006
0.170, 0.620, 0.880, -0.017, -0.061, 0.007
0.120, 0.620, 0.880, -0.009, -0.056, 0.006
0.120, 0.670, 0.880, -0.012, -0.053, 0.000
0.170, 0.670, 0.880, -0.018, -0.057, -0.002
0.220, 0.670, 0.880, -0.021, -0.061, -0.003
0.270, 0.670, 0.880, -0.027, -0.064, -0.003
0.320, 0.670, 0.880, -0.030, -0.072, -0.003
0.370, 0.670, 0.880, -0.030, -0.073, -0.002
0.420, 0.670, 0.880, -0.032, -0.082, -0.001
0.470, 0.670, 0.880, -0.034, -0.085, 0.000
0.520, 0.670, 0.880, -0.037, -0.091, 0.000
0.570, 0.670, 0.880, -0.040, -0.097, 0.000
0.620, 0.670, 0.880, -0.045, -0.104, 0.001
0.120, 0.170, 0.920, -0.010, -0.112, 0.093
0.170, 0.170, 0.920, -0.017, -0.113, 0.095
0.220, 0.170, 0.920, -0.021, -0.116, 0.096
0.270, 0.170, 0.920, -0.028, -0.118, 0.096
0.320, 0.170, 0.920, -0.031, -0.123, 0.097
0.370, 0.170, 0.920, -0.034, -0.126, 0.097
0.420, 0.170, 0.920, -0.041, -0.128, 0.099
0.470, 0.170, 0.920, -0.042, -0.133, 0.100
0.520, 0.170, 0.920, -0.046, -0.139, 0.102
0.570, 0.170, 0.920, -0.049, -0.145, 0.104
0.620, 0.170, 0.920, -0.052, -0.154, 0.107
0.620, 0.220, 0.920, -0.048, -0.146, 0.097
0.570, 0.220, 0.920, -0.045, -0.137, 0.091
0.520, 0.220, 0.920, -0.043, -0.133, 0.088
0.470, 0.220, 0.920, -0.042, -0.127, 0.087
0.420, 0.220, 0.920, -0.037, -0.124, 0.085
0.370, 0.220, 0.920, -0.033, -0.119, 0.084
0.320, 0.220, 0.920, -0.030, -0.116, 0.084
0.270, 0.220, 0.920, -0.027, -0.115, 0.083
0.220, 0.220, 0.920, -0.021, -0.112, 0.082
0.170, 0.220, 0.920, -0.016, -0.110, 0.082
0.120, 0.220, 0.920, -0.009, -0.109, 0.081
0.120, 0.270, 0.920, -0.008, -0.101, 0.072
0.170, 0.270, 0.920, -0.016, -0.103, 0.073
0.220, 0.270, 0.920, -0.021, -0.106, 0.073
0.270, 0.270, 0.920, -0.027, -0.109, 0.073
0.320, 0.270, 0.920, -0.030, -0.113, 0.074
0.370, 0.270, 0.920, -0.033, -0.115, 0.075
0.420, 0.270, 0.920, -0.036, -0.118, 0.076
0.470, 0.270, 0.920, -0.040, -0.124, 0.076
0.520, 0.270, 0.920, -0.041, -0.130, 0.079
0.570, 0.270, 0.920, -0.043, -0.136, 0.080
0.620, 0.270, 0.920, -0.045, -0.143, 0.082
0.620, 0.320, 0.920, -0.043, -0.136, 0.073
0.570, 0.320, 0.920, -0.040, -0.129, 0.071
0.520, 0.320, 0.920, -0.040, -0.124, 0.070
0.470, 0.320, 0.920, -0.037, -0.117, 0.068
0.420, 0.320, 0.920, -0.033, -0.115, 0.065
0.370, 0.320, 0.920, -0.030, -0.110, 0.064
0.320, 0.320, 0.920, -0.030, -0.106, 0.063
0.270, 0.320, 0.920, -0.023, -0.103, 0.062
0.220, 0.320, 0.920, -0.021, -0.099, 0.061
0.170, 0.320, 0.920, -0.015, -0.095, 0.061
0.120, 0.320, 0.920, -0.006, -0.094, 0.060
0.120, 0.370, 0.920, -0.006, -0.088, 0.052
0.170, 0.370, 0.920, -0.014, -0.089, 0.052
0.220, 0.370, 0.920, -0.021, -0.091, 0.053
0.270, 0.370, 0.920, -0.023, -0.095, 0.054
0.320, 0.370, 0.920, -0.030, -0.099, 0.055
0.370, 0.370, 0.920, -0.030, -0.103, 0.055
0.420, 0.370, 0.920, -0.033, -0.104, 0.056
0.470, 0.370, 0.920, -0.036, -0.110, 0.057
0.520, 0.370, 0.920, -0.041, -0.115, 0.058
0.570, 0.370, 0.920, -0.041, -0.118, 0.059
0.620, 0.370, 0.920, -0.042, -0.127, 0.060
0.420, 0.420, 0.920, -0.032, -0.103, 0.047
0.370, 0.420, 0.920, -0.030, -0.097, 0.046
0.320, 0.420, 0.920, -0.028, -0.093, 0.045
0.270, 0.420, 0.920, -0.021, -0.089, 0.045
0.220, 0.420, 0.920, -0.018, -0.086, 0.045
0.170, 0.420, 0.920, -0.012, -0.085, 0.043
0.120, 0.420, 0.920, -0.005, -0.085, 0.043
0.120, 0.470, 0.920, -0.004, -0.076, 0.033
0.170, 0.470, 0.920, -0.012, -0.082, 0.033
0.220, 0.470, 0.920, -0.019, -0.082, 0.033
0.270, 0.470, 0.920, -0.021, -0.086, 0.033
0.320, 0.470, 0.920, -0.028, -0.090, 0.034
0.370, 0.470, 0.920, -0.030, -0.094, 0.034
0.420, 0.470, 0.920, -0.032, -0.098, 0.035
0.470, 0.470, 0.920, -0.034, -0.103, 0.036
0.520, 0.470, 0.920, -0.037, -0.109, 0.037
0.570, 0.470, 0.920, -0.039, -0.115, 0.038
0.620, 0.470, 0.920, -0.042, -0.120, 0.039
0.620, 0.520, 0.920, -0.041, -0.115, 0.030
0.570, 0.520, 0.920, -0.038, -0.111, 0.029
0.520, 0.520, 0.920, -0.036, -0.105, 0.028
0.470, 0.520, 0.920, -0.033, -0.099, 0.027
0.420, 0.520, 0.920, -0.030, -0.094, 0.027
0.370, 0.520, 0.920, -0.030, -0.090, 0.026
0.320, 0.520, 0.920, -0.027, -0.085, 0.025
0.270, 0.520, 0.920, -0.021, -0.082, 0.025
0.220, 0.520, 0.920, -0.018, -0.078, 0.024
0.170, 0.520, 0.920, -0.012, -0.076, 0.024
0.120, 0.520, 0.920, -0.003, -0.075, 0.024
0.120, 0.570, 0.920, -0.005, -0.071, 0.015
0.170, 0.570, 0.920, -0.012, -0.073, 0.015
0.220, 0.570, 0.920, -0.018, -0.075, 0.015
0.270, 0.570, 0.920, -0.021, -0.080, 0.015
0.320, 0.570, 0.920, -0.027, -0.082, 0.015
0.370, 0.570, 0.920, -0.030, -0.087, 0.015
0.420, 0.570, 0.920, -0.030, -0.092, 0.017
0.470, 0.570, 0.920, -0.032, -0.097, 0.018
0.520, 0.570, 0.920, -0.035, -0.103, 0.018
0.570, 0.570, 0.920, -0.037, -0.110, 0.019
0.620, 0.570, 0.920, -0.040, -0.115, 0.020
0.620, 0.620, 0.920, -0.039, -0.115, 0.012
0.570, 0.620, 0.920, -0.036, -0.109, 0.010
0.520, 0.620, 0.920, -0.033, -0.100, 0.009
0.470, 0.620, 0.920, -0.030, -0.095, 0.009
0.420, 0.620, 0.920, -0.030, -0.090, 0.006
0.370, 0.620, 0.920, -0.029, -0.085, 0.006
0.320, 0.620, 0.920, -0.026, -0.082, 0.006
0.270, 0.620, 0.920, -0.021, -0.076, 0.005
0.220, 0.620, 0.920, -0.019, -0.073, 0.005
0.170, 0.620, 0.920, -0.013, -0.072, 0.006
0.120, 0.620, 0.920, -0.006, -0.069, 0.006
0.120, 0.670, 0.920, -0.009, -0.065, -0.001
0.170, 0.670, 0.920, -0.015, -0.070, -0.003
0.220, 0.670, 0.920, -0.020, -0.073, -0.003
0.270, 0.670, 0.920, -0.021, -0.075, -0.004
0.320, 0.670, 0.920, -0.025, -0.082, -0.003
0.370, 0.670, 0.920, -0.028, -0.083, -0.003
0.420, 0.670, 0.920, -0.030, -0.088, -0.002
0.470, 0.670, 0.920, -0.030, -0.095, 0.000
0.520, 0.670, 0.920, -0.032, -0.102, 0.000
0.570, 0.670, 0.920, -0.035, -0.109, 0.000
0.620, 0.670, 0.920, -0.038, -0.115, 0.002
0.000, 0.050, 0.500, 0.047, 0.031, -0.129
