0.000, 0.050, 0.500, -0.021, -0.070, -0.003
0.102, 0.152, 0.500, -0.027, -0.087, 0.002
0.152, 0.152, 0.500, -0.029, -0.086, 0.003
0.202, 0.152, 0.500, -0.030, -0.086, 0.003
0.252, 0.152, 0.500, -0.030, -0.087, 0.003
0.302, 0.152, 0.500, -0.030, -0.088, 0.003
0.352, 0.152, 0.500, -0.030, -0.090, 0.004
0.402, 0.152, 0.500, -0.030, -0.091, 0.005
0.452, 0.152, 0.500, -0.030, -0.095, 0.006
0.502, 0.152, 0.500, -0.030, -0.099, 0.007
0.552, 0.152, 0.500, -0.029, -0.103, 0.009
0.602, 0.152, 0.500, -0.026, -0.109, 0.012
0.602, 0.202, 0.500, -0.021, -0.103, 0.010
0.552, 0.202, 0.500, -0.026, -0.099, 0.009
0.502, 0.202, 0.500, -0.029, -0.094, 0.007
0.452, 0.202, 0.500, -0.030, -0.091, 0.006
0.402, 0.202, 0.500, -0.030, -0.088, 0.005
0.352, 0.202, 0.500, -0.030, -0.085, 0.003
0.302, 0.202, 0.500, -0.030, -0.083, 0.003
0.252, 0.202, 0.500, -0.030, -0.082, 0.002
0.202, 0.202, 0.500, -0.030, -0.082, 0.001
0.152, 0.202, 0.500, -0.027, -0.082, 0.000
0.102, 0.202, 0.500, -0.025, -0.082, 0.000
0.102, 0.252, 0.500, -0.022, -0.076, 0.000
0.152, 0.252, 0.500, -0.027, -0.076, 0.000
0.202, 0.252, 0.500, -0.029, -0.076, 0.000
0.252, 0.252, 0.500, -0.030, -0.080, 0.001
0.302, 0.252, 0.500, -0.030, -0.082, 0.003
0.352, 0.252, 0.500, -0.030, -0.082, 0.003
0.402, 0.252, 0.500, -0.030, -0.083, 0.004
0.452, 0.252, 0.500, -0.030, -0.086, 0.005
0.502, 0.252, 0.500, -0.027, -0.090, 0.006
0.552, 0.252, 0.500, -0.023, -0.094, 0.007
0.602, 0.252, 0.500, -0.021, -0.099, 0.009
0.602, 0.302, 0.500, -0.021, -0.095, 0.007
0.552, 0.302, 0.500, -0.021, -0.091, 0.006
0.502, 0.302, 0.500, -0.027, -0.086, 0.005
0.452, 0.302, 0.500, -0.028, -0.082, 0.004
0.402, 0.302, 0.500, -0.029, -0.082, 0.003
0.352, 0.302, 0.500, -0.030, -0.077, 0.003
0.302, 0.302, 0.500, -0.030, -0.075, 0.001
0.252, 0.302, 0.500, -0.029, -0.073, 0.000
0.202, 0.302, 0.500, -0.027, -0.073, 0.000
0.152, 0.302, 0.500, -0.024, -0.073, 0.000
0.102, 0.302, 0.500, -0.021, -0.073, 0.000
0.102, 0.352, 0.500, -0.021, -0.071, -0.001
0.152, 0.352, 0.500, -0.021, -0.071, 0.000
0.202, 0.352, 0.500, -0.026, -0.072, 0.000
0.252, 0.352, 0.500, -0.027, -0.073, 0.000
0.302, 0.352, 0.500, -0.028, -0.073, 0.000
0.352, 0.352, 0.500, -0.029, -0.073, 0.001
0.402, 0.352, 0.500, -0.028, -0.076, 0.002
0.452, 0.352, 0.500, -0.027, -0.082, 0.003
0.502, 0.352, 0.500, -0.025, -0.083, 0.003
0.552, 0.352, 0.500, -0.021, -0.088, 0.004
0.602, 0.352, 0.500, -0.020, -0.092, 0.005
0.302, 0.402, 0.500, -0.027, -0.070, 0.000
0.252, 0.402, 0.500, -0.027, -0.069, 0.000
0.202, 0.402, 0.500, -0.022, -0.066, 0.000
0.152, 0.402, 0.500, -0.021, -0.064, 0.000
0.102, 0.402, 0.500, -0.019, -0.064, -0.002
0.102, 0.452, 0.500, -0.018, -0.063, -0.003
0.152, 0.452, 0.500, -0.021, -0.064, -0.001
0.202, 0.452, 0.500, -0.021, -0.064, 0.000
0.252, 0.452, 0.500, -0.024, -0.064, 0.000
0.302, 0.452, 0.500, -0.027, -0.066, 0.000
0.352, 0.452, 0.500, -0.027, -0.070, 0.000
0.402, 0.452, 0.500, -0.027, -0.073, 0.000
0.452, 0.452, 0.500, -0.025, -0.073, 0.000
0.502, 0.452, 0.500, -0.021, -0.077, 0.000
0.552, 0.452, 0.500, -0.021, -0.082, 0.000
0.602, 0.452, 0.500, -0.020, -0.087, 0.000
0.602, 0.502, 0.500, -0.021, -0.085, 0.000
0.552, 0.502, 0.500, -0.021, -0.082, 0.000
0.502, 0.502, 0.500, -0.021, -0.075, 0.000
0.452, 0.502, 0.500, -0.025, -0.073, 0.000
0.402, 0.502, 0.500, -0.026, -0.070, 0.000
0.352, 0.502, 0.500, -0.026, -0.065, 0.000
0.302, 0.502, 0.500, -0.026, -0.064, -0.001
0.252, 0.502, 0.500, -0.022, -0.064, -0.001
0.202, 0.502, 0.500, -0.021, -0.062, -0.002
0.152, 0.502, 0.500, -0.021, -0.061, -0.003
0.102, 0.502, 0.500, -0.016, -0.061, -0.003
0.102, 0.552, 0.500, -0.015, -0.058, -0.005
0.152, 0.552, 0.500, -0.020, -0.059, -0.004
0.202, 0.552, 0.500, -0.021, -0.060, -0.004
0.252, 0.552, 0.500, -0.021, -0.061, -0.003
0.302, 0.552, 0.500, -0.025, -0.063, -0.003
0.352, 0.552, 0.500, -0.026, -0.064, -0.003
0.402, 0.552, 0.500, -0.025, -0.067, -0.003
0.452, 0.552, 0.500, -0.024, -0.072, -0.003
0.502, 0.552, 0.500, -0.022, -0.073, -0.003
0.552, 0.552, 0.500, -0.021, -0.081, -0.003
0.602, 0.552, 0.500, -0.021, -0.083, -0.003
0.602, 0.602, 0.500, -0.021, -0.082, -0.006
0.552, 0.602, 0.500, -0.021, -0.077, -0.006
0.502, 0.602, 0.500, -0.022, -0.073, -0.006
0.452, 0.602, 0.500, -0.023, -0.070, -0.006
0.402, 0.602, 0.500, -0.025, -0.064, -0.006
0.352, 0.602, 0.500, -0.026, -0.064, -0.006
0.302, 0.602, 0.500, -0.023, -0.061, -0.006
0.252, 0.602, 0.500, -0.021, -0.060, -0.006
0.202, 0.602, 0.500, -0.021, -0.058, -0.006
0.152, 0.602, 0.500, -0.019, -0.057, -0.006
0.102, 0.602, 0.500, -0.015, -0.057, -0.006
0.102, 0.652, 0.500, -0.015, -0.055, -0.012
0.152, 0.652, 0.500, -0.019, -0.056, -0.012
0.202, 0.652, 0.500, -0.021, -0.057, -0.013
0.252, 0.652, 0.500, -0.021, -0.058, -0.012
0.302, 0.652, 0.500, -0.023, -0.060, -0.012
0.352, 0.652, 0.500, -0.025, -0.062, -0.012
0.402, 0.652, 0.500, -0.026, -0.064, -0.011
0.452, 0.652, 0.500, -0.023, -0.069, -0.011
0.502, 0.652, 0.500, -0.021, -0.073, -0.011
0.552, 0.652, 0.500, -0.021, -0.076, -0.012
0.602, 0.652, 0.500, -0.021, -0.082, -0.014
0.102, 0.152, 0.550, -0.028, -0.091, 0.000
0.152, 0.152, 0.550, -0.030, -0.090, 0.000
0.202, 0.152, 0.550, -0.030, -0.088, 0.000
0.252, 0.152, 0.550, -0.030, -0.088, 0.000
0.302, 0.152, 0.550, -0.030, -0.088, 0.000
0.352, 0.152, 0.550, -0.030, -0.090, 0.000
0.402, 0.152, 0.550, -0.030, -0.091, 0.000
0.452, 0.152, 0.550, -0.028, -0.094, 0.001
0.502, 0.152, 0.550, -0.027, -0.097, 0.003
0.552, 0.152, 0.550, -0.021, -0.101, 0.004
0.602, 0.152, 0.550, -0.018, -0.106, 0.007
0.602, 0.202, 0.550, -0.019, -0.101, 0.006
0.552, 0.202, 0.550, -0.021, -0.097, 0.005
0.502, 0.202, 0.550, -0.024, -0.093, 0.003
0.452, 0.202, 0.550, -0.027, -0.090, 0.002
0.402, 0.202, 0.550, -0.029, -0.088, 0.000
0.352, 0.202, 0.550, -0.030, -0.085, 0.000
0.302, 0.202, 0.550, -0.030, -0.084, 0.000
0.252, 0.202, 0.550, -0.030, -0.084, 0.000
0.202, 0.202, 0.550, -0.030, -0.084, 0.000
0.152, 0.202, 0.550, -0.029, -0.085, 0.000
0.102, 0.202, 0.550, -0.027, -0.086, -0.003
0.102, 0.252, 0.550, -0.023, -0.082, -0.003
0.152, 0.252, 0.550, -0.027, -0.082, -0.002
0.202, 0.252, 0.550, -0.029, -0.082, 0.000
0.252, 0.252, 0.550, -0.029, -0.082, 0.000
0.302, 0.252, 0.550, -0.029, -0.082, 0.000
0.352, 0.252, 0.550, -0.028, -0.082, 0.000
0.402, 0.252, 0.550, -0.027, -0.083, 0.000
0.452, 0.252, 0.550, -0.026, -0.085, 0.002
0.502, 0.252, 0.550, -0.021, -0.088, 0.003
0.552, 0.252, 0.550, -0.021, -0.092, 0.004
0.602, 0.252, 0.550, -0.017, -0.097, 0.006
0.602, 0.302, 0.550, -0.016, -0.094, 0.004
0.552, 0.302, 0.550, -0.020, -0.089, 0.003
0.502, 0.302, 0.550, -0.021, -0.085, 0.002
0.452, 0.302, 0.550, -0.022, -0.082, 0.001
0.402, 0.302, 0.550, -0.027, -0.082, 0.000
0.352, 0.302, 0.550, -0.027, -0.080, 0.000
0.302, 0.302, 0.550, -0.028, -0.076, 0.000
0.252, 0.302, 0.550, -0.027, -0.076, 0.000
0.202, 0.302, 0.550, -0.027, -0.076, -0.001
0.152, 0.302, 0.550, -0.025, -0.076, -0.003
0.102, 0.302, 0.550, -0.021, -0.077, -0.003
0.102, 0.352, 0.550, -0.021, -0.073, -0.004
0.152, 0.352, 0.550, -0.021, -0.073, -0.003
0.202, 0.352, 0.550, -0.025, -0.073, -0.002
0.252, 0.352, 0.550, -0.027, -0.073, 0.000
0.302, 0.352, 0.550, -0.027, -0.073, 0.000
0.352, 0.352, 0.550, -0.027, -0.075, 0.000
0.402, 0.352, 0.550, -0.025, -0.077, 0.000
0.452, 0.352, 0.550, -0.022, -0.082, 0.000
0.502, 0.352, 0.550, -0.021, -0.082, 0.001
0.552, 0.352, 0.550, -0.019, -0.087, 0.002
0.602, 0.352, 0.550, -0.015, -0.091, 0.003
0.302, 0.402, 0.550, -0.025, -0.073, 0.000
0.252, 0.402, 0.550, -0.024, -0.072, -0.001
0.202, 0.402, 0.550, -0.022, -0.071, -0.002
0.152, 0.402, 0.550, -0.021, -0.071, -0.003
0.102, 0.402, 0.550, -0.020, -0.073, -0.004
0.102, 0.452, 0.550, -0.018, -0.070, -0.004
0.152, 0.452, 0.550, -0.021, -0.069, -0.003
0.202, 0.452, 0.550, -0.021, -0.069, -0.003
0.252, 0.452, 0.550, -0.022, -0.070, -0.002
0.302, 0.452, 0.550, -0.022, -0.070, -0.001
0.352, 0.452, 0.550, -0.022, -0.073, 0.000
0.402, 0.452, 0.550, -0.021, -0.073, 0.000
0.452, 0.452, 0.550, -0.021, -0.074, 0.000
0.502, 0.452, 0.550, -0.021, -0.079, 0.000
0.552, 0.452, 0.550, -0.018, -0.082, 0.000
0.602, 0.452, 0.550, -0.015, -0.086, 0.000
0.602, 0.502, 0.550, -0.015, -0.085, 0.000
0.552, 0.502, 0.550, -0.018, -0.082, 0.000
0.502, 0.502, 0.550, -0.021, -0.076, 0.000
0.452, 0.502, 0.550, -0.021, -0.073, -0.001
0.402, 0.502, 0.550, -0.021, -0.073, -0.002
0.352, 0.502, 0.550, -0.021, -0.070, -0.002
0.302, 0.502, 0.550, -0.021, -0.069, -0.003
0.252, 0.502, 0.550, -0.021, -0.065, -0.003
0.202, 0.502, 0.550, -0.021, -0.064, -0.003
0.152, 0.502, 0.550, -0.021, -0.064, -0.004
0.102, 0.502, 0.550, -0.017, -0.067, -0.005
0.102, 0.552, 0.550, -0.016, -0.064, -0.006
0.152, 0.552, 0.550, -0.020, -0.064, -0.006
0.202, 0.552, 0.550, -0.021, -0.064, -0.006
0.252, 0.552, 0.550, -0.021, -0.064, -0.005
0.302, 0.552, 0.550, -0.021, -0.064, -0.004
0.352, 0.552, 0.550, -0.021, -0.069, -0.004
0.402, 0.552, 0.550, -0.021, -0.072, -0.003
0.452, 0.552, 0.550, -0.021, -0.073, -0.003
0.502, 0.552, 0.550, -0.021, -0.075, -0.003
0.552, 0.552, 0.550, -0.018, -0.082, -0.003
0.602, 0.552, 0.550, -0.015, -0.085, -0.003
0.602, 0.602, 0.550, -0.015, -0.085, -0.006
0.552, 0.602, 0.550, -0.018, -0.082, -0.006
0.502, 0.602, 0.550, -0.021, -0.075, -0.006
0.452, 0.602, 0.550, -0.021, -0.073, -0.006
0.402, 0.602, 0.550, -0.021, -0.070, -0.007
0.352, 0.602, 0.550, -0.021, -0.068, -0.007
0.302, 0.602, 0.550, -0.021, -0.064, -0.007
0.252, 0.602, 0.550, -0.021, -0.064, -0.008
0.202, 0.602, 0.550, -0.021, -0.064, -0.007
0.152, 0.602, 0.550, -0.019, -0.064, -0.007
0.102, 0.602, 0.550, -0.015, -0.064, -0.007
0.102, 0.652, 0.550, -0.015, -0.064, -0.012
0.152, 0.652, 0.550, -0.020, -0.064, -0.013
0.202, 0.652, 0.550, -0.021, -0.064, -0.013
0.252, 0.652, 0.550, -0.021, -0.064, -0.013
0.302, 0.652, 0.550, -0.021, -0.064, -0.014
0.352, 0.652, 0.550, -0.021, -0.068, -0.014
0.402, 0.652, 0.550, -0.021, -0.070, -0.013
0.452, 0.652, 0.550, -0.021, -0.073, -0.012
0.502, 0.652, 0.550, -0.020, -0.075, -0.013
0.552, 0.652, 0.550, -0.018, -0.082, -0.012
0.102, 0.152, 0.600, -0.030, -0.094, -0.006
0.152, 0.152, 0.600, -0.030, -0.091, -0.006
0.202, 0.152, 0.600, -0.030, -0.089, -0.005
0.252, 0.152, 0.600, -0.030, -0.088, -0.003
0.302, 0.152, 0.600, -0.030, -0.088, -0.003
0.352, 0.152, 0.600, -0.029, -0.088, -0.003
0.402, 0.152, 0.600, -0.028, -0.090, -0.002
0.452, 0.152, 0.600, -0.025, -0.091, 0.000
0.502, 0.152, 0.600, -0.021, -0.094, 0.000
0.552, 0.152, 0.600, -0.020, -0.098, 0.000
0.602, 0.152, 0.600, -0.017, -0.102, 0.001
0.602, 0.202, 0.600, -0.015, -0.097, 0.003
0.552, 0.202, 0.600, -0.019, -0.093, 0.000
0.502, 0.202, 0.600, -0.021, -0.091, 0.000
0.452, 0.202, 0.600, -0.022, -0.088, 0.000
0.402, 0.202, 0.600, -0.027, -0.085, 0.000
0.352, 0.202, 0.600, -0.028, -0.084, -0.001
0.302, 0.202, 0.600, -0.030, -0.084, -0.003
0.252, 0.202, 0.600, -0.030, -0.083, -0.003
0.202, 0.202, 0.600, -0.030, -0.085, -0.004
0.152, 0.202, 0.600, -0.030, -0.085, -0.006
0.102, 0.202, 0.600, -0.030, -0.088, -0.007
0.102, 0.252, 0.600, -0.029, -0.083, -0.007
0.152, 0.252, 0.600, -0.030, -0.082, -0.006
0.202, 0.252, 0.600, -0.029, -0.082, -0.004
0.252, 0.252, 0.600, -0.029, -0.082, -0.003
0.302, 0.252, 0.600, -0.028, -0.082, -0.002
0.352, 0.252, 0.600, -0.027, -0.082, 0.000
0.402, 0.252, 0.600, -0.025, -0.082, 0.000
0.452, 0.252, 0.600, -0.021, -0.084, 0.000
0.502, 0.252, 0.600, -0.021, -0.085, 0.000
0.552, 0.252, 0.600, -0.018, -0.089, 0.000
0.602, 0.252, 0.600, -0.011, -0.093, 0.002
0.602, 0.302, 0.600, -0.009, -0.090, 0.002
0.552, 0.302, 0.600, -0.017, -0.086, 0.000
0.502, 0.302, 0.600, -0.021, -0.083, 0.000
0.452, 0.302, 0.600, -0.021, -0.082, 0.000
0.402, 0.302, 0.600, -0.022, -0.082, 0.000
0.352, 0.302, 0.600, -0.026, -0.077, 0.000
0.302, 0.302, 0.600, -0.027, -0.076, -0.002
0.252, 0.302, 0.600, -0.028, -0.076, -0.003
0.202, 0.302, 0.600, -0.027, -0.076, -0.004
0.152, 0.302, 0.600, -0.027, -0.078, -0.006
0.102, 0.302, 0.600, -0.026, -0.082, -0.007
0.102, 0.352, 0.600, -0.021, -0.075, -0.006
0.152, 0.352, 0.600, -0.024, -0.073, -0.006
0.202, 0.352, 0.600, -0.026, -0.073, -0.004
0.252, 0.352, 0.600, -0.027, -0.073, -0.003
0.302, 0.352, 0.600, -0.027, -0.073, -0.002
0.352, 0.352, 0.600, -0.024, -0.074, -0.001
0.402, 0.352, 0.600, -0.021, -0.076, 0.000
0.452, 0.352, 0.600, -0.021, -0.081, 0.000
0.502, 0.352, 0.600, -0.019, -0.082, 0.000
0.552, 0.352, 0.600, -0.015, -0.084, 0.000
0.602, 0.352, 0.600, -0.009, -0.087, 0.000
0.302, 0.402, 0.600, -0.022, -0.073, -0.002
0.252, 0.402, 0.600, -0.023, -0.072, -0.003
0.202, 0.402, 0.600, -0.022, -0.073, -0.003
0.152, 0.402, 0.600, -0.021, -0.073, -0.006
0.102, 0.402, 0.600, -0.021, -0.073, -0.006
0.102, 0.452, 0.600, -0.021, -0.072, -0.006
0.152, 0.452, 0.600, -0.021, -0.070, -0.006
0.202, 0.452, 0.600, -0.021, -0.070, -0.004
0.252, 0.452, 0.600, -0.021, -0.070, -0.003
0.302, 0.452, 0.600, -0.021, -0.071, -0.003
0.352, 0.452, 0.600, -0.021, -0.072, -0.002
0.402, 0.452, 0.600, -0.021, -0.073, -0.001
0.452, 0.452, 0.600, -0.021, -0.073, -0.001
0.502, 0.452, 0.600, -0.018, -0.076, 0.000
0.552, 0.452, 0.600, -0.015, -0.082, 0.000
0.602, 0.452, 0.600, -0.009, -0.085, 0.000
0.602, 0.502, 0.600, -0.009, -0.085, 0.000
0.552, 0.502, 0.600, -0.013, -0.082, -0.001
0.502, 0.502, 0.600, -0.018, -0.075, -0.002
0.452, 0.502, 0.600, -0.019, -0.073, -0.003
0.402, 0.502, 0.600, -0.021, -0.073, -0.003
0.352, 0.502, 0.600, -0.021, -0.070, -0.003
0.302, 0.502, 0.600, -0.021, -0.070, -0.004
0.252, 0.502, 0.600, -0.021, -0.069, -0.004
0.202, 0.502, 0.600, -0.021, -0.069, -0.005
0.152, 0.502, 0.600, -0.021, -0.069, -0.006
0.102, 0.502, 0.600, -0.018, -0.071, -0.006
0.102, 0.552, 0.600, -0.018, -0.071, -0.006
0.152, 0.552, 0.600, -0.021, -0.069, -0.006
0.202, 0.552, 0.600, -0.021, -0.067, -0.006
0.252, 0.552, 0.600, -0.021, -0.066, -0.006
0.302, 0.552, 0.600, -0.021, -0.069, -0.006
0.352, 0.552, 0.600, -0.021, -0.070, -0.005
0.402, 0.552, 0.600, -0.021, -0.072, -0.004
0.452, 0.552, 0.600, -0.019, -0.073, -0.004
0.502, 0.552, 0.600, -0.017, -0.074, -0.003
0.552, 0.552, 0.600, -0.013, -0.081, -0.003
0.602, 0.552, 0.600, -0.009, -0.085, -0.003
0.602, 0.602, 0.600, -0.009, -0.085, -0.006
0.552, 0.602, 0.600, -0.011, -0.082, -0.006
0.502, 0.602, 0.600, -0.016, -0.075, -0.006
0.452, 0.602, 0.600, -0.018, -0.073, -0.007
0.402, 0.602, 0.600, -0.021, -0.072, -0.007
0.352, 0.602, 0.600, -0.021, -0.070, -0.007
0.302, 0.602, 0.600, -0.021, -0.069, -0.007
0.252, 0.602, 0.600, -0.021, -0.067, -0.007
0.202, 0.602, 0.600, -0.021, -0.069, -0.007
0.152, 0.602, 0.600, -0.021, -0.070, -0.007
0.102, 0.602, 0.600, -0.018, -0.072, -0.006
0.102, 0.652, 0.600, -0.018, -0.073, -0.009
0.152, 0.652, 0.600, -0.021, -0.072, -0.009
0.202, 0.652, 0.600, -0.021, -0.070, -0.010
0.252, 0.652, 0.600, -0.021, -0.070, -0.010
0.302, 0.652, 0.600, -0.021, -0.070, -0.011
0.352, 0.652, 0.600, -0.021, -0.070, -0.010
0.402, 0.652, 0.600, -0.021, -0.073, -0.010
0.452, 0.652, 0.600, -0.018, -0.073, -0.010
0.502, 0.652, 0.600, -0.016, -0.076, -0.009
0.552, 0.652, 0.600, -0.010, -0.082, -0.009
0.102, 0.152, 0.650, -0.033, -0.093, -0.015
0.152, 0.152, 0.650, -0.033, -0.088, -0.014
0.202, 0.152, 0.650, -0.030, -0.086, -0.009
0.252, 0.152, 0.650, -0.030, -0.085, -0.008
0.302, 0.152, 0.650, -0.030, -0.084, -0.006
0.352, 0.152, 0.650, -0.028, -0.085, -0.006
0.402, 0.152, 0.650, -0.027, -0.085, -0.006
0.452, 0.152, 0.650, -0.021, -0.087, -0.004
0.502, 0.152, 0.650, -0.021, -0.088, -0.003
0.552, 0.152, 0.650, -0.018, -0.091, -0.002
0.602, 0.152, 0.650, -0.009, -0.094, 0.000
0.602, 0.202, 0.650, -0.009, -0.090, 0.000
0.552, 0.202, 0.650, -0.016, -0.088, 0.000
0.502, 0.202, 0.650, -0.020, -0.085, -0.002
0.452, 0.202, 0.650, -0.021, -0.083, -0.003
0.402, 0.202, 0.650, -0.023, -0.082, -0.003
0.352, 0.202, 0.650, -0.027, -0.082, -0.005
0.302, 0.202, 0.650, -0.029, -0.082, -0.006
0.252, 0.202, 0.650, -0.030, -0.082, -0.007
0.202, 0.202, 0.650, -0.030, -0.082, -0.009
0.152, 0.202, 0.650, -0.030, -0.084, -0.011
0.102, 0.202, 0.650, -0.031, -0.088, -0.015
0.102, 0.252, 0.650, -0.030, -0.082, -0.015
0.152, 0.252, 0.650, -0.030, -0.082, -0.009
0.202, 0.252, 0.650, -0.030, -0.081, -0.007
0.252, 0.252, 0.650, -0.029, -0.078, -0.006
0.302, 0.252, 0.650, -0.027, -0.078, -0.005
0.352, 0.252, 0.650, -0.026, -0.079, -0.003
0.402, 0.252, 0.650, -0.021, -0.081, -0.003
0.452, 0.252, 0.650, -0.021, -0.082, -0.001
0.502, 0.252, 0.650, -0.018, -0.082, 0.000
0.552, 0.252, 0.650, -0.015, -0.085, 0.000
0.602, 0.252, 0.650, -0.009, -0.086, 0.000
0.602, 0.302, 0.650, -0.009, -0.085, 0.000
0.552, 0.302, 0.650, -0.012, -0.083, 0.000
0.502, 0.302, 0.650, -0.018, -0.082, 0.000
0.452, 0.302, 0.650, -0.021, -0.080, -0.001
0.402, 0.302, 0.650, -0.021, -0.076, -0.003
0.352, 0.302, 0.650, -0.022, -0.075, -0.003
0.302, 0.302, 0.650, -0.027, -0.074, -0.004
0.252, 0.302, 0.650, -0.028, -0.074, -0.006
0.202, 0.302, 0.650, -0.028, -0.075, -0.007
0.152, 0.302, 0.650, -0.029, -0.076, -0.009
0.102, 0.302, 0.650, -0.029, -0.082, -0.012
0.102, 0.352, 0.650, -0.027, -0.076, -0.009
0.152, 0.352, 0.650, -0.027, -0.073, -0.008
0.202, 0.352, 0.650, -0.027, -0.073, -0.006
0.252, 0.352, 0.650, -0.026, -0.073, -0.005
0.302, 0.352, 0.650, -0.024, -0.073, -0.003
0.352, 0.352, 0.650, -0.021, -0.073, -0.003
0.402, 0.352, 0.650, -0.021, -0.073, -0.002
0.452, 0.352, 0.650, -0.020, -0.076, 0.000
0.502, 0.352, 0.650, -0.017, -0.079, 0.000
0.552, 0.352, 0.650, -0.010, -0.082, 0.000
0.602, 0.352, 0.650, -0.008, -0.085, 0.000
0.302, 0.402, 0.650, -0.021, -0.073, -0.003
0.252, 0.402, 0.650, -0.022, -0.072, -0.005
0.202, 0.402, 0.650, -0.022, -0.073, -0.006
0.152, 0.402, 0.650, -0.022, -0.073, -0.006
0.102, 0.402, 0.650, -0.022, -0.073, -0.009
0.102, 0.452, 0.650, -0.021, -0.073, -0.007
0.152, 0.452, 0.650, -0.021, -0.073, -0.006
0.202, 0.452, 0.650, -0.022, -0.071, -0.006
0.252, 0.452, 0.650, -0.021, -0.071, -0.005
0.302, 0.452, 0.650, -0.021, -0.071, -0.003
0.352, 0.452, 0.650, -0.021, -0.073, -0.003
0.402, 0.452, 0.650, -0.021, -0.073, -0.003
0.452, 0.452, 0.650, -0.018, -0.073, -0.002
0.502, 0.452, 0.650, -0.015, -0.074, 0.000
0.552, 0.452, 0.650, -0.011, -0.076, 0.000
0.602, 0.452, 0.650, -0.006, -0.082, 0.000
0.602, 0.502, 0.650, -0.006, -0.082, 0.000
0.552, 0.502, 0.650, -0.010, -0.077, -0.001
0.502, 0.502, 0.650, -0.015, -0.073, -0.002
0.452, 0.502, 0.650, -0.018, -0.073, -0.003
0.402, 0.502, 0.650, -0.020, -0.073, -0.003
0.352, 0.502, 0.650, -0.021, -0.071, -0.004
0.302, 0.502, 0.650, -0.021, -0.070, -0.004
0.252, 0.502, 0.650, -0.021, -0.070, -0.005
0.202, 0.502, 0.650, -0.021, -0.070, -0.006
0.152, 0.502, 0.650, -0.021, -0.072, -0.006
0.102, 0.502, 0.650, -0.021, -0.073, -0.006
0.102, 0.552, 0.650, -0.021, -0.073, -0.006
0.152, 0.552, 0.650, -0.021, -0.072, -0.006
0.202, 0.552, 0.650, -0.021, -0.070, -0.006
0.252, 0.552, 0.650, -0.021, -0.070, -0.006
0.302, 0.552, 0.650, -0.021, -0.070, -0.006
0.352, 0.552, 0.650, -0.021, -0.071, -0.005
0.402, 0.552, 0.650, -0.019, -0.073, -0.005
0.452, 0.552, 0.650, -0.017, -0.073, -0.004
0.502, 0.552, 0.650, -0.014, -0.073, -0.003
0.552, 0.552, 0.650, -0.009, -0.077, -0.003
0.602, 0.552, 0.650, -0.004, -0.084, -0.002
0.602, 0.602, 0.650, -0.003, -0.085, -0.003
0.552, 0.602, 0.650, -0.009, -0.081, -0.004
0.502, 0.602, 0.650, -0.011, -0.075, -0.006
0.452, 0.602, 0.650, -0.016, -0.073, -0.006
0.402, 0.602, 0.650, -0.018, -0.073, -0.006
0.352, 0.602, 0.650, -0.021, -0.072, -0.006
0.302, 0.602, 0.650, -0.021, -0.070, -0.006
0.252, 0.602, 0.650, -0.021, -0.071, -0.006
0.202, 0.602, 0.650, -0.021, -0.072, -0.006
0.152, 0.602, 0.650, -0.021, -0.073, -0.006
0.102, 0.602, 0.650, -0.021, -0.074, -0.005
0.102, 0.652, 0.650, -0.021, -0.079, -0.005
0.152, 0.652, 0.650, -0.021, -0.073, -0.006
0.202, 0.652, 0.650, -0.021, -0.073, -0.007
0.252, 0.652, 0.650, -0.021, -0.073, -0.008
0.302, 0.652, 0.650, -0.021, -0.072, -0.009
0.352, 0.652, 0.650, -0.021, -0.073, -0.009
0.402, 0.652, 0.650, -0.018, -0.073, -0.009
0.452, 0.652, 0.650, -0.016, -0.073, -0.009
0.502, 0.652, 0.650, -0.009, -0.076, -0.008
0.552, 0.652, 0.650, -0.008, -0.083, -0.006
0.102, 0.152, 0.700, -0.039, -0.089, -0.021
0.152, 0.152, 0.700, -0.036, -0.085, -0.018
0.202, 0.152, 0.700, -0.033, -0.083, -0.016
0.252, 0.152, 0.700, -0.030, -0.082, -0.015
0.302, 0.152, 0.700, -0.030, -0.082, -0.010
0.352, 0.152, 0.700, -0.028, -0.082, -0.009
0.402, 0.152, 0.700, -0.025, -0.082, -0.008
0.452, 0.152, 0.700, -0.021, -0.082, -0.007
0.502, 0.152, 0.700, -0.019, -0.082, -0.006
0.552, 0.152, 0.700, -0.015, -0.085, -0.006
0.602, 0.152, 0.700, -0.009, -0.086, -0.004
0.602, 0.202, 0.700, -0.009, -0.085, -0.002
0.552, 0.202, 0.700, -0.014, -0.082, -0.003
0.502, 0.202, 0.700, -0.018, -0.082, -0.003
0.452, 0.202, 0.700, -0.021, -0.082, -0.005
0.402, 0.202, 0.700, -0.021, -0.081, -0.006
0.352, 0.202, 0.700, -0.027, -0.079, -0.007
0.302, 0.202, 0.700, -0.030, -0.078, -0.009
0.252, 0.202, 0.700, -0.030, -0.081, -0.009
0.202, 0.202, 0.700, -0.030, -0.082, -0.015
0.152, 0.202, 0.700, -0.033, -0.082, -0.017
0.102, 0.202, 0.700, -0.036, -0.085, -0.018
0.102, 0.252, 0.700, -0.033, -0.082, -0.018
0.152, 0.252, 0.700, -0.030, -0.081, -0.015
0.202, 0.252, 0.700, -0.030, -0.076, -0.010
0.252, 0.252, 0.700, -0.030, -0.075, -0.009
0.302, 0.252, 0.700, -0.027, -0.075, -0.006
0.352, 0.252, 0.700, -0.025, -0.075, -0.006
0.402, 0.252, 0.700, -0.021, -0.076, -0.005
0.452, 0.252, 0.700, -0.021, -0.076, -0.003
0.502, 0.252, 0.700, -0.017, -0.080, -0.003
0.552, 0.252, 0.700, -0.010, -0.082, -0.001
0.602, 0.252, 0.700, -0.008, -0.083, 0.000
0.602, 0.302, 0.700, -0.006, -0.082, 0.000
0.552, 0.302, 0.700, -0.011, -0.078, 0.000
0.502, 0.302, 0.700, -0.016, -0.076, -0.002
0.452, 0.302, 0.700, -0.019, -0.075, -0.003
0.402, 0.302, 0.700, -0.021, -0.073, -0.003
0.352, 0.302, 0.700, -0.022, -0.073, -0.005
0.302, 0.302, 0.700, -0.027, -0.073, -0.006
0.252, 0.302, 0.700, -0.028, -0.073, -0.007
0.202, 0.302, 0.700, -0.030, -0.073, -0.009
0.152, 0.302, 0.700, -0.030, -0.075, -0.013
0.102, 0.302, 0.700, -0.030, -0.080, -0.016
0.102, 0.352, 0.700, -0.030, -0.075, -0.015
0.152, 0.352, 0.700, -0.029, -0.073, -0.009
0.202, 0.352, 0.700, -0.027, -0.073, -0.008
0.252, 0.352, 0.700, -0.027, -0.073, -0.006
0.302, 0.352, 0.700, -0.023, -0.073, -0.006
0.352, 0.352, 0.700, -0.021, -0.073, -0.004
0.402, 0.352, 0.700, -0.021, -0.073, -0.003
0.452, 0.352, 0.700, -0.018, -0.073, -0.003
0.502, 0.352, 0.700, -0.015, -0.074, -0.001
0.552, 0.352, 0.700, -0.011, -0.076, 0.000
0.602, 0.352, 0.700, -0.006, -0.079, 0.000
0.302, 0.402, 0.700, -0.021, -0.072, -0.005
0.252, 0.402, 0.700, -0.023, -0.072, -0.006
0.202, 0.402, 0.700, -0.026, -0.073, -0.007
0.152, 0.402, 0.700, -0.027, -0.073, -0.009
0.102, 0.402, 0.700, -0.027, -0.073, -0.010
0.102, 0.452, 0.700, -0.023, -0.073, -0.008
0.152, 0.452, 0.700, -0.023, -0.073, -0.007
0.202, 0.452, 0.700, -0.022, -0.071, -0.006
0.252, 0.452, 0.700, -0.021, -0.070, -0.006
0.302, 0.452, 0.700, -0.021, -0.070, -0.005
0.352, 0.452, 0.700, -0.021, -0.071, -0.003
0.402, 0.452, 0.700, -0.019, -0.072, -0.003
0.452, 0.452, 0.700, -0.016, -0.073, -0.003
0.502, 0.452, 0.700, -0.013, -0.073, -0.002
0.552, 0.452, 0.700, -0.009, -0.076, 0.000
0.602, 0.452, 0.700, -0.003, -0.076, 0.000
0.602, 0.502, 0.700, -0.003, -0.076, 0.000
0.552, 0.502, 0.700, -0.007, -0.076, -0.001
0.502, 0.502, 0.700, -0.012, -0.073, -0.002
0.452, 0.502, 0.700, -0.015, -0.073, -0.003
0.402, 0.502, 0.700, -0.018, -0.071, -0.003
0.352, 0.502, 0.700, -0.021, -0.070, -0.004
0.302, 0.502, 0.700, -0.021, -0.070, -0.005
0.252, 0.502, 0.700, -0.021, -0.070, -0.005
0.202, 0.502, 0.700, -0.021, -0.070, -0.006
0.152, 0.502, 0.700, -0.022, -0.072, -0.006
0.102, 0.502, 0.700, -0.021, -0.073, -0.006
0.102, 0.552, 0.700, -0.021, -0.073, -0.004
0.152, 0.552, 0.700, -0.022, -0.073, -0.005
0.202, 0.552, 0.700, -0.021, -0.071, -0.005
0.252, 0.552, 0.700, -0.021, -0.070, -0.005
0.302, 0.552, 0.700, -0.021, -0.070, -0.005
0.352, 0.552, 0.700, -0.021, -0.070, -0.005
0.402, 0.552, 0.700, -0.018, -0.072, -0.004
0.452, 0.552, 0.700, -0.015, -0.073, -0.003
0.502, 0.552, 0.700, -0.011, -0.073, -0.003
0.552, 0.552, 0.700, -0.006, -0.076, -0.002
0.602, 0.552, 0.700, -0.001, -0.077, 0.000
0.602, 0.602, 0.700, 0.000, -0.082, -0.001
0.552, 0.602, 0.700, -0.006, -0.076, -0.003
0.502, 0.602, 0.700, -0.009, -0.076, -0.004
0.452, 0.602, 0.700, -0.014, -0.073, -0.005
0.402, 0.602, 0.700, -0.018, -0.073, -0.006
0.352, 0.602, 0.700, -0.021, -0.072, -0.006
0.302, 0.602, 0.700, -0.021, -0.071, -0.006
0.252, 0.602, 0.700, -0.021, -0.072, -0.005
0.202, 0.602, 0.700, -0.022, -0.073, -0.005
0.152, 0.602, 0.700, -0.023, -0.073, -0.003
0.102, 0.602, 0.700, -0.022, -0.075, -0.003
0.102, 0.652, 0.700, -0.027, -0.082, 0.000
0.152, 0.652, 0.700, -0.027, -0.075, -0.003
0.202, 0.652, 0.700, -0.025, -0.073, -0.004
0.252, 0.652, 0.700, -0.021, -0.073, -0.006
0.302, 0.652, 0.700, -0.021, -0.073, -0.006
0.352, 0.652, 0.700, -0.021, -0.073, -0.006
0.402, 0.652, 0.700, -0.018, -0.073, -0.006
0.452, 0.652, 0.700, -0.014, -0.073, -0.006
0.502, 0.652, 0.700, -0.009, -0.076, -0.006
0.552, 0.652, 0.700, -0.003, -0.080, -0.004
0.102, 0.152, 0.750, -0.043, -0.082, -0.025
0.152, 0.152, 0.750, -0.039, -0.082, -0.022
0.202, 0.152, 0.750, -0.034, -0.079, -0.019
0.252, 0.152, 0.750, -0.032, -0.076, -0.018
0.302, 0.152, 0.750, -0.030, -0.075, -0.015
0.352, 0.152, 0.750, -0.028, -0.075, -0.014
0.402, 0.152, 0.750, -0.023, -0.075, -0.010
0.452, 0.152, 0.750, -0.021, -0.076, -0.009
0.502, 0.152, 0.750, -0.018, -0.076, -0.008
0.552, 0.152, 0.750, -0.013, -0.076, -0.007
0.602, 0.152, 0.750, -0.009, -0.078, -0.006
0.602, 0.202, 0.750, -0.008, -0.076, -0.003
0.552, 0.202, 0.750, -0.012, -0.075, -0.005
0.502, 0.202, 0.750, -0.018, -0.074, -0.006
0.452, 0.202, 0.750, -0.021, -0.073, -0.007
0.402, 0.202, 0.750, -0.021, -0.073, -0.008
0.352, 0.202, 0.750, -0.027, -0.073, -0.009
0.302, 0.202, 0.750, -0.030, -0.073, -0.011
0.252, 0.202, 0.750, -0.030, -0.073, -0.015
0.202, 0.202, 0.750, -0.032, -0.075, -0.017
0.152, 0.202, 0.750, -0.036, -0.076, -0.019
0.102, 0.202, 0.750, -0.039, -0.082, -0.022
0.102, 0.252, 0.750, -0.036, -0.076, -0.021
0.152, 0.252, 0.750, -0.033, -0.073, -0.018
0.202, 0.252, 0.750, -0.030, -0.073, -0.015
0.252, 0.252, 0.750, -0.030, -0.073, -0.012
0.302, 0.252, 0.750, -0.028, -0.073, -0.009
0.352, 0.252, 0.750, -0.024, -0.073, -0.008
0.402, 0.252, 0.750, -0.021, -0.073, -0.006
0.452, 0.252, 0.750, -0.020, -0.073, -0.006
0.502, 0.252, 0.750, -0.016, -0.073, -0.004
0.552, 0.252, 0.750, -0.012, -0.073, -0.003
0.602, 0.252, 0.750, -0.007, -0.076, -0.003
0.602, 0.302, 0.750, -0.006, -0.075, 0.000
0.552, 0.302, 0.750, -0.011, -0.073, -0.003
0.502, 0.302, 0.750, -0.015, -0.073, -0.003
0.452, 0.302, 0.750, -0.019, -0.073, -0.004
0.402, 0.302, 0.750, -0.021, -0.073, -0.006
0.352, 0.302, 0.750, -0.021, -0.072, -0.006
0.302, 0.302, 0.750, -0.027, -0.072, -0.008
0.252, 0.302, 0.750, -0.029, -0.072, -0.009
0.202, 0.302, 0.750, -0.030, -0.073, -0.013
0.152, 0.302, 0.750, -0.030, -0.073, -0.015
0.102, 0.302, 0.750, -0.033, -0.073, -0.018
0.102, 0.352, 0.750, -0.030, -0.073, -0.016
0.152, 0.352, 0.750, -0.030, -0.072, -0.015
0.202, 0.352, 0.750, -0.029, -0.071, -0.009
0.252, 0.352, 0.750, -0.027, -0.070, -0.008
0.302, 0.352, 0.750, -0.024, -0.070, -0.007
0.352, 0.352, 0.750, -0.021, -0.070, -0.006
0.402, 0.352, 0.750, -0.021, -0.070, -0.004
0.452, 0.352, 0.750, -0.018, -0.072, -0.003
0.502, 0.352, 0.750, -0.014, -0.072, -0.003
0.552, 0.352, 0.750, -0.009, -0.073, -0.001
0.602, 0.352, 0.750, -0.005, -0.073, 0.000
0.302, 0.402, 0.750, -0.021, -0.067, -0.006
0.252, 0.402, 0.750, -0.024, -0.068, -0.006
0.202, 0.402, 0.750, -0.027, -0.069, -0.008
0.152, 0.402, 0.750, -0.028, -0.070, -0.009
0.102, 0.402, 0.750, -0.030, -0.073, -0.015
0.102, 0.452, 0.750, -0.027, -0.071, -0.009
0.152, 0.452, 0.750, -0.027, -0.070, -0.008
0.202, 0.452, 0.750, -0.025, -0.066, -0.006
0.252, 0.452, 0.750, -0.021, -0.064, -0.006
0.302, 0.452, 0.750, -0.021, -0.064, -0.006
0.352, 0.452, 0.750, -0.021, -0.065, -0.004
0.402, 0.452, 0.750, -0.018, -0.067, -0.003
0.452, 0.452, 0.750, -0.015, -0.069, -0.003
0.502, 0.452, 0.750, -0.012, -0.070, -0.002
0.552, 0.452, 0.750, -0.007, -0.071, 0.000
0.602, 0.452, 0.750, -0.002, -0.072, 0.000
0.602, 0.502, 0.750, 0.000, -0.072, 0.000
0.552, 0.502, 0.750, -0.006, -0.071, 0.000
0.502, 0.502, 0.750, -0.010, -0.070, -0.002
0.452, 0.502, 0.750, -0.014, -0.068, -0.003
0.402, 0.502, 0.750, -0.018, -0.065, -0.003
0.352, 0.502, 0.750, -0.020, -0.065, -0.004
0.302, 0.502, 0.750, -0.021, -0.064, -0.005
0.252, 0.502, 0.750, -0.021, -0.064, -0.006
0.202, 0.502, 0.750, -0.023, -0.065, -0.006
0.152, 0.502, 0.750, -0.027, -0.069, -0.006
0.102, 0.502, 0.750, -0.027, -0.070, -0.006
0.102, 0.552, 0.750, -0.027, -0.072, -0.003
0.152, 0.552, 0.750, -0.027, -0.070, -0.003
0.202, 0.552, 0.750, -0.023, -0.066, -0.004
0.252, 0.552, 0.750, -0.021, -0.065, -0.004
0.302, 0.552, 0.750, -0.021, -0.064, -0.005
0.352, 0.552, 0.750, -0.020, -0.064, -0.004
0.402, 0.552, 0.750, -0.018, -0.066, -0.004
0.452, 0.552, 0.750, -0.013, -0.069, -0.003
0.502, 0.552, 0.750, -0.009, -0.070, -0.003
0.552, 0.552, 0.750, -0.004, -0.072, 0.000
0.602, 0.552, 0.750, 0.000, -0.073, 0.000
0.602, 0.602, 0.750, 0.001, -0.075, 0.000
0.552, 0.602, 0.750, -0.003, -0.073, -0.001
0.502, 0.602, 0.750, -0.008, -0.071, -0.003
0.452, 0.602, 0.750, -0.012, -0.070, -0.003
0.402, 0.602, 0.750, -0.017, -0.068, -0.004
0.352, 0.602, 0.750, -0.020, -0.067, -0.005
0.302, 0.602, 0.750, -0.021, -0.066, -0.004
0.252, 0.602, 0.750, -0.021, -0.067, -0.003
0.202, 0.602, 0.750, -0.026, -0.070, -0.003
0.152, 0.602, 0.750, -0.027, -0.071, -0.002
0.102, 0.602, 0.750, -0.028, -0.073, 0.000
0.102, 0.652, 0.750, -0.030, -0.073, 0.000
0.152, 0.652, 0.750, -0.030, -0.073, 0.000
0.202, 0.652, 0.750, -0.027, -0.072, -0.001
0.252, 0.652, 0.750, -0.024, -0.070, -0.003
0.302, 0.652, 0.750, -0.021, -0.070, -0.004
0.352, 0.652, 0.750, -0.021, -0.070, -0.005
0.402, 0.652, 0.750, -0.017, -0.070, -0.005
0.452, 0.652, 0.750, -0.012, -0.071, -0.004
0.502, 0.652, 0.750, -0.006, -0.072, -0.003
0.552, 0.652, 0.750, 0.000, -0.075, -0.002
0.102, 0.152, 0.800, -0.046, -0.073, -0.027
0.152, 0.152, 0.800, -0.040, -0.073, -0.024
0.202, 0.152, 0.800, -0.036, -0.073, -0.021
0.252, 0.152, 0.800, -0.032, -0.072, -0.018
0.302, 0.152, 0.800, -0.030, -0.072, -0.017
0.352, 0.152, 0.800, -0.029, -0.071, -0.015
0.402, 0.152, 0.800, -0.022, -0.071, -0.014
0.452, 0.152, 0.800, -0.021, -0.071, -0.010
0.502, 0.152, 0.800, -0.018, -0.071, -0.009
0.552, 0.152, 0.800, -0.014, -0.070, -0.009
0.602, 0.152, 0.800, -0.009, -0.070, -0.008
0.602, 0.202, 0.800, -0.009, -0.069, -0.005
0.552, 0.202, 0.800, -0.012, -0.070, -0.006
0.502, 0.202, 0.800, -0.018, -0.070, -0.006
0.452, 0.202, 0.800, -0.021, -0.070, -0.008
0.402, 0.202, 0.800, -0.021, -0.070, -0.009
0.352, 0.202, 0.800, -0.027, -0.070, -0.012
0.302, 0.202, 0.800, -0.030, -0.070, -0.015
0.252, 0.202, 0.800, -0.030, -0.070, -0.017
0.202, 0.202, 0.800, -0.033, -0.071, -0.018
0.152, 0.202, 0.800, -0.036, -0.072, -0.021
0.102, 0.202, 0.800, -0.042, -0.073, -0.024
0.102, 0.252, 0.800, -0.038, -0.072, -0.022
0.152, 0.252, 0.800, -0.033, -0.071, -0.019
0.202, 0.252, 0.800, -0.030, -0.070, -0.017
0.252, 0.252, 0.800, -0.030, -0.070, -0.015
0.302, 0.252, 0.800, -0.028, -0.069, -0.010
0.352, 0.252, 0.800, -0.023, -0.069, -0.009
0.402, 0.252, 0.800, -0.021, -0.070, -0.008
0.452, 0.252, 0.800, -0.020, -0.070, -0.006
0.502, 0.252, 0.800, -0.016, -0.070, -0.006
0.552, 0.252, 0.800, -0.012, -0.070, -0.004
0.602, 0.252, 0.800, -0.007, -0.069, -0.003
0.602, 0.302, 0.800, -0.006, -0.068, -0.002
0.552, 0.302, 0.800, -0.011, -0.068, -0.003
0.502, 0.302, 0.800, -0.015, -0.068, -0.003
0.452, 0.302, 0.800, -0.018, -0.068, -0.005
0.402, 0.302, 0.800, -0.021, -0.068, -0.006
0.352, 0.302, 0.800, -0.021, -0.067, -0.007
0.302, 0.302, 0.800, -0.027, -0.067, -0.009
0.252, 0.302, 0.800, -0.029, -0.067, -0.011
0.202, 0.302, 0.800, -0.030, -0.068, -0.015
0.152, 0.302, 0.800, -0.031, -0.070, -0.017
0.102, 0.302, 0.800, -0.034, -0.070, -0.020
0.102, 0.352, 0.800, -0.030, -0.069, -0.018
0.152, 0.352, 0.800, -0.030, -0.066, -0.015
0.202, 0.352, 0.800, -0.030, -0.064, -0.011
0.252, 0.352, 0.800, -0.027, -0.064, -0.009
0.302, 0.352, 0.800, -0.022, -0.064, -0.007
0.352, 0.352, 0.800, -0.021, -0.064, -0.006
0.402, 0.352, 0.800, -0.021, -0.064, -0.006
0.452, 0.352, 0.800, -0.018, -0.065, -0.004
0.502, 0.352, 0.800, -0.014, -0.066, -0.003
0.552, 0.352, 0.800, -0.009, -0.065, -0.002
0.602, 0.352, 0.800, -0.005, -0.067, 0.000
0.302, 0.402, 0.800, -0.021, -0.064, -0.006
0.252, 0.402, 0.800, -0.024, -0.064, -0.008
0.202, 0.402, 0.800, -0.027, -0.064, -0.009
0.152, 0.402, 0.800, -0.030, -0.064, -0.011
0.102, 0.402, 0.800, -0.030, -0.065, -0.015
0.102, 0.452, 0.800, -0.030, -0.064, -0.009
0.152, 0.452, 0.800, -0.028, -0.064, -0.008
0.202, 0.452, 0.800, -0.027, -0.064, -0.007
0.252, 0.452, 0.800, -0.021, -0.064, -0.006
0.302, 0.452, 0.800, -0.021, -0.064, -0.006
0.352, 0.452, 0.800, -0.021, -0.064, -0.005
0.402, 0.452, 0.800, -0.018, -0.064, -0.004
0.452, 0.452, 0.800, -0.015, -0.064, -0.003
0.502, 0.452, 0.800, -0.011, -0.064, -0.002
0.552, 0.452, 0.800, -0.006, -0.066, 0.000
0.602, 0.452, 0.800, -0.002, -0.066, 0.000
0.602, 0.502, 0.800, 0.000, -0.067, 0.000
0.552, 0.502, 0.800, -0.005, -0.066, 0.000
0.502, 0.502, 0.800, -0.009, -0.064, -0.002
0.452, 0.502, 0.800, -0.014, -0.064, -0.003
0.402, 0.502, 0.800, -0.017, -0.064, -0.003
0.352, 0.502, 0.800, -0.020, -0.064, -0.004
0.302, 0.502, 0.800, -0.021, -0.064, -0.005
0.252, 0.502, 0.800, -0.021, -0.064, -0.006
0.202, 0.502, 0.800, -0.025, -0.064, -0.006
0.152, 0.502, 0.800, -0.027, -0.064, -0.006
0.102, 0.502, 0.800, -0.029, -0.064, -0.006
0.102, 0.552, 0.800, -0.029, -0.064, -0.003
0.152, 0.552, 0.800, -0.027, -0.064, -0.003
0.202, 0.552, 0.800, -0.026, -0.064, -0.003
0.252, 0.552, 0.800, -0.021, -0.064, -0.004
0.302, 0.552, 0.800, -0.021, -0.064, -0.004
0.352, 0.552, 0.800, -0.020, -0.064, -0.004
0.402, 0.552, 0.800, -0.017, -0.064, -0.003
0.452, 0.552, 0.800, -0.012, -0.064, -0.003
0.502, 0.552, 0.800, -0.009, -0.064, -0.002
0.552, 0.552, 0.800, -0.003, -0.067, 0.000
0.602, 0.552, 0.800, 0.000, -0.067, 0.000
0.602, 0.602, 0.800, 0.003, -0.067, 0.000
0.552, 0.602, 0.800, -0.001, -0.067, 0.000
0.502, 0.602, 0.800, -0.006, -0.067, -0.002
0.452, 0.602, 0.800, -0.012, -0.064, -0.003
0.402, 0.602, 0.800, -0.016, -0.064, -0.003
0.352, 0.602, 0.800, -0.019, -0.064, -0.003
0.302, 0.602, 0.800, -0.021, -0.064, -0.003
0.252, 0.602, 0.800, -0.022, -0.064, -0.003
0.202, 0.602, 0.800, -0.027, -0.064, -0.002
0.152, 0.602, 0.800, -0.029, -0.064, 0.000
0.102, 0.602, 0.800, -0.030, -0.067, 0.000
0.102, 0.652, 0.800, -0.031, -0.069, 0.003
0.152, 0.652, 0.800, -0.031, -0.067, 0.000
0.202, 0.652, 0.800, -0.029, -0.064, 0.000
0.252, 0.652, 0.800, -0.026, -0.064, -0.001
0.302, 0.652, 0.800, -0.021, -0.064, -0.003
0.352, 0.652, 0.800, -0.021, -0.064, -0.003
0.402, 0.652, 0.800, -0.016, -0.064, -0.003
0.452, 0.652, 0.800, -0.011, -0.064, -0.003
0.502, 0.652, 0.800, -0.006, -0.067, -0.003
0.552, 0.652, 0.800, 0.000, -0.068, 0.000
0.102, 0.152, 0.850, -0.046, -0.064, -0.027
0.152, 0.152, 0.850, -0.042, -0.064, -0.024
0.202, 0.152, 0.850, -0.036, -0.064, -0.021
0.252, 0.152, 0.850, -0.033, -0.064, -0.019
0.302, 0.152, 0.850, -0.030, -0.064, -0.018
0.352, 0.152, 0.850, -0.028, -0.064, -0.016
0.402, 0.152, 0.850, -0.023, -0.064, -0.014
0.452, 0.152, 0.850, -0.021, -0.064, -0.010
0.502, 0.152, 0.850, -0.018, -0.064, -0.009
0.552, 0.152, 0.850, -0.015, -0.063, -0.009
0.602, 0.152, 0.850, -0.010, -0.061, -0.008
0.602, 0.202, 0.850, -0.009, -0.062, -0.006
0.552, 0.202, 0.850, -0.014, -0.064, -0.006
0.502, 0.202, 0.850, -0.018, -0.064, -0.007
0.452, 0.202, 0.850, -0.021, -0.064, -0.008
0.402, 0.202, 0.850, -0.022, -0.064, -0.009
0.352, 0.202, 0.850, -0.027, -0.064, -0.013
0.302, 0.202, 0.850, -0.030, -0.064, -0.015
0.252, 0.202, 0.850, -0.030, -0.064, -0.018
0.202, 0.202, 0.850, -0.033, -0.064, -0.020
0.152, 0.202, 0.850, -0.038, -0.064, -0.022
0.102, 0.202, 0.850, -0.042, -0.064, -0.025
0.102, 0.252, 0.850, -0.041, -0.064, -0.023
0.152, 0.252, 0.850, -0.034, -0.064, -0.020
0.202, 0.252, 0.850, -0.031, -0.064, -0.018
0.252, 0.252, 0.850, -0.030, -0.064, -0.015
0.302, 0.252, 0.850, -0.028, -0.064, -0.013
0.352, 0.252, 0.850, -0.023, -0.064, -0.009
0.402, 0.252, 0.850, -0.021, -0.064, -0.008
0.452, 0.252, 0.850, -0.020, -0.064, -0.006
0.502, 0.252, 0.850, -0.016, -0.064, -0.006
0.552, 0.252, 0.850, -0.012, -0.064, -0.004
0.602, 0.252, 0.850, -0.009, -0.062, -0.003
0.602, 0.302, 0.850, -0.007, -0.062, -0.002
0.552, 0.302, 0.850, -0.012, -0.063, -0.003
0.502, 0.302, 0.850, -0.015, -0.064, -0.004
0.452, 0.302, 0.850, -0.018, -0.064, -0.006
0.402, 0.302, 0.850, -0.021, -0.064, -0.006
0.352, 0.302, 0.850, -0.021, -0.064, -0.008
0.302, 0.302, 0.850, -0.026, -0.064, -0.010
0.252, 0.302, 0.850, -0.029, -0.064, -0.014
0.202, 0.302, 0.850, -0.030, -0.064, -0.015
0.152, 0.302, 0.850, -0.031, -0.064, -0.018
0.102, 0.302, 0.850, -0.034, -0.064, -0.021
0.102, 0.352, 0.850, -0.031, -0.064, -0.018
0.152, 0.352, 0.850, -0.030, -0.064, -0.016
0.202, 0.352, 0.850, -0.030, -0.064, -0.014
0.252, 0.352, 0.850, -0.027, -0.063, -0.010
0.302, 0.352, 0.850, -0.022, -0.064, -0.009
0.352, 0.352, 0.850, -0.021, -0.064, -0.007
0.402, 0.352, 0.850, -0.021, -0.064, -0.006
0.452, 0.352, 0.850, -0.017, -0.064, -0.005
0.502, 0.352, 0.850, -0.014, -0.064, -0.003
0.552, 0.352, 0.850, -0.010, -0.063, -0.003
0.602, 0.352, 0.850, -0.006, -0.061, -0.001
0.302, 0.402, 0.850, -0.021, -0.063, -0.006
0.252, 0.402, 0.850, -0.024, -0.063, -0.008
0.202, 0.402, 0.850, -0.027, -0.063, -0.009
0.152, 0.402, 0.850, -0.030, -0.063, -0.012
0.102, 0.402, 0.850, -0.030, -0.063, -0.015
0.102, 0.452, 0.850, -0.030, -0.062, -0.009
0.152, 0.452, 0.850, -0.029, -0.062, -0.009
0.202, 0.452, 0.850, -0.027, -0.062, -0.008
0.252, 0.452, 0.850, -0.022, -0.062, -0.006
0.302, 0.452, 0.850, -0.021, -0.062, -0.006
0.352, 0.452, 0.850, -0.021, -0.062, -0.006
0.402, 0.452, 0.850, -0.018, -0.062, -0.004
0.452, 0.452, 0.850, -0.015, -0.062, -0.003
0.502, 0.452, 0.850, -0.012, -0.062, -0.003
0.552, 0.452, 0.850, -0.007, -0.061, -0.001
0.602, 0.452, 0.850, -0.003, -0.061, 0.000
0.602, 0.502, 0.850, 0.000, -0.060, 0.000
0.552, 0.502, 0.850, -0.006, -0.061, 0.000
0.502, 0.502, 0.850, -0.010, -0.061, -0.002
0.452, 0.502, 0.850, -0.013, -0.062, -0.003
0.402, 0.502, 0.850, -0.017, -0.061, -0.004
0.352, 0.502, 0.850, -0.020, -0.061, -0.005
0.302, 0.502, 0.850, -0.021, -0.062, -0.006
0.252, 0.502, 0.850, -0.021, -0.062, -0.006
0.202, 0.502, 0.850, -0.027, -0.061, -0.006
0.152, 0.502, 0.850, -0.028, -0.061, -0.006
0.102, 0.502, 0.850, -0.030, -0.061, -0.006
0.102, 0.552, 0.850, -0.030, -0.061, -0.003
0.152, 0.552, 0.850, -0.028, -0.061, -0.003
0.202, 0.552, 0.850, -0.027, -0.061, -0.003
0.252, 0.552, 0.850, -0.022, -0.061, -0.004
0.302, 0.552, 0.850, -0.021, -0.061, -0.004
0.352, 0.552, 0.850, -0.019, -0.061, -0.004
0.402, 0.552, 0.850, -0.016, -0.061, -0.003
0.452, 0.552, 0.850, -0.012, -0.061, -0.003
0.502, 0.552, 0.850, -0.009, -0.061, -0.002
0.552, 0.552, 0.850, -0.003, -0.061, 0.000
0.602, 0.552, 0.850, 0.000, -0.060, 0.000
0.602, 0.602, 0.850, 0.002, -0.060, 0.000
0.552, 0.602, 0.850, -0.001, -0.061, 0.000
0.502, 0.602, 0.850, -0.006, -0.061, -0.002
0.452, 0.602, 0.850, -0.012, -0.061, -0.003
0.402, 0.602, 0.850, -0.016, -0.061, -0.003
0.352, 0.602, 0.850, -0.019, -0.061, -0.003
0.302, 0.602, 0.850, -0.021, -0.061, -0.003
0.252, 0.602, 0.850, -0.023, -0.061, -0.003
0.202, 0.602, 0.850, -0.027, -0.061, -0.002
0.152, 0.602, 0.850, -0.030, -0.061, 0.000
0.102, 0.602, 0.850, -0.032, -0.061, 0.000
0.102, 0.652, 0.850, -0.033, -0.061, 0.003
0.152, 0.652, 0.850, -0.032, -0.061, 0.001
0.202, 0.652, 0.850, -0.030, -0.061, 0.000
0.252, 0.652, 0.850, -0.027, -0.061, 0.000
0.302, 0.652, 0.850, -0.021, -0.061, -0.002
0.352, 0.652, 0.850, -0.020, -0.061, -0.003
0.402, 0.652, 0.850, -0.016, -0.061, -0.003
0.452, 0.652, 0.850, -0.011, -0.061, -0.003
0.502, 0.652, 0.850, -0.006, -0.061, -0.002
0.552, 0.652, 0.850, 0.000, -0.061, 0.000
0.102, 0.152, 0.900, -0.045, -0.056, -0.027
0.152, 0.152, 0.900, -0.042, -0.058, -0.023
0.202, 0.152, 0.900, -0.036, -0.058, -0.021
0.252, 0.152, 0.900, -0.033, -0.059, -0.018
0.302, 0.152, 0.900, -0.030, -0.060, -0.017
0.352, 0.152, 0.900, -0.029, -0.060, -0.015
0.402, 0.152, 0.900, -0.025, -0.059, -0.013
0.452, 0.152, 0.900, -0.021, -0.058, -0.009
0.502, 0.152, 0.900, -0.020, -0.057, -0.009
0.552, 0.152, 0.900, -0.016, -0.057, -0.008
0.602, 0.152, 0.900, -0.012, -0.054, -0.006
0.602, 0.202, 0.900, -0.012, -0.055, -0.005
0.552, 0.202, 0.900, -0.015, -0.057, -0.006
0.502, 0.202, 0.900, -0.018, -0.058, -0.007
0.452, 0.202, 0.900, -0.021, -0.059, -0.009
0.402, 0.202, 0.900, -0.021, -0.060, -0.009
0.352, 0.202, 0.900, -0.027, -0.060, -0.014
0.302, 0.202, 0.900, -0.030, -0.060, -0.015
0.252, 0.202, 0.900, -0.030, -0.059, -0.018
0.202, 0.202, 0.900, -0.033, -0.059, -0.019
0.152, 0.202, 0.900, -0.037, -0.058, -0.022
0.102, 0.202, 0.900, -0.042, -0.057, -0.024
0.102, 0.252, 0.900, -0.038, -0.057, -0.023
0.152, 0.252, 0.900, -0.034, -0.058, -0.020
0.202, 0.252, 0.900, -0.031, -0.059, -0.018
0.252, 0.252, 0.900, -0.030, -0.059, -0.015
0.302, 0.252, 0.900, -0.028, -0.060, -0.015
0.352, 0.252, 0.900, -0.024, -0.060, -0.009
0.402, 0.252, 0.900, -0.021, -0.060, -0.009
0.452, 0.252, 0.900, -0.021, -0.059, -0.007
0.502, 0.252, 0.900, -0.017, -0.058, -0.006
0.552, 0.252, 0.900, -0.014, -0.057, -0.004
0.602, 0.252, 0.900, -0.010, -0.055, -0.003
0.602, 0.302, 0.900, -0.009, -0.055, -0.003
0.552, 0.302, 0.900, -0.012, -0.057, -0.003
0.502, 0.302, 0.900, -0.015, -0.058, -0.005
0.452, 0.302, 0.900, -0.018, -0.058, -0.006
0.402, 0.302, 0.900, -0.021, -0.059, -0.007
0.352, 0.302, 0.900, -0.021, -0.059, -0.009
0.302, 0.302, 0.900, -0.026, -0.060, -0.010
0.252, 0.302, 0.900, -0.029, -0.059, -0.014
0.202, 0.302, 0.900, -0.030, -0.058, -0.016
0.152, 0.302, 0.900, -0.031, -0.058, -0.018
0.102, 0.302, 0.900, -0.034, -0.057, -0.021
0.102, 0.352, 0.900, -0.031, -0.057, -0.018
0.152, 0.352, 0.900, -0.030, -0.057, -0.016
0.202, 0.352, 0.900, -0.030, -0.058, -0.015
0.252, 0.352, 0.900, -0.027, -0.058, -0.010
0.302, 0.352, 0.900, -0.022, -0.058, -0.009
0.352, 0.352, 0.900, -0.021, -0.059, -0.008
0.402, 0.352, 0.900, -0.021, -0.058, -0.006
0.452, 0.352, 0.900, -0.018, -0.058, -0.006
0.502, 0.352, 0.900, -0.015, -0.058, -0.004
0.552, 0.352, 0.900, -0.011, -0.057, -0.003
0.602, 0.352, 0.900, -0.007, -0.055, -0.001
0.302, 0.402, 0.900, -0.021, -0.058, -0.007
0.252, 0.402, 0.900, -0.024, -0.058, -0.009
0.202, 0.402, 0.900, -0.027, -0.057, -0.010
0.152, 0.402, 0.900, -0.029, -0.057, -0.014
0.102, 0.402, 0.900, -0.031, -0.056, -0.015
0.102, 0.452, 0.900, -0.030, -0.055, -0.009
0.152, 0.452, 0.900, -0.028, -0.057, -0.009
0.202, 0.452, 0.900, -0.027, -0.057, -0.008
0.252, 0.452, 0.900, -0.022, -0.057, -0.007
0.302, 0.452, 0.900, -0.021, -0.058, -0.006
0.352, 0.452, 0.900, -0.021, -0.058, -0.006
0.402, 0.452, 0.900, -0.018, -0.058, -0.005
0.452, 0.452, 0.900, -0.015, -0.057, -0.004
0.502, 0.452, 0.900, -0.012, -0.057, -0.003
0.552, 0.452, 0.900, -0.008, -0.055, -0.001
0.602, 0.452, 0.900, -0.003, -0.054, 0.000
0.602, 0.502, 0.900, -0.002, -0.054, 0.000
0.552, 0.502, 0.900, -0.006, -0.055, 0.000
0.502, 0.502, 0.900, -0.010, -0.056, -0.003
0.452, 0.502, 0.900, -0.014, -0.057, -0.003
0.402, 0.502, 0.900, -0.017, -0.057, -0.004
0.352, 0.502, 0.900, -0.020, -0.057, -0.005
0.302, 0.502, 0.900, -0.021, -0.057, -0.006
0.252, 0.502, 0.900, -0.021, -0.057, -0.006
0.202, 0.502, 0.900, -0.026, -0.057, -0.006
0.152, 0.502, 0.900, -0.028, -0.056, -0.006
0.102, 0.502, 0.900, -0.028, -0.055, -0.006
0.102, 0.552, 0.900, -0.030, -0.054, -0.003
0.152, 0.552, 0.900, -0.028, -0.055, -0.003
0.202, 0.552, 0.900, -0.026, -0.056, -0.004
0.252, 0.552, 0.900, -0.021, -0.056, -0.004
0.302, 0.552, 0.900, -0.021, -0.057, -0.004
0.352, 0.552, 0.900, -0.020, -0.057, -0.004
0.402, 0.552, 0.900, -0.016, -0.057, -0.003
0.452, 0.552, 0.900, -0.012, -0.056, -0.003
0.502, 0.552, 0.900, -0.009, -0.055, -0.002
0.552, 0.552, 0.900, -0.004, -0.055, 0.000
0.602, 0.552, 0.900, 0.000, -0.052, 0.000
0.602, 0.602, 0.900, 0.000, -0.052, 0.000
0.552, 0.602, 0.900, -0.003, -0.054, 0.000
0.502, 0.602, 0.900, -0.007, -0.055, -0.002
0.452, 0.602, 0.900, -0.012, -0.055, -0.003
0.402, 0.602, 0.900, -0.016, -0.056, -0.003
0.352, 0.602, 0.900, -0.019, -0.056, -0.003
0.302, 0.602, 0.900, -0.021, -0.055, -0.003
0.252, 0.602, 0.900, -0.022, -0.055, -0.003
0.202, 0.602, 0.900, -0.027, -0.055, -0.002
0.152, 0.602, 0.900, -0.029, -0.055, 0.000
0.102, 0.602, 0.900, -0.030, -0.053, 0.000
0.102, 0.652, 0.900, -0.033, -0.052, 0.002
0.152, 0.652, 0.900, -0.031, -0.053, 0.000
0.202, 0.652, 0.900, -0.028, -0.054, 0.000
0.252, 0.652, 0.900, -0.025, -0.055, 0.000
0.302, 0.652, 0.900, -0.021, -0.055, -0.002
0.352, 0.652, 0.900, -0.020, -0.055, -0.003
0.402, 0.652, 0.900, -0.016, -0.055, -0.003
0.452, 0.652, 0.900, -0.012, -0.055, -0.003
0.502, 0.652, 0.900, -0.006, -0.054, -0.002
0.552, 0.652, 0.900, 0.000, -0.053, 0.000
0.006, 0.050, 0.500, -0.021, -0.103, 0.009
