0.100, 0.100, 0.050, 0.029, -0.064, 0.000
0.220, 0.190, 0.100, -0.013, 0.002, 0.024
0.270, 0.190, 0.100, -0.003, 0.004, 0.032
0.320, 0.190, 0.100, 0.003, 0.002, 0.034
0.370, 0.190, 0.100, 0.018, 0.000, 0.036
0.420, 0.190, 0.100, 0.033, 0.002, 0.036
0.470, 0.190, 0.100, 0.049, 0.003, 0.033
0.520, 0.190, 0.100, 0.070, 0.002, 0.027
0.570, 0.190, 0.100, 0.086, 0.000, 0.017
0.620, 0.190, 0.100, 0.106, 0.000, 0.000
0.670, 0.190, 0.100, 0.127, 0.001, -0.018
0.720, 0.190, 0.100, 0.145, 0.002, -0.048
0.720, 0.240, 0.100, 0.145, -0.016, -0.036
0.670, 0.240, 0.100, 0.127, -0.017, -0.008
0.620, 0.240, 0.100, 0.106, -0.015, 0.009
0.570, 0.240, 0.100, 0.087, -0.015, 0.027
0.520, 0.240, 0.100, 0.065, -0.015, 0.038
0.470, 0.240, 0.100, 0.051, -0.015, 0.047
0.420, 0.240, 0.100, 0.033, -0.015, 0.051
0.370, 0.240, 0.100, 0.018, -0.013, 0.054
0.320, 0.240, 0.100, 0.005, -0.013, 0.048
0.270, 0.240, 0.100, -0.002, -0.013, 0.045
0.220, 0.240, 0.100, -0.013, -0.013, 0.035
0.220, 0.290, 0.100, -0.014, -0.030, 0.045
0.270, 0.290, 0.100, -0.003, -0.032, 0.052
0.320, 0.290, 0.100, 0.005, -0.032, 0.055
0.370, 0.290, 0.100, 0.018, -0.033, 0.057
0.420, 0.290, 0.100, 0.033, -0.033, 0.057
0.470, 0.290, 0.100, 0.052, -0.033, 0.054
0.520, 0.290, 0.100, 0.071, -0.033, 0.048
0.570, 0.290, 0.100, 0.086, -0.033, 0.034
0.620, 0.290, 0.100, 0.106, -0.033, 0.018
0.670, 0.290, 0.100, 0.126, -0.033, -0.001
0.720, 0.290, 0.100, 0.146, -0.033, -0.030
0.720, 0.340, 0.100, 0.145, -0.050, -0.026
0.670, 0.340, 0.100, 0.126, -0.048, 0.000
0.620, 0.340, 0.100, 0.106, -0.048, 0.021
0.570, 0.340, 0.100, 0.087, -0.048, 0.038
0.520, 0.340, 0.100, 0.071, -0.047, 0.050
0.470, 0.340, 0.100, 0.051, -0.046, 0.057
0.420, 0.340, 0.100, 0.034, -0.046, 0.060
0.370, 0.340, 0.100, 0.018, -0.045, 0.064
0.320, 0.340, 0.100, 0.005, -0.046, 0.058
0.270, 0.340, 0.100, -0.003, -0.045, 0.054
0.220, 0.340, 0.100, -0.015, -0.045, 0.048
0.220, 0.390, 0.100, -0.015, -0.060, 0.048
0.270, 0.390, 0.100, -0.003, -0.060, 0.054
0.320, 0.390, 0.100, 0.004, -0.060, 0.058
0.370, 0.390, 0.100, 0.018, -0.060, 0.061
0.420, 0.390, 0.100, 0.034, -0.060, 0.060
0.470, 0.390, 0.100, 0.054, -0.061, 0.057
0.520, 0.390, 0.100, 0.066, -0.061, 0.051
0.570, 0.390, 0.100, 0.086, -0.061, 0.037
0.620, 0.390, 0.100, 0.106, -0.062, 0.021
0.670, 0.390, 0.100, 0.126, -0.062, 0.000
0.720, 0.390, 0.100, 0.145, -0.063, -0.027
0.520, 0.440, 0.100, 0.071, -0.070, 0.054
0.470, 0.440, 0.100, 0.050, -0.070, 0.057
0.420, 0.440, 0.100, 0.033, -0.071, 0.062
0.370, 0.440, 0.100, 0.018, -0.071, 0.060
0.320, 0.440, 0.100, 0.003, -0.071, 0.058
0.270, 0.440, 0.100, -0.004, -0.071, 0.054
0.220, 0.440, 0.100, -0.017, -0.072, 0.047
0.220, 0.490, 0.100, -0.018, -0.079, 0.043
0.270, 0.490, 0.100, -0.005, -0.079, 0.049
0.320, 0.490, 0.100, 0.003, -0.079, 0.057
0.370, 0.490, 0.100, 0.017, -0.083, 0.056
0.420, 0.490, 0.100, 0.033, -0.079, 0.055
0.470, 0.490, 0.100, 0.049, -0.079, 0.052
0.520, 0.490, 0.100, 0.070, -0.079, 0.046
0.570, 0.490, 0.100, 0.088, -0.081, 0.033
0.620, 0.490, 0.100, 0.105, -0.081, 0.018
0.670, 0.490, 0.100, 0.125, -0.081, -0.003
0.720, 0.490, 0.100, 0.146, -0.081, -0.030
0.720, 0.540, 0.100, 0.146, -0.090, -0.036
0.670, 0.540, 0.100, 0.126, -0.090, -0.008
0.620, 0.540, 0.100, 0.105, -0.090, 0.009
0.570, 0.540, 0.100, 0.088, -0.090, 0.027
0.520, 0.540, 0.100, 0.067, -0.090, 0.038
0.470, 0.540, 0.100, 0.051, -0.089, 0.047
0.420, 0.540, 0.100, 0.033, -0.088, 0.050
0.370, 0.540, 0.100, 0.017, -0.090, 0.050
0.320, 0.540, 0.100, 0.006, -0.088, 0.049
0.270, 0.540, 0.100, -0.005, -0.090, 0.043
0.220, 0.540, 0.100, -0.018, -0.087, 0.034
0.220, 0.590, 0.100, -0.018, -0.092, 0.027
0.270, 0.590, 0.100, -0.005, -0.097, 0.033
0.320, 0.590, 0.100, 0.006, -0.097, 0.040
0.370, 0.590, 0.100, 0.018, -0.097, 0.043
0.420, 0.590, 0.100, 0.031, -0.097, 0.046
0.470, 0.590, 0.100, 0.048, -0.097, 0.037
0.520, 0.590, 0.100, 0.066, -0.097, 0.030
0.570, 0.590, 0.100, 0.087, -0.097, 0.021
0.620, 0.590, 0.100, 0.104, -0.100, 0.003
0.670, 0.590, 0.100, 0.125, -0.099, -0.015
0.720, 0.590, 0.100, 0.146, -0.099, -0.045
0.720, 0.640, 0.100, 0.146, -0.100, -0.053
0.670, 0.640, 0.100, 0.124, -0.101, -0.023
0.620, 0.640, 0.100, 0.103, -0.101, -0.003
0.570, 0.640, 0.100, 0.087, -0.102, 0.009
0.520, 0.640, 0.100, 0.068, -0.103, 0.022
0.470, 0.640, 0.100, 0.048, -0.103, 0.029
0.420, 0.640, 0.100, 0.031, -0.103, 0.035
0.370, 0.640, 0.100, 0.018, -0.103, 0.035
0.320, 0.640, 0.100, 0.006, -0.103, 0.030
0.270, 0.640, 0.100, -0.005, -0.101, 0.025
0.220, 0.640, 0.100, -0.017, -0.100, 0.019
0.220, 0.690, 0.100, -0.016, -0.103, 0.010
0.270, 0.690, 0.100, -0.004, -0.106, 0.016
0.320, 0.690, 0.100, 0.006, -0.106, 0.021
0.370, 0.690, 0.100, 0.018, -0.106, 0.023
0.420, 0.690, 0.100, 0.030, -0.107, 0.023
0.470, 0.690, 0.100, 0.046, -0.107, 0.020
0.520, 0.690, 0.100, 0.067, -0.106, 0.012
0.570, 0.690, 0.100, 0.085, -0.106, 0.000
0.620, 0.690, 0.100, 0.103, -0.105, -0.008
0.670, 0.690, 0.100, 0.124, -0.103, -0.031
0.720, 0.690, 0.100, 0.145, -0.103, -0.061
0.220, 0.190, 0.200, -0.003, -0.022, -0.015
0.270, 0.190, 0.200, 0.000, -0.022, -0.009
0.320, 0.190, 0.200, 0.006, -0.024, -0.006
0.370, 0.190, 0.200, 0.015, -0.024, -0.006
0.420, 0.190, 0.200, 0.025, -0.024, -0.008
0.470, 0.190, 0.200, 0.035, -0.025, -0.015
0.520, 0.190, 0.200, 0.046, -0.025, -0.022
0.570, 0.190, 0.200, 0.056, -0.027, -0.033
0.620, 0.190, 0.200, 0.064, -0.027, -0.050
0.670, 0.190, 0.200, 0.074, -0.025, -0.073
0.720, 0.190, 0.200, 0.078, -0.024, -0.097
0.720, 0.240, 0.200, 0.077, -0.033, -0.085
0.670, 0.240, 0.200, 0.076, -0.034, -0.057
0.620, 0.240, 0.200, 0.067, -0.036, -0.036
0.570, 0.240, 0.200, 0.057, -0.036, -0.021
0.520, 0.240, 0.200, 0.049, -0.035, -0.007
0.470, 0.240, 0.200, 0.036, -0.033, 0.000
0.420, 0.240, 0.200, 0.026, -0.033, 0.000
0.370, 0.240, 0.200, 0.016, -0.033, 0.000
0.320, 0.240, 0.200, 0.007, -0.033, 0.003
0.270, 0.240, 0.200, 0.002, -0.032, 0.000
0.220, 0.240, 0.200, -0.002, -0.032, 0.000
0.220, 0.290, 0.200, -0.002, -0.042, 0.004
0.270, 0.290, 0.200, 0.002, -0.042, 0.006
0.320, 0.290, 0.200, 0.007, -0.042, 0.008
0.370, 0.290, 0.200, 0.016, -0.042, 0.008
0.420, 0.290, 0.200, 0.026, -0.042, 0.006
0.470, 0.290, 0.200, 0.036, -0.042, 0.002
0.520, 0.290, 0.200, 0.049, -0.045, -0.003
0.570, 0.290, 0.200, 0.057, -0.045, -0.010
0.620, 0.290, 0.200, 0.066, -0.045, -0.027
0.670, 0.290, 0.200, 0.075, -0.045, -0.049
0.720, 0.290, 0.200, 0.076, -0.043, -0.077
0.720, 0.340, 0.200, 0.078, -0.050, -0.073
0.670, 0.340, 0.200, 0.075, -0.051, -0.045
0.620, 0.340, 0.200, 0.068, -0.052, -0.023
0.570, 0.340, 0.200, 0.057, -0.052, -0.005
0.520, 0.340, 0.200, 0.050, -0.051, 0.000
0.470, 0.340, 0.200, 0.036, -0.052, 0.006
0.420, 0.340, 0.200, 0.027, -0.052, 0.014
0.370, 0.340, 0.200, 0.017, -0.051, 0.016
0.320, 0.340, 0.200, 0.008, -0.051, 0.015
0.270, 0.340, 0.200, 0.002, -0.051, 0.010
0.220, 0.340, 0.200, -0.003, -0.051, 0.009
0.220, 0.390, 0.200, -0.003, -0.060, 0.012
0.270, 0.390, 0.200, 0.002, -0.059, 0.015
0.320, 0.390, 0.200, 0.007, -0.059, 0.018
0.370, 0.390, 0.200, 0.017, -0.059, 0.018
0.420, 0.390, 0.200, 0.027, -0.060, 0.016
0.470, 0.390, 0.200, 0.036, -0.060, 0.009
0.520, 0.390, 0.200, 0.049, -0.060, 0.002
0.570, 0.390, 0.200, 0.057, -0.061, -0.003
0.620, 0.390, 0.200, 0.067, -0.060, -0.021
0.670, 0.390, 0.200, 0.072, -0.060, -0.042
0.720, 0.390, 0.200, 0.078, -0.060, -0.070
0.520, 0.440, 0.200, 0.046, -0.065, 0.003
0.470, 0.440, 0.200, 0.036, -0.065, 0.013
0.420, 0.440, 0.200, 0.027, -0.066, 0.018
0.370, 0.440, 0.200, 0.015, -0.066, 0.020
0.320, 0.440, 0.200, 0.007, -0.066, 0.020
0.270, 0.440, 0.200, 0.001, -0.064, 0.018
0.220, 0.440, 0.200, -0.004, -0.064, 0.012
0.220, 0.490, 0.200, -0.005, -0.073, 0.011
0.270, 0.490, 0.200, 0.000, -0.073, 0.015
0.320, 0.490, 0.200, 0.006, -0.072, 0.018
0.370, 0.490, 0.200, 0.015, -0.073, 0.018
0.420, 0.490, 0.200, 0.026, -0.072, 0.017
0.470, 0.490, 0.200, 0.036, -0.072, 0.009
0.520, 0.490, 0.200, 0.046, -0.072, 0.003
0.570, 0.490, 0.200, 0.055, -0.072, -0.002
0.620, 0.490, 0.200, 0.067, -0.071, -0.019
0.670, 0.490, 0.200, 0.075, -0.070, -0.042
0.720, 0.490, 0.200, 0.079, -0.071, -0.070
0.720, 0.540, 0.200, 0.079, -0.076, -0.072
0.670, 0.540, 0.200, 0.074, -0.076, -0.045
0.620, 0.540, 0.200, 0.067, -0.076, -0.023
0.570, 0.540, 0.200, 0.058, -0.077, -0.006
0.520, 0.540, 0.200, 0.046, -0.076, 0.003
0.470, 0.540, 0.200, 0.036, -0.076, 0.006
0.420, 0.540, 0.200, 0.025, -0.076, 0.012
0.370, 0.540, 0.200, 0.015, -0.076, 0.015
0.320, 0.540, 0.200, 0.006, -0.076, 0.015
0.270, 0.540, 0.200, 0.000, -0.075, 0.012
0.220, 0.540, 0.200, -0.005, -0.074, 0.009
0.220, 0.590, 0.200, -0.005, -0.077, 0.004
0.270, 0.590, 0.200, 0.000, -0.079, 0.008
0.320, 0.590, 0.200, 0.006, -0.082, 0.011
0.370, 0.590, 0.200, 0.018, -0.085, 0.011
0.420, 0.590, 0.200, 0.025, -0.079, 0.009
0.470, 0.590, 0.200, 0.035, -0.079, 0.006
0.520, 0.590, 0.200, 0.047, -0.079, 0.000
0.570, 0.590, 0.200, 0.055, -0.078, -0.009
0.620, 0.590, 0.200, 0.067, -0.079, -0.027
0.670, 0.590, 0.200, 0.074, -0.079, -0.048
0.720, 0.590, 0.200, 0.079, -0.079, -0.073
0.720, 0.640, 0.200, 0.079, -0.079, -0.079
0.670, 0.640, 0.200, 0.073, -0.079, -0.055
0.620, 0.640, 0.200, 0.066, -0.080, -0.033
0.570, 0.640, 0.200, 0.056, -0.084, -0.018
0.520, 0.640, 0.200, 0.045, -0.083, -0.005
0.470, 0.640, 0.200, 0.034, -0.084, 0.000
0.420, 0.640, 0.200, 0.024, -0.084, 0.003
0.370, 0.640, 0.200, 0.018, -0.085, 0.006
0.320, 0.640, 0.200, 0.006, -0.082, 0.005
0.270, 0.640, 0.200, 0.000, -0.081, 0.003
0.220, 0.640, 0.200, -0.003, -0.079, 0.000
0.220, 0.690, 0.200, -0.003, -0.081, -0.006
0.270, 0.690, 0.200, 0.001, -0.082, -0.001
0.320, 0.690, 0.200, 0.006, -0.082, 0.000
0.370, 0.690, 0.200, 0.018, -0.085, 0.000
0.420, 0.690, 0.200, 0.024, -0.085, 0.000
0.470, 0.690, 0.200, 0.033, -0.085, -0.004
0.520, 0.690, 0.200, 0.044, -0.085, -0.014
0.570, 0.690, 0.200, 0.056, -0.085, -0.024
0.620, 0.690, 0.200, 0.065, -0.083, -0.042
0.670, 0.690, 0.200, 0.073, -0.080, -0.061
0.720, 0.690, 0.200, 0.079, -0.079, -0.088
0.220, 0.190, 0.300, 0.002, -0.051, -0.028
0.270, 0.190, 0.300, 0.003, -0.052, -0.026
0.320, 0.190, 0.300, 0.006, -0.052, -0.025
0.370, 0.190, 0.300, 0.014, -0.053, -0.026
0.420, 0.190, 0.300, 0.016, -0.054, -0.028
0.470, 0.190, 0.300, 0.021, -0.054, -0.032
0.520, 0.190, 0.300, 0.027, -0.054, -0.041
0.570, 0.190, 0.300, 0.030, -0.053, -0.050
0.620, 0.190, 0.300, 0.032, -0.052, -0.061
0.670, 0.190, 0.300, 0.030, -0.051, -0.079
0.720, 0.190, 0.300, 0.024, -0.048, -0.098
0.720, 0.240, 0.300, 0.023, -0.049, -0.088
0.670, 0.240, 0.300, 0.029, -0.051, -0.067
0.620, 0.240, 0.300, 0.031, -0.052, -0.052
0.570, 0.240, 0.300, 0.030, -0.054, -0.041
0.520, 0.240, 0.300, 0.027, -0.054, -0.030
0.470, 0.240, 0.300, 0.023, -0.054, -0.024
0.420, 0.240, 0.300, 0.018, -0.054, -0.021
0.370, 0.240, 0.300, 0.015, -0.054, -0.018
0.320, 0.240, 0.300, 0.009, -0.053, -0.017
0.270, 0.240, 0.300, 0.004, -0.052, -0.018
0.220, 0.240, 0.300, 0.003, -0.052, -0.018
0.220, 0.290, 0.300, 0.003, -0.055, -0.009
0.270, 0.290, 0.300, 0.005, -0.055, -0.008
0.320, 0.290, 0.300, 0.010, -0.055, -0.007
0.370, 0.290, 0.300, 0.015, -0.055, -0.009
0.420, 0.290, 0.300, 0.020, -0.055, -0.015
0.470, 0.290, 0.300, 0.025, -0.056, -0.020
0.520, 0.290, 0.300, 0.028, -0.056, -0.027
0.570, 0.290, 0.300, 0.031, -0.055, -0.037
0.620, 0.290, 0.300, 0.030, -0.054, -0.052
0.670, 0.290, 0.300, 0.027, -0.054, -0.069
0.720, 0.290, 0.300, 0.018, -0.052, -0.091
0.720, 0.340, 0.300, 0.018, -0.057, -0.086
0.670, 0.340, 0.300, 0.026, -0.058, -0.064
0.620, 0.340, 0.300, 0.030, -0.058, -0.048
0.570, 0.340, 0.300, 0.030, -0.058, -0.033
0.520, 0.340, 0.300, 0.029, -0.059, -0.024
0.470, 0.340, 0.300, 0.025, -0.059, -0.016
0.420, 0.340, 0.300, 0.021, -0.059, -0.008
0.370, 0.340, 0.300, 0.016, -0.059, -0.005
0.320, 0.340, 0.300, 0.013, -0.058, -0.003
0.270, 0.340, 0.300, 0.006, -0.058, -0.003
0.220, 0.340, 0.300, 0.004, -0.058, -0.006
0.220, 0.390, 0.300, 0.006, -0.063, -0.003
0.270, 0.390, 0.300, 0.006, -0.062, -0.001
0.320, 0.390, 0.300, 0.015, -0.062, -0.001
0.370, 0.390, 0.300, 0.017, -0.063, -0.003
0.420, 0.390, 0.300, 0.022, -0.063, -0.006
0.470, 0.390, 0.300, 0.027, -0.063, -0.015
0.520, 0.390, 0.300, 0.030, -0.063, -0.023
0.570, 0.390, 0.300, 0.030, -0.062, -0.034
0.620, 0.390, 0.300, 0.030, -0.062, -0.051
0.670, 0.390, 0.300, 0.024, -0.061, -0.067
0.720, 0.390, 0.300, 0.017, -0.061, -0.091
0.520, 0.440, 0.300, 0.030, -0.064, -0.021
0.470, 0.440, 0.300, 0.027, -0.064, -0.012
0.420, 0.440, 0.300, 0.021, -0.064, -0.005
0.370, 0.440, 0.300, 0.016, -0.065, -0.002
0.320, 0.440, 0.300, 0.015, -0.065, 0.000
0.270, 0.440, 0.300, 0.006, -0.064, 0.000
0.220, 0.440, 0.300, 0.004, -0.064, -0.001
0.220, 0.490, 0.300, 0.004, -0.066, -0.002
0.270, 0.490, 0.300, 0.006, -0.065, 0.000
0.320, 0.490, 0.300, 0.013, -0.067, 0.000
0.370, 0.490, 0.300, 0.016, -0.067, -0.003
0.420, 0.490, 0.300, 0.021, -0.067, -0.006
0.470, 0.490, 0.300, 0.026, -0.067, -0.014
0.520, 0.490, 0.300, 0.029, -0.067, -0.022
0.570, 0.490, 0.300, 0.031, -0.067, -0.033
0.620, 0.490, 0.300, 0.030, -0.067, -0.048
0.670, 0.490, 0.300, 0.024, -0.064, -0.066
0.720, 0.490, 0.300, 0.018, -0.064, -0.089
0.720, 0.540, 0.300, 0.018, -0.069, -0.091
0.670, 0.540, 0.300, 0.026, -0.069, -0.067
0.620, 0.540, 0.300, 0.030, -0.069, -0.051
0.570, 0.540, 0.300, 0.030, -0.069, -0.034
0.520, 0.540, 0.300, 0.029, -0.070, -0.024
0.470, 0.540, 0.300, 0.026, -0.070, -0.015
0.420, 0.540, 0.300, 0.021, -0.070, -0.007
0.370, 0.540, 0.300, 0.016, -0.070, -0.004
0.320, 0.540, 0.300, 0.015, -0.070, -0.003
0.270, 0.540, 0.300, 0.007, -0.070, -0.003
0.220, 0.540, 0.300, 0.006, -0.070, -0.003
0.220, 0.590, 0.300, 0.006, -0.071, -0.006
0.270, 0.590, 0.300, 0.007, -0.072, -0.005
0.320, 0.590, 0.300, 0.015, -0.072, -0.006
0.370, 0.590, 0.300, 0.018, -0.072, -0.007
0.420, 0.590, 0.300, 0.023, -0.071, -0.015
0.470, 0.590, 0.300, 0.027, -0.071, -0.021
0.520, 0.590, 0.300, 0.030, -0.070, -0.028
0.570, 0.590, 0.300, 0.031, -0.070, -0.042
0.620, 0.590, 0.300, 0.030, -0.070, -0.057
0.670, 0.590, 0.300, 0.025, -0.070, -0.073
0.720, 0.590, 0.300, 0.018, -0.070, -0.097
0.720, 0.640, 0.300, 0.018, -0.067, -0.104
0.670, 0.640, 0.300, 0.024, -0.069, -0.076
0.620, 0.640, 0.300, 0.029, -0.070, -0.060
0.570, 0.640, 0.300, 0.030, -0.070, -0.045
0.520, 0.640, 0.300, 0.029, -0.070, -0.031
0.470, 0.640, 0.300, 0.026, -0.071, -0.023
0.420, 0.640, 0.300, 0.022, -0.072, -0.018
0.370, 0.640, 0.300, 0.017, -0.072, -0.011
0.320, 0.640, 0.300, 0.015, -0.072, -0.008
0.270, 0.640, 0.300, 0.007, -0.072, -0.008
0.220, 0.640, 0.300, 0.006, -0.071, -0.009
0.220, 0.690, 0.300, 0.006, -0.070, -0.016
0.270, 0.690, 0.300, 0.007, -0.070, -0.015
0.320, 0.690, 0.300, 0.015, -0.071, -0.015
0.370, 0.690, 0.300, 0.017, -0.070, -0.017
0.420, 0.690, 0.300, 0.021, -0.070, -0.021
0.470, 0.690, 0.300, 0.025, -0.070, -0.027
0.520, 0.690, 0.300, 0.028, -0.070, -0.035
0.570, 0.690, 0.300, 0.030, -0.069, -0.048
0.620, 0.690, 0.300, 0.029, -0.067, -0.063
0.670, 0.690, 0.300, 0.024, -0.064, -0.080
0.720, 0.690, 0.300, 0.018, -0.064, -0.107
0.220, 0.190, 0.400, 0.006, -0.070, -0.028
0.270, 0.190, 0.400, 0.006, -0.071, -0.028
0.320, 0.190, 0.400, 0.008, -0.072, -0.030
0.370, 0.190, 0.400, 0.011, -0.073, -0.031
0.420, 0.190, 0.400, 0.015, -0.073, -0.034
0.470, 0.190, 0.400, 0.016, -0.073, -0.040
0.489, 0.190, 0.400, 0.017, -0.073, -0.042
0.520, 0.190, 0.400, 0.016, -0.073, -0.046
0.620, 0.190, 0.400, 0.006, -0.070, -0.061
0.670, 0.190, 0.400, 0.000, -0.064, -0.070
0.720, 0.190, 0.400, -0.015, -0.061, -0.080
0.720, 0.240, 0.400, -0.018, -0.061, -0.075
0.670, 0.240, 0.400, -0.001, -0.064, -0.065
0.620, 0.240, 0.400, 0.006, -0.064, -0.056
0.570, 0.240, 0.400, 0.011, -0.064, -0.048
0.520, 0.240, 0.400, 0.016, -0.065, -0.040
0.470, 0.240, 0.400, 0.016, -0.067, -0.033
0.420, 0.240, 0.400, 0.015, -0.068, -0.029
0.370, 0.240, 0.400, 0.013, -0.066, -0.026
0.320, 0.240, 0.400, 0.009, -0.066, -0.024
0.270, 0.240, 0.400, 0.006, -0.064, -0.023
0.220, 0.240, 0.400, 0.006, -0.064, -0.024
0.220, 0.290, 0.400, 0.006, -0.064, -0.019
0.270, 0.290, 0.400, 0.007, -0.064, -0.019
0.320, 0.290, 0.400, 0.009, -0.064, -0.021
0.370, 0.290, 0.400, 0.015, -0.064, -0.021
0.420, 0.290, 0.400, 0.015, -0.064, -0.024
0.470, 0.290, 0.400, 0.015, -0.064, -0.028
0.520, 0.290, 0.400, 0.015, -0.064, -0.033
0.570, 0.290, 0.400, 0.010, -0.064, -0.043
0.620, 0.290, 0.400, 0.006, -0.064, -0.052
0.670, 0.290, 0.400, -0.002, -0.063, -0.061
0.720, 0.290, 0.400, -0.018, -0.061, -0.070
0.720, 0.340, 0.400, -0.018, -0.061, -0.067
0.670, 0.340, 0.400, -0.003, -0.063, -0.057
0.620, 0.340, 0.400, 0.006, -0.064, -0.049
0.570, 0.340, 0.400, 0.009, -0.064, -0.039
0.520, 0.340, 0.400, 0.015, -0.064, -0.031
0.470, 0.340, 0.400, 0.015, -0.064, -0.025
0.420, 0.340, 0.400, 0.015, -0.064, -0.021
0.370, 0.340, 0.400, 0.014, -0.064, -0.018
0.320, 0.340, 0.400, 0.009, -0.064, -0.017
0.270, 0.340, 0.400, 0.007, -0.064, -0.015
0.220, 0.340, 0.400, 0.006, -0.064, -0.015
0.220, 0.390, 0.400, 0.006, -0.064, -0.014
0.270, 0.390, 0.400, 0.007, -0.064, -0.013
0.320, 0.390, 0.400, 0.009, -0.064, -0.015
0.370, 0.390, 0.400, 0.015, -0.064, -0.016
0.420, 0.390, 0.400, 0.015, -0.064, -0.019
0.470, 0.390, 0.400, 0.015, -0.064, -0.023
0.520, 0.390, 0.400, 0.015, -0.064, -0.029
0.570, 0.390, 0.400, 0.009, -0.064, -0.035
0.620, 0.390, 0.400, 0.006, -0.064, -0.046
0.670, 0.390, 0.400, -0.003, -0.064, -0.052
0.720, 0.390, 0.400, -0.018, -0.061, -0.065
0.520, 0.440, 0.400, 0.015, -0.064, -0.027
0.420, 0.440, 0.400, 0.015, -0.064, -0.017
0.370, 0.440, 0.400, 0.015, -0.064, -0.013
0.320, 0.440, 0.400, 0.009, -0.064, -0.009
0.270, 0.440, 0.400, 0.007, -0.064, -0.009
0.220, 0.440, 0.400, 0.006, -0.064, -0.009
0.220, 0.490, 0.400, 0.006, -0.064, -0.009
0.270, 0.490, 0.400, 0.007, -0.064, -0.009
0.320, 0.490, 0.400, 0.009, -0.064, -0.009
0.370, 0.490, 0.400, 0.015, -0.065, -0.012
0.420, 0.490, 0.400, 0.015, -0.064, -0.016
0.470, 0.490, 0.400, 0.015, -0.064, -0.021
0.520, 0.490, 0.400, 0.015, -0.064, -0.025
0.570, 0.490, 0.400, 0.009, -0.064, -0.032
0.620, 0.490, 0.400, 0.006, -0.064, -0.043
0.670, 0.490, 0.400, -0.002, -0.064, -0.052
0.720, 0.490, 0.400, -0.018, -0.063, -0.062
0.720, 0.540, 0.400, -0.016, -0.064, -0.062
0.670, 0.540, 0.400, -0.001, -0.064, -0.052
0.620, 0.540, 0.400, 0.006, -0.064, -0.043
0.570, 0.540, 0.400, 0.009, -0.064, -0.033
0.520, 0.540, 0.400, 0.015, -0.064, -0.026
0.470, 0.540, 0.400, 0.015, -0.064, -0.021
0.420, 0.540, 0.400, 0.015, -0.064, -0.016
0.370, 0.540, 0.400, 0.014, -0.065, -0.011
0.320, 0.540, 0.400, 0.009, -0.064, -0.009
0.270, 0.540, 0.400, 0.007, -0.064, -0.009
0.220, 0.540, 0.400, 0.006, -0.064, -0.009
0.220, 0.590, 0.400, 0.006, -0.064, -0.009
0.270, 0.590, 0.400, 0.007, -0.064, -0.009
0.320, 0.590, 0.400, 0.009, -0.064, -0.009
0.370, 0.590, 0.400, 0.014, -0.064, -0.015
0.420, 0.590, 0.400, 0.015, -0.064, -0.017
0.470, 0.590, 0.400, 0.015, -0.064, -0.021
0.520, 0.590, 0.400, 0.015, -0.064, -0.026
0.570, 0.590, 0.400, 0.009, -0.064, -0.033
0.620, 0.590, 0.400, 0.006, -0.064, -0.043
0.670, 0.590, 0.400, -0.001, -0.064, -0.052
0.720, 0.590, 0.400, -0.016, -0.063, -0.063
0.720, 0.640, 0.400, -0.015, -0.061, -0.064
0.670, 0.640, 0.400, 0.000, -0.063, -0.052
0.620, 0.640, 0.400, 0.006, -0.064, -0.045
0.570, 0.640, 0.400, 0.009, -0.064, -0.033
0.520, 0.640, 0.400, 0.015, -0.064, -0.027
0.470, 0.640, 0.400, 0.015, -0.064, -0.021
0.420, 0.640, 0.400, 0.015, -0.064, -0.018
0.370, 0.640, 0.400, 0.012, -0.064, -0.015
0.320, 0.640, 0.400, 0.009, -0.064, -0.011
0.270, 0.640, 0.400, 0.007, -0.064, -0.009
0.220, 0.640, 0.400, 0.006, -0.064, -0.009
0.220, 0.690, 0.400, 0.006, -0.063, -0.015
0.270, 0.690, 0.400, 0.007, -0.064, -0.014
0.320, 0.690, 0.400, 0.009, -0.064, -0.015
0.370, 0.690, 0.400, 0.011, -0.064, -0.017
0.420, 0.690, 0.400, 0.015, -0.063, -0.019
0.470, 0.690, 0.400, 0.015, -0.063, -0.023
0.520, 0.690, 0.400, 0.014, -0.061, -0.027
0.570, 0.690, 0.400, 0.009, -0.061, -0.035
0.620, 0.690, 0.400, 0.006, -0.060, -0.045
0.670, 0.690, 0.400, 0.000, -0.060, -0.052
0.720, 0.690, 0.400, -0.015, -0.059, -0.064
0.220, 0.190, 0.500, 0.006, -0.075, -0.018
0.270, 0.190, 0.500, 0.006, -0.076, -0.019
0.320, 0.190, 0.500, 0.006, -0.079, -0.019
0.370, 0.190, 0.500, 0.006, -0.077, -0.021
0.420, 0.190, 0.500, 0.006, -0.080, -0.021
0.470, 0.190, 0.500, 0.006, -0.077, -0.024
0.520, 0.190, 0.500, 0.006, -0.076, -0.026
0.570, 0.190, 0.500, 0.004, -0.076, -0.028
0.620, 0.190, 0.500, 0.000, -0.073, -0.030
0.670, 0.190, 0.500, -0.009, -0.073, -0.031
0.720, 0.190, 0.500, -0.021, -0.070, -0.033
0.720, 0.240, 0.500, -0.024, -0.066, -0.031
0.670, 0.240, 0.500, -0.009, -0.070, -0.030
0.620, 0.240, 0.500, -0.001, -0.072, -0.030
0.570, 0.240, 0.500, 0.003, -0.073, -0.027
0.520, 0.240, 0.500, 0.006, -0.073, -0.024
0.470, 0.240, 0.500, 0.006, -0.073, -0.022
0.420, 0.240, 0.500, 0.007, -0.073, -0.021
0.370, 0.240, 0.500, 0.006, -0.073, -0.019
0.320, 0.240, 0.500, 0.006, -0.073, -0.018
0.303, 0.240, 0.500, 0.006, -0.073, -0.018
0.270, 0.240, 0.500, 0.006, -0.073, -0.018
0.220, 0.290, 0.500, 0.006, -0.070, -0.015
0.270, 0.290, 0.500, 0.006, -0.071, -0.016
0.320, 0.290, 0.500, 0.006, -0.071, -0.018
0.370, 0.290, 0.500, 0.007, -0.071, -0.018
0.420, 0.290, 0.500, 0.007, -0.071, -0.019
0.470, 0.290, 0.500, 0.006, -0.071, -0.021
0.520, 0.290, 0.500, 0.006, -0.071, -0.024
0.570, 0.290, 0.500, 0.003, -0.070, -0.026
0.620, 0.290, 0.500, -0.002, -0.069, -0.027
0.670, 0.290, 0.500, -0.009, -0.066, -0.030
0.720, 0.290, 0.500, -0.027, -0.064, -0.030
0.720, 0.340, 0.500, -0.028, -0.064, -0.028
0.670, 0.340, 0.500, -0.012, -0.064, -0.028
0.620, 0.340, 0.500, -0.003, -0.066, -0.027
0.570, 0.340, 0.500, 0.003, -0.067, -0.024
0.520, 0.340, 0.500, 0.006, -0.069, -0.022
0.470, 0.340, 0.500, 0.006, -0.069, -0.021
0.420, 0.340, 0.500, 0.007, -0.070, -0.018
0.370, 0.340, 0.500, 0.007, -0.070, -0.017
0.320, 0.340, 0.500, 0.006, -0.069, -0.015
0.270, 0.340, 0.500, 0.006, -0.069, -0.015
0.220, 0.340, 0.500, 0.006, -0.069, -0.015
0.220, 0.390, 0.500, 0.006, -0.066, -0.013
0.270, 0.390, 0.500, 0.006, -0.066, -0.014
0.320, 0.390, 0.500, 0.006, -0.067, -0.015
0.370, 0.390, 0.500, 0.007, -0.068, -0.015
0.420, 0.390, 0.500, 0.007, -0.068, -0.017
0.470, 0.390, 0.500, 0.006, -0.067, -0.019
0.520, 0.390, 0.500, 0.006, -0.066, -0.021
0.570, 0.390, 0.500, 0.003, -0.066, -0.024
0.620, 0.390, 0.500, -0.003, -0.065, -0.025
0.670, 0.390, 0.500, -0.011, -0.064, -0.027
0.720, 0.390, 0.500, -0.027, -0.064, -0.027
0.720, 0.390, 0.500, -0.026, -0.064, -0.027
0.520, 0.440, 0.500, 0.006, -0.064, -0.021
0.470, 0.440, 0.500, 0.006, -0.064, -0.018
0.420, 0.440, 0.500, 0.007, -0.064, -0.015
0.370, 0.440, 0.500, 0.007, -0.065, -0.015
0.320, 0.440, 0.500, 0.006, -0.064, -0.013
0.270, 0.440, 0.500, 0.006, -0.065, -0.011
0.220, 0.440, 0.500, 0.006, -0.064, -0.010
0.220, 0.490, 0.500, 0.006, -0.064, -0.009
0.270, 0.490, 0.500, 0.006, -0.064, -0.009
0.320, 0.490, 0.500, 0.006, -0.064, -0.010
0.370, 0.490, 0.500, 0.007, -0.064, -0.015
0.420, 0.490, 0.500, 0.007, -0.064, -0.016
0.470, 0.490, 0.500, 0.006, -0.064, -0.018
0.520, 0.490, 0.500, 0.006, -0.064, -0.020
0.570, 0.490, 0.500, 0.002, -0.064, -0.021
0.620, 0.490, 0.500, -0.002, -0.064, -0.024
0.670, 0.490, 0.500, -0.009, -0.064, -0.025
0.720, 0.490, 0.500, -0.024, -0.065, -0.026
0.720, 0.540, 0.500, -0.022, -0.064, -0.025
0.670, 0.540, 0.500, -0.009, -0.064, -0.025
0.620, 0.540, 0.500, -0.002, -0.064, -0.024
0.570, 0.540, 0.500, 0.003, -0.064, -0.021
0.520, 0.540, 0.500, 0.006, -0.064, -0.020
0.470, 0.540, 0.500, 0.006, -0.064, -0.018
0.420, 0.540, 0.500, 0.007, -0.064, -0.015
0.370, 0.540, 0.500, 0.007, -0.064, -0.015
0.320, 0.540, 0.500, 0.006, -0.064, -0.012
0.270, 0.540, 0.500, 0.006, -0.064, -0.010
0.220, 0.540, 0.500, 0.006, -0.064, -0.010
0.220, 0.590, 0.500, 0.006, -0.064, -0.009
0.270, 0.590, 0.500, 0.006, -0.064, -0.010
0.320, 0.590, 0.500, 0.006, -0.064, -0.010
0.370, 0.590, 0.500, 0.007, -0.064, -0.015
0.420, 0.590, 0.500, 0.007, -0.064, -0.015
0.470, 0.590, 0.500, 0.006, -0.064, -0.018
0.520, 0.590, 0.500, 0.006, -0.064, -0.020
0.570, 0.590, 0.500, 0.003, -0.064, -0.022
0.620, 0.590, 0.500, -0.001, -0.064, -0.024
0.670, 0.590, 0.500, -0.009, -0.064, -0.025
0.720, 0.590, 0.500, -0.021, -0.063, -0.025
0.720, 0.640, 0.500, -0.021, -0.061, -0.025
0.670, 0.640, 0.500, -0.009, -0.064, -0.024
0.620, 0.640, 0.500, -0.001, -0.064, -0.024
0.570, 0.640, 0.500, 0.003, -0.064, -0.021
0.520, 0.640, 0.500, 0.006, -0.064, -0.019
0.470, 0.640, 0.500, 0.006, -0.064, -0.018
0.420, 0.640, 0.500, 0.007, -0.064, -0.015
0.370, 0.640, 0.500, 0.007, -0.064, -0.015
0.320, 0.640, 0.500, 0.006, -0.064, -0.012
0.270, 0.640, 0.500, 0.006, -0.064, -0.011
0.220, 0.640, 0.500, 0.006, -0.064, -0.010
0.220, 0.690, 0.500, 0.006, -0.063, -0.009
0.270, 0.690, 0.500, 0.006, -0.063, -0.009
0.320, 0.690, 0.500, 0.007, -0.063, -0.011
0.370, 0.690, 0.500, 0.007, -0.064, -0.014
0.420, 0.690, 0.500, 0.007, -0.062, -0.015
0.470, 0.690, 0.500, 0.006, -0.062, -0.017
0.520, 0.690, 0.500, 0.006, -0.061, -0.019
0.570, 0.690, 0.500, 0.003, -0.061, -0.021
0.620, 0.690, 0.500, -0.001, -0.061, -0.023
0.670, 0.690, 0.500, -0.009, -0.060, -0.024
0.720, 0.690, 0.500, -0.021, -0.060, -0.024
0.100, 0.106, 0.050, -0.012, 0.091, -0.001
