0.000, 0.050, 0.500, -0.021, -0.021, -0.156
0.102, 0.152, 0.520, -0.046, 0.040, -0.194
0.152, 0.152, 0.520, -0.042, 0.036, -0.190
0.202, 0.152, 0.520, -0.041, 0.033, -0.188
0.252, 0.152, 0.520, -0.035, 0.029, -0.188
0.302, 0.152, 0.520, -0.033, 0.023, -0.188
0.352, 0.152, 0.520, -0.030, 0.020, -0.188
0.402, 0.152, 0.520, -0.030, 0.018, -0.188
0.452, 0.152, 0.520, -0.027, 0.015, -0.188
0.502, 0.152, 0.520, -0.021, 0.015, -0.191
0.552, 0.152, 0.520, -0.015, 0.012, -0.187
0.602, 0.152, 0.520, -0.007, 0.012, -0.185
0.602, 0.202, 0.520, -0.008, 0.000, -0.182
0.552, 0.202, 0.520, -0.017, 0.000, -0.183
0.502, 0.202, 0.520, -0.021, 0.003, -0.184
0.452, 0.202, 0.520, -0.027, 0.006, -0.185
0.402, 0.202, 0.520, -0.030, 0.008, -0.185
0.352, 0.202, 0.520, -0.031, 0.010, -0.188
0.302, 0.202, 0.520, -0.033, 0.014, -0.185
0.252, 0.202, 0.520, -0.036, 0.016, -0.185
0.202, 0.202, 0.520, -0.040, 0.023, -0.189
0.152, 0.202, 0.520, -0.042, 0.027, -0.187
0.102, 0.202, 0.520, -0.045, 0.031, -0.188
0.102, 0.252, 0.520, -0.045, 0.019, -0.186
0.152, 0.252, 0.520, -0.042, 0.015, -0.185
0.202, 0.252, 0.520, -0.039, 0.012, -0.185
0.252, 0.252, 0.520, -0.036, 0.009, -0.184
0.302, 0.252, 0.520, -0.033, 0.005, -0.184
0.352, 0.252, 0.520, -0.031, 0.003, -0.183
0.402, 0.252, 0.520, -0.030, 0.000, -0.183
0.452, 0.252, 0.520, -0.027, 0.000, -0.182
0.502, 0.252, 0.520, -0.019, -0.001, -0.182
0.552, 0.252, 0.520, -0.015, -0.003, -0.182
0.602, 0.252, 0.520, -0.006, -0.004, -0.180
0.602, 0.302, 0.520, -0.008, -0.012, -0.180
0.552, 0.302, 0.520, -0.016, -0.012, -0.181
0.502, 0.302, 0.520, -0.021, -0.009, -0.182
0.452, 0.302, 0.520, -0.028, -0.006, -0.182
0.402, 0.302, 0.520, -0.030, -0.003, -0.182
0.352, 0.302, 0.520, -0.031, 0.000, -0.183
0.302, 0.302, 0.520, -0.033, 0.000, -0.184
0.252, 0.302, 0.520, -0.036, 0.003, -0.184
0.202, 0.302, 0.520, -0.038, 0.003, -0.185
0.152, 0.302, 0.520, -0.042, 0.006, -0.185
0.102, 0.302, 0.520, -0.045, 0.011, -0.187
0.102, 0.352, 0.520, -0.043, 0.003, -0.188
0.152, 0.352, 0.520, -0.040, 0.003, -0.186
0.202, 0.352, 0.520, -0.038, 0.000, -0.185
0.252, 0.352, 0.520, -0.036, -0.002, -0.185
0.302, 0.352, 0.520, -0.033, -0.005, -0.185
0.352, 0.352, 0.520, -0.031, -0.008, -0.184
0.402, 0.352, 0.520, -0.029, -0.011, -0.183
0.452, 0.352, 0.520, -0.027, -0.015, -0.183
0.502, 0.352, 0.520, -0.020, -0.018, -0.182
0.552, 0.352, 0.520, -0.016, -0.020, -0.182
0.602, 0.352, 0.520, -0.007, -0.021, -0.182
0.402, 0.402, 0.520, -0.029, -0.018, -0.185
0.352, 0.402, 0.520, -0.031, -0.015, -0.185
0.302, 0.402, 0.520, -0.034, -0.009, -0.185
0.252, 0.402, 0.520, -0.036, -0.009, -0.186
0.202, 0.402, 0.520, -0.038, -0.006, -0.187
0.152, 0.402, 0.520, -0.040, -0.002, -0.188
0.102, 0.402, 0.520, -0.042, 0.000, -0.188
0.102, 0.452, 0.520, -0.042, -0.006, -0.191
0.152, 0.452, 0.520, -0.039, -0.009, -0.189
0.202, 0.452, 0.520, -0.037, -0.010, -0.188
0.252, 0.452, 0.520, -0.035, -0.016, -0.188
0.302, 0.452, 0.520, -0.033, -0.019, -0.188
0.352, 0.452, 0.520, -0.030, -0.021, -0.187
0.402, 0.452, 0.520, -0.027, -0.024, -0.187
0.452, 0.452, 0.520, -0.027, -0.030, -0.187
0.502, 0.452, 0.520, -0.020, -0.030, -0.186
0.552, 0.452, 0.520, -0.017, -0.032, -0.187
0.602, 0.452, 0.520, -0.006, -0.035, -0.187
0.602, 0.502, 0.520, -0.006, -0.043, -0.190
0.552, 0.502, 0.520, -0.016, -0.042, -0.189
0.502, 0.502, 0.520, -0.021, -0.038, -0.189
0.452, 0.502, 0.520, -0.027, -0.035, -0.189
0.402, 0.502, 0.520, -0.029, -0.031, -0.189
0.352, 0.502, 0.520, -0.031, -0.030, -0.189
0.302, 0.502, 0.520, -0.033, -0.027, -0.190
0.252, 0.502, 0.520, -0.036, -0.021, -0.191
0.202, 0.502, 0.520, -0.037, -0.018, -0.191
0.152, 0.502, 0.520, -0.039, -0.017, -0.191
0.102, 0.502, 0.520, -0.041, -0.010, -0.192
0.102, 0.552, 0.520, -0.040, -0.018, -0.194
0.152, 0.552, 0.520, -0.038, -0.022, -0.194
0.202, 0.552, 0.520, -0.036, -0.027, -0.194
0.252, 0.552, 0.520, -0.034, -0.030, -0.193
0.302, 0.552, 0.520, -0.033, -0.033, -0.192
0.352, 0.552, 0.520, -0.030, -0.036, -0.191
0.402, 0.552, 0.520, -0.027, -0.039, -0.191
0.452, 0.552, 0.520, -0.027, -0.043, -0.191
0.502, 0.552, 0.520, -0.021, -0.046, -0.192
0.552, 0.552, 0.520, -0.015, -0.051, -0.192
0.602, 0.552, 0.520, -0.007, -0.054, -0.193
0.602, 0.602, 0.520, -0.009, -0.064, -0.197
0.552, 0.602, 0.520, -0.017, -0.060, -0.196
0.502, 0.602, 0.520, -0.022, -0.057, -0.195
0.452, 0.602, 0.520, -0.027, -0.052, -0.194
0.402, 0.602, 0.520, -0.029, -0.049, -0.194
0.352, 0.602, 0.520, -0.032, -0.045, -0.194
0.302, 0.602, 0.520, -0.033, -0.041, -0.194
0.252, 0.602, 0.520, -0.035, -0.038, -0.195
0.202, 0.602, 0.520, -0.037, -0.034, -0.196
0.152, 0.602, 0.520, -0.039, -0.030, -0.197
0.102, 0.602, 0.520, -0.039, -0.027, -0.197
0.102, 0.652, 0.520, -0.038, -0.034, -0.201
0.152, 0.652, 0.520, -0.036, -0.039, -0.200
0.202, 0.652, 0.520, -0.034, -0.043, -0.199
0.252, 0.652, 0.520, -0.033, -0.047, -0.198
0.302, 0.652, 0.520, -0.032, -0.051, -0.197
0.352, 0.652, 0.520, -0.030, -0.054, -0.197
0.402, 0.652, 0.520, -0.028, -0.058, -0.197
0.452, 0.652, 0.520, -0.026, -0.062, -0.197
0.502, 0.652, 0.520, -0.022, -0.064, -0.198
0.552, 0.652, 0.520, -0.017, -0.070, -0.200
0.602, 0.652, 0.520, -0.011, -0.073, -0.200
0.102, 0.152, 0.570, -0.042, 0.045, -0.182
0.152, 0.152, 0.570, -0.042, 0.036, -0.181
0.202, 0.152, 0.570, -0.036, 0.034, -0.180
0.252, 0.152, 0.570, -0.033, 0.031, -0.179
0.302, 0.152, 0.570, -0.031, 0.028, -0.180
0.352, 0.152, 0.570, -0.030, 0.025, -0.179
0.402, 0.152, 0.570, -0.030, 0.023, -0.179
0.452, 0.152, 0.570, -0.027, 0.021, -0.179
0.502, 0.152, 0.570, -0.021, 0.021, -0.179
0.552, 0.152, 0.570, -0.018, 0.021, -0.176
0.602, 0.152, 0.570, -0.009, 0.021, -0.173
0.602, 0.202, 0.570, -0.009, 0.009, -0.170
0.552, 0.202, 0.570, -0.018, 0.009, -0.172
0.502, 0.202, 0.570, -0.021, 0.009, -0.173
0.452, 0.202, 0.570, -0.027, 0.010, -0.173
0.402, 0.202, 0.570, -0.030, 0.012, -0.175
0.352, 0.202, 0.570, -0.030, 0.014, -0.175
0.302, 0.202, 0.570, -0.031, 0.017, -0.176
0.252, 0.202, 0.570, -0.033, 0.020, -0.178
0.202, 0.202, 0.570, -0.036, 0.026, -0.178
0.152, 0.202, 0.570, -0.041, 0.028, -0.179
0.102, 0.202, 0.570, -0.042, 0.033, -0.179
0.102, 0.252, 0.570, -0.042, 0.024, -0.179
0.152, 0.252, 0.570, -0.040, 0.018, -0.179
0.202, 0.252, 0.570, -0.036, 0.014, -0.177
0.252, 0.252, 0.570, -0.034, 0.011, -0.174
0.302, 0.252, 0.570, -0.032, 0.008, -0.174
0.352, 0.252, 0.570, -0.030, 0.005, -0.173
0.402, 0.252, 0.570, -0.030, 0.003, -0.173
0.452, 0.252, 0.570, -0.026, 0.000, -0.173
0.502, 0.252, 0.570, -0.021, 0.000, -0.172
0.552, 0.252, 0.570, -0.016, 0.000, -0.170
0.602, 0.252, 0.570, -0.009, 0.000, -0.169
0.602, 0.302, 0.570, -0.009, -0.004, -0.170
0.552, 0.302, 0.570, -0.017, -0.006, -0.170
0.502, 0.302, 0.570, -0.019, -0.004, -0.172
0.452, 0.302, 0.570, -0.027, -0.003, -0.173
0.402, 0.302, 0.570, -0.030, 0.000, -0.173
0.352, 0.302, 0.570, -0.030, 0.000, -0.173
0.302, 0.302, 0.570, -0.032, 0.001, -0.174
0.252, 0.302, 0.570, -0.033, 0.003, -0.175
0.202, 0.302, 0.570, -0.036, 0.006, -0.178
0.152, 0.302, 0.570, -0.038, 0.009, -0.178
0.102, 0.302, 0.570, -0.040, 0.015, -0.179
0.102, 0.352, 0.570, -0.039, 0.006, -0.180
0.152, 0.352, 0.570, -0.037, 0.003, -0.179
0.202, 0.352, 0.570, -0.035, 0.000, -0.179
0.252, 0.352, 0.570, -0.033, 0.000, -0.178
0.302, 0.352, 0.570, -0.031, -0.003, -0.176
0.352, 0.352, 0.570, -0.030, -0.006, -0.174
0.402, 0.352, 0.570, -0.029, -0.009, -0.173
0.452, 0.352, 0.570, -0.025, -0.011, -0.173
0.502, 0.352, 0.570, -0.018, -0.012, -0.173
0.552, 0.352, 0.570, -0.016, -0.013, -0.172
0.602, 0.352, 0.570, -0.008, -0.014, -0.170
0.402, 0.402, 0.570, -0.029, -0.015, -0.175
0.352, 0.402, 0.570, -0.030, -0.013, -0.177
0.302, 0.402, 0.570, -0.031, -0.010, -0.178
0.252, 0.402, 0.570, -0.033, -0.007, -0.179
0.202, 0.402, 0.570, -0.035, -0.003, -0.179
0.152, 0.402, 0.570, -0.036, 0.000, -0.181
0.102, 0.402, 0.570, -0.038, 0.001, -0.182
0.102, 0.452, 0.570, -0.037, -0.003, -0.183
0.152, 0.452, 0.570, -0.036, -0.009, -0.182
0.202, 0.452, 0.570, -0.034, -0.012, -0.181
0.252, 0.452, 0.570, -0.032, -0.015, -0.180
0.302, 0.452, 0.570, -0.030, -0.018, -0.180
0.352, 0.452, 0.570, -0.028, -0.021, -0.179
0.402, 0.452, 0.570, -0.027, -0.021, -0.179
0.452, 0.452, 0.570, -0.023, -0.026, -0.178
0.502, 0.452, 0.570, -0.018, -0.029, -0.178
0.552, 0.452, 0.570, -0.015, -0.030, -0.181
0.602, 0.452, 0.570, -0.008, -0.030, -0.178
0.602, 0.502, 0.570, -0.006, -0.037, -0.180
0.552, 0.502, 0.570, -0.016, -0.036, -0.180
0.502, 0.502, 0.570, -0.018, -0.034, -0.184
0.452, 0.502, 0.570, -0.025, -0.032, -0.181
0.402, 0.502, 0.570, -0.027, -0.030, -0.181
0.352, 0.502, 0.570, -0.028, -0.030, -0.182
0.302, 0.502, 0.570, -0.031, -0.026, -0.182
0.252, 0.502, 0.570, -0.032, -0.021, -0.182
0.202, 0.502, 0.570, -0.033, -0.020, -0.182
0.152, 0.502, 0.570, -0.036, -0.016, -0.183
0.102, 0.502, 0.570, -0.036, -0.009, -0.185
0.102, 0.552, 0.570, -0.036, -0.019, -0.186
0.152, 0.552, 0.570, -0.034, -0.021, -0.185
0.202, 0.552, 0.570, -0.033, -0.028, -0.185
0.252, 0.552, 0.570, -0.031, -0.030, -0.185
0.302, 0.552, 0.570, -0.030, -0.032, -0.187
0.352, 0.552, 0.570, -0.027, -0.035, -0.183
0.402, 0.552, 0.570, -0.027, -0.038, -0.183
0.452, 0.552, 0.570, -0.022, -0.041, -0.182
0.502, 0.552, 0.570, -0.018, -0.043, -0.182
0.552, 0.552, 0.570, -0.015, -0.046, -0.182
0.602, 0.552, 0.570, -0.006, -0.048, -0.186
0.602, 0.602, 0.570, -0.007, -0.058, -0.187
0.552, 0.602, 0.570, -0.015, -0.056, -0.185
0.502, 0.602, 0.570, -0.018, -0.054, -0.185
0.452, 0.602, 0.570, -0.024, -0.051, -0.185
0.402, 0.602, 0.570, -0.027, -0.047, -0.185
0.352, 0.602, 0.570, -0.028, -0.045, -0.185
0.302, 0.602, 0.570, -0.030, -0.041, -0.185
0.252, 0.602, 0.570, -0.031, -0.038, -0.186
0.202, 0.602, 0.570, -0.033, -0.034, -0.189
0.152, 0.602, 0.570, -0.034, -0.030, -0.188
0.102, 0.602, 0.570, -0.036, -0.028, -0.188
0.102, 0.652, 0.570, -0.034, -0.036, -0.191
0.152, 0.652, 0.570, -0.033, -0.039, -0.191
0.202, 0.652, 0.570, -0.031, -0.044, -0.190
0.252, 0.652, 0.570, -0.030, -0.047, -0.188
0.302, 0.652, 0.570, -0.028, -0.051, -0.188
0.352, 0.652, 0.570, -0.027, -0.054, -0.188
0.402, 0.652, 0.570, -0.027, -0.057, -0.188
0.452, 0.652, 0.570, -0.021, -0.061, -0.188
0.502, 0.652, 0.570, -0.018, -0.064, -0.188
0.552, 0.652, 0.570, -0.015, -0.064, -0.188
0.602, 0.652, 0.570, -0.008, -0.070, -0.190
0.102, 0.152, 0.620, -0.036, 0.049, -0.164
0.152, 0.152, 0.620, -0.033, 0.045, -0.167
0.202, 0.152, 0.620, -0.033, 0.043, -0.167
0.252, 0.152, 0.620, -0.033, 0.036, -0.167
0.302, 0.152, 0.620, -0.031, 0.035, -0.165
0.352, 0.152, 0.620, -0.030, 0.033, -0.164
0.402, 0.152, 0.620, -0.028, 0.031, -0.164
0.452, 0.152, 0.620, -0.026, 0.030, -0.164
0.502, 0.152, 0.620, -0.021, 0.030, -0.166
0.552, 0.152, 0.620, -0.019, 0.031, -0.161
0.602, 0.152, 0.620, -0.015, 0.033, -0.160
0.602, 0.202, 0.620, -0.014, 0.021, -0.159
0.552, 0.202, 0.620, -0.019, 0.018, -0.161
0.502, 0.202, 0.620, -0.021, 0.018, -0.162
0.452, 0.202, 0.620, -0.026, 0.015, -0.164
0.402, 0.202, 0.620, -0.029, 0.016, -0.164
0.352, 0.202, 0.620, -0.030, 0.019, -0.164
0.302, 0.202, 0.620, -0.030, 0.020, -0.164
0.252, 0.202, 0.620, -0.032, 0.026, -0.164
0.202, 0.202, 0.620, -0.033, 0.030, -0.165
0.152, 0.202, 0.620, -0.034, 0.033, -0.165
0.102, 0.202, 0.620, -0.036, 0.036, -0.165
0.102, 0.252, 0.620, -0.036, 0.028, -0.167
0.152, 0.252, 0.620, -0.033, 0.020, -0.166
0.202, 0.252, 0.620, -0.033, 0.018, -0.169
0.252, 0.252, 0.620, -0.031, 0.015, -0.166
0.302, 0.252, 0.620, -0.030, 0.012, -0.165
0.352, 0.252, 0.620, -0.030, 0.007, -0.167
0.402, 0.252, 0.620, -0.028, 0.005, -0.164
0.452, 0.252, 0.620, -0.025, 0.003, -0.163
0.502, 0.252, 0.620, -0.021, 0.003, -0.163
0.552, 0.252, 0.620, -0.018, 0.003, -0.161
0.602, 0.252, 0.620, -0.010, 0.006, -0.160
0.602, 0.302, 0.620, -0.009, 0.000, -0.161
0.552, 0.302, 0.620, -0.018, 0.000, -0.163
0.502, 0.302, 0.620, -0.021, -0.001, -0.164
0.452, 0.302, 0.620, -0.025, 0.000, -0.164
0.402, 0.302, 0.620, -0.028, 0.000, -0.164
0.352, 0.302, 0.620, -0.030, 0.000, -0.165
0.302, 0.302, 0.620, -0.030, 0.000, -0.166
0.252, 0.302, 0.620, -0.031, 0.003, -0.166
0.202, 0.302, 0.620, -0.033, 0.006, -0.167
0.152, 0.302, 0.620, -0.033, 0.009, -0.167
0.102, 0.302, 0.620, -0.035, 0.015, -0.168
0.102, 0.352, 0.620, -0.034, 0.006, -0.170
0.152, 0.352, 0.620, -0.033, 0.003, -0.169
0.202, 0.352, 0.620, -0.031, 0.000, -0.168
0.252, 0.352, 0.620, -0.030, 0.000, -0.167
0.302, 0.352, 0.620, -0.030, -0.003, -0.167
0.352, 0.352, 0.620, -0.030, -0.006, -0.167
0.402, 0.352, 0.620, -0.027, -0.008, -0.166
0.452, 0.352, 0.620, -0.021, -0.010, -0.165
0.502, 0.352, 0.620, -0.018, -0.011, -0.164
0.552, 0.352, 0.620, -0.016, -0.011, -0.164
0.602, 0.352, 0.620, -0.009, -0.009, -0.163
0.402, 0.402, 0.620, -0.027, -0.016, -0.167
0.352, 0.402, 0.620, -0.030, -0.014, -0.167
0.302, 0.402, 0.620, -0.030, -0.012, -0.169
0.252, 0.402, 0.620, -0.030, -0.009, -0.169
0.202, 0.402, 0.620, -0.031, -0.006, -0.170
0.152, 0.402, 0.620, -0.032, -0.002, -0.170
0.102, 0.402, 0.620, -0.033, 0.000, -0.171
0.102, 0.452, 0.620, -0.032, -0.006, -0.173
0.152, 0.452, 0.620, -0.031, -0.010, -0.172
0.202, 0.452, 0.620, -0.030, -0.014, -0.171
0.252, 0.452, 0.620, -0.029, -0.018, -0.170
0.302, 0.452, 0.620, -0.027, -0.020, -0.170
0.352, 0.452, 0.620, -0.027, -0.021, -0.170
0.402, 0.452, 0.620, -0.025, -0.022, -0.169
0.452, 0.452, 0.620, -0.021, -0.027, -0.168
0.502, 0.452, 0.620, -0.018, -0.028, -0.167
0.552, 0.452, 0.620, -0.015, -0.029, -0.167
0.602, 0.452, 0.620, -0.009, -0.028, -0.167
0.602, 0.502, 0.620, -0.006, -0.036, -0.170
0.552, 0.502, 0.620, -0.015, -0.036, -0.170
0.502, 0.502, 0.620, -0.018, -0.034, -0.170
0.452, 0.502, 0.620, -0.021, -0.033, -0.170
0.402, 0.502, 0.620, -0.026, -0.030, -0.170
0.352, 0.502, 0.620, -0.027, -0.030, -0.171
0.302, 0.502, 0.620, -0.027, -0.028, -0.172
0.252, 0.502, 0.620, -0.029, -0.024, -0.173
0.202, 0.502, 0.620, -0.030, -0.021, -0.173
0.152, 0.502, 0.620, -0.031, -0.019, -0.174
0.102, 0.502, 0.620, -0.031, -0.015, -0.177
0.102, 0.552, 0.620, -0.030, -0.021, -0.179
0.152, 0.552, 0.620, -0.030, -0.028, -0.179
0.202, 0.552, 0.620, -0.029, -0.030, -0.177
0.252, 0.552, 0.620, -0.027, -0.031, -0.175
0.302, 0.552, 0.620, -0.027, -0.034, -0.173
0.352, 0.552, 0.620, -0.027, -0.037, -0.173
0.402, 0.552, 0.620, -0.022, -0.040, -0.173
0.452, 0.552, 0.620, -0.019, -0.042, -0.173
0.502, 0.552, 0.620, -0.018, -0.044, -0.172
0.552, 0.552, 0.620, -0.013, -0.045, -0.172
0.602, 0.552, 0.620, -0.006, -0.046, -0.172
0.602, 0.602, 0.620, -0.006, -0.057, -0.176
0.552, 0.602, 0.620, -0.014, -0.057, -0.175
0.502, 0.602, 0.620, -0.016, -0.055, -0.175
0.452, 0.602, 0.620, -0.020, -0.052, -0.175
0.402, 0.602, 0.620, -0.024, -0.049, -0.176
0.352, 0.602, 0.620, -0.027, -0.047, -0.177
0.302, 0.602, 0.620, -0.027, -0.044, -0.179
0.252, 0.602, 0.620, -0.028, -0.041, -0.179
0.202, 0.602, 0.620, -0.030, -0.038, -0.179
0.152, 0.602, 0.620, -0.030, -0.034, -0.180
0.102, 0.602, 0.620, -0.031, -0.031, -0.182
0.102, 0.652, 0.620, -0.030, -0.042, -0.184
0.152, 0.652, 0.620, -0.030, -0.045, -0.182
0.202, 0.652, 0.620, -0.028, -0.048, -0.182
0.252, 0.652, 0.620, -0.027, -0.052, -0.181
0.302, 0.652, 0.620, -0.027, -0.054, -0.180
0.352, 0.652, 0.620, -0.027, -0.058, -0.179
0.402, 0.652, 0.620, -0.022, -0.060, -0.179
0.452, 0.652, 0.620, -0.019, -0.063, -0.179
0.502, 0.652, 0.620, -0.015, -0.064, -0.179
0.552, 0.652, 0.620, -0.014, -0.067, -0.179
0.602, 0.652, 0.620, -0.006, -0.070, -0.180
0.102, 0.152, 0.670, -0.033, 0.045, -0.152
0.152, 0.152, 0.670, -0.032, 0.042, -0.153
0.202, 0.152, 0.670, -0.030, 0.035, -0.154
0.252, 0.152, 0.670, -0.030, 0.033, -0.154
0.302, 0.152, 0.670, -0.030, 0.032, -0.154
0.352, 0.152, 0.670, -0.028, 0.030, -0.154
0.402, 0.152, 0.670, -0.027, 0.028, -0.154
0.452, 0.152, 0.670, -0.023, 0.027, -0.152
0.502, 0.152, 0.670, -0.021, 0.028, -0.151
0.552, 0.152, 0.670, -0.021, 0.031, -0.149
0.602, 0.152, 0.670, -0.020, 0.033, -0.148
0.602, 0.202, 0.670, -0.018, 0.021, -0.149
0.552, 0.202, 0.670, -0.021, 0.018, -0.151
0.502, 0.202, 0.670, -0.021, 0.016, -0.152
0.452, 0.202, 0.670, -0.025, 0.015, -0.154
0.402, 0.202, 0.670, -0.027, 0.016, -0.155
0.352, 0.202, 0.670, -0.029, 0.018, -0.155
0.302, 0.202, 0.670, -0.030, 0.020, -0.155
0.252, 0.202, 0.670, -0.030, 0.023, -0.155
0.202, 0.202, 0.670, -0.032, 0.025, -0.155
0.152, 0.202, 0.670, -0.033, 0.030, -0.155
0.102, 0.202, 0.670, -0.033, 0.035, -0.155
0.102, 0.252, 0.670, -0.033, 0.024, -0.158
0.152, 0.252, 0.670, -0.030, 0.019, -0.158
0.202, 0.252, 0.670, -0.030, 0.015, -0.157
0.252, 0.252, 0.670, -0.030, 0.012, -0.157
0.302, 0.252, 0.670, -0.030, 0.009, -0.157
0.352, 0.252, 0.670, -0.028, 0.007, -0.156
0.402, 0.252, 0.670, -0.027, 0.006, -0.155
0.452, 0.252, 0.670, -0.022, 0.005, -0.155
0.502, 0.252, 0.670, -0.021, 0.006, -0.154
0.552, 0.252, 0.670, -0.020, 0.006, -0.152
0.602, 0.252, 0.670, -0.016, 0.009, -0.151
0.602, 0.302, 0.670, -0.015, 0.000, -0.152
0.552, 0.302, 0.670, -0.019, 0.000, -0.154
0.502, 0.302, 0.670, -0.021, 0.000, -0.155
0.452, 0.302, 0.670, -0.022, 0.000, -0.156
0.402, 0.302, 0.670, -0.027, 0.000, -0.157
0.352, 0.302, 0.670, -0.028, 0.000, -0.158
0.302, 0.302, 0.670, -0.030, 0.000, -0.158
0.252, 0.302, 0.670, -0.030, 0.003, -0.158
0.202, 0.302, 0.670, -0.030, 0.006, -0.158
0.152, 0.302, 0.670, -0.030, 0.009, -0.160
0.102, 0.302, 0.670, -0.030, 0.014, -0.160
0.102, 0.352, 0.670, -0.030, 0.005, -0.161
0.152, 0.352, 0.670, -0.030, 0.000, -0.161
0.202, 0.352, 0.670, -0.030, 0.000, -0.161
0.252, 0.352, 0.670, -0.030, 0.000, -0.160
0.302, 0.352, 0.670, -0.029, -0.003, -0.159
0.352, 0.352, 0.670, -0.027, -0.005, -0.158
0.402, 0.352, 0.670, -0.023, -0.006, -0.158
0.452, 0.352, 0.670, -0.021, -0.008, -0.157
0.502, 0.352, 0.670, -0.020, -0.008, -0.156
0.552, 0.352, 0.670, -0.018, -0.007, -0.155
0.602, 0.352, 0.670, -0.011, -0.006, -0.154
0.402, 0.402, 0.670, -0.023, -0.015, -0.159
0.352, 0.402, 0.670, -0.027, -0.012, -0.160
0.302, 0.402, 0.670, -0.029, -0.011, -0.160
0.252, 0.402, 0.670, -0.030, -0.008, -0.161
0.202, 0.402, 0.670, -0.030, -0.005, -0.161
0.152, 0.402, 0.670, -0.030, -0.001, -0.163
0.102, 0.402, 0.670, -0.030, 0.000, -0.164
0.102, 0.452, 0.670, -0.030, -0.006, -0.164
0.152, 0.452, 0.670, -0.030, -0.010, -0.164
0.202, 0.452, 0.670, -0.029, -0.014, -0.163
0.252, 0.452, 0.670, -0.028, -0.016, -0.163
0.302, 0.452, 0.670, -0.027, -0.018, -0.162
0.352, 0.452, 0.670, -0.025, -0.021, -0.161
0.402, 0.452, 0.670, -0.022, -0.021, -0.161
0.452, 0.452, 0.670, -0.019, -0.021, -0.160
0.502, 0.452, 0.670, -0.018, -0.023, -0.159
0.552, 0.452, 0.670, -0.016, -0.023, -0.158
0.602, 0.452, 0.670, -0.009, -0.021, -0.158
0.602, 0.502, 0.670, -0.009, -0.031, -0.160
0.552, 0.502, 0.670, -0.016, -0.032, -0.160
0.502, 0.502, 0.670, -0.018, -0.031, -0.161
0.452, 0.502, 0.670, -0.019, -0.030, -0.161
0.402, 0.502, 0.670, -0.021, -0.030, -0.162
0.352, 0.502, 0.670, -0.026, -0.030, -0.163
0.302, 0.502, 0.670, -0.027, -0.027, -0.163
0.252, 0.502, 0.670, -0.027, -0.021, -0.165
0.202, 0.502, 0.670, -0.030, -0.021, -0.164
0.152, 0.502, 0.670, -0.030, -0.018, -0.165
0.102, 0.502, 0.670, -0.030, -0.015, -0.166
0.102, 0.552, 0.670, -0.027, -0.021, -0.167
0.152, 0.552, 0.670, -0.027, -0.027, -0.167
0.202, 0.552, 0.670, -0.027, -0.030, -0.168
0.252, 0.552, 0.670, -0.027, -0.030, -0.165
0.302, 0.552, 0.670, -0.027, -0.033, -0.164
0.352, 0.552, 0.670, -0.024, -0.036, -0.164
0.402, 0.552, 0.670, -0.021, -0.037, -0.165
0.452, 0.552, 0.670, -0.018, -0.039, -0.165
0.502, 0.552, 0.670, -0.018, -0.041, -0.162
0.552, 0.552, 0.670, -0.014, -0.042, -0.161
0.602, 0.552, 0.670, -0.007, -0.042, -0.161
0.602, 0.602, 0.670, -0.007, -0.053, -0.163
0.552, 0.602, 0.670, -0.015, -0.052, -0.166
0.502, 0.602, 0.670, -0.018, -0.051, -0.164
0.452, 0.602, 0.670, -0.018, -0.049, -0.164
0.402, 0.602, 0.670, -0.021, -0.047, -0.168
0.352, 0.602, 0.670, -0.025, -0.045, -0.168
0.302, 0.602, 0.670, -0.027, -0.042, -0.165
0.252, 0.602, 0.670, -0.027, -0.040, -0.170
0.202, 0.602, 0.670, -0.027, -0.037, -0.170
0.152, 0.602, 0.670, -0.027, -0.034, -0.167
0.102, 0.602, 0.670, -0.027, -0.030, -0.168
0.102, 0.652, 0.670, -0.027, -0.043, -0.170
0.152, 0.652, 0.670, -0.027, -0.045, -0.172
0.202, 0.652, 0.670, -0.027, -0.048, -0.168
0.252, 0.652, 0.670, -0.027, -0.051, -0.167
0.302, 0.652, 0.670, -0.026, -0.052, -0.167
0.352, 0.652, 0.670, -0.022, -0.055, -0.167
0.402, 0.652, 0.670, -0.019, -0.057, -0.166
0.452, 0.652, 0.670, -0.017, -0.060, -0.168
0.502, 0.652, 0.670, -0.015, -0.062, -0.165
0.552, 0.652, 0.670, -0.010, -0.064, -0.164
0.602, 0.652, 0.670, -0.006, -0.064, -0.164
0.102, 0.152, 0.720, -0.027, 0.044, -0.139
0.152, 0.152, 0.720, -0.027, 0.038, -0.140
0.202, 0.152, 0.720, -0.027, 0.036, -0.141
0.252, 0.152, 0.720, -0.027, 0.033, -0.141
0.302, 0.152, 0.720, -0.027, 0.033, -0.142
0.352, 0.152, 0.720, -0.027, 0.030, -0.142
0.402, 0.152, 0.720, -0.027, 0.030, -0.142
0.452, 0.152, 0.720, -0.027, 0.029, -0.140
0.502, 0.152, 0.720, -0.026, 0.030, -0.139
0.552, 0.152, 0.720, -0.025, 0.031, -0.137
0.602, 0.152, 0.720, -0.026, 0.033, -0.132
0.602, 0.202, 0.720, -0.021, 0.019, -0.138
0.552, 0.202, 0.720, -0.022, 0.016, -0.140
0.502, 0.202, 0.720, -0.025, 0.017, -0.142
0.452, 0.202, 0.720, -0.026, 0.015, -0.143
0.402, 0.202, 0.720, -0.027, 0.015, -0.144
0.352, 0.202, 0.720, -0.027, 0.016, -0.145
0.302, 0.202, 0.720, -0.027, 0.018, -0.145
0.252, 0.202, 0.720, -0.028, 0.021, -0.145
0.202, 0.202, 0.720, -0.028, 0.027, -0.145
0.152, 0.202, 0.720, -0.028, 0.030, -0.145
0.102, 0.202, 0.720, -0.028, 0.033, -0.145
0.102, 0.252, 0.720, -0.028, 0.024, -0.148
0.152, 0.252, 0.720, -0.028, 0.017, -0.149
0.202, 0.252, 0.720, -0.029, 0.013, -0.149
0.252, 0.252, 0.720, -0.028, 0.010, -0.148
0.302, 0.252, 0.720, -0.027, 0.009, -0.148
0.352, 0.252, 0.720, -0.026, 0.006, -0.148
0.402, 0.252, 0.720, -0.025, 0.005, -0.147
0.452, 0.252, 0.720, -0.022, 0.004, -0.145
0.502, 0.252, 0.720, -0.021, 0.004, -0.145
0.552, 0.252, 0.720, -0.021, 0.005, -0.143
0.602, 0.252, 0.720, -0.021, 0.007, -0.142
0.602, 0.302, 0.720, -0.019, 0.000, -0.143
0.552, 0.302, 0.720, -0.021, 0.000, -0.145
0.502, 0.302, 0.720, -0.021, 0.000, -0.147
0.452, 0.302, 0.720, -0.022, 0.000, -0.148
0.402, 0.302, 0.720, -0.025, 0.000, -0.149
0.352, 0.302, 0.720, -0.027, 0.000, -0.149
0.302, 0.302, 0.720, -0.027, 0.000, -0.150
0.252, 0.302, 0.720, -0.028, 0.001, -0.151
0.202, 0.302, 0.720, -0.028, 0.003, -0.151
0.152, 0.302, 0.720, -0.028, 0.007, -0.151
0.102, 0.302, 0.720, -0.028, 0.012, -0.152
0.102, 0.352, 0.720, -0.027, 0.003, -0.154
0.152, 0.352, 0.720, -0.027, 0.000, -0.154
0.202, 0.352, 0.720, -0.027, 0.000, -0.153
0.252, 0.352, 0.720, -0.027, -0.002, -0.152
0.302, 0.352, 0.720, -0.026, -0.004, -0.152
0.352, 0.352, 0.720, -0.023, -0.006, -0.151
0.402, 0.352, 0.720, -0.021, -0.008, -0.151
0.452, 0.352, 0.720, -0.021, -0.009, -0.150
0.502, 0.352, 0.720, -0.021, -0.009, -0.148
0.552, 0.352, 0.720, -0.018, -0.009, -0.148
0.602, 0.352, 0.720, -0.017, -0.006, -0.145
0.402, 0.402, 0.720, -0.021, -0.016, -0.152
0.352, 0.402, 0.720, -0.023, -0.014, -0.153
0.302, 0.402, 0.720, -0.026, -0.012, -0.154
0.252, 0.402, 0.720, -0.027, -0.009, -0.155
0.202, 0.402, 0.720, -0.027, -0.007, -0.155
0.152, 0.402, 0.720, -0.027, -0.004, -0.155
0.102, 0.402, 0.720, -0.026, 0.000, -0.156
0.102, 0.452, 0.720, -0.024, -0.009, -0.158
0.152, 0.452, 0.720, -0.025, -0.013, -0.157
0.202, 0.452, 0.720, -0.025, -0.016, -0.156
0.252, 0.452, 0.720, -0.025, -0.018, -0.155
0.302, 0.452, 0.720, -0.022, -0.021, -0.155
0.352, 0.452, 0.720, -0.021, -0.021, -0.154
0.402, 0.452, 0.720, -0.019, -0.022, -0.154
0.452, 0.452, 0.720, -0.018, -0.023, -0.153
0.502, 0.452, 0.720, -0.018, -0.024, -0.152
0.552, 0.452, 0.720, -0.015, -0.024, -0.151
0.602, 0.452, 0.720, -0.010, -0.021, -0.150
0.602, 0.502, 0.720, -0.009, -0.031, -0.151
0.552, 0.502, 0.720, -0.015, -0.032, -0.152
0.502, 0.502, 0.720, -0.018, -0.032, -0.154
0.452, 0.502, 0.720, -0.018, -0.031, -0.154
0.402, 0.502, 0.720, -0.019, -0.030, -0.155
0.352, 0.502, 0.720, -0.021, -0.030, -0.155
0.302, 0.502, 0.720, -0.023, -0.030, -0.157
0.252, 0.502, 0.720, -0.025, -0.027, -0.157
0.202, 0.502, 0.720, -0.027, -0.021, -0.157
0.152, 0.502, 0.720, -0.027, -0.021, -0.158
0.102, 0.502, 0.720, -0.024, -0.018, -0.158
0.102, 0.552, 0.720, -0.023, -0.027, -0.159
0.152, 0.552, 0.720, -0.024, -0.030, -0.159
0.202, 0.552, 0.720, -0.024, -0.030, -0.158
0.252, 0.552, 0.720, -0.023, -0.033, -0.158
0.302, 0.552, 0.720, -0.021, -0.035, -0.158
0.352, 0.552, 0.720, -0.020, -0.037, -0.157
0.402, 0.552, 0.720, -0.018, -0.039, -0.156
0.452, 0.552, 0.720, -0.018, -0.040, -0.155
0.502, 0.552, 0.720, -0.016, -0.041, -0.154
0.552, 0.552, 0.720, -0.010, -0.042, -0.154
0.602, 0.552, 0.720, -0.009, -0.042, -0.152
0.602, 0.602, 0.720, -0.006, -0.052, -0.154
0.552, 0.602, 0.720, -0.010, -0.051, -0.155
0.502, 0.602, 0.720, -0.016, -0.052, -0.155
0.452, 0.602, 0.720, -0.018, -0.050, -0.156
0.402, 0.602, 0.720, -0.018, -0.048, -0.157
0.352, 0.602, 0.720, -0.020, -0.046, -0.158
0.302, 0.602, 0.720, -0.022, -0.045, -0.158
0.252, 0.602, 0.720, -0.025, -0.042, -0.158
0.202, 0.602, 0.720, -0.027, -0.040, -0.158
0.152, 0.602, 0.720, -0.027, -0.037, -0.159
0.102, 0.602, 0.720, -0.027, -0.036, -0.159
0.102, 0.652, 0.720, -0.027, -0.047, -0.159
0.152, 0.652, 0.720, -0.027, -0.049, -0.159
0.202, 0.652, 0.720, -0.027, -0.051, -0.158
0.252, 0.652, 0.720, -0.023, -0.052, -0.158
0.302, 0.652, 0.720, -0.021, -0.055, -0.158
0.352, 0.652, 0.720, -0.019, -0.057, -0.158
0.402, 0.652, 0.720, -0.018, -0.058, -0.157
0.452, 0.652, 0.720, -0.015, -0.061, -0.157
0.502, 0.652, 0.720, -0.013, -0.061, -0.155
0.552, 0.652, 0.720, -0.007, -0.064, -0.155
0.602, 0.652, 0.720, -0.006, -0.064, -0.154
0.102, 0.152, 0.770, -0.021, 0.034, -0.127
0.152, 0.152, 0.770, -0.023, 0.030, -0.128
0.202, 0.152, 0.770, -0.024, 0.027, -0.129
0.252, 0.152, 0.770, -0.024, 0.028, -0.130
0.302, 0.152, 0.770, -0.024, 0.024, -0.130
0.352, 0.152, 0.770, -0.022, 0.022, -0.130
0.402, 0.152, 0.770, -0.022, 0.021, -0.129
0.452, 0.152, 0.770, -0.025, 0.021, -0.128
0.502, 0.152, 0.770, -0.027, 0.021, -0.127
0.552, 0.152, 0.770, -0.027, 0.022, -0.124
0.602, 0.152, 0.770, -0.029, 0.024, -0.121
0.602, 0.202, 0.770, -0.027, 0.015, -0.126
0.552, 0.202, 0.770, -0.026, 0.012, -0.128
0.502, 0.202, 0.770, -0.026, 0.012, -0.130
0.452, 0.202, 0.770, -0.025, 0.012, -0.134
0.402, 0.202, 0.770, -0.025, 0.012, -0.136
0.352, 0.202, 0.770, -0.024, 0.012, -0.136
0.302, 0.202, 0.770, -0.024, 0.014, -0.137
0.252, 0.202, 0.770, -0.023, 0.016, -0.136
0.202, 0.202, 0.770, -0.022, 0.018, -0.136
0.152, 0.202, 0.770, -0.021, 0.021, -0.136
0.102, 0.202, 0.770, -0.023, 0.027, -0.136
0.102, 0.252, 0.770, -0.021, 0.015, -0.141
0.152, 0.252, 0.770, -0.022, 0.012, -0.141
0.202, 0.252, 0.770, -0.022, 0.009, -0.141
0.252, 0.252, 0.770, -0.022, 0.007, -0.140
0.302, 0.252, 0.770, -0.022, 0.006, -0.140
0.352, 0.252, 0.770, -0.021, 0.004, -0.139
0.402, 0.252, 0.770, -0.021, 0.003, -0.139
0.452, 0.252, 0.770, -0.021, 0.003, -0.138
0.502, 0.252, 0.770, -0.021, 0.003, -0.136
0.552, 0.252, 0.770, -0.021, 0.003, -0.133
0.602, 0.252, 0.770, -0.021, 0.005, -0.130
0.602, 0.302, 0.770, -0.021, 0.000, -0.135
0.552, 0.302, 0.770, -0.021, 0.000, -0.137
0.502, 0.302, 0.770, -0.021, 0.000, -0.139
0.452, 0.302, 0.770, -0.021, 0.000, -0.140
0.402, 0.302, 0.770, -0.022, 0.000, -0.141
0.352, 0.302, 0.770, -0.022, 0.000, -0.142
0.302, 0.302, 0.770, -0.023, 0.000, -0.143
0.252, 0.302, 0.770, -0.023, 0.000, -0.143
0.202, 0.302, 0.770, -0.022, 0.001, -0.143
0.152, 0.302, 0.770, -0.021, 0.004, -0.143
0.102, 0.302, 0.770, -0.021, 0.007, -0.144
0.102, 0.352, 0.770, -0.021, 0.000, -0.147
0.152, 0.352, 0.770, -0.021, 0.000, -0.146
0.202, 0.352, 0.770, -0.021, 0.000, -0.145
0.252, 0.352, 0.770, -0.021, -0.003, -0.145
0.302, 0.352, 0.770, -0.021, -0.005, -0.145
0.352, 0.352, 0.770, -0.021, -0.006, -0.144
0.402, 0.352, 0.770, -0.021, -0.008, -0.143
0.452, 0.352, 0.770, -0.021, -0.009, -0.142
0.502, 0.352, 0.770, -0.021, -0.009, -0.141
0.552, 0.352, 0.770, -0.019, -0.008, -0.139
0.602, 0.352, 0.770, -0.019, -0.006, -0.137
0.402, 0.402, 0.770, -0.021, -0.015, -0.145
0.352, 0.402, 0.770, -0.021, -0.015, -0.145
0.302, 0.402, 0.770, -0.021, -0.012, -0.145
0.252, 0.402, 0.770, -0.021, -0.010, -0.146
0.202, 0.402, 0.770, -0.021, -0.008, -0.147
0.152, 0.402, 0.770, -0.021, -0.006, -0.148
0.102, 0.402, 0.770, -0.021, -0.003, -0.148
0.102, 0.452, 0.770, -0.021, -0.011, -0.149
0.152, 0.452, 0.770, -0.020, -0.014, -0.148
0.202, 0.452, 0.770, -0.020, -0.016, -0.148
0.252, 0.452, 0.770, -0.020, -0.018, -0.148
0.302, 0.452, 0.770, -0.019, -0.021, -0.147
0.352, 0.452, 0.770, -0.018, -0.021, -0.146
0.402, 0.452, 0.770, -0.018, -0.021, -0.145
0.452, 0.452, 0.770, -0.018, -0.021, -0.145
0.502, 0.452, 0.770, -0.018, -0.021, -0.144
0.552, 0.452, 0.770, -0.016, -0.021, -0.142
0.602, 0.452, 0.770, -0.015, -0.021, -0.141
0.602, 0.502, 0.770, -0.011, -0.030, -0.142
0.552, 0.502, 0.770, -0.015, -0.030, -0.143
0.502, 0.502, 0.770, -0.017, -0.030, -0.145
0.452, 0.502, 0.770, -0.018, -0.030, -0.146
0.402, 0.502, 0.770, -0.018, -0.030, -0.147
0.352, 0.502, 0.770, -0.019, -0.030, -0.148
0.302, 0.502, 0.770, -0.020, -0.028, -0.148
0.252, 0.502, 0.770, -0.021, -0.026, -0.148
0.202, 0.502, 0.770, -0.021, -0.021, -0.149
0.152, 0.502, 0.770, -0.021, -0.021, -0.150
0.102, 0.502, 0.770, -0.019, -0.018, -0.150
0.102, 0.552, 0.770, -0.019, -0.027, -0.150
0.152, 0.552, 0.770, -0.020, -0.030, -0.150
0.202, 0.552, 0.770, -0.020, -0.030, -0.149
0.252, 0.552, 0.770, -0.020, -0.031, -0.149
0.302, 0.552, 0.770, -0.018, -0.033, -0.148
0.352, 0.552, 0.770, -0.018, -0.035, -0.148
0.402, 0.552, 0.770, -0.018, -0.036, -0.148
0.452, 0.552, 0.770, -0.017, -0.037, -0.146
0.502, 0.552, 0.770, -0.015, -0.038, -0.146
0.552, 0.552, 0.770, -0.010, -0.039, -0.145
0.602, 0.552, 0.770, -0.009, -0.038, -0.142
0.602, 0.602, 0.770, -0.009, -0.048, -0.143
0.552, 0.602, 0.770, -0.009, -0.048, -0.145
0.502, 0.602, 0.770, -0.015, -0.048, -0.146
0.452, 0.602, 0.770, -0.017, -0.046, -0.146
0.402, 0.602, 0.770, -0.018, -0.045, -0.148
0.352, 0.602, 0.770, -0.018, -0.044, -0.148
0.302, 0.602, 0.770, -0.019, -0.042, -0.147
0.252, 0.602, 0.770, -0.021, -0.040, -0.146
0.202, 0.602, 0.770, -0.022, -0.039, -0.147
0.152, 0.602, 0.770, -0.022, -0.037, -0.149
0.102, 0.602, 0.770, -0.021, -0.034, -0.149
0.102, 0.652, 0.770, -0.023, -0.045, -0.145
0.152, 0.652, 0.770, -0.022, -0.047, -0.145
0.202, 0.652, 0.770, -0.021, -0.048, -0.145
0.252, 0.652, 0.770, -0.020, -0.050, -0.146
0.302, 0.652, 0.770, -0.019, -0.052, -0.146
0.352, 0.652, 0.770, -0.018, -0.054, -0.146
0.402, 0.652, 0.770, -0.018, -0.055, -0.147
0.452, 0.652, 0.770, -0.015, -0.056, -0.146
0.502, 0.652, 0.770, -0.010, -0.058, -0.145
0.552, 0.652, 0.770, -0.006, -0.058, -0.144
0.602, 0.652, 0.770, -0.006, -0.059, -0.142
0.102, 0.152, 0.820, -0.018, 0.027, -0.118
0.152, 0.152, 0.820, -0.020, 0.024, -0.119
0.202, 0.152, 0.820, -0.021, 0.020, -0.121
0.252, 0.152, 0.820, -0.022, 0.018, -0.121
0.302, 0.152, 0.820, -0.023, 0.020, -0.121
0.352, 0.152, 0.820, -0.023, 0.017, -0.121
0.402, 0.152, 0.820, -0.024, 0.018, -0.121
0.452, 0.152, 0.820, -0.024, 0.017, -0.119
0.502, 0.152, 0.820, -0.027, 0.018, -0.118
0.552, 0.152, 0.820, -0.028, 0.016, -0.115
0.602, 0.152, 0.820, -0.031, 0.015, -0.112
0.602, 0.202, 0.820, -0.029, 0.007, -0.118
0.552, 0.202, 0.820, -0.027, 0.006, -0.121
0.502, 0.202, 0.820, -0.027, 0.006, -0.122
0.452, 0.202, 0.820, -0.024, 0.006, -0.124
0.402, 0.202, 0.820, -0.022, 0.009, -0.124
0.352, 0.202, 0.820, -0.022, 0.008, -0.126
0.302, 0.202, 0.820, -0.021, 0.009, -0.126
0.252, 0.202, 0.820, -0.021, 0.010, -0.127
0.202, 0.202, 0.820, -0.021, 0.012, -0.126
0.152, 0.202, 0.820, -0.021, 0.015, -0.126
0.102, 0.202, 0.820, -0.021, 0.016, -0.125
0.102, 0.252, 0.820, -0.021, 0.009, -0.130
0.152, 0.252, 0.820, -0.021, 0.006, -0.130
0.202, 0.252, 0.820, -0.021, 0.005, -0.130
0.252, 0.252, 0.820, -0.021, 0.003, -0.130
0.302, 0.252, 0.820, -0.021, 0.001, -0.130
0.352, 0.252, 0.820, -0.021, 0.000, -0.130
0.402, 0.252, 0.820, -0.021, 0.000, -0.129
0.452, 0.252, 0.820, -0.021, 0.000, -0.127
0.502, 0.252, 0.820, -0.021, 0.000, -0.126
0.552, 0.252, 0.820, -0.021, 0.000, -0.124
0.602, 0.252, 0.820, -0.023, 0.000, -0.121
0.602, 0.302, 0.820, -0.021, -0.003, -0.125
0.552, 0.302, 0.820, -0.021, -0.003, -0.127
0.502, 0.302, 0.820, -0.021, -0.003, -0.129
0.452, 0.302, 0.820, -0.021, -0.003, -0.130
0.402, 0.302, 0.820, -0.021, -0.003, -0.131
0.352, 0.302, 0.820, -0.021, -0.002, -0.135
0.302, 0.302, 0.820, -0.021, -0.001, -0.136
0.252, 0.302, 0.820, -0.021, 0.000, -0.136
0.202, 0.302, 0.820, -0.021, 0.000, -0.136
0.152, 0.302, 0.820, -0.021, 0.000, -0.137
0.102, 0.302, 0.820, -0.021, 0.001, -0.137
0.102, 0.352, 0.820, -0.021, 0.000, -0.140
0.152, 0.352, 0.820, -0.021, -0.003, -0.139
0.202, 0.352, 0.820, -0.021, -0.004, -0.139
0.252, 0.352, 0.820, -0.021, -0.006, -0.139
0.302, 0.352, 0.820, -0.021, -0.008, -0.139
0.352, 0.352, 0.820, -0.021, -0.009, -0.137
0.402, 0.352, 0.820, -0.021, -0.010, -0.136
0.452, 0.352, 0.820, -0.020, -0.012, -0.136
0.502, 0.352, 0.820, -0.020, -0.012, -0.132
0.552, 0.352, 0.820, -0.020, -0.012, -0.130
0.602, 0.352, 0.820, -0.020, -0.011, -0.127
0.402, 0.402, 0.820, -0.021, -0.018, -0.139
0.352, 0.402, 0.820, -0.021, -0.016, -0.139
0.302, 0.402, 0.820, -0.021, -0.015, -0.140
0.252, 0.402, 0.820, -0.021, -0.013, -0.140
0.202, 0.402, 0.820, -0.021, -0.012, -0.141
0.152, 0.402, 0.820, -0.021, -0.009, -0.142
0.102, 0.402, 0.820, -0.019, -0.007, -0.142
0.102, 0.452, 0.820, -0.019, -0.015, -0.142
0.152, 0.452, 0.820, -0.019, -0.017, -0.143
0.202, 0.452, 0.820, -0.018, -0.018, -0.142
0.252, 0.452, 0.820, -0.018, -0.021, -0.142
0.302, 0.452, 0.820, -0.018, -0.021, -0.142
0.352, 0.452, 0.820, -0.018, -0.021, -0.140
0.402, 0.452, 0.820, -0.018, -0.022, -0.139
0.452, 0.452, 0.820, -0.018, -0.025, -0.139
0.502, 0.452, 0.820, -0.016, -0.025, -0.137
0.552, 0.452, 0.820, -0.015, -0.024, -0.136
0.602, 0.452, 0.820, -0.015, -0.022, -0.131
0.602, 0.502, 0.820, -0.011, -0.030, -0.135
0.552, 0.502, 0.820, -0.015, -0.030, -0.137
0.502, 0.502, 0.820, -0.016, -0.030, -0.139
0.452, 0.502, 0.820, -0.018, -0.030, -0.139
0.402, 0.502, 0.820, -0.018, -0.030, -0.140
0.352, 0.502, 0.820, -0.018, -0.030, -0.141
0.302, 0.502, 0.820, -0.018, -0.030, -0.142
0.252, 0.502, 0.820, -0.018, -0.028, -0.142
0.202, 0.502, 0.820, -0.018, -0.027, -0.143
0.152, 0.502, 0.820, -0.018, -0.021, -0.143
0.102, 0.502, 0.820, -0.018, -0.021, -0.143
0.102, 0.552, 0.820, -0.018, -0.030, -0.143
0.152, 0.552, 0.820, -0.018, -0.030, -0.142
0.202, 0.552, 0.820, -0.018, -0.031, -0.143
0.252, 0.552, 0.820, -0.018, -0.033, -0.142
0.302, 0.552, 0.820, -0.018, -0.034, -0.142
0.352, 0.552, 0.820, -0.018, -0.036, -0.142
0.402, 0.552, 0.820, -0.017, -0.037, -0.141
0.452, 0.552, 0.820, -0.015, -0.038, -0.140
0.502, 0.552, 0.820, -0.013, -0.039, -0.139
0.552, 0.552, 0.820, -0.009, -0.039, -0.137
0.602, 0.552, 0.820, -0.009, -0.039, -0.136
0.602, 0.602, 0.820, -0.008, -0.047, -0.135
0.552, 0.602, 0.820, -0.009, -0.047, -0.137
0.502, 0.602, 0.820, -0.011, -0.047, -0.139
0.452, 0.602, 0.820, -0.015, -0.046, -0.140
0.402, 0.602, 0.820, -0.018, -0.045, -0.140
0.352, 0.602, 0.820, -0.018, -0.043, -0.142
0.302, 0.602, 0.820, -0.018, -0.042, -0.142
0.252, 0.602, 0.820, -0.018, -0.040, -0.142
0.202, 0.602, 0.820, -0.019, -0.039, -0.142
0.152, 0.602, 0.820, -0.019, -0.037, -0.142
0.102, 0.602, 0.820, -0.019, -0.036, -0.142
0.102, 0.652, 0.820, -0.020, -0.045, -0.139
0.152, 0.652, 0.820, -0.020, -0.046, -0.140
0.202, 0.652, 0.820, -0.020, -0.048, -0.141
0.252, 0.652, 0.820, -0.018, -0.049, -0.140
0.302, 0.652, 0.820, -0.018, -0.051, -0.140
0.352, 0.652, 0.820, -0.018, -0.052, -0.140
0.402, 0.652, 0.820, -0.016, -0.053, -0.139
0.452, 0.652, 0.820, -0.013, -0.054, -0.139
0.502, 0.652, 0.820, -0.008, -0.055, -0.138
0.552, 0.652, 0.820, -0.006, -0.055, -0.136
0.602, 0.652, 0.820, -0.005, -0.055, -0.131
0.102, 0.152, 0.870, -0.017, 0.014, -0.115
0.152, 0.152, 0.870, -0.018, 0.013, -0.115
0.202, 0.152, 0.870, -0.019, 0.012, -0.115
0.252, 0.152, 0.870, -0.021, 0.011, -0.116
0.302, 0.152, 0.870, -0.021, 0.009, -0.116
0.352, 0.152, 0.870, -0.021, 0.009, -0.115
0.402, 0.152, 0.870, -0.021, 0.008, -0.115
0.452, 0.152, 0.870, -0.022, 0.007, -0.114
0.502, 0.152, 0.870, -0.027, 0.006, -0.112
0.552, 0.152, 0.870, -0.028, 0.006, -0.110
0.602, 0.152, 0.870, -0.030, 0.005, -0.107
0.602, 0.202, 0.870, -0.029, 0.000, -0.112
0.552, 0.202, 0.870, -0.027, 0.000, -0.115
0.502, 0.202, 0.870, -0.024, 0.000, -0.116
0.452, 0.202, 0.870, -0.021, 0.001, -0.118
0.402, 0.202, 0.870, -0.021, 0.002, -0.119
0.352, 0.202, 0.870, -0.021, 0.003, -0.120
0.302, 0.202, 0.870, -0.021, 0.004, -0.121
0.252, 0.202, 0.870, -0.021, 0.005, -0.121
0.202, 0.202, 0.870, -0.021, 0.006, -0.121
0.152, 0.202, 0.870, -0.019, 0.008, -0.121
0.102, 0.202, 0.870, -0.018, 0.009, -0.120
0.102, 0.252, 0.870, -0.019, 0.003, -0.124
0.152, 0.252, 0.870, -0.019, 0.002, -0.124
0.202, 0.252, 0.870, -0.020, 0.000, -0.124
0.252, 0.252, 0.870, -0.021, 0.000, -0.124
0.302, 0.252, 0.870, -0.021, 0.000, -0.124
0.352, 0.252, 0.870, -0.021, 0.000, -0.124
0.402, 0.252, 0.870, -0.021, 0.000, -0.122
0.452, 0.252, 0.870, -0.021, 0.000, -0.121
0.502, 0.252, 0.870, -0.021, 0.000, -0.120
0.552, 0.252, 0.870, -0.021, 0.000, -0.118
0.602, 0.252, 0.870, -0.022, 0.000, -0.116
0.602, 0.302, 0.870, -0.021, -0.006, -0.119
0.552, 0.302, 0.870, -0.021, -0.006, -0.121
0.502, 0.302, 0.870, -0.021, -0.006, -0.122
0.452, 0.302, 0.870, -0.021, -0.006, -0.124
0.402, 0.302, 0.870, -0.021, -0.005, -0.125
0.352, 0.302, 0.870, -0.021, -0.003, -0.126
0.302, 0.302, 0.870, -0.021, -0.003, -0.127
0.252, 0.302, 0.870, -0.021, -0.001, -0.127
0.202, 0.302, 0.870, -0.021, 0.000, -0.127
0.152, 0.302, 0.870, -0.019, 0.000, -0.127
0.102, 0.302, 0.870, -0.018, 0.000, -0.128
0.102, 0.352, 0.870, -0.018, -0.003, -0.130
0.152, 0.352, 0.870, -0.018, -0.004, -0.130
0.202, 0.352, 0.870, -0.019, -0.006, -0.130
0.252, 0.352, 0.870, -0.020, -0.007, -0.130
0.302, 0.352, 0.870, -0.021, -0.009, -0.128
0.352, 0.352, 0.870, -0.020, -0.010, -0.127
0.402, 0.352, 0.870, -0.020, -0.011, -0.127
0.452, 0.352, 0.870, -0.019, -0.012, -0.126
0.502, 0.352, 0.870, -0.019, -0.012, -0.124
0.552, 0.352, 0.870, -0.019, -0.012, -0.124
0.602, 0.352, 0.870, -0.020, -0.012, -0.121
0.402, 0.402, 0.870, -0.019, -0.018, -0.128
0.352, 0.402, 0.870, -0.020, -0.016, -0.130
0.302, 0.402, 0.870, -0.021, -0.015, -0.130
0.252, 0.402, 0.870, -0.020, -0.014, -0.131
0.202, 0.402, 0.870, -0.019, -0.012, -0.131
0.152, 0.402, 0.870, -0.019, -0.010, -0.134
0.102, 0.402, 0.870, -0.017, -0.009, -0.135
0.102, 0.452, 0.870, -0.017, -0.016, -0.136
0.152, 0.452, 0.870, -0.018, -0.018, -0.136
0.202, 0.452, 0.870, -0.019, -0.018, -0.135
0.252, 0.452, 0.870, -0.019, -0.021, -0.132
0.302, 0.452, 0.870, -0.019, -0.021, -0.131
0.352, 0.452, 0.870, -0.018, -0.021, -0.130
0.402, 0.452, 0.870, -0.018, -0.021, -0.130
0.452, 0.452, 0.870, -0.016, -0.021, -0.128
0.502, 0.452, 0.870, -0.016, -0.022, -0.127
0.552, 0.452, 0.870, -0.015, -0.022, -0.126
0.602, 0.452, 0.870, -0.015, -0.022, -0.124
0.602, 0.502, 0.870, -0.011, -0.030, -0.125
0.552, 0.502, 0.870, -0.014, -0.030, -0.127
0.502, 0.502, 0.870, -0.015, -0.030, -0.128
0.452, 0.502, 0.870, -0.017, -0.030, -0.129
0.402, 0.502, 0.870, -0.018, -0.030, -0.130
0.352, 0.502, 0.870, -0.018, -0.030, -0.131
0.302, 0.502, 0.870, -0.018, -0.028, -0.133
0.252, 0.502, 0.870, -0.018, -0.027, -0.135
0.202, 0.502, 0.870, -0.018, -0.024, -0.136
0.152, 0.502, 0.870, -0.018, -0.021, -0.136
0.102, 0.502, 0.870, -0.017, -0.021, -0.136
0.102, 0.552, 0.870, -0.017, -0.030, -0.136
0.152, 0.552, 0.870, -0.018, -0.030, -0.135
0.202, 0.552, 0.870, -0.018, -0.030, -0.135
0.252, 0.552, 0.870, -0.018, -0.031, -0.135
0.302, 0.552, 0.870, -0.018, -0.033, -0.133
0.352, 0.552, 0.870, -0.017, -0.033, -0.131
0.402, 0.552, 0.870, -0.016, -0.034, -0.131
0.452, 0.552, 0.870, -0.015, -0.036, -0.130
0.502, 0.552, 0.870, -0.010, -0.036, -0.128
0.552, 0.552, 0.870, -0.009, -0.036, -0.127
0.602, 0.552, 0.870, -0.009, -0.036, -0.125
0.602, 0.602, 0.870, -0.009, -0.042, -0.124
0.552, 0.602, 0.870, -0.009, -0.043, -0.127
0.502, 0.602, 0.870, -0.010, -0.043, -0.128
0.452, 0.602, 0.870, -0.015, -0.042, -0.130
0.402, 0.602, 0.870, -0.017, -0.042, -0.130
0.352, 0.602, 0.870, -0.018, -0.041, -0.131
0.302, 0.602, 0.870, -0.018, -0.039, -0.132
0.252, 0.602, 0.870, -0.018, -0.039, -0.133
0.202, 0.602, 0.870, -0.018, -0.037, -0.133
0.152, 0.602, 0.870, -0.018, -0.036, -0.133
0.102, 0.602, 0.870, -0.018, -0.033, -0.131
0.102, 0.652, 0.870, -0.018, -0.041, -0.129
0.152, 0.652, 0.870, -0.018, -0.042, -0.130
0.202, 0.652, 0.870, -0.018, -0.045, -0.131
0.252, 0.652, 0.870, -0.018, -0.046, -0.130
0.302, 0.652, 0.870, -0.018, -0.047, -0.130
0.352, 0.652, 0.870, -0.018, -0.048, -0.130
0.402, 0.652, 0.870, -0.016, -0.049, -0.129
0.452, 0.652, 0.870, -0.012, -0.050, -0.128
0.502, 0.652, 0.870, -0.009, -0.050, -0.127
0.552, 0.652, 0.870, -0.009, -0.051, -0.125
0.602, 0.652, 0.870, -0.006, -0.051, -0.124
0.102, 0.152, 0.920, -0.016, 0.005, -0.111
0.152, 0.152, 0.920, -0.017, 0.005, -0.112
0.202, 0.152, 0.920, -0.018, 0.004, -0.112
0.252, 0.152, 0.920, -0.018, 0.003, -0.112
0.302, 0.152, 0.920, -0.020, 0.003, -0.112
0.352, 0.152, 0.920, -0.021, 0.002, -0.112
0.402, 0.152, 0.920, -0.021, 0.000, -0.110
0.452, 0.152, 0.920, -0.021, 0.000, -0.109
0.502, 0.152, 0.920, -0.024, 0.000, -0.108
0.552, 0.152, 0.920, -0.027, 0.000, -0.103
0.602, 0.152, 0.920, -0.030, 0.000, -0.102
0.602, 0.202, 0.920, -0.027, -0.002, -0.108
0.552, 0.202, 0.920, -0.026, 0.000, -0.110
0.502, 0.202, 0.920, -0.021, 0.000, -0.112
0.452, 0.202, 0.920, -0.021, 0.000, -0.113
0.402, 0.202, 0.920, -0.021, 0.000, -0.115
0.352, 0.202, 0.920, -0.021, 0.000, -0.115
0.302, 0.202, 0.920, -0.020, 0.000, -0.115
0.252, 0.202, 0.920, -0.019, 0.000, -0.116
0.202, 0.202, 0.920, -0.018, 0.000, -0.116
0.152, 0.202, 0.920, -0.018, 0.000, -0.116
0.102, 0.202, 0.920, -0.017, 0.001, -0.116
0.102, 0.252, 0.920, -0.017, 0.000, -0.120
0.152, 0.252, 0.920, -0.018, 0.000, -0.120
0.202, 0.252, 0.920, -0.018, 0.000, -0.120
0.252, 0.252, 0.920, -0.018, 0.000, -0.119
0.302, 0.252, 0.920, -0.019, -0.001, -0.118
0.352, 0.252, 0.920, -0.021, -0.003, -0.118
0.402, 0.252, 0.920, -0.021, -0.003, -0.118
0.452, 0.252, 0.920, -0.021, -0.004, -0.116
0.502, 0.252, 0.920, -0.021, -0.006, -0.115
0.552, 0.252, 0.920, -0.021, -0.006, -0.113
0.602, 0.252, 0.920, -0.021, -0.006, -0.112
0.602, 0.302, 0.920, -0.021, -0.012, -0.114
0.552, 0.302, 0.920, -0.021, -0.012, -0.116
0.502, 0.302, 0.920, -0.021, -0.010, -0.118
0.452, 0.302, 0.920, -0.021, -0.009, -0.119
0.402, 0.302, 0.920, -0.021, -0.009, -0.120
0.352, 0.302, 0.920, -0.020, -0.008, -0.121
0.302, 0.302, 0.920, -0.020, -0.006, -0.121
0.252, 0.302, 0.920, -0.019, -0.006, -0.122
0.202, 0.302, 0.920, -0.018, -0.004, -0.123
0.152, 0.302, 0.920, -0.018, -0.003, -0.123
0.102, 0.302, 0.920, -0.017, -0.003, -0.124
0.102, 0.352, 0.920, -0.016, -0.008, -0.126
0.152, 0.352, 0.920, -0.017, -0.009, -0.125
0.202, 0.352, 0.920, -0.018, -0.009, -0.124
0.252, 0.352, 0.920, -0.018, -0.012, -0.124
0.302, 0.352, 0.920, -0.019, -0.012, -0.124
0.352, 0.352, 0.920, -0.019, -0.013, -0.123
0.402, 0.352, 0.920, -0.019, -0.015, -0.122
0.452, 0.352, 0.920, -0.019, -0.015, -0.121
0.502, 0.352, 0.920, -0.018, -0.016, -0.119
0.552, 0.352, 0.920, -0.019, -0.016, -0.118
0.602, 0.352, 0.920, -0.019, -0.017, -0.116
0.402, 0.402, 0.920, -0.018, -0.020, -0.124
0.352, 0.402, 0.920, -0.019, -0.019, -0.124
0.302, 0.402, 0.920, -0.019, -0.018, -0.124
0.252, 0.402, 0.920, -0.018, -0.017, -0.126
0.202, 0.402, 0.920, -0.018, -0.015, -0.126
0.152, 0.402, 0.920, -0.017, -0.015, -0.127
0.102, 0.402, 0.920, -0.016, -0.013, -0.127
0.102, 0.452, 0.920, -0.015, -0.019, -0.127
0.152, 0.452, 0.920, -0.017, -0.021, -0.127
0.202, 0.452, 0.920, -0.018, -0.021, -0.127
0.252, 0.452, 0.920, -0.018, -0.021, -0.127
0.302, 0.452, 0.920, -0.018, -0.021, -0.126
0.352, 0.452, 0.920, -0.018, -0.023, -0.125
0.402, 0.452, 0.920, -0.018, -0.025, -0.124
0.452, 0.452, 0.920, -0.016, -0.027, -0.124
0.502, 0.452, 0.920, -0.015, -0.027, -0.122
0.552, 0.452, 0.920, -0.015, -0.027, -0.121
0.602, 0.452, 0.920, -0.014, -0.028, -0.119
0.602, 0.502, 0.920, -0.010, -0.030, -0.119
0.552, 0.502, 0.920, -0.014, -0.031, -0.121
0.502, 0.502, 0.920, -0.015, -0.030, -0.123
0.452, 0.502, 0.920, -0.016, -0.030, -0.124
0.402, 0.502, 0.920, -0.018, -0.030, -0.125
0.352, 0.502, 0.920, -0.018, -0.030, -0.126
0.302, 0.502, 0.920, -0.018, -0.030, -0.127
0.252, 0.502, 0.920, -0.018, -0.029, -0.127
0.202, 0.502, 0.920, -0.018, -0.028, -0.127
0.152, 0.502, 0.920, -0.018, -0.026, -0.127
0.102, 0.502, 0.920, -0.016, -0.023, -0.127
0.102, 0.552, 0.920, -0.016, -0.030, -0.127
0.152, 0.552, 0.920, -0.017, -0.030, -0.127
0.202, 0.552, 0.920, -0.018, -0.031, -0.127
0.252, 0.552, 0.920, -0.018, -0.033, -0.127
0.302, 0.552, 0.920, -0.018, -0.033, -0.127
0.352, 0.552, 0.920, -0.018, -0.034, -0.126
0.402, 0.552, 0.920, -0.015, -0.035, -0.125
0.452, 0.552, 0.920, -0.014, -0.036, -0.124
0.502, 0.552, 0.920, -0.010, -0.036, -0.123
0.552, 0.552, 0.920, -0.009, -0.037, -0.121
0.602, 0.552, 0.920, -0.009, -0.037, -0.119
0.602, 0.602, 0.920, -0.009, -0.042, -0.120
0.552, 0.602, 0.920, -0.009, -0.043, -0.121
0.502, 0.602, 0.920, -0.012, -0.042, -0.123
0.452, 0.602, 0.920, -0.015, -0.042, -0.124
0.402, 0.602, 0.920, -0.017, -0.042, -0.124
0.352, 0.602, 0.920, -0.018, -0.040, -0.125
0.302, 0.602, 0.920, -0.018, -0.039, -0.126
0.252, 0.602, 0.920, -0.018, -0.039, -0.127
0.202, 0.602, 0.920, -0.018, -0.037, -0.127
0.152, 0.602, 0.920, -0.018, -0.036, -0.127
0.102, 0.602, 0.920, -0.018, -0.034, -0.126
0.102, 0.652, 0.920, -0.018, -0.040, -0.124
0.152, 0.652, 0.920, -0.018, -0.042, -0.124
0.202, 0.652, 0.920, -0.018, -0.043, -0.124
0.252, 0.652, 0.920, -0.018, -0.045, -0.124
0.302, 0.652, 0.920, -0.018, -0.046, -0.125
0.352, 0.652, 0.920, -0.017, -0.046, -0.124
0.402, 0.652, 0.920, -0.015, -0.047, -0.124
0.452, 0.652, 0.920, -0.012, -0.048, -0.123
0.502, 0.652, 0.920, -0.009, -0.048, -0.122
0.552, 0.652, 0.920, -0.009, -0.048, -0.121
0.602, 0.652, 0.920, -0.006, -0.048, -0.118
0.003, 0.050, 0.500, -0.003, 0.047, 0.200
