0.100, -0.100, 0.050, 0.030, -0.125, 0.004
0.220, -0.010, 0.050, -0.019, -0.042, 0.063
0.270, -0.010, 0.050, -0.006, -0.042, 0.073
0.320, -0.010, 0.050, 0.002, -0.042, 0.077
0.370, -0.010, 0.050, 0.018, -0.043, 0.082
0.420, -0.010, 0.050, 0.036, -0.045, 0.084
0.470, -0.010, 0.050, 0.052, -0.045, 0.080
0.520, -0.010, 0.050, 0.076, -0.048, 0.075
0.570, -0.010, 0.050, 0.100, -0.048, 0.063
0.620, -0.010, 0.050, 0.127, -0.049, 0.048
0.670, -0.010, 0.050, 0.155, -0.049, 0.027
0.720, -0.010, 0.050, 0.181, -0.048, 0.000
0.720, 0.040, 0.050, 0.182, -0.072, 0.007
0.670, 0.040, 0.050, 0.154, -0.070, 0.036
0.620, 0.040, 0.050, 0.127, -0.070, 0.061
0.570, 0.040, 0.050, 0.101, -0.070, 0.073
0.520, 0.040, 0.050, 0.078, -0.069, 0.088
0.470, 0.040, 0.050, 0.055, -0.068, 0.090
0.420, 0.040, 0.050, 0.036, -0.067, 0.094
0.370, 0.040, 0.050, 0.018, -0.067, 0.094
0.320, 0.040, 0.050, 0.003, -0.067, 0.088
0.270, 0.040, 0.050, -0.006, -0.067, 0.085
0.220, 0.040, 0.050, -0.019, -0.064, 0.078
0.220, 0.090, 0.050, -0.021, -0.086, 0.080
0.270, 0.090, 0.050, -0.007, -0.085, 0.091
0.320, 0.090, 0.050, 0.003, -0.085, 0.093
0.370, 0.090, 0.050, 0.018, -0.087, 0.097
0.420, 0.090, 0.050, 0.036, -0.089, 0.100
0.470, 0.090, 0.050, 0.056, -0.090, 0.097
0.520, 0.090, 0.050, 0.078, -0.090, 0.091
0.570, 0.090, 0.050, 0.100, -0.091, 0.084
0.620, 0.090, 0.050, 0.126, -0.093, 0.064
0.670, 0.090, 0.050, 0.154, -0.094, 0.045
0.720, 0.090, 0.050, 0.182, -0.090, 0.015
0.720, 0.140, 0.050, 0.183, -0.112, 0.017
0.670, 0.140, 0.050, 0.154, -0.112, 0.047
0.620, 0.140, 0.050, 0.127, -0.112, 0.067
0.570, 0.140, 0.050, 0.101, -0.109, 0.085
0.520, 0.140, 0.050, 0.079, -0.109, 0.095
0.470, 0.140, 0.050, 0.057, -0.109, 0.100
0.420, 0.140, 0.050, 0.036, -0.108, 0.102
0.370, 0.140, 0.050, 0.018, -0.108, 0.100
0.320, 0.140, 0.050, 0.006, -0.107, 0.097
0.270, 0.140, 0.050, -0.007, -0.106, 0.093
0.220, 0.140, 0.050, -0.021, -0.106, 0.085
0.220, 0.190, 0.050, -0.019, -0.124, 0.084
0.270, 0.190, 0.050, -0.008, -0.124, 0.092
0.320, 0.190, 0.050, 0.004, -0.124, 0.095
0.370, 0.190, 0.050, 0.018, -0.124, 0.097
0.420, 0.190, 0.050, 0.036, -0.124, 0.099
0.470, 0.190, 0.050, 0.057, -0.125, 0.100
0.520, 0.190, 0.050, 0.078, -0.125, 0.094
0.570, 0.190, 0.050, 0.100, -0.126, 0.085
0.620, 0.190, 0.050, 0.127, -0.127, 0.066
0.670, 0.190, 0.050, 0.153, -0.127, 0.046
0.720, 0.190, 0.050, 0.182, -0.127, 0.016
0.520, 0.240, 0.050, 0.080, -0.134, 0.091
0.470, 0.240, 0.050, 0.056, -0.134, 0.095
0.420, 0.240, 0.050, 0.036, -0.136, 0.097
0.370, 0.240, 0.050, 0.018, -0.135, 0.097
0.320, 0.240, 0.050, 0.003, -0.135, 0.097
0.270, 0.240, 0.050, -0.006, -0.135, 0.091
0.220, 0.240, 0.050, -0.021, -0.135, 0.083
0.220, 0.290, 0.050, -0.021, -0.148, 0.077
0.270, 0.290, 0.050, -0.007, -0.148, 0.085
0.320, 0.290, 0.050, 0.003, -0.148, 0.089
0.370, 0.290, 0.050, 0.020, -0.148, 0.097
0.420, 0.290, 0.050, 0.034, -0.148, 0.095
0.470, 0.290, 0.050, 0.055, -0.148, 0.093
0.520, 0.290, 0.050, 0.079, -0.148, 0.085
0.570, 0.290, 0.050, 0.103, -0.148, 0.076
0.620, 0.290, 0.050, 0.125, -0.148, 0.060
0.670, 0.290, 0.050, 0.153, -0.148, 0.038
0.720, 0.290, 0.050, 0.182, -0.149, 0.007
0.720, 0.340, 0.050, 0.182, -0.158, 0.000
0.670, 0.340, 0.050, 0.153, -0.158, 0.030
0.620, 0.340, 0.050, 0.127, -0.158, 0.053
0.570, 0.340, 0.050, 0.103, -0.158, 0.070
0.520, 0.340, 0.050, 0.079, -0.158, 0.079
0.470, 0.340, 0.050, 0.054, -0.158, 0.086
0.420, 0.340, 0.050, 0.034, -0.159, 0.088
0.370, 0.340, 0.050, 0.019, -0.158, 0.086
0.320, 0.340, 0.050, 0.003, -0.158, 0.082
0.270, 0.340, 0.050, -0.007, -0.158, 0.078
0.220, 0.340, 0.050, -0.021, -0.157, 0.065
0.220, 0.390, 0.050, -0.021, -0.166, 0.057
0.270, 0.390, 0.050, -0.008, -0.167, 0.064
0.320, 0.390, 0.050, 0.002, -0.167, 0.073
0.370, 0.390, 0.050, 0.018, -0.168, 0.079
0.420, 0.390, 0.050, 0.033, -0.168, 0.077
0.470, 0.390, 0.050, 0.054, -0.169, 0.079
0.520, 0.390, 0.050, 0.078, -0.168, 0.070
0.570, 0.390, 0.050, 0.101, -0.167, 0.058
0.620, 0.390, 0.050, 0.127, -0.168, 0.048
0.670, 0.390, 0.050, 0.152, -0.167, 0.022
0.720, 0.390, 0.050, 0.182, -0.167, -0.001
0.720, 0.440, 0.050, 0.182, -0.175, -0.010
0.670, 0.440, 0.050, 0.152, -0.176, 0.010
0.620, 0.440, 0.050, 0.127, -0.176, 0.036
0.570, 0.440, 0.050, 0.101, -0.176, 0.053
0.520, 0.440, 0.050, 0.077, -0.173, 0.058
0.470, 0.440, 0.050, 0.053, -0.175, 0.069
0.420, 0.440, 0.050, 0.033, -0.174, 0.066
0.370, 0.440, 0.050, 0.018, -0.173, 0.064
0.320, 0.440, 0.050, 0.002, -0.173, 0.061
0.270, 0.440, 0.050, -0.007, -0.173, 0.056
0.220, 0.440, 0.050, -0.021, -0.171, 0.048
0.220, 0.490, 0.050, -0.021, -0.178, 0.038
0.270, 0.490, 0.050, -0.007, -0.179, 0.047
0.320, 0.490, 0.050, 0.002, -0.181, 0.051
0.370, 0.490, 0.050, 0.018, -0.181, 0.054
0.420, 0.490, 0.050, 0.036, -0.182, 0.055
0.470, 0.490, 0.050, 0.052, -0.181, 0.057
0.520, 0.490, 0.050, 0.076, -0.182, 0.048
0.570, 0.490, 0.050, 0.100, -0.182, 0.037
0.620, 0.490, 0.050, 0.125, -0.182, 0.023
0.670, 0.490, 0.050, 0.152, -0.182, 0.000
0.720, 0.490, 0.050, 0.180, -0.181, -0.023
0.220, -0.010, 0.150, -0.006, -0.073, 0.009
0.270, -0.010, 0.150, 0.000, -0.073, 0.015
0.320, -0.010, 0.150, 0.006, -0.073, 0.018
0.370, -0.010, 0.150, 0.017, -0.073, 0.018
0.420, -0.010, 0.150, 0.029, -0.074, 0.017
0.470, -0.010, 0.150, 0.042, -0.075, 0.010
0.520, -0.010, 0.150, 0.059, -0.076, 0.003
0.570, -0.010, 0.150, 0.073, -0.076, -0.003
0.620, -0.010, 0.150, 0.088, -0.075, -0.019
0.670, -0.010, 0.150, 0.100, -0.073, -0.042
0.720, -0.010, 0.150, 0.112, -0.073, -0.073
0.720, 0.040, 0.150, 0.112, -0.085, -0.058
0.670, 0.040, 0.150, 0.100, -0.086, -0.029
0.620, 0.040, 0.150, 0.088, -0.088, -0.006
0.570, 0.040, 0.150, 0.072, -0.088, 0.003
0.520, 0.040, 0.150, 0.057, -0.088, 0.018
0.470, 0.040, 0.150, 0.043, -0.085, 0.024
0.420, 0.040, 0.150, 0.030, -0.085, 0.029
0.370, 0.040, 0.150, 0.018, -0.085, 0.030
0.320, 0.040, 0.150, 0.006, -0.085, 0.030
0.270, 0.040, 0.150, 0.000, -0.082, 0.026
0.220, 0.040, 0.150, -0.007, -0.083, 0.021
0.220, 0.090, 0.150, -0.007, -0.099, 0.029
0.270, 0.090, 0.150, 0.000, -0.098, 0.033
0.320, 0.090, 0.150, 0.006, -0.097, 0.037
0.370, 0.090, 0.150, 0.018, -0.098, 0.040
0.420, 0.090, 0.150, 0.030, -0.098, 0.037
0.470, 0.090, 0.150, 0.043, -0.100, 0.033
0.520, 0.090, 0.150, 0.057, -0.100, 0.025
0.570, 0.090, 0.150, 0.073, -0.100, 0.015
0.620, 0.090, 0.150, 0.088, -0.100, 0.000
0.670, 0.090, 0.150, 0.100, -0.099, -0.021
0.720, 0.090, 0.150, 0.112, -0.098, -0.051
0.720, 0.140, 0.150, 0.112, -0.111, -0.047
0.670, 0.140, 0.150, 0.100, -0.111, -0.018
0.620, 0.140, 0.150, 0.088, -0.112, 0.000
0.570, 0.140, 0.150, 0.074, -0.112, 0.018
0.520, 0.140, 0.150, 0.058, -0.112, 0.030
0.470, 0.140, 0.150, 0.043, -0.111, 0.040
0.420, 0.140, 0.150, 0.030, -0.111, 0.044
0.370, 0.140, 0.150, 0.018, -0.110, 0.045
0.320, 0.140, 0.150, 0.006, -0.110, 0.048
0.270, 0.140, 0.150, 0.000, -0.109, 0.039
0.220, 0.140, 0.150, -0.007, -0.109, 0.033
0.220, 0.190, 0.150, -0.006, -0.118, 0.034
0.270, 0.190, 0.150, 0.000, -0.118, 0.042
0.320, 0.190, 0.150, 0.009, -0.118, 0.046
0.370, 0.190, 0.150, 0.018, -0.118, 0.046
0.420, 0.190, 0.150, 0.030, -0.118, 0.046
0.470, 0.190, 0.150, 0.044, -0.119, 0.042
0.520, 0.190, 0.150, 0.057, -0.121, 0.031
0.570, 0.190, 0.150, 0.074, -0.122, 0.020
0.620, 0.190, 0.150, 0.088, -0.122, 0.002
0.670, 0.190, 0.150, 0.100, -0.122, -0.015
0.720, 0.190, 0.150, 0.111, -0.122, -0.046
0.520, 0.240, 0.150, 0.060, -0.129, 0.033
0.470, 0.240, 0.150, 0.043, -0.127, 0.044
0.420, 0.240, 0.150, 0.030, -0.127, 0.046
0.370, 0.240, 0.150, 0.020, -0.127, 0.051
0.320, 0.240, 0.150, 0.009, -0.127, 0.047
0.270, 0.240, 0.150, 0.000, -0.127, 0.043
0.220, 0.240, 0.150, -0.006, -0.127, 0.035
0.220, 0.290, 0.150, -0.007, -0.135, 0.032
0.270, 0.290, 0.150, 0.000, -0.136, 0.037
0.320, 0.290, 0.150, 0.008, -0.136, 0.043
0.370, 0.290, 0.150, 0.020, -0.136, 0.045
0.420, 0.290, 0.150, 0.030, -0.136, 0.043
0.470, 0.290, 0.150, 0.043, -0.136, 0.036
0.520, 0.290, 0.150, 0.059, -0.136, 0.030
0.570, 0.290, 0.150, 0.073, -0.136, 0.018
0.620, 0.290, 0.150, 0.087, -0.135, 0.003
0.670, 0.290, 0.150, 0.100, -0.135, -0.018
0.720, 0.290, 0.150, 0.112, -0.134, -0.048
0.720, 0.340, 0.150, 0.112, -0.142, -0.052
0.670, 0.340, 0.150, 0.100, -0.142, -0.022
0.620, 0.340, 0.150, 0.087, -0.142, 0.000
0.570, 0.340, 0.150, 0.073, -0.142, 0.011
0.520, 0.340, 0.150, 0.056, -0.143, 0.024
0.470, 0.340, 0.150, 0.042, -0.143, 0.031
0.420, 0.340, 0.150, 0.032, -0.143, 0.036
0.370, 0.340, 0.150, 0.019, -0.143, 0.040
0.320, 0.340, 0.150, 0.008, -0.142, 0.036
0.270, 0.340, 0.150, 0.000, -0.143, 0.033
0.220, 0.340, 0.150, -0.008, -0.142, 0.030
0.220, 0.390, 0.150, -0.007, -0.148, 0.021
0.270, 0.390, 0.150, 0.000, -0.149, 0.028
0.320, 0.390, 0.150, 0.007, -0.149, 0.030
0.370, 0.390, 0.150, 0.019, -0.149, 0.030
0.420, 0.390, 0.150, 0.031, -0.150, 0.030
0.470, 0.390, 0.150, 0.043, -0.149, 0.025
0.520, 0.390, 0.150, 0.055, -0.149, 0.018
0.570, 0.390, 0.150, 0.072, -0.149, 0.007
0.620, 0.390, 0.150, 0.086, -0.148, -0.005
0.670, 0.390, 0.150, 0.100, -0.148, -0.028
0.720, 0.390, 0.150, 0.112, -0.148, -0.058
0.720, 0.440, 0.150, 0.112, -0.153, -0.066
0.670, 0.440, 0.150, 0.099, -0.153, -0.036
0.620, 0.440, 0.150, 0.085, -0.154, -0.015
0.570, 0.440, 0.150, 0.072, -0.155, 0.000
0.520, 0.440, 0.150, 0.055, -0.155, 0.010
0.470, 0.440, 0.150, 0.044, -0.155, 0.018
0.420, 0.440, 0.150, 0.031, -0.155, 0.021
0.370, 0.440, 0.150, 0.018, -0.155, 0.022
0.320, 0.440, 0.150, 0.008, -0.155, 0.021
0.270, 0.440, 0.150, 0.000, -0.154, 0.018
0.220, 0.440, 0.150, -0.007, -0.153, 0.012
0.220, 0.490, 0.150, -0.006, -0.158, 0.003
0.270, 0.490, 0.150, 0.000, -0.158, 0.009
0.320, 0.490, 0.150, 0.007, -0.158, 0.012
0.370, 0.490, 0.150, 0.018, -0.158, 0.013
0.420, 0.490, 0.150, 0.030, -0.160, 0.012
0.470, 0.490, 0.150, 0.043, -0.160, 0.008
0.520, 0.490, 0.150, 0.057, -0.159, 0.001
0.570, 0.490, 0.150, 0.068, -0.158, -0.006
0.620, 0.490, 0.150, 0.085, -0.158, -0.024
0.670, 0.490, 0.150, 0.098, -0.157, -0.048
0.720, 0.490, 0.150, 0.111, -0.156, -0.078
0.220, -0.010, 0.250, 0.000, -0.102, -0.016
0.270, -0.010, 0.250, 0.004, -0.103, -0.010
0.320, -0.010, 0.250, 0.009, -0.103, -0.009
0.370, -0.010, 0.250, 0.016, -0.103, -0.009
0.420, -0.010, 0.250, 0.021, -0.104, -0.014
0.470, -0.010, 0.250, 0.030, -0.105, -0.018
0.520, -0.010, 0.250, 0.036, -0.105, -0.026
0.570, -0.010, 0.250, 0.042, -0.105, -0.036
0.620, -0.010, 0.250, 0.047, -0.103, -0.052
0.670, -0.010, 0.250, 0.053, -0.103, -0.069
0.720, -0.010, 0.250, 0.051, -0.100, -0.094
0.720, 0.040, 0.250, 0.047, -0.103, -0.084
0.670, 0.040, 0.250, 0.048, -0.106, -0.060
0.620, 0.040, 0.250, 0.049, -0.106, -0.042
0.570, 0.040, 0.250, 0.042, -0.107, -0.026
0.520, 0.040, 0.250, 0.036, -0.107, -0.016
0.470, 0.040, 0.250, 0.030, -0.107, -0.006
0.420, 0.040, 0.250, 0.021, -0.106, -0.002
0.370, 0.040, 0.250, 0.018, -0.106, 0.000
0.320, 0.040, 0.250, 0.009, -0.106, 0.000
0.270, 0.040, 0.250, 0.006, -0.106, 0.000
0.220, 0.040, 0.250, 0.000, -0.106, -0.003
0.220, 0.090, 0.250, 0.000, -0.111, 0.000
0.270, 0.090, 0.250, 0.006, -0.111, 0.003
0.320, 0.090, 0.250, 0.009, -0.111, 0.004
0.370, 0.090, 0.250, 0.018, -0.112, 0.004
0.420, 0.090, 0.250, 0.022, -0.112, 0.003
0.470, 0.090, 0.250, 0.030, -0.112, 0.000
0.520, 0.090, 0.250, 0.036, -0.112, -0.006
0.570, 0.090, 0.250, 0.042, -0.112, -0.019
0.620, 0.090, 0.250, 0.049, -0.111, -0.032
0.670, 0.090, 0.250, 0.048, -0.111, -0.052
0.720, 0.090, 0.250, 0.046, -0.109, -0.075
0.720, 0.140, 0.250, 0.045, -0.115, -0.070
0.670, 0.140, 0.250, 0.048, -0.115, -0.049
0.620, 0.140, 0.250, 0.046, -0.116, -0.029
0.570, 0.140, 0.250, 0.042, -0.116, -0.015
0.520, 0.140, 0.250, 0.036, -0.117, -0.003
0.470, 0.140, 0.250, 0.030, -0.116, 0.002
0.420, 0.140, 0.250, 0.023, -0.116, 0.006
0.370, 0.140, 0.250, 0.018, -0.116, 0.009
0.320, 0.140, 0.250, 0.009, -0.115, 0.009
0.270, 0.140, 0.250, 0.005, -0.115, 0.007
0.220, 0.140, 0.250, 0.000, -0.115, 0.004
0.220, 0.190, 0.250, 0.000, -0.119, 0.006
0.270, 0.190, 0.250, 0.005, -0.118, 0.009
0.320, 0.190, 0.250, 0.009, -0.118, 0.011
0.370, 0.190, 0.250, 0.018, -0.119, 0.010
0.420, 0.190, 0.250, 0.022, -0.119, 0.008
0.470, 0.190, 0.250, 0.030, -0.119, 0.003
0.520, 0.190, 0.250, 0.036, -0.119, 0.000
0.570, 0.190, 0.250, 0.043, -0.119, -0.011
0.620, 0.190, 0.250, 0.046, -0.118, -0.027
0.670, 0.190, 0.250, 0.050, -0.118, -0.047
0.720, 0.190, 0.250, 0.045, -0.118, -0.069
0.520, 0.240, 0.250, 0.036, -0.125, 0.000
0.470, 0.240, 0.250, 0.030, -0.126, 0.005
0.420, 0.240, 0.250, 0.022, -0.126, 0.009
0.370, 0.240, 0.250, 0.018, -0.126, 0.012
0.320, 0.240, 0.250, 0.009, -0.124, 0.012
0.270, 0.240, 0.250, 0.004, -0.124, 0.010
0.220, 0.240, 0.250, 0.000, -0.124, 0.006
0.220, 0.290, 0.250, 0.000, -0.128, 0.006
0.270, 0.290, 0.250, 0.003, -0.128, 0.009
0.320, 0.290, 0.250, 0.009, -0.128, 0.011
0.370, 0.290, 0.250, 0.018, -0.128, 0.011
0.420, 0.290, 0.250, 0.021, -0.127, 0.009
0.470, 0.290, 0.250, 0.032, -0.127, 0.004
0.520, 0.290, 0.250, 0.036, -0.127, 0.000
0.570, 0.290, 0.250, 0.042, -0.127, -0.009
0.620, 0.290, 0.250, 0.045, -0.127, -0.024
0.670, 0.290, 0.250, 0.049, -0.127, -0.042
0.720, 0.290, 0.250, 0.050, -0.127, -0.062
0.720, 0.340, 0.250, 0.050, -0.130, -0.064
0.670, 0.340, 0.250, 0.051, -0.130, -0.043
0.620, 0.340, 0.250, 0.045, -0.131, -0.024
0.570, 0.340, 0.250, 0.042, -0.131, -0.009
0.520, 0.340, 0.250, 0.033, -0.132, 0.000
0.470, 0.340, 0.250, 0.030, -0.132, 0.003
0.420, 0.340, 0.250, 0.021, -0.132, 0.006
0.370, 0.340, 0.250, 0.016, -0.132, 0.008
0.320, 0.340, 0.250, 0.009, -0.132, 0.008
0.270, 0.340, 0.250, 0.003, -0.132, 0.006
0.220, 0.340, 0.250, 0.000, -0.132, 0.002
0.220, 0.390, 0.250, 0.000, -0.134, 0.000
0.270, 0.390, 0.250, 0.003, -0.135, 0.002
0.320, 0.390, 0.250, 0.009, -0.135, 0.003
0.370, 0.390, 0.250, 0.016, -0.136, 0.004
0.420, 0.390, 0.250, 0.021, -0.136, 0.003
0.470, 0.390, 0.250, 0.030, -0.135, 0.000
0.520, 0.390, 0.250, 0.033, -0.135, -0.005
0.570, 0.390, 0.250, 0.042, -0.134, -0.018
0.620, 0.390, 0.250, 0.046, -0.134, -0.030
0.670, 0.390, 0.250, 0.048, -0.133, -0.049
0.720, 0.390, 0.250, 0.051, -0.133, -0.070
0.720, 0.440, 0.250, 0.047, -0.135, -0.076
0.670, 0.440, 0.250, 0.047, -0.136, -0.052
0.620, 0.440, 0.250, 0.045, -0.136, -0.036
0.570, 0.440, 0.250, 0.042, -0.136, -0.023
0.520, 0.440, 0.250, 0.033, -0.137, -0.012
0.470, 0.440, 0.250, 0.030, -0.137, -0.004
0.420, 0.440, 0.250, 0.021, -0.138, 0.000
0.370, 0.440, 0.250, 0.015, -0.137, 0.000
0.320, 0.440, 0.250, 0.009, -0.137, 0.000
0.270, 0.440, 0.250, 0.003, -0.137, 0.000
0.220, 0.440, 0.250, 0.000, -0.136, -0.004
0.220, 0.490, 0.250, 0.000, -0.137, -0.013
0.270, 0.490, 0.250, 0.003, -0.138, -0.007
0.320, 0.490, 0.250, 0.009, -0.139, -0.006
0.370, 0.490, 0.250, 0.015, -0.139, -0.006
0.420, 0.490, 0.250, 0.022, -0.139, -0.007
0.470, 0.490, 0.250, 0.028, -0.139, -0.013
0.520, 0.490, 0.250, 0.033, -0.139, -0.021
0.570, 0.490, 0.250, 0.042, -0.138, -0.029
0.620, 0.490, 0.250, 0.046, -0.137, -0.045
0.670, 0.490, 0.250, 0.046, -0.136, -0.061
0.720, 0.490, 0.250, 0.047, -0.136, -0.085
0.220, -0.010, 0.350, 0.006, -0.123, -0.018
0.270, -0.010, 0.350, 0.007, -0.124, -0.016
0.320, -0.010, 0.350, 0.009, -0.124, -0.016
0.370, -0.010, 0.350, 0.012, -0.124, -0.017
0.420, -0.010, 0.350, 0.015, -0.124, -0.018
0.470, -0.010, 0.350, 0.018, -0.124, -0.022
0.520, -0.010, 0.350, 0.021, -0.124, -0.027
0.570, -0.010, 0.350, 0.021, -0.124, -0.033
0.620, -0.010, 0.350, 0.021, -0.124, -0.045
0.670, -0.010, 0.350, 0.018, -0.124, -0.057
0.720, -0.010, 0.350, 0.010, -0.118, -0.070
0.720, 0.040, 0.350, 0.009, -0.115, -0.064
0.670, 0.040, 0.350, 0.017, -0.118, -0.048
0.620, 0.040, 0.350, 0.021, -0.118, -0.038
0.570, 0.040, 0.350, 0.021, -0.119, -0.028
0.520, 0.040, 0.350, 0.021, -0.120, -0.021
0.470, 0.040, 0.350, 0.019, -0.120, -0.016
0.420, 0.040, 0.350, 0.017, -0.119, -0.010
0.370, 0.040, 0.350, 0.012, -0.119, -0.008
0.320, 0.040, 0.350, 0.009, -0.119, -0.007
0.270, 0.040, 0.350, 0.008, -0.118, -0.008
0.220, 0.040, 0.350, 0.006, -0.118, -0.009
0.220, 0.090, 0.350, 0.006, -0.118, -0.006
0.270, 0.090, 0.350, 0.008, -0.118, -0.003
0.320, 0.090, 0.350, 0.009, -0.118, -0.003
0.370, 0.090, 0.350, 0.012, -0.118, -0.003
0.420, 0.090, 0.350, 0.017, -0.118, -0.006
0.470, 0.090, 0.350, 0.020, -0.118, -0.009
0.520, 0.090, 0.350, 0.021, -0.118, -0.017
0.570, 0.090, 0.350, 0.021, -0.118, -0.024
0.620, 0.090, 0.350, 0.021, -0.118, -0.033
0.670, 0.090, 0.350, 0.017, -0.117, -0.045
0.720, 0.090, 0.350, 0.008, -0.115, -0.060
0.720, 0.140, 0.350, 0.007, -0.117, -0.057
0.670, 0.140, 0.350, 0.016, -0.118, -0.045
0.620, 0.140, 0.350, 0.021, -0.118, -0.030
0.570, 0.140, 0.350, 0.021, -0.118, -0.021
0.520, 0.140, 0.350, 0.021, -0.119, -0.015
0.470, 0.140, 0.350, 0.020, -0.119, -0.006
0.420, 0.140, 0.350, 0.017, -0.118, -0.003
0.370, 0.140, 0.350, 0.013, -0.118, -0.001
0.320, 0.140, 0.350, 0.009, -0.118, 0.000
0.270, 0.140, 0.350, 0.008, -0.118, -0.001
0.220, 0.140, 0.350, 0.006, -0.119, -0.003
0.220, 0.190, 0.350, 0.006, -0.124, -0.002
0.270, 0.190, 0.350, 0.008, -0.123, 0.000
0.320, 0.190, 0.350, 0.009, -0.123, 0.000
0.370, 0.190, 0.350, 0.013, -0.123, 0.000
0.420, 0.190, 0.350, 0.017, -0.124, -0.002
0.470, 0.190, 0.350, 0.020, -0.123, -0.006
0.520, 0.190, 0.350, 0.021, -0.123, -0.010
0.570, 0.190, 0.350, 0.021, -0.123, -0.020
0.620, 0.190, 0.350, 0.021, -0.122, -0.029
0.670, 0.190, 0.350, 0.016, -0.120, -0.042
0.720, 0.190, 0.350, 0.007, -0.119, -0.054
0.520, 0.240, 0.350, 0.021, -0.124, -0.009
0.470, 0.240, 0.350, 0.020, -0.124, -0.003
0.420, 0.240, 0.350, 0.017, -0.124, 0.000
0.370, 0.240, 0.350, 0.012, -0.124, 0.000
0.320, 0.240, 0.350, 0.009, -0.124, 0.000
0.270, 0.240, 0.350, 0.007, -0.124, 0.000
0.220, 0.240, 0.350, 0.005, -0.124, 0.000
0.220, 0.290, 0.350, 0.004, -0.124, -0.002
0.270, 0.290, 0.350, 0.006, -0.124, 0.000
0.320, 0.290, 0.350, 0.009, -0.124, 0.000
0.370, 0.290, 0.350, 0.011, -0.124, 0.000
0.420, 0.290, 0.350, 0.017, -0.124, -0.001
0.470, 0.290, 0.350, 0.019, -0.124, -0.005
0.520, 0.290, 0.350, 0.021, -0.124, -0.009
0.570, 0.290, 0.350, 0.021, -0.124, -0.020
0.620, 0.290, 0.350, 0.021, -0.124, -0.028
0.670, 0.290, 0.350, 0.016, -0.124, -0.042
0.720, 0.290, 0.350, 0.008, -0.124, -0.052
0.720, 0.340, 0.350, 0.008, -0.124, -0.057
0.670, 0.340, 0.350, 0.016, -0.124, -0.044
0.620, 0.340, 0.350, 0.021, -0.124, -0.030
0.570, 0.340, 0.350, 0.021, -0.124, -0.021
0.520, 0.340, 0.350, 0.021, -0.124, -0.015
0.470, 0.340, 0.350, 0.019, -0.124, -0.006
0.420, 0.340, 0.350, 0.017, -0.124, -0.003
0.370, 0.340, 0.350, 0.011, -0.125, -0.001
0.320, 0.340, 0.350, 0.009, -0.124, 0.000
0.270, 0.340, 0.350, 0.006, -0.124, -0.001
0.220, 0.340, 0.350, 0.004, -0.125, -0.003
0.220, 0.390, 0.350, 0.004, -0.125, -0.006
0.270, 0.390, 0.350, 0.006, -0.125, -0.004
0.320, 0.390, 0.350, 0.009, -0.125, -0.003
0.370, 0.390, 0.350, 0.012, -0.126, -0.003
0.420, 0.390, 0.350, 0.015, -0.126, -0.006
0.470, 0.390, 0.350, 0.019, -0.125, -0.009
0.520, 0.390, 0.350, 0.021, -0.125, -0.017
0.570, 0.390, 0.350, 0.021, -0.125, -0.024
0.620, 0.390, 0.350, 0.021, -0.124, -0.033
0.670, 0.390, 0.350, 0.016, -0.124, -0.045
0.720, 0.390, 0.350, 0.009, -0.124, -0.059
0.720, 0.440, 0.350, 0.009, -0.124, -0.063
0.670, 0.440, 0.350, 0.016, -0.124, -0.046
0.620, 0.440, 0.350, 0.020, -0.124, -0.036
0.570, 0.440, 0.350, 0.021, -0.124, -0.027
0.520, 0.440, 0.350, 0.021, -0.125, -0.021
0.470, 0.440, 0.350, 0.018, -0.125, -0.015
0.420, 0.440, 0.350, 0.016, -0.125, -0.009
0.370, 0.440, 0.350, 0.012, -0.126, -0.007
0.320, 0.440, 0.350, 0.009, -0.126, -0.006
0.270, 0.440, 0.350, 0.006, -0.125, -0.007
0.220, 0.440, 0.350, 0.004, -0.125, -0.009
0.220, 0.490, 0.350, 0.005, -0.124, -0.015
0.270, 0.490, 0.350, 0.006, -0.124, -0.014
0.320, 0.490, 0.350, 0.009, -0.124, -0.012
0.370, 0.490, 0.350, 0.012, -0.124, -0.015
0.420, 0.490, 0.350, 0.015, -0.124, -0.016
0.470, 0.490, 0.350, 0.018, -0.124, -0.019
0.520, 0.490, 0.350, 0.020, -0.124, -0.024
0.570, 0.490, 0.350, 0.021, -0.124, -0.031
0.620, 0.490, 0.350, 0.020, -0.124, -0.043
0.670, 0.490, 0.350, 0.016, -0.124, -0.051
0.720, 0.490, 0.350, 0.009, -0.124, -0.067
0.220, -0.010, 0.450, 0.009, -0.130, -0.004
0.270, -0.010, 0.450, 0.009, -0.130, -0.004
0.320, -0.010, 0.450, 0.009, -0.131, -0.005
0.370, -0.010, 0.450, 0.009, -0.130, -0.006
0.420, -0.010, 0.450, 0.011, -0.132, -0.007
0.470, -0.010, 0.450, 0.012, -0.133, -0.009
0.520, -0.010, 0.450, 0.012, -0.133, -0.015
0.570, -0.010, 0.450, 0.010, -0.132, -0.018
0.620, -0.010, 0.450, 0.006, -0.131, -0.023
0.670, -0.010, 0.450, 0.000, -0.130, -0.028
0.720, -0.010, 0.450, -0.004, -0.128, -0.033
0.720, 0.040, 0.450, -0.006, -0.123, -0.032
0.670, 0.040, 0.450, 0.000, -0.124, -0.027
0.620, 0.040, 0.450, 0.006, -0.125, -0.022
0.570, 0.040, 0.450, 0.010, -0.126, -0.018
0.520, 0.040, 0.450, 0.012, -0.127, -0.014
0.470, 0.040, 0.450, 0.012, -0.127, -0.009
0.420, 0.040, 0.450, 0.012, -0.127, -0.006
0.370, 0.040, 0.450, 0.010, -0.126, -0.005
0.320, 0.040, 0.450, 0.009, -0.125, -0.003
0.270, 0.040, 0.450, 0.009, -0.125, -0.003
0.220, 0.040, 0.450, 0.009, -0.125, -0.003
0.220, 0.090, 0.450, 0.009, -0.124, -0.003
0.270, 0.090, 0.450, 0.009, -0.124, -0.003
0.320, 0.090, 0.450, 0.009, -0.124, -0.003
0.370, 0.090, 0.450, 0.010, -0.124, -0.004
0.420, 0.090, 0.450, 0.011, -0.124, -0.006
0.470, 0.090, 0.450, 0.012, -0.124, -0.008
0.520, 0.090, 0.450, 0.012, -0.124, -0.013
0.570, 0.090, 0.450, 0.009, -0.124, -0.017
0.620, 0.090, 0.450, 0.006, -0.124, -0.021
0.670, 0.090, 0.450, 0.000, -0.124, -0.027
0.720, 0.090, 0.450, -0.007, -0.121, -0.032
0.720, 0.140, 0.450, -0.007, -0.120, -0.031
0.670, 0.140, 0.450, 0.000, -0.123, -0.027
0.620, 0.140, 0.450, 0.005, -0.123, -0.021
0.570, 0.140, 0.450, 0.009, -0.124, -0.018
0.520, 0.140, 0.450, 0.012, -0.124, -0.012
0.470, 0.140, 0.450, 0.011, -0.124, -0.007
0.420, 0.140, 0.450, 0.009, -0.124, -0.006
0.370, 0.140, 0.450, 0.009, -0.124, -0.004
0.320, 0.140, 0.450, 0.009, -0.124, -0.003
0.270, 0.140, 0.450, 0.009, -0.124, -0.003
0.220, 0.140, 0.450, 0.009, -0.124, -0.003
0.220, 0.190, 0.450, 0.009, -0.124, -0.003
0.270, 0.190, 0.450, 0.009, -0.123, -0.003
0.320, 0.190, 0.450, 0.009, -0.124, -0.003
0.370, 0.190, 0.450, 0.009, -0.123, -0.004
0.420, 0.190, 0.450, 0.009, -0.123, -0.006
0.470, 0.190, 0.450, 0.011, -0.124, -0.008
0.520, 0.190, 0.450, 0.011, -0.123, -0.013
0.570, 0.190, 0.450, 0.009, -0.123, -0.018
0.620, 0.190, 0.450, 0.005, -0.122, -0.022
0.670, 0.190, 0.450, 0.000, -0.121, -0.027
0.720, 0.190, 0.450, -0.007, -0.119, -0.033
0.520, 0.240, 0.450, 0.010, -0.120, -0.014
0.470, 0.240, 0.450, 0.010, -0.120, -0.009
0.420, 0.240, 0.450, 0.009, -0.121, -0.006
0.370, 0.240, 0.450, 0.009, -0.122, -0.005
0.320, 0.240, 0.450, 0.009, -0.122, -0.004
0.270, 0.240, 0.450, 0.009, -0.123, -0.004
0.220, 0.240, 0.450, 0.008, -0.123, -0.004
0.220, 0.290, 0.450, 0.008, -0.124, -0.006
0.270, 0.290, 0.450, 0.009, -0.123, -0.006
0.320, 0.290, 0.450, 0.009, -0.123, -0.005
0.370, 0.290, 0.450, 0.009, -0.123, -0.006
0.420, 0.290, 0.450, 0.010, -0.122, -0.007
0.470, 0.290, 0.450, 0.011, -0.121, -0.009
0.520, 0.290, 0.450, 0.010, -0.121, -0.015
0.570, 0.290, 0.450, 0.009, -0.120, -0.019
0.620, 0.290, 0.450, 0.006, -0.121, -0.024
0.670, 0.290, 0.450, 0.000, -0.120, -0.028
0.720, 0.290, 0.450, -0.006, -0.119, -0.033
0.720, 0.340, 0.450, -0.006, -0.119, -0.035
0.670, 0.340, 0.450, 0.000, -0.120, -0.030
0.620, 0.340, 0.450, 0.005, -0.120, -0.025
0.570, 0.340, 0.450, 0.009, -0.121, -0.021
0.520, 0.340, 0.450, 0.011, -0.122, -0.018
0.470, 0.340, 0.450, 0.011, -0.122, -0.015
0.420, 0.340, 0.450, 0.011, -0.122, -0.009
0.370, 0.340, 0.450, 0.010, -0.123, -0.008
0.320, 0.340, 0.450, 0.009, -0.123, -0.007
0.270, 0.340, 0.450, 0.008, -0.123, -0.007
0.220, 0.340, 0.450, 0.007, -0.124, -0.008
0.220, 0.390, 0.450, 0.007, -0.123, -0.009
0.270, 0.390, 0.450, 0.009, -0.122, -0.009
0.320, 0.390, 0.450, 0.009, -0.121, -0.009
0.370, 0.390, 0.450, 0.009, -0.122, -0.009
0.420, 0.390, 0.450, 0.011, -0.122, -0.013
0.470, 0.390, 0.450, 0.010, -0.121, -0.016
0.520, 0.390, 0.450, 0.010, -0.120, -0.019
0.570, 0.390, 0.450, 0.009, -0.119, -0.022
0.620, 0.390, 0.450, 0.006, -0.118, -0.027
0.670, 0.390, 0.450, 0.000, -0.119, -0.032
0.720, 0.390, 0.450, -0.006, -0.119, -0.036
0.720, 0.440, 0.450, -0.006, -0.118, -0.039
0.670, 0.440, 0.450, 0.000, -0.118, -0.033
0.620, 0.440, 0.450, 0.005, -0.118, -0.030
0.570, 0.440, 0.450, 0.009, -0.118, -0.024
0.520, 0.440, 0.450, 0.011, -0.118, -0.021
0.470, 0.440, 0.450, 0.009, -0.118, -0.018
0.420, 0.440, 0.450, 0.009, -0.119, -0.016
0.370, 0.440, 0.450, 0.009, -0.119, -0.015
0.320, 0.440, 0.450, 0.009, -0.120, -0.013
0.270, 0.440, 0.450, 0.009, -0.119, -0.014
0.220, 0.440, 0.450, 0.008, -0.118, -0.014
0.220, 0.490, 0.450, 0.008, -0.117, -0.015
0.270, 0.490, 0.450, 0.009, -0.118, -0.015
0.320, 0.490, 0.450, 0.009, -0.118, -0.015
0.370, 0.490, 0.450, 0.009, -0.117, -0.016
0.420, 0.490, 0.450, 0.009, -0.117, -0.018
0.470, 0.490, 0.450, 0.010, -0.116, -0.020
0.520, 0.490, 0.450, 0.009, -0.116, -0.023
0.570, 0.490, 0.450, 0.009, -0.115, -0.027
0.620, 0.490, 0.450, 0.005, -0.115, -0.030
0.670, 0.490, 0.450, 0.000, -0.115, -0.036
0.720, 0.490, 0.450, -0.006, -0.115, -0.039
0.109, -0.100, 0.050, -0.030, 0.021, -0.003
