0.000, 0.050, 0.500, -0.019, 0.073, -0.076
0.120, 0.170, 0.520, -0.003, 0.054, 0.050
0.170, 0.170, 0.520, -0.004, 0.045, 0.050
0.220, 0.170, 0.520, -0.007, 0.041, 0.051
0.270, 0.170, 0.520, -0.010, 0.033, 0.051
0.320, 0.170, 0.520, -0.014, 0.030, 0.051
0.370, 0.170, 0.520, -0.018, 0.024, 0.051
0.420, 0.170, 0.520, -0.021, 0.018, 0.052
0.470, 0.170, 0.520, -0.024, 0.013, 0.054
0.520, 0.170, 0.520, -0.025, 0.008, 0.055
0.570, 0.170, 0.520, -0.026, 0.003, 0.058
0.620, 0.170, 0.520, -0.025, 0.000, 0.061
0.620, 0.220, 0.520, -0.021, 0.000, 0.055
0.570, 0.220, 0.520, -0.023, 0.005, 0.052
0.520, 0.220, 0.520, -0.023, 0.009, 0.049
0.470, 0.220, 0.520, -0.021, 0.015, 0.048
0.420, 0.220, 0.520, -0.018, 0.021, 0.046
0.370, 0.220, 0.520, -0.016, 0.026, 0.046
0.320, 0.220, 0.520, -0.013, 0.031, 0.045
0.270, 0.220, 0.520, -0.010, 0.035, 0.045
0.220, 0.220, 0.520, -0.006, 0.042, 0.045
0.170, 0.220, 0.520, -0.003, 0.047, 0.045
0.120, 0.220, 0.520, -0.003, 0.057, 0.044
0.120, 0.270, 0.520, -0.003, 0.059, 0.034
0.170, 0.270, 0.520, -0.003, 0.052, 0.035
0.220, 0.270, 0.520, -0.006, 0.042, 0.036
0.270, 0.270, 0.520, -0.009, 0.037, 0.036
0.320, 0.270, 0.520, -0.012, 0.033, 0.036
0.370, 0.270, 0.520, -0.015, 0.028, 0.036
0.420, 0.270, 0.520, -0.018, 0.023, 0.038
0.470, 0.270, 0.520, -0.020, 0.018, 0.041
0.520, 0.270, 0.520, -0.021, 0.012, 0.043
0.570, 0.270, 0.520, -0.020, 0.006, 0.045
0.620, 0.270, 0.520, -0.018, 0.002, 0.045
0.620, 0.320, 0.520, -0.015, 0.004, 0.034
0.570, 0.320, 0.520, -0.018, 0.009, 0.033
0.520, 0.320, 0.520, -0.018, 0.015, 0.032
0.470, 0.320, 0.520, -0.018, 0.020, 0.031
0.420, 0.320, 0.520, -0.016, 0.028, 0.030
0.370, 0.320, 0.520, -0.014, 0.030, 0.030
0.320, 0.320, 0.520, -0.012, 0.037, 0.029
0.270, 0.320, 0.520, -0.009, 0.042, 0.029
0.220, 0.320, 0.520, -0.006, 0.048, 0.029
0.170, 0.320, 0.520, -0.003, 0.055, 0.027
0.120, 0.320, 0.520, -0.003, 0.062, 0.027
0.120, 0.370, 0.520, -0.003, 0.066, 0.021
0.170, 0.370, 0.520, -0.003, 0.058, 0.021
0.220, 0.370, 0.520, -0.006, 0.052, 0.021
0.270, 0.370, 0.520, -0.009, 0.042, 0.021
0.320, 0.370, 0.520, -0.012, 0.042, 0.021
0.370, 0.370, 0.520, -0.014, 0.033, 0.022
0.420, 0.370, 0.520, -0.016, 0.030, 0.022
0.470, 0.370, 0.520, -0.018, 0.023, 0.024
0.520, 0.370, 0.520, -0.018, 0.017, 0.024
0.570, 0.370, 0.520, -0.017, 0.012, 0.024
0.620, 0.370, 0.520, -0.015, 0.007, 0.025
0.420, 0.420, 0.520, -0.015, 0.033, 0.014
0.370, 0.420, 0.520, -0.013, 0.034, 0.014
0.320, 0.420, 0.520, -0.011, 0.043, 0.013
0.270, 0.420, 0.520, -0.008, 0.047, 0.011
0.220, 0.420, 0.520, -0.006, 0.055, 0.011
0.170, 0.420, 0.520, -0.003, 0.061, 0.011
0.120, 0.420, 0.520, -0.003, 0.069, 0.011
0.120, 0.470, 0.520, -0.003, 0.073, 0.003
0.170, 0.470, 0.520, -0.003, 0.065, 0.003
0.220, 0.470, 0.520, -0.006, 0.058, 0.003
0.270, 0.470, 0.520, -0.008, 0.052, 0.003
0.320, 0.470, 0.520, -0.011, 0.043, 0.003
0.370, 0.470, 0.520, -0.013, 0.040, 0.003
0.420, 0.470, 0.520, -0.015, 0.035, 0.003
0.470, 0.470, 0.520, -0.016, 0.030, 0.003
0.520, 0.470, 0.520, -0.017, 0.024, 0.004
0.570, 0.470, 0.520, -0.016, 0.018, 0.004
0.620, 0.470, 0.520, -0.014, 0.015, 0.005
0.620, 0.520, 0.520, -0.014, 0.018, 0.000
0.570, 0.520, 0.520, -0.015, 0.020, 0.000
0.520, 0.520, 0.520, -0.016, 0.025, 0.000
0.470, 0.520, 0.520, -0.016, 0.030, 0.000
0.420, 0.520, 0.520, -0.015, 0.033, 0.000
0.370, 0.520, 0.520, -0.013, 0.042, 0.000
0.320, 0.520, 0.520, -0.011, 0.045, 0.000
0.270, 0.520, 0.520, -0.009, 0.054, 0.000
0.220, 0.520, 0.520, -0.006, 0.060, 0.000
0.170, 0.520, 0.520, -0.003, 0.066, 0.000
0.120, 0.520, 0.520, -0.003, 0.073, 0.000
0.120, 0.570, 0.520, -0.003, 0.076, -0.003
0.170, 0.570, 0.520, -0.004, 0.071, -0.004
0.220, 0.570, 0.520, -0.006, 0.064, -0.006
0.270, 0.570, 0.520, -0.009, 0.058, -0.006
0.320, 0.570, 0.520, -0.012, 0.052, -0.006
0.370, 0.570, 0.520, -0.013, 0.043, -0.006
0.420, 0.570, 0.520, -0.015, 0.038, -0.006
0.470, 0.570, 0.520, -0.015, 0.033, -0.006
0.520, 0.570, 0.520, -0.016, 0.029, -0.006
0.570, 0.570, 0.520, -0.015, 0.024, -0.006
0.620, 0.570, 0.520, -0.013, 0.019, -0.006
0.620, 0.620, 0.520, -0.013, 0.024, -0.015
0.570, 0.620, 0.520, -0.015, 0.028, -0.015
0.520, 0.620, 0.520, -0.015, 0.033, -0.016
0.470, 0.620, 0.520, -0.015, 0.036, -0.017
0.420, 0.620, 0.520, -0.015, 0.042, -0.017
0.370, 0.620, 0.520, -0.014, 0.051, -0.018
0.320, 0.620, 0.520, -0.012, 0.057, -0.017
0.270, 0.620, 0.520, -0.010, 0.063, -0.016
0.220, 0.620, 0.520, -0.008, 0.066, -0.015
0.170, 0.620, 0.520, -0.006, 0.076, -0.014
0.120, 0.620, 0.520, -0.003, 0.083, -0.010
0.120, 0.670, 0.520, -0.006, 0.087, -0.018
0.170, 0.670, 0.520, -0.008, 0.082, -0.021
0.220, 0.670, 0.520, -0.009, 0.075, -0.022
0.270, 0.670, 0.520, -0.011, 0.069, -0.024
0.320, 0.670, 0.520, -0.012, 0.060, -0.024
0.370, 0.670, 0.520, -0.013, 0.057, -0.024
0.420, 0.670, 0.520, -0.015, 0.050, -0.024
0.470, 0.670, 0.520, -0.015, 0.042, -0.024
0.520, 0.670, 0.520, -0.015, 0.036, -0.024
0.570, 0.670, 0.520, -0.015, 0.033, -0.024
0.620, 0.670, 0.520, -0.013, 0.028, -0.022
0.120, 0.170, 0.560, 0.000, 0.042, 0.049
0.170, 0.170, 0.560, -0.002, 0.033, 0.050
0.220, 0.170, 0.560, -0.003, 0.030, 0.049
0.270, 0.170, 0.560, -0.006, 0.024, 0.050
0.320, 0.170, 0.560, -0.009, 0.018, 0.050
0.370, 0.170, 0.560, -0.012, 0.013, 0.051
0.420, 0.170, 0.560, -0.016, 0.007, 0.052
0.470, 0.170, 0.560, -0.019, 0.003, 0.053
0.520, 0.170, 0.560, -0.021, 0.000, 0.055
0.570, 0.170, 0.560, -0.022, 0.000, 0.058
0.620, 0.170, 0.560, -0.021, -0.003, 0.061
0.620, 0.220, 0.560, -0.018, -0.003, 0.053
0.570, 0.220, 0.560, -0.018, 0.000, 0.051
0.520, 0.220, 0.560, -0.018, 0.000, 0.048
0.470, 0.220, 0.560, -0.016, 0.003, 0.047
0.420, 0.220, 0.560, -0.014, 0.009, 0.045
0.370, 0.220, 0.560, -0.011, 0.014, 0.045
0.320, 0.220, 0.560, -0.008, 0.019, 0.044
0.270, 0.220, 0.560, -0.004, 0.025, 0.044
0.220, 0.220, 0.560, -0.003, 0.031, 0.043
0.170, 0.220, 0.560, -0.001, 0.034, 0.043
0.120, 0.220, 0.560, 0.000, 0.042, 0.043
0.120, 0.270, 0.560, 0.000, 0.045, 0.033
0.170, 0.270, 0.560, 0.000, 0.037, 0.033
0.220, 0.270, 0.560, -0.003, 0.033, 0.033
0.270, 0.270, 0.560, -0.004, 0.027, 0.034
0.320, 0.270, 0.560, -0.008, 0.021, 0.034
0.370, 0.270, 0.560, -0.010, 0.016, 0.035
0.420, 0.270, 0.560, -0.013, 0.011, 0.036
0.470, 0.270, 0.560, -0.015, 0.006, 0.037
0.520, 0.270, 0.560, -0.016, 0.001, 0.039
0.570, 0.270, 0.560, -0.016, 0.000, 0.043
0.620, 0.270, 0.560, -0.015, 0.000, 0.045
0.620, 0.320, 0.560, -0.012, 0.000, 0.033
0.570, 0.320, 0.560, -0.015, 0.000, 0.032
0.520, 0.320, 0.560, -0.015, 0.003, 0.030
0.470, 0.320, 0.560, -0.013, 0.009, 0.030
0.420, 0.320, 0.560, -0.012, 0.013, 0.028
0.370, 0.320, 0.560, -0.010, 0.018, 0.027
0.320, 0.320, 0.560, -0.006, 0.024, 0.027
0.270, 0.320, 0.560, -0.003, 0.030, 0.027
0.220, 0.320, 0.560, -0.003, 0.033, 0.027
0.170, 0.320, 0.560, 0.000, 0.042, 0.026
0.120, 0.320, 0.560, 0.000, 0.047, 0.026
0.120, 0.370, 0.560, 0.000, 0.054, 0.018
0.170, 0.370, 0.560, 0.000, 0.043, 0.018
0.220, 0.370, 0.560, -0.003, 0.036, 0.018
0.270, 0.370, 0.560, -0.003, 0.033, 0.018
0.320, 0.370, 0.560, -0.006, 0.027, 0.019
0.370, 0.370, 0.560, -0.009, 0.021, 0.019
0.420, 0.370, 0.560, -0.012, 0.016, 0.020
0.470, 0.370, 0.560, -0.012, 0.012, 0.021
0.520, 0.370, 0.560, -0.013, 0.006, 0.021
0.570, 0.370, 0.560, -0.013, 0.003, 0.023
0.620, 0.370, 0.560, -0.011, 0.000, 0.024
0.420, 0.420, 0.560, -0.010, 0.021, 0.009
0.370, 0.420, 0.560, -0.009, 0.025, 0.009
0.320, 0.420, 0.560, -0.006, 0.031, 0.008
0.270, 0.420, 0.560, -0.003, 0.034, 0.008
0.220, 0.420, 0.560, -0.002, 0.042, 0.008
0.170, 0.420, 0.560, 0.000, 0.047, 0.007
0.120, 0.420, 0.560, 0.001, 0.055, 0.008
0.120, 0.470, 0.560, 0.001, 0.058, 0.000
0.170, 0.470, 0.560, 0.000, 0.051, 0.000
0.220, 0.470, 0.560, -0.001, 0.044, 0.000
0.270, 0.470, 0.560, -0.003, 0.040, 0.000
0.320, 0.470, 0.560, -0.006, 0.033, 0.000
0.370, 0.470, 0.560, -0.009, 0.030, 0.000
0.420, 0.470, 0.560, -0.010, 0.024, 0.000
0.470, 0.470, 0.560, -0.012, 0.019, 0.003
0.520, 0.470, 0.560, -0.012, 0.015, 0.003
0.570, 0.470, 0.560, -0.012, 0.009, 0.003
0.620, 0.470, 0.560, -0.011, 0.006, 0.003
0.620, 0.520, 0.560, -0.010, 0.010, 0.000
0.570, 0.520, 0.560, -0.012, 0.013, 0.000
0.520, 0.520, 0.560, -0.012, 0.018, 0.000
0.470, 0.520, 0.560, -0.012, 0.023, -0.001
0.420, 0.520, 0.560, -0.010, 0.027, -0.001
0.370, 0.520, 0.560, -0.009, 0.033, -0.002
0.320, 0.520, 0.560, -0.006, 0.036, -0.002
0.270, 0.520, 0.560, -0.003, 0.042, -0.001
0.220, 0.520, 0.560, -0.001, 0.049, -0.001
0.170, 0.520, 0.560, 0.000, 0.058, -0.003
0.120, 0.520, 0.560, 0.000, 0.066, -0.003
0.120, 0.570, 0.560, 0.000, 0.071, -0.006
0.170, 0.570, 0.560, -0.001, 0.064, -0.008
0.220, 0.570, 0.560, -0.001, 0.054, -0.009
0.270, 0.570, 0.560, -0.004, 0.050, -0.009
0.320, 0.570, 0.560, -0.006, 0.042, -0.010
0.370, 0.570, 0.560, -0.009, 0.036, -0.009
0.420, 0.570, 0.560, -0.010, 0.033, -0.009
0.470, 0.570, 0.560, -0.012, 0.027, -0.009
0.520, 0.570, 0.560, -0.012, 0.023, -0.009
0.570, 0.570, 0.560, -0.012, 0.018, -0.009
0.620, 0.570, 0.560, -0.010, 0.015, -0.009
0.620, 0.620, 0.560, -0.011, 0.019, -0.019
0.570, 0.620, 0.560, -0.012, 0.024, -0.020
0.520, 0.620, 0.560, -0.012, 0.028, -0.021
0.470, 0.620, 0.560, -0.011, 0.033, -0.021
0.420, 0.620, 0.560, -0.009, 0.036, -0.021
0.370, 0.620, 0.560, -0.009, 0.042, -0.021
0.320, 0.620, 0.560, -0.006, 0.047, -0.021
0.270, 0.620, 0.560, -0.005, 0.056, -0.021
0.220, 0.620, 0.560, -0.003, 0.062, -0.019
0.170, 0.620, 0.560, -0.003, 0.070, -0.018
0.120, 0.620, 0.560, 0.000, 0.076, -0.017
0.120, 0.670, 0.560, -0.003, 0.081, -0.024
0.170, 0.670, 0.560, -0.003, 0.076, -0.026
0.220, 0.670, 0.560, -0.003, 0.066, -0.027
0.270, 0.670, 0.560, -0.006, 0.060, -0.028
0.320, 0.670, 0.560, -0.007, 0.057, -0.030
0.370, 0.670, 0.560, -0.009, 0.048, -0.029
0.420, 0.670, 0.560, -0.009, 0.043, -0.029
0.470, 0.670, 0.560, -0.011, 0.036, -0.028
0.520, 0.670, 0.560, -0.012, 0.033, -0.028
0.570, 0.670, 0.560, -0.011, 0.030, -0.027
0.620, 0.670, 0.560, -0.009, 0.025, -0.027
0.120, 0.170, 0.600, 0.004, 0.034, 0.049
0.170, 0.170, 0.600, 0.000, 0.030, 0.050
0.220, 0.170, 0.600, 0.000, 0.021, 0.050
0.270, 0.170, 0.600, -0.002, 0.018, 0.051
0.320, 0.170, 0.600, -0.005, 0.012, 0.050
0.370, 0.170, 0.600, -0.009, 0.007, 0.051
0.420, 0.170, 0.600, -0.012, 0.003, 0.052
0.470, 0.170, 0.600, -0.015, 0.000, 0.053
0.520, 0.170, 0.600, -0.018, 0.000, 0.055
0.570, 0.170, 0.600, -0.019, -0.003, 0.058
0.620, 0.170, 0.600, -0.020, -0.006, 0.061
0.620, 0.220, 0.600, -0.015, -0.006, 0.052
0.570, 0.220, 0.600, -0.015, -0.003, 0.050
0.520, 0.220, 0.600, -0.015, 0.000, 0.048
0.470, 0.220, 0.600, -0.013, 0.000, 0.046
0.420, 0.220, 0.600, -0.010, 0.003, 0.045
0.370, 0.220, 0.600, -0.007, 0.009, 0.044
0.320, 0.220, 0.600, -0.004, 0.013, 0.043
0.270, 0.220, 0.600, 0.000, 0.018, 0.043
0.220, 0.220, 0.600, 0.000, 0.022, 0.042
0.170, 0.220, 0.600, 0.001, 0.030, 0.042
0.120, 0.220, 0.600, 0.005, 0.036, 0.042
0.120, 0.270, 0.600, 0.006, 0.038, 0.031
0.170, 0.270, 0.600, 0.001, 0.032, 0.032
0.220, 0.270, 0.600, 0.000, 0.027, 0.033
0.270, 0.270, 0.600, 0.000, 0.021, 0.033
0.320, 0.270, 0.600, -0.003, 0.015, 0.033
0.370, 0.270, 0.600, -0.006, 0.010, 0.033
0.420, 0.270, 0.600, -0.009, 0.006, 0.034
0.470, 0.270, 0.600, -0.012, 0.000, 0.036
0.520, 0.270, 0.600, -0.013, 0.000, 0.036
0.570, 0.270, 0.600, -0.014, 0.000, 0.041
0.620, 0.270, 0.600, -0.013, -0.003, 0.043
0.620, 0.320, 0.600, -0.011, -0.001, 0.031
0.570, 0.320, 0.600, -0.012, 0.000, 0.030
0.520, 0.320, 0.600, -0.012, 0.000, 0.029
0.470, 0.320, 0.600, -0.010, 0.003, 0.027
0.420, 0.320, 0.600, -0.009, 0.008, 0.027
0.370, 0.320, 0.600, -0.006, 0.012, 0.026
0.320, 0.320, 0.600, -0.003, 0.018, 0.025
0.270, 0.320, 0.600, 0.000, 0.026, 0.025
0.220, 0.320, 0.600, 0.000, 0.029, 0.024
0.170, 0.320, 0.600, 0.002, 0.033, 0.024
0.120, 0.320, 0.600, 0.006, 0.040, 0.024
0.120, 0.370, 0.600, 0.006, 0.046, 0.015
0.170, 0.370, 0.600, 0.002, 0.036, 0.016
0.220, 0.370, 0.600, 0.000, 0.033, 0.017
0.270, 0.370, 0.600, 0.000, 0.030, 0.017
0.320, 0.370, 0.600, -0.003, 0.021, 0.018
0.370, 0.370, 0.600, -0.006, 0.015, 0.018
0.420, 0.370, 0.600, -0.008, 0.010, 0.018
0.470, 0.370, 0.600, -0.009, 0.006, 0.019
0.520, 0.370, 0.600, -0.011, 0.003, 0.020
0.570, 0.370, 0.600, -0.011, 0.000, 0.021
0.620, 0.370, 0.600, -0.009, 0.000, 0.022
0.420, 0.420, 0.600, -0.007, 0.015, 0.006
0.370, 0.420, 0.600, -0.005, 0.020, 0.006
0.320, 0.420, 0.600, -0.002, 0.028, 0.006
0.270, 0.420, 0.600, 0.000, 0.033, 0.006
0.220, 0.420, 0.600, 0.000, 0.038, 0.006
0.170, 0.420, 0.600, 0.003, 0.045, 0.006
0.120, 0.420, 0.600, 0.008, 0.053, 0.006
0.120, 0.470, 0.600, 0.008, 0.057, 0.000
0.170, 0.470, 0.600, 0.003, 0.048, 0.000
0.220, 0.470, 0.600, 0.000, 0.042, 0.000
0.270, 0.470, 0.600, 0.000, 0.033, 0.000
0.320, 0.470, 0.600, -0.002, 0.030, 0.000
0.370, 0.470, 0.600, -0.005, 0.024, 0.000
0.420, 0.470, 0.600, -0.007, 0.019, 0.000
0.470, 0.470, 0.600, -0.009, 0.015, 0.000
0.520, 0.470, 0.600, -0.009, 0.010, 0.002
0.570, 0.470, 0.600, -0.010, 0.006, 0.003
0.620, 0.470, 0.600, -0.009, 0.003, 0.003
0.620, 0.520, 0.600, -0.009, 0.006, -0.003
0.570, 0.520, 0.600, -0.009, 0.009, -0.003
0.520, 0.520, 0.600, -0.009, 0.013, -0.003
0.470, 0.520, 0.600, -0.008, 0.018, -0.004
0.420, 0.520, 0.600, -0.006, 0.022, -0.004
0.370, 0.520, 0.600, -0.004, 0.027, -0.004
0.320, 0.520, 0.600, -0.002, 0.033, -0.004
0.270, 0.520, 0.600, 0.000, 0.036, -0.005
0.220, 0.520, 0.600, 0.000, 0.042, -0.004
0.170, 0.520, 0.600, 0.003, 0.052, -0.003
0.120, 0.520, 0.600, 0.007, 0.060, -0.006
0.120, 0.570, 0.600, 0.006, 0.064, -0.012
0.170, 0.570, 0.600, 0.002, 0.057, -0.014
0.220, 0.570, 0.600, 0.000, 0.048, -0.015
0.270, 0.570, 0.600, 0.000, 0.042, -0.016
0.320, 0.570, 0.600, -0.002, 0.035, -0.016
0.370, 0.570, 0.600, -0.004, 0.033, -0.016
0.420, 0.570, 0.600, -0.006, 0.027, -0.016
0.470, 0.570, 0.600, -0.008, 0.022, -0.015
0.520, 0.570, 0.600, -0.009, 0.018, -0.015
0.570, 0.570, 0.600, -0.009, 0.014, -0.015
0.620, 0.570, 0.600, -0.009, 0.010, -0.015
0.620, 0.620, 0.600, -0.009, 0.015, -0.023
0.570, 0.620, 0.600, -0.009, 0.018, -0.024
0.520, 0.620, 0.600, -0.009, 0.022, -0.024
0.470, 0.620, 0.600, -0.008, 0.027, -0.024
0.420, 0.620, 0.600, -0.006, 0.033, -0.024
0.370, 0.620, 0.600, -0.005, 0.034, -0.025
0.320, 0.620, 0.600, -0.003, 0.042, -0.025
0.270, 0.620, 0.600, 0.000, 0.046, -0.024
0.220, 0.620, 0.600, 0.000, 0.052, -0.024
0.170, 0.620, 0.600, 0.000, 0.062, -0.023
0.120, 0.620, 0.600, 0.004, 0.070, -0.021
0.120, 0.670, 0.600, 0.001, 0.074, -0.030
0.170, 0.670, 0.600, 0.000, 0.070, -0.032
0.220, 0.670, 0.600, 0.000, 0.062, -0.033
0.270, 0.670, 0.600, 0.000, 0.052, -0.034
0.320, 0.670, 0.600, -0.003, 0.047, -0.034
0.370, 0.670, 0.600, -0.004, 0.042, -0.034
0.420, 0.670, 0.600, -0.006, 0.036, -0.034
0.470, 0.670, 0.600, -0.007, 0.033, -0.033
0.520, 0.670, 0.600, -0.008, 0.029, -0.033
0.570, 0.670, 0.600, -0.009, 0.024, -0.033
0.620, 0.670, 0.600, -0.009, 0.021, -0.032
0.120, 0.170, 0.640, 0.012, 0.034, 0.052
0.170, 0.170, 0.640, 0.006, 0.026, 0.052
0.220, 0.170, 0.640, 0.001, 0.021, 0.052
0.270, 0.170, 0.640, 0.000, 0.017, 0.052
0.320, 0.170, 0.640, -0.001, 0.012, 0.052
0.370, 0.170, 0.640, -0.005, 0.004, 0.052
0.420, 0.170, 0.640, -0.009, 0.000, 0.054
0.470, 0.170, 0.640, -0.012, 0.000, 0.055
0.520, 0.170, 0.640, -0.015, -0.001, 0.057
0.570, 0.170, 0.640, -0.018, -0.009, 0.058
0.620, 0.170, 0.640, -0.019, -0.012, 0.061
0.620, 0.220, 0.640, -0.015, -0.010, 0.052
0.570, 0.220, 0.640, -0.014, -0.008, 0.049
0.520, 0.220, 0.640, -0.012, -0.005, 0.048
0.470, 0.220, 0.640, -0.010, -0.001, 0.045
0.420, 0.220, 0.640, -0.007, 0.000, 0.045
0.370, 0.220, 0.640, -0.004, 0.001, 0.044
0.320, 0.220, 0.640, 0.000, 0.006, 0.043
0.270, 0.220, 0.640, 0.000, 0.010, 0.043
0.220, 0.220, 0.640, 0.002, 0.016, 0.043
0.170, 0.220, 0.640, 0.006, 0.021, 0.043
0.120, 0.220, 0.640, 0.011, 0.029, 0.042
0.120, 0.270, 0.640, 0.012, 0.030, 0.031
0.170, 0.270, 0.640, 0.007, 0.021, 0.031
0.220, 0.270, 0.640, 0.003, 0.018, 0.031
0.270, 0.270, 0.640, 0.000, 0.012, 0.032
0.320, 0.270, 0.640, 0.000, 0.007, 0.033
0.370, 0.270, 0.640, -0.003, 0.003, 0.033
0.420, 0.270, 0.640, -0.006, 0.000, 0.034
0.470, 0.270, 0.640, -0.009, 0.000, 0.034
0.520, 0.270, 0.640, -0.011, -0.003, 0.036
0.570, 0.270, 0.640, -0.012, -0.007, 0.037
0.620, 0.270, 0.640, -0.013, -0.009, 0.042
0.620, 0.320, 0.640, -0.011, -0.008, 0.030
0.570, 0.320, 0.640, -0.010, -0.005, 0.028
0.520, 0.320, 0.640, -0.009, -0.002, 0.027
0.470, 0.320, 0.640, -0.007, 0.000, 0.026
0.420, 0.320, 0.640, -0.005, 0.000, 0.025
0.370, 0.320, 0.640, -0.003, 0.004, 0.024
0.320, 0.320, 0.640, 0.000, 0.009, 0.024
0.270, 0.320, 0.640, 0.000, 0.015, 0.024
0.220, 0.320, 0.640, 0.003, 0.021, 0.024
0.170, 0.320, 0.640, 0.008, 0.027, 0.024
0.120, 0.320, 0.640, 0.013, 0.032, 0.023
0.120, 0.370, 0.640, 0.014, 0.036, 0.014
0.170, 0.370, 0.640, 0.009, 0.030, 0.015
0.220, 0.370, 0.640, 0.003, 0.022, 0.015
0.270, 0.370, 0.640, 0.000, 0.019, 0.015
0.320, 0.370, 0.640, 0.000, 0.014, 0.015
0.370, 0.370, 0.640, -0.002, 0.009, 0.015
0.420, 0.370, 0.640, -0.004, 0.003, 0.016
0.470, 0.370, 0.640, -0.007, 0.000, 0.017
0.520, 0.370, 0.640, -0.009, 0.000, 0.018
0.570, 0.370, 0.640, -0.009, 0.000, 0.019
0.620, 0.370, 0.640, -0.009, -0.002, 0.020
0.420, 0.420, 0.640, -0.004, 0.015, 0.005
0.370, 0.420, 0.640, -0.001, 0.021, 0.004
0.320, 0.420, 0.640, 0.000, 0.019, 0.003
0.270, 0.420, 0.640, 0.000, 0.030, 0.003
0.220, 0.420, 0.640, 0.004, 0.033, 0.003
0.170, 0.420, 0.640, 0.009, 0.039, 0.003
0.120, 0.420, 0.640, 0.015, 0.045, 0.003
0.120, 0.470, 0.640, 0.015, 0.050, -0.002
0.170, 0.470, 0.640, 0.009, 0.042, -0.002
0.220, 0.470, 0.640, 0.004, 0.036, -0.002
0.270, 0.470, 0.640, 0.000, 0.033, -0.002
0.320, 0.470, 0.640, 0.000, 0.025, 0.000
0.370, 0.470, 0.640, 0.000, 0.021, 0.000
0.420, 0.470, 0.640, -0.003, 0.017, 0.000
0.470, 0.470, 0.640, -0.006, 0.015, 0.000
0.520, 0.470, 0.640, -0.007, 0.009, 0.000
0.570, 0.470, 0.640, -0.009, 0.007, 0.000
0.620, 0.470, 0.640, -0.009, 0.003, 0.001
0.620, 0.520, 0.640, -0.009, 0.007, -0.006
0.570, 0.520, 0.640, -0.008, 0.008, -0.006
0.520, 0.520, 0.640, -0.007, 0.012, -0.006
0.470, 0.520, 0.640, -0.005, 0.009, -0.006
0.420, 0.520, 0.640, -0.003, 0.013, -0.007
0.370, 0.520, 0.640, 0.000, 0.017, -0.007
0.320, 0.520, 0.640, 0.000, 0.030, -0.008
0.270, 0.520, 0.640, 0.000, 0.033, -0.008
0.220, 0.520, 0.640, 0.003, 0.033, -0.006
0.170, 0.520, 0.640, 0.008, 0.036, -0.006
0.120, 0.520, 0.640, 0.013, 0.043, -0.007
0.120, 0.570, 0.640, 0.012, 0.050, -0.017
0.170, 0.570, 0.640, 0.007, 0.042, -0.018
0.220, 0.570, 0.640, 0.003, 0.033, -0.018
0.270, 0.570, 0.640, 0.000, 0.030, -0.019
0.320, 0.570, 0.640, 0.000, 0.025, -0.019
0.370, 0.570, 0.640, 0.000, 0.020, -0.018
0.420, 0.570, 0.640, -0.003, 0.015, -0.018
0.470, 0.570, 0.640, -0.004, 0.010, -0.018
0.520, 0.570, 0.640, -0.006, 0.006, -0.018
0.570, 0.570, 0.640, -0.006, 0.003, -0.018
0.620, 0.570, 0.640, -0.007, 0.000, -0.017
0.620, 0.620, 0.640, -0.006, 0.005, -0.026
0.570, 0.620, 0.640, -0.006, 0.007, -0.027
0.520, 0.620, 0.640, -0.005, 0.011, -0.027
0.470, 0.620, 0.640, -0.004, 0.015, -0.027
0.420, 0.620, 0.640, -0.003, 0.019, -0.028
0.370, 0.620, 0.640, 0.000, 0.024, -0.028
0.320, 0.620, 0.640, 0.000, 0.030, -0.029
0.270, 0.620, 0.640, 0.000, 0.033, -0.029
0.220, 0.620, 0.640, 0.001, 0.041, -0.027
0.170, 0.620, 0.640, 0.006, 0.045, -0.027
0.120, 0.620, 0.640, 0.010, 0.056, -0.025
0.120, 0.670, 0.640, 0.008, 0.063, -0.034
0.170, 0.670, 0.640, 0.004, 0.055, -0.036
0.220, 0.670, 0.640, 0.000, 0.046, -0.039
0.270, 0.670, 0.640, 0.000, 0.042, -0.042
0.320, 0.670, 0.640, 0.000, 0.033, -0.042
0.370, 0.670, 0.640, 0.000, 0.030, -0.042
0.420, 0.670, 0.640, -0.002, 0.025, -0.040
0.470, 0.670, 0.640, -0.003, 0.021, -0.038
0.520, 0.670, 0.640, -0.004, 0.015, -0.037
0.570, 0.670, 0.640, -0.006, 0.012, -0.036
0.620, 0.670, 0.640, -0.006, 0.009, -0.036
0.120, 0.170, 0.680, 0.015, 0.012, 0.050
0.170, 0.170, 0.680, 0.009, 0.006, 0.051
0.220, 0.170, 0.680, 0.005, 0.000, 0.050
0.270, 0.170, 0.680, 0.000, 0.000, 0.051
0.320, 0.170, 0.680, 0.000, -0.003, 0.051
0.370, 0.170, 0.680, -0.002, -0.007, 0.051
0.420, 0.170, 0.680, -0.006, -0.012, 0.052
0.470, 0.170, 0.680, -0.009, -0.015, 0.054
0.520, 0.170, 0.680, -0.012, -0.019, 0.055
0.570, 0.170, 0.680, -0.015, -0.021, 0.058
0.620, 0.170, 0.680, -0.016, -0.021, 0.061
0.620, 0.220, 0.680, -0.012, -0.021, 0.051
0.570, 0.220, 0.680, -0.012, -0.021, 0.048
0.520, 0.220, 0.680, -0.009, -0.018, 0.046
0.470, 0.220, 0.680, -0.007, -0.015, 0.045
0.420, 0.220, 0.680, -0.004, -0.011, 0.043
0.370, 0.220, 0.680, 0.000, -0.006, 0.042
0.320, 0.220, 0.680, 0.000, -0.003, 0.042
0.270, 0.220, 0.680, 0.001, 0.000, 0.042
0.220, 0.220, 0.680, 0.006, 0.002, 0.042
0.170, 0.220, 0.680, 0.010, 0.008, 0.041
0.120, 0.220, 0.680, 0.016, 0.015, 0.039
0.120, 0.270, 0.680, 0.017, 0.016, 0.030
0.170, 0.270, 0.680, 0.012, 0.009, 0.030
0.220, 0.270, 0.680, 0.006, 0.003, 0.030
0.270, 0.270, 0.680, 0.001, 0.000, 0.030
0.320, 0.270, 0.680, 0.000, 0.000, 0.030
0.370, 0.270, 0.680, 0.000, -0.005, 0.031
0.420, 0.270, 0.680, -0.003, -0.009, 0.032
0.470, 0.270, 0.680, -0.006, -0.012, 0.033
0.520, 0.270, 0.680, -0.008, -0.016, 0.034
0.570, 0.270, 0.680, -0.009, -0.019, 0.036
0.620, 0.270, 0.680, -0.011, -0.021, 0.039
0.620, 0.320, 0.680, -0.009, -0.020, 0.028
0.570, 0.320, 0.680, -0.007, -0.018, 0.027
0.520, 0.320, 0.680, -0.006, -0.015, 0.025
0.470, 0.320, 0.680, -0.004, -0.011, 0.024
0.420, 0.320, 0.680, -0.002, -0.006, 0.024
0.370, 0.320, 0.680, 0.000, -0.003, 0.023
0.320, 0.320, 0.680, 0.000, 0.000, 0.021
0.270, 0.320, 0.680, 0.002, 0.000, 0.022
0.220, 0.320, 0.680, 0.006, 0.006, 0.021
0.170, 0.320, 0.680, 0.012, 0.012, 0.021
0.120, 0.320, 0.680, 0.018, 0.018, 0.021
0.120, 0.370, 0.680, 0.018, 0.021, 0.009
0.170, 0.370, 0.680, 0.012, 0.015, 0.009
0.220, 0.370, 0.680, 0.007, 0.009, 0.010
0.270, 0.370, 0.680, 0.003, 0.003, 0.010
0.320, 0.370, 0.680, 0.000, 0.000, 0.012
0.370, 0.370, 0.680, 0.000, 0.000, 0.012
0.420, 0.370, 0.680, -0.001, -0.004, 0.014
0.470, 0.370, 0.680, -0.003, -0.008, 0.015
0.520, 0.370, 0.680, -0.006, -0.012, 0.015
0.570, 0.370, 0.680, -0.006, -0.015, 0.017
0.620, 0.370, 0.680, -0.007, -0.018, 0.018
0.420, 0.420, 0.680, 0.000, -0.002, 0.003
0.370, 0.420, 0.680, 0.000, 0.000, 0.003
0.320, 0.420, 0.680, 0.000, 0.001, 0.002
0.270, 0.420, 0.680, 0.003, 0.006, 0.001
0.220, 0.420, 0.680, 0.007, 0.011, 0.002
0.170, 0.420, 0.680, 0.012, 0.018, 0.002
0.120, 0.420, 0.680, 0.019, 0.021, 0.001
0.120, 0.470, 0.680, 0.019, 0.030, -0.003
0.170, 0.470, 0.680, 0.012, 0.021, -0.003
0.220, 0.470, 0.680, 0.007, 0.015, -0.003
0.270, 0.470, 0.680, 0.003, 0.009, 0.000
0.320, 0.470, 0.680, 0.000, 0.005, 0.000
0.370, 0.470, 0.680, 0.000, 0.000, 0.000
0.420, 0.470, 0.680, 0.000, 0.000, 0.000
0.470, 0.470, 0.680, -0.002, -0.003, 0.000
0.520, 0.470, 0.680, -0.003, -0.006, 0.000
0.570, 0.470, 0.680, -0.005, -0.009, 0.000
0.620, 0.470, 0.680, -0.006, -0.012, 0.000
0.620, 0.520, 0.680, -0.006, -0.009, -0.007
0.570, 0.520, 0.680, -0.005, -0.006, -0.008
0.520, 0.520, 0.680, -0.003, -0.003, -0.008
0.470, 0.520, 0.680, -0.002, 0.000, -0.009
0.420, 0.520, 0.680, 0.000, 0.000, -0.009
0.370, 0.520, 0.680, 0.000, 0.003, -0.009
0.320, 0.520, 0.680, 0.000, 0.008, -0.009
0.270, 0.520, 0.680, 0.003, 0.012, -0.009
0.220, 0.520, 0.680, 0.007, 0.018, -0.009
0.170, 0.520, 0.680, 0.012, 0.021, -0.009
0.120, 0.520, 0.680, 0.019, 0.030, -0.009
0.120, 0.570, 0.680, 0.018, 0.033, -0.020
0.170, 0.570, 0.680, 0.012, 0.030, -0.021
0.220, 0.570, 0.680, 0.007, 0.025, -0.021
0.270, 0.570, 0.680, 0.003, 0.018, -0.021
0.320, 0.570, 0.680, 0.000, 0.012, -0.022
0.370, 0.570, 0.680, 0.000, 0.007, -0.022
0.420, 0.570, 0.680, 0.000, 0.003, -0.021
0.470, 0.570, 0.680, -0.001, 0.000, -0.021
0.520, 0.570, 0.680, -0.003, 0.000, -0.021
0.570, 0.570, 0.680, -0.004, -0.003, -0.020
0.620, 0.570, 0.680, -0.006, -0.005, -0.020
0.620, 0.620, 0.680, -0.006, -0.001, -0.029
0.570, 0.620, 0.680, -0.004, 0.000, -0.030
0.520, 0.620, 0.680, -0.003, 0.000, -0.030
0.470, 0.620, 0.680, -0.001, 0.003, -0.031
0.420, 0.620, 0.680, 0.000, 0.006, -0.032
0.370, 0.620, 0.680, 0.000, 0.012, -0.032
0.320, 0.620, 0.680, 0.000, 0.016, -0.032
0.270, 0.620, 0.680, 0.003, 0.022, -0.032
0.220, 0.620, 0.680, 0.006, 0.027, -0.031
0.170, 0.620, 0.680, 0.010, 0.031, -0.030
0.120, 0.620, 0.680, 0.016, 0.039, -0.030
0.120, 0.670, 0.680, 0.014, 0.045, -0.042
0.170, 0.670, 0.680, 0.009, 0.039, -0.044
0.220, 0.670, 0.680, 0.005, 0.033, -0.045
0.270, 0.670, 0.680, 0.002, 0.028, -0.046
0.320, 0.670, 0.680, 0.000, 0.023, -0.046
0.370, 0.670, 0.680, 0.000, 0.018, -0.046
0.420, 0.670, 0.680, 0.000, 0.012, -0.045
0.470, 0.670, 0.680, 0.000, 0.008, -0.045
0.520, 0.670, 0.680, -0.002, 0.004, -0.044
0.570, 0.670, 0.680, -0.003, 0.000, -0.043
0.620, 0.670, 0.680, -0.005, 0.000, -0.042
0.120, 0.170, 0.720, 0.021, 0.000, 0.051
0.170, 0.170, 0.720, 0.015, -0.003, 0.051
0.220, 0.170, 0.720, 0.009, -0.007, 0.051
0.270, 0.170, 0.720, 0.003, -0.012, 0.051
0.320, 0.170, 0.720, 0.000, -0.016, 0.051
0.370, 0.170, 0.720, 0.000, -0.021, 0.052
0.420, 0.170, 0.720, -0.003, -0.024, 0.052
0.470, 0.170, 0.720, -0.006, -0.028, 0.054
0.520, 0.170, 0.720, -0.010, -0.031, 0.055
0.570, 0.170, 0.720, -0.012, -0.032, 0.057
0.620, 0.170, 0.720, -0.015, -0.034, 0.061
0.620, 0.220, 0.720, -0.012, -0.033, 0.049
0.570, 0.220, 0.720, -0.009, -0.033, 0.047
0.520, 0.220, 0.720, -0.007, -0.030, 0.045
0.470, 0.220, 0.720, -0.004, -0.027, 0.044
0.420, 0.220, 0.720, -0.001, -0.023, 0.043
0.370, 0.220, 0.720, 0.000, -0.018, 0.042
0.320, 0.220, 0.720, 0.000, -0.015, 0.042
0.270, 0.220, 0.720, 0.004, -0.010, 0.041
0.220, 0.220, 0.720, 0.009, -0.006, 0.040
0.170, 0.220, 0.720, 0.015, 0.000, 0.039
0.120, 0.220, 0.720, 0.021, 0.000, 0.038
0.120, 0.270, 0.720, 0.022, 0.001, 0.028
0.170, 0.270, 0.720, 0.015, 0.000, 0.029
0.220, 0.270, 0.720, 0.010, -0.003, 0.029
0.270, 0.270, 0.720, 0.005, -0.009, 0.030
0.320, 0.270, 0.720, 0.000, -0.012, 0.030
0.370, 0.270, 0.720, 0.000, -0.016, 0.030
0.420, 0.270, 0.720, 0.000, -0.021, 0.031
0.470, 0.270, 0.720, -0.003, -0.024, 0.032
0.520, 0.270, 0.720, -0.006, -0.027, 0.033
0.570, 0.270, 0.720, -0.007, -0.030, 0.035
0.620, 0.270, 0.720, -0.009, -0.030, 0.036
0.620, 0.320, 0.720, -0.007, -0.030, 0.027
0.570, 0.320, 0.720, -0.006, -0.028, 0.025
0.520, 0.320, 0.720, -0.003, -0.024, 0.024
0.470, 0.320, 0.720, -0.001, -0.021, 0.023
0.420, 0.320, 0.720, 0.000, -0.018, 0.021
0.370, 0.320, 0.720, 0.000, -0.013, 0.021
0.320, 0.320, 0.720, 0.001, -0.009, 0.021
0.270, 0.320, 0.720, 0.006, -0.006, 0.021
0.220, 0.320, 0.720, 0.011, 0.000, 0.020
0.170, 0.320, 0.720, 0.017, 0.000, 0.019
0.120, 0.320, 0.720, 0.024, 0.006, 0.018
0.120, 0.370, 0.720, 0.024, 0.009, 0.007
0.170, 0.370, 0.720, 0.018, 0.003, 0.008
0.220, 0.370, 0.720, 0.012, 0.000, 0.008
0.270, 0.370, 0.720, 0.006, -0.002, 0.009
0.320, 0.370, 0.720, 0.002, -0.006, 0.009
0.370, 0.370, 0.720, 0.000, -0.010, 0.009
0.420, 0.370, 0.720, 0.000, -0.014, 0.010
0.470, 0.370, 0.720, 0.000, -0.018, 0.011
0.520, 0.370, 0.720, -0.003, -0.021, 0.014
0.570, 0.370, 0.720, -0.004, -0.023, 0.015
0.620, 0.370, 0.720, -0.006, -0.027, 0.016
0.420, 0.420, 0.720, 0.000, -0.010, 0.000
0.370, 0.420, 0.720, 0.000, -0.006, 0.000
0.320, 0.420, 0.720, 0.003, -0.002, 0.000
0.270, 0.420, 0.720, 0.006, 0.000, 0.000
0.220, 0.420, 0.720, 0.012, 0.001, 0.000
0.170, 0.420, 0.720, 0.018, 0.007, 0.000
0.120, 0.420, 0.720, 0.025, 0.013, 0.000
0.120, 0.470, 0.720, 0.025, 0.018, -0.006
0.170, 0.470, 0.720, 0.018, 0.012, -0.006
0.220, 0.470, 0.720, 0.012, 0.006, -0.003
0.270, 0.470, 0.720, 0.007, 0.000, -0.003
0.320, 0.470, 0.720, 0.003, 0.000, -0.003
0.370, 0.470, 0.720, 0.000, -0.001, -0.003
0.420, 0.470, 0.720, 0.000, -0.004, -0.003
0.470, 0.470, 0.720, 0.000, -0.004, -0.002
0.520, 0.470, 0.720, -0.001, -0.012, -0.001
0.570, 0.470, 0.720, -0.003, -0.015, 0.000
0.620, 0.470, 0.720, -0.006, -0.018, 0.000
0.620, 0.520, 0.720, -0.006, -0.015, -0.009
0.570, 0.520, 0.720, -0.003, -0.012, -0.011
0.520, 0.520, 0.720, -0.001, -0.009, -0.013
0.470, 0.520, 0.720, 0.000, -0.006, -0.015
0.420, 0.520, 0.720, 0.000, -0.003, -0.015
0.370, 0.520, 0.720, 0.000, 0.000, -0.015
0.320, 0.520, 0.720, 0.003, 0.000, -0.015
0.270, 0.520, 0.720, 0.008, 0.004, -0.015
0.220, 0.520, 0.720, 0.012, 0.009, -0.015
0.170, 0.520, 0.720, 0.018, 0.015, -0.015
0.120, 0.520, 0.720, 0.025, 0.021, -0.014
0.120, 0.570, 0.720, 0.024, 0.022, -0.023
0.170, 0.570, 0.720, 0.018, 0.018, -0.024
0.220, 0.570, 0.720, 0.012, 0.012, -0.024
0.270, 0.570, 0.720, 0.007, 0.008, -0.025
0.320, 0.570, 0.720, 0.003, 0.003, -0.025
0.370, 0.570, 0.720, 0.000, 0.000, -0.024
0.420, 0.570, 0.720, 0.000, 0.000, -0.024
0.470, 0.570, 0.720, 0.000, -0.003, -0.024
0.520, 0.570, 0.720, 0.000, -0.007, -0.024
0.570, 0.570, 0.720, -0.002, -0.010, -0.023
0.620, 0.570, 0.720, -0.005, -0.013, -0.022
0.620, 0.620, 0.720, -0.004, -0.009, -0.032
0.570, 0.620, 0.720, -0.003, -0.007, -0.033
0.520, 0.620, 0.720, 0.000, -0.003, -0.033
0.470, 0.620, 0.720, 0.000, 0.000, -0.034
0.420, 0.620, 0.720, 0.000, 0.000, -0.035
0.370, 0.620, 0.720, 0.000, 0.003, -0.036
0.320, 0.620, 0.720, 0.003, 0.007, -0.036
0.270, 0.620, 0.720, 0.006, 0.012, -0.036
0.220, 0.620, 0.720, 0.011, 0.017, -0.036
0.170, 0.620, 0.720, 0.016, 0.024, -0.034
0.120, 0.620, 0.720, 0.022, 0.030, -0.033
0.120, 0.670, 0.720, 0.021, 0.033, -0.047
0.170, 0.670, 0.720, 0.015, 0.029, -0.048
0.220, 0.670, 0.720, 0.010, 0.021, -0.049
0.270, 0.670, 0.720, 0.006, 0.017, -0.051
0.320, 0.670, 0.720, 0.003, 0.012, -0.051
0.370, 0.670, 0.720, 0.001, 0.007, -0.050
0.420, 0.670, 0.720, 0.000, 0.003, -0.049
0.470, 0.670, 0.720, 0.000, 0.000, -0.049
0.520, 0.670, 0.720, 0.000, 0.000, -0.048
0.570, 0.670, 0.720, 0.000, -0.003, -0.046
0.620, 0.670, 0.720, -0.003, -0.006, -0.046
0.120, 0.170, 0.760, 0.024, -0.009, 0.050
0.170, 0.170, 0.760, 0.018, -0.015, 0.050
0.220, 0.170, 0.760, 0.012, -0.018, 0.050
0.270, 0.170, 0.760, 0.006, -0.022, 0.050
0.320, 0.170, 0.760, 0.002, -0.027, 0.050
0.370, 0.170, 0.760, 0.000, -0.030, 0.051
0.420, 0.170, 0.760, 0.000, -0.033, 0.051
0.470, 0.170, 0.760, -0.003, -0.033, 0.052
0.520, 0.170, 0.760, -0.007, -0.038, 0.055
0.570, 0.170, 0.760, -0.010, -0.042, 0.057
0.620, 0.170, 0.760, -0.013, -0.045, 0.060
0.620, 0.220, 0.760, -0.010, -0.042, 0.048
0.570, 0.220, 0.760, -0.007, -0.042, 0.046
0.520, 0.220, 0.760, -0.005, -0.036, 0.044
0.470, 0.220, 0.760, -0.002, -0.033, 0.042
0.420, 0.220, 0.760, 0.000, -0.032, 0.041
0.370, 0.220, 0.760, 0.000, -0.027, 0.039
0.320, 0.220, 0.760, 0.003, -0.024, 0.038
0.270, 0.220, 0.760, 0.007, -0.021, 0.037
0.220, 0.220, 0.760, 0.012, -0.016, 0.037
0.170, 0.220, 0.760, 0.018, -0.012, 0.037
0.120, 0.220, 0.760, 0.026, -0.008, 0.036
0.120, 0.270, 0.760, 0.027, -0.005, 0.027
0.170, 0.270, 0.760, 0.019, -0.009, 0.027
0.220, 0.270, 0.760, 0.013, -0.014, 0.027
0.270, 0.270, 0.760, 0.008, -0.018, 0.027
0.320, 0.270, 0.760, 0.003, -0.021, 0.028
0.370, 0.270, 0.760, 0.000, -0.025, 0.029
0.420, 0.270, 0.760, 0.000, -0.029, 0.030
0.470, 0.270, 0.760, 0.000, -0.032, 0.030
0.520, 0.270, 0.760, -0.003, -0.033, 0.032
0.570, 0.270, 0.760, -0.006, -0.036, 0.033
0.620, 0.270, 0.760, -0.007, -0.042, 0.035
0.620, 0.320, 0.760, -0.005, -0.036, 0.024
0.570, 0.320, 0.760, -0.003, -0.033, 0.024
0.520, 0.320, 0.760, -0.001, -0.033, 0.021
0.470, 0.320, 0.760, 0.000, -0.030, 0.021
0.420, 0.320, 0.760, 0.000, -0.027, 0.020
0.370, 0.320, 0.760, 0.000, -0.023, 0.019
0.320, 0.320, 0.760, 0.004, -0.018, 0.019
0.270, 0.320, 0.760, 0.009, -0.015, 0.018
0.220, 0.320, 0.760, 0.014, -0.012, 0.018
0.170, 0.320, 0.760, 0.020, -0.006, 0.018
0.120, 0.320, 0.760, 0.028, -0.002, 0.018
0.120, 0.370, 0.760, 0.029, 0.000, 0.006
0.170, 0.370, 0.760, 0.021, -0.004, 0.006
0.220, 0.370, 0.760, 0.015, -0.009, 0.006
0.270, 0.370, 0.760, 0.009, -0.012, 0.006
0.320, 0.370, 0.760, 0.005, -0.016, 0.006
0.370, 0.370, 0.760, 0.001, -0.020, 0.007
0.420, 0.370, 0.760, 0.000, -0.024, 0.008
0.470, 0.370, 0.760, 0.000, -0.027, 0.009
0.520, 0.370, 0.760, 0.000, -0.030, 0.009
0.570, 0.370, 0.760, -0.003, -0.033, 0.010
0.620, 0.370, 0.760, -0.004, -0.033, 0.014
0.420, 0.420, 0.760, 0.000, -0.021, 0.000
0.370, 0.420, 0.760, 0.002, -0.017, 0.000
0.320, 0.420, 0.760, 0.006, -0.013, 0.000
0.270, 0.420, 0.760, 0.009, -0.009, 0.000
0.220, 0.420, 0.760, 0.015, -0.006, 0.000
0.170, 0.420, 0.760, 0.021, -0.001, 0.000
0.120, 0.420, 0.760, 0.030, 0.000, 0.000
0.120, 0.470, 0.760, 0.030, 0.001, -0.008
0.170, 0.470, 0.760, 0.022, 0.000, -0.006
0.220, 0.470, 0.760, 0.015, -0.003, -0.005
0.270, 0.470, 0.760, 0.010, -0.007, -0.005
0.320, 0.470, 0.760, 0.006, -0.010, -0.005
0.370, 0.470, 0.760, 0.003, -0.015, -0.005
0.420, 0.470, 0.760, 0.000, -0.018, -0.004
0.470, 0.470, 0.760, 0.000, -0.021, -0.003
0.520, 0.470, 0.760, 0.000, -0.024, -0.003
0.570, 0.470, 0.760, -0.001, -0.028, -0.003
0.620, 0.470, 0.760, -0.003, -0.030, -0.002
0.620, 0.520, 0.760, -0.003, -0.027, -0.015
0.570, 0.520, 0.760, 0.000, -0.022, -0.015
0.520, 0.520, 0.760, 0.000, -0.021, -0.015
0.470, 0.520, 0.760, 0.000, -0.018, -0.016
0.420, 0.520, 0.760, 0.000, -0.015, -0.017
0.370, 0.520, 0.760, 0.003, -0.012, -0.018
0.320, 0.520, 0.760, 0.006, -0.007, -0.018
0.270, 0.520, 0.760, 0.010, -0.003, -0.018
0.220, 0.520, 0.760, 0.015, 0.000, -0.018
0.170, 0.520, 0.760, 0.021, 0.000, -0.017
0.120, 0.520, 0.760, 0.030, 0.005, -0.017
0.120, 0.570, 0.760, 0.029, 0.009, -0.026
0.170, 0.570, 0.760, 0.021, 0.003, -0.027
0.220, 0.570, 0.760, 0.015, 0.000, -0.027
0.270, 0.570, 0.760, 0.011, 0.000, -0.027
0.320, 0.570, 0.760, 0.006, -0.004, -0.027
0.370, 0.570, 0.760, 0.003, -0.008, -0.027
0.420, 0.570, 0.760, 0.000, -0.012, -0.027
0.470, 0.570, 0.760, 0.000, -0.015, -0.026
0.520, 0.570, 0.760, 0.000, -0.018, -0.025
0.570, 0.570, 0.760, 0.000, -0.021, -0.024
0.620, 0.570, 0.760, -0.003, -0.022, -0.024
0.620, 0.620, 0.760, -0.002, -0.021, -0.034
0.570, 0.620, 0.760, 0.000, -0.019, -0.036
0.520, 0.620, 0.760, 0.000, -0.016, -0.036
0.470, 0.620, 0.760, 0.000, -0.012, -0.037
0.420, 0.620, 0.760, 0.000, -0.009, -0.039
0.370, 0.620, 0.760, 0.003, -0.005, -0.041
0.320, 0.620, 0.760, 0.006, -0.001, -0.042
0.270, 0.620, 0.760, 0.010, 0.000, -0.042
0.220, 0.620, 0.760, 0.015, 0.002, -0.042
0.170, 0.620, 0.760, 0.021, 0.006, -0.039
0.120, 0.620, 0.760, 0.027, 0.012, -0.036
0.120, 0.670, 0.760, 0.025, 0.018, -0.051
0.170, 0.670, 0.760, 0.018, 0.012, -0.052
0.220, 0.670, 0.760, 0.015, 0.006, -0.054
0.270, 0.670, 0.760, 0.010, 0.001, -0.054
0.320, 0.670, 0.760, 0.007, 0.000, -0.054
0.370, 0.670, 0.760, 0.004, -0.001, -0.053
0.420, 0.670, 0.760, 0.003, -0.006, -0.052
0.470, 0.670, 0.760, 0.000, -0.009, -0.052
0.520, 0.670, 0.760, 0.000, -0.013, -0.050
0.570, 0.670, 0.760, 0.000, -0.016, -0.049
0.620, 0.670, 0.760, -0.001, -0.019, -0.048
0.120, 0.170, 0.800, 0.028, -0.027, 0.049
0.170, 0.170, 0.800, 0.021, -0.031, 0.049
0.220, 0.170, 0.800, 0.015, -0.033, 0.049
0.270, 0.170, 0.800, 0.009, -0.035, 0.049
0.320, 0.170, 0.800, 0.004, -0.039, 0.049
0.370, 0.170, 0.800, 0.000, -0.042, 0.049
0.420, 0.170, 0.800, 0.000, -0.044, 0.051
0.470, 0.170, 0.800, -0.002, -0.048, 0.052
0.520, 0.170, 0.800, -0.006, -0.051, 0.053
0.570, 0.170, 0.800, -0.007, -0.055, 0.055
0.620, 0.170, 0.800, -0.011, -0.058, 0.058
0.620, 0.220, 0.800, -0.007, -0.055, 0.046
0.570, 0.220, 0.800, -0.005, -0.052, 0.045
0.520, 0.220, 0.800, -0.002, -0.048, 0.042
0.470, 0.220, 0.800, 0.000, -0.045, 0.041
0.420, 0.220, 0.800, 0.000, -0.042, 0.037
0.370, 0.220, 0.800, 0.001, -0.040, 0.036
0.320, 0.220, 0.800, 0.006, -0.035, 0.036
0.270, 0.220, 0.800, 0.010, -0.033, 0.036
0.220, 0.220, 0.800, 0.015, -0.031, 0.036
0.170, 0.220, 0.800, 0.022, -0.028, 0.036
0.120, 0.220, 0.800, 0.030, -0.024, 0.035
0.120, 0.270, 0.800, 0.031, -0.021, 0.025
0.170, 0.270, 0.800, 0.023, -0.025, 0.026
0.220, 0.270, 0.800, 0.015, -0.028, 0.027
0.270, 0.270, 0.800, 0.010, -0.031, 0.027
0.320, 0.270, 0.800, 0.006, -0.033, 0.027
0.370, 0.270, 0.800, 0.002, -0.035, 0.027
0.420, 0.270, 0.800, 0.000, -0.040, 0.028
0.470, 0.270, 0.800, 0.000, -0.042, 0.029
0.520, 0.270, 0.800, -0.002, -0.045, 0.030
0.570, 0.270, 0.800, -0.003, -0.048, 0.031
0.620, 0.270, 0.800, -0.006, -0.051, 0.033
0.620, 0.320, 0.800, -0.003, -0.048, 0.022
0.570, 0.320, 0.800, 0.000, -0.045, 0.021
0.520, 0.320, 0.800, 0.000, -0.042, 0.020
0.470, 0.320, 0.800, 0.000, -0.039, 0.018
0.420, 0.320, 0.800, 0.000, -0.035, 0.018
0.370, 0.320, 0.800, 0.003, -0.033, 0.018
0.320, 0.320, 0.800, 0.007, -0.032, 0.017
0.270, 0.320, 0.800, 0.012, -0.028, 0.016
0.220, 0.320, 0.800, 0.017, -0.025, 0.016
0.170, 0.320, 0.800, 0.024, -0.021, 0.015
0.120, 0.320, 0.800, 0.032, -0.018, 0.015
0.120, 0.370, 0.800, 0.033, -0.015, 0.003
0.170, 0.370, 0.800, 0.024, -0.018, 0.003
0.220, 0.370, 0.800, 0.018, -0.021, 0.005
0.270, 0.370, 0.800, 0.012, -0.025, 0.005
0.320, 0.370, 0.800, 0.007, -0.028, 0.006
0.370, 0.370, 0.800, 0.003, -0.032, 0.006
0.420, 0.370, 0.800, 0.000, -0.033, 0.006
0.470, 0.370, 0.800, 0.000, -0.034, 0.007
0.520, 0.370, 0.800, 0.000, -0.040, 0.008
0.570, 0.370, 0.800, 0.000, -0.042, 0.009
0.620, 0.370, 0.800, -0.003, -0.045, 0.009
0.420, 0.420, 0.800, 0.002, -0.031, 0.000
0.370, 0.420, 0.800, 0.005, -0.027, 0.000
0.320, 0.420, 0.800, 0.009, -0.024, 0.000
0.270, 0.420, 0.800, 0.013, -0.022, -0.001
0.220, 0.420, 0.800, 0.018, -0.018, -0.002
0.170, 0.420, 0.800, 0.025, -0.015, -0.002
0.120, 0.420, 0.800, 0.033, -0.011, -0.003
0.120, 0.470, 0.800, 0.034, -0.008, -0.009
0.170, 0.470, 0.800, 0.025, -0.012, -0.007
0.220, 0.470, 0.800, 0.018, -0.015, -0.007
0.270, 0.470, 0.800, 0.013, -0.018, -0.006
0.320, 0.470, 0.800, 0.009, -0.022, -0.006
0.370, 0.470, 0.800, 0.006, -0.025, -0.006
0.420, 0.470, 0.800, 0.003, -0.028, -0.006
0.470, 0.470, 0.800, 0.000, -0.031, -0.006
0.520, 0.470, 0.800, 0.000, -0.033, -0.004
0.570, 0.470, 0.800, 0.000, -0.036, -0.004
0.620, 0.470, 0.800, 0.000, -0.042, -0.004
0.620, 0.520, 0.800, 0.000, -0.036, -0.016
0.570, 0.520, 0.800, 0.000, -0.033, -0.017
0.520, 0.520, 0.800, 0.000, -0.033, -0.018
0.470, 0.520, 0.800, 0.000, -0.029, -0.018
0.420, 0.520, 0.800, 0.003, -0.026, -0.018
0.370, 0.520, 0.800, 0.006, -0.022, -0.019
0.320, 0.520, 0.800, 0.009, -0.019, -0.019
0.270, 0.520, 0.800, 0.013, -0.015, -0.020
0.220, 0.520, 0.800, 0.018, -0.012, -0.020
0.170, 0.520, 0.800, 0.025, -0.009, -0.020
0.120, 0.520, 0.800, 0.033, -0.005, -0.019
0.120, 0.570, 0.800, 0.033, -0.001, -0.028
0.170, 0.570, 0.800, 0.025, -0.006, -0.029
0.220, 0.570, 0.800, 0.019, -0.009, -0.030
0.270, 0.570, 0.800, 0.014, -0.013, -0.030
0.320, 0.570, 0.800, 0.009, -0.016, -0.030
0.370, 0.570, 0.800, 0.006, -0.019, -0.029
0.420, 0.570, 0.800, 0.003, -0.023, -0.028
0.470, 0.570, 0.800, 0.002, -0.026, -0.027
0.520, 0.570, 0.800, 0.000, -0.030, -0.027
0.570, 0.570, 0.800, 0.000, -0.033, -0.027
0.620, 0.570, 0.800, 0.000, -0.033, -0.025
0.620, 0.620, 0.800, 0.000, -0.031, -0.036
0.570, 0.620, 0.800, 0.000, -0.031, -0.037
0.520, 0.620, 0.800, 0.003, -0.027, -0.039
0.470, 0.620, 0.800, 0.003, -0.024, -0.042
0.420, 0.620, 0.800, 0.003, -0.021, -0.043
0.370, 0.620, 0.800, 0.006, -0.017, -0.043
0.320, 0.620, 0.800, 0.009, -0.013, -0.045
0.270, 0.620, 0.800, 0.012, -0.009, -0.044
0.220, 0.620, 0.800, 0.018, -0.006, -0.044
0.170, 0.620, 0.800, 0.024, -0.002, -0.043
0.120, 0.620, 0.800, 0.031, 0.000, -0.042
0.120, 0.670, 0.800, 0.030, 0.000, -0.054
0.170, 0.670, 0.800, 0.022, 0.000, -0.055
0.220, 0.670, 0.800, 0.018, -0.003, -0.056
0.270, 0.670, 0.800, 0.013, -0.006, -0.056
0.320, 0.670, 0.800, 0.010, -0.010, -0.056
0.370, 0.670, 0.800, 0.008, -0.013, -0.055
0.420, 0.670, 0.800, 0.006, -0.018, -0.055
0.470, 0.670, 0.800, 0.003, -0.021, -0.053
0.520, 0.670, 0.800, 0.003, -0.024, -0.052
0.570, 0.670, 0.800, 0.003, -0.027, -0.051
0.620, 0.670, 0.800, 0.000, -0.030, -0.049
0.120, 0.170, 0.840, 0.031, -0.042, 0.046
0.170, 0.170, 0.840, 0.023, -0.042, 0.047
0.220, 0.170, 0.840, 0.016, -0.044, 0.048
0.270, 0.170, 0.840, 0.011, -0.046, 0.048
0.320, 0.170, 0.840, 0.006, -0.048, 0.048
0.370, 0.170, 0.840, 0.001, -0.051, 0.048
0.420, 0.170, 0.840, 0.000, -0.054, 0.048
0.470, 0.170, 0.840, 0.000, -0.057, 0.049
0.520, 0.170, 0.840, -0.003, -0.060, 0.051
0.570, 0.170, 0.840, -0.006, -0.064, 0.053
0.620, 0.170, 0.840, -0.009, -0.068, 0.056
0.620, 0.220, 0.840, -0.005, -0.064, 0.044
0.570, 0.220, 0.840, -0.002, -0.060, 0.042
0.520, 0.220, 0.840, 0.000, -0.056, 0.038
0.470, 0.220, 0.840, 0.000, -0.052, 0.036
0.420, 0.220, 0.840, 0.000, -0.049, 0.036
0.370, 0.220, 0.840, 0.003, -0.047, 0.034
0.320, 0.220, 0.840, 0.007, -0.045, 0.033
0.270, 0.220, 0.840, 0.012, -0.042, 0.033
0.220, 0.220, 0.840, 0.018, -0.042, 0.033
0.170, 0.220, 0.840, 0.024, -0.038, 0.033
0.120, 0.220, 0.840, 0.033, -0.035, 0.033
0.120, 0.270, 0.840, 0.033, -0.033, 0.022
0.170, 0.270, 0.840, 0.025, -0.034, 0.024
0.220, 0.270, 0.840, 0.018, -0.036, 0.024
0.270, 0.270, 0.840, 0.012, -0.042, 0.024
0.320, 0.270, 0.840, 0.008, -0.042, 0.025
0.370, 0.270, 0.840, 0.004, -0.043, 0.025
0.420, 0.270, 0.840, 0.000, -0.046, 0.026
0.470, 0.270, 0.840, 0.000, -0.049, 0.027
0.520, 0.270, 0.840, 0.000, -0.052, 0.028
0.570, 0.270, 0.840, -0.001, -0.055, 0.030
0.620, 0.270, 0.840, -0.003, -0.060, 0.030
0.620, 0.320, 0.840, 0.000, -0.056, 0.021
0.570, 0.320, 0.840, 0.000, -0.052, 0.019
0.520, 0.320, 0.840, 0.000, -0.048, 0.018
0.470, 0.320, 0.840, 0.000, -0.045, 0.017
0.420, 0.320, 0.840, 0.002, -0.042, 0.016
0.370, 0.320, 0.840, 0.005, -0.042, 0.015
0.320, 0.320, 0.840, 0.009, -0.039, 0.015
0.270, 0.320, 0.840, 0.013, -0.036, 0.014
0.220, 0.320, 0.840, 0.019, -0.033, 0.012
0.170, 0.320, 0.840, 0.026, -0.033, 0.011
0.120, 0.320, 0.840, 0.034, -0.031, 0.010
0.120, 0.370, 0.840, 0.035, -0.028, 0.001
0.170, 0.370, 0.840, 0.027, -0.030, 0.002
0.220, 0.370, 0.840, 0.019, -0.033, 0.003
0.270, 0.370, 0.840, 0.014, -0.033, 0.003
0.320, 0.370, 0.840, 0.009, -0.034, 0.003
0.370, 0.370, 0.840, 0.006, -0.038, 0.004
0.420, 0.370, 0.840, 0.003, -0.042, 0.005
0.470, 0.370, 0.840, 0.000, -0.042, 0.006
0.520, 0.370, 0.840, 0.000, -0.046, 0.006
0.570, 0.370, 0.840, 0.000, -0.049, 0.006
0.620, 0.370, 0.840, 0.000, -0.053, 0.007
0.420, 0.420, 0.840, 0.003, -0.037, 0.000
0.370, 0.420, 0.840, 0.006, -0.034, 0.000
0.320, 0.420, 0.840, 0.010, -0.033, 0.000
0.270, 0.420, 0.840, 0.015, -0.032, -0.003
0.220, 0.420, 0.840, 0.021, -0.030, -0.003
0.170, 0.420, 0.840, 0.027, -0.027, -0.003
0.120, 0.420, 0.840, 0.036, -0.025, -0.004
0.120, 0.470, 0.840, 0.036, -0.022, -0.009
0.170, 0.470, 0.840, 0.027, -0.024, -0.009
0.220, 0.470, 0.840, 0.021, -0.027, -0.009
0.270, 0.470, 0.840, 0.015, -0.030, -0.009
0.320, 0.470, 0.840, 0.011, -0.033, -0.008
0.370, 0.470, 0.840, 0.007, -0.033, -0.007
0.420, 0.470, 0.840, 0.005, -0.034, -0.006
0.470, 0.470, 0.840, 0.003, -0.039, -0.006
0.520, 0.470, 0.840, 0.001, -0.042, -0.006
0.570, 0.470, 0.840, 0.000, -0.045, -0.006
0.620, 0.470, 0.840, 0.000, -0.048, -0.006
0.620, 0.520, 0.840, 0.000, -0.046, -0.018
0.570, 0.520, 0.840, 0.002, -0.042, -0.018
0.520, 0.520, 0.840, 0.003, -0.042, -0.018
0.470, 0.520, 0.840, 0.003, -0.036, -0.019
0.420, 0.520, 0.840, 0.005, -0.033, -0.020
0.370, 0.520, 0.840, 0.007, -0.033, -0.021
0.320, 0.520, 0.840, 0.011, -0.030, -0.021
0.270, 0.520, 0.840, 0.015, -0.028, -0.021
0.220, 0.520, 0.840, 0.021, -0.025, -0.021
0.170, 0.520, 0.840, 0.027, -0.022, -0.021
0.120, 0.520, 0.840, 0.036, -0.020, -0.021
0.120, 0.570, 0.840, 0.036, -0.017, -0.030
0.170, 0.570, 0.840, 0.028, -0.019, -0.030
0.220, 0.570, 0.840, 0.021, -0.022, -0.030
0.270, 0.570, 0.840, 0.016, -0.024, -0.030
0.320, 0.570, 0.840, 0.012, -0.024, -0.030
0.370, 0.570, 0.840, 0.009, -0.029, -0.030
0.420, 0.570, 0.840, 0.006, -0.031, -0.030
0.470, 0.570, 0.840, 0.004, -0.033, -0.029
0.520, 0.570, 0.840, 0.003, -0.036, -0.028
0.570, 0.570, 0.840, 0.002, -0.042, -0.027
0.620, 0.570, 0.840, 0.000, -0.043, -0.027
0.620, 0.620, 0.840, 0.000, -0.042, -0.037
0.570, 0.620, 0.840, 0.003, -0.041, -0.040
0.520, 0.620, 0.840, 0.003, -0.035, -0.042
0.470, 0.620, 0.840, 0.004, -0.033, -0.043
0.420, 0.620, 0.840, 0.006, -0.027, -0.045
0.370, 0.620, 0.840, 0.009, -0.024, -0.045
0.320, 0.620, 0.840, 0.012, -0.025, -0.046
0.270, 0.620, 0.840, 0.015, -0.023, -0.046
0.220, 0.620, 0.840, 0.020, -0.020, -0.046
0.170, 0.620, 0.840, 0.026, -0.018, -0.045
0.120, 0.620, 0.840, 0.034, -0.015, -0.045
0.120, 0.670, 0.840, 0.033, -0.012, -0.056
0.170, 0.670, 0.840, 0.026, -0.015, -0.057
0.220, 0.670, 0.840, 0.021, -0.018, -0.057
0.270, 0.670, 0.840, 0.016, -0.022, -0.058
0.320, 0.670, 0.840, 0.013, -0.024, -0.057
0.370, 0.670, 0.840, 0.011, -0.028, -0.057
0.420, 0.670, 0.840, 0.009, -0.031, -0.055
0.470, 0.670, 0.840, 0.006, -0.033, -0.055
0.520, 0.670, 0.840, 0.004, -0.035, -0.053
0.570, 0.670, 0.840, 0.003, -0.041, -0.051
0.620, 0.670, 0.840, 0.003, -0.042, -0.051
0.120, 0.170, 0.880, 0.032, -0.058, 0.045
0.170, 0.170, 0.880, 0.024, -0.059, 0.045
0.220, 0.170, 0.880, 0.018, -0.061, 0.045
0.270, 0.170, 0.880, 0.012, -0.061, 0.045
0.320, 0.170, 0.880, 0.007, -0.064, 0.045
0.370, 0.170, 0.880, 0.003, -0.065, 0.045
0.420, 0.170, 0.880, 0.000, -0.068, 0.045
0.470, 0.170, 0.880, 0.000, -0.070, 0.046
0.520, 0.170, 0.880, 0.000, -0.073, 0.048
0.570, 0.170, 0.880, -0.003, -0.076, 0.049
0.620, 0.170, 0.880, -0.004, -0.082, 0.052
0.620, 0.220, 0.880, -0.001, -0.076, 0.041
0.570, 0.220, 0.880, 0.000, -0.073, 0.036
0.520, 0.220, 0.880, 0.000, -0.070, 0.036
0.470, 0.220, 0.880, 0.000, -0.066, 0.033
0.420, 0.220, 0.880, 0.002, -0.063, 0.033
0.370, 0.220, 0.880, 0.005, -0.061, 0.033
0.320, 0.220, 0.880, 0.009, -0.058, 0.032
0.270, 0.220, 0.880, 0.013, -0.057, 0.031
0.220, 0.220, 0.880, 0.018, -0.055, 0.031
0.170, 0.220, 0.880, 0.025, -0.055, 0.030
0.120, 0.220, 0.880, 0.033, -0.054, 0.030
0.120, 0.270, 0.880, 0.034, -0.049, 0.020
0.170, 0.270, 0.880, 0.027, -0.051, 0.021
0.220, 0.270, 0.880, 0.019, -0.052, 0.021
0.270, 0.270, 0.880, 0.014, -0.053, 0.022
0.320, 0.270, 0.880, 0.009, -0.055, 0.022
0.370, 0.270, 0.880, 0.006, -0.057, 0.023
0.420, 0.270, 0.880, 0.003, -0.058, 0.024
0.470, 0.270, 0.880, 0.000, -0.061, 0.024
0.520, 0.270, 0.880, 0.000, -0.064, 0.025
0.570, 0.270, 0.880, 0.000, -0.067, 0.027
0.620, 0.270, 0.880, 0.000, -0.073, 0.028
0.620, 0.320, 0.880, 0.000, -0.067, 0.018
0.570, 0.320, 0.880, 0.001, -0.063, 0.017
0.520, 0.320, 0.880, 0.000, -0.055, 0.016
0.470, 0.320, 0.880, 0.002, -0.054, 0.015
0.420, 0.320, 0.880, 0.003, -0.054, 0.014
0.370, 0.320, 0.880, 0.006, -0.053, 0.011
0.320, 0.320, 0.880, 0.010, -0.051, 0.009
0.270, 0.320, 0.880, 0.015, -0.049, 0.009
0.220, 0.320, 0.880, 0.021, -0.048, 0.009
0.170, 0.320, 0.880, 0.027, -0.047, 0.008
0.120, 0.320, 0.880, 0.036, -0.046, 0.007
0.120, 0.370, 0.880, 0.036, -0.042, 0.000
0.170, 0.370, 0.880, 0.028, -0.043, 0.000
0.220, 0.370, 0.880, 0.021, -0.045, 0.000
0.270, 0.370, 0.880, 0.016, -0.046, 0.001
0.320, 0.370, 0.880, 0.012, -0.048, 0.002
0.370, 0.370, 0.880, 0.008, -0.050, 0.002
0.420, 0.370, 0.880, 0.005, -0.052, 0.003
0.470, 0.370, 0.880, 0.003, -0.055, 0.003
0.520, 0.370, 0.880, 0.003, -0.058, 0.004
0.570, 0.370, 0.880, 0.003, -0.061, 0.005
0.620, 0.370, 0.880, 0.001, -0.066, 0.006
0.420, 0.420, 0.880, 0.006, -0.049, 0.000
0.370, 0.420, 0.880, 0.009, -0.046, 0.000
0.320, 0.420, 0.880, 0.012, -0.045, -0.001
0.270, 0.420, 0.880, 0.016, -0.043, -0.003
0.220, 0.420, 0.880, 0.021, -0.042, -0.003
0.170, 0.420, 0.880, 0.029, -0.042, -0.006
0.120, 0.420, 0.880, 0.037, -0.042, -0.007
0.120, 0.470, 0.880, 0.038, -0.036, -0.015
0.170, 0.470, 0.880, 0.030, -0.037, -0.013
0.220, 0.470, 0.880, 0.023, -0.042, -0.011
0.270, 0.470, 0.880, 0.018, -0.042, -0.010
0.320, 0.470, 0.880, 0.013, -0.042, -0.010
0.370, 0.470, 0.880, 0.009, -0.044, -0.009
0.420, 0.470, 0.880, 0.007, -0.046, -0.009
0.470, 0.470, 0.880, 0.005, -0.048, -0.008
0.520, 0.470, 0.880, 0.003, -0.052, -0.007
0.570, 0.470, 0.880, 0.003, -0.055, -0.007
0.620, 0.470, 0.880, 0.002, -0.060, -0.006
0.620, 0.520, 0.880, 0.003, -0.058, -0.018
0.570, 0.520, 0.880, 0.003, -0.054, -0.019
0.520, 0.520, 0.880, 0.003, -0.051, -0.019
0.470, 0.520, 0.880, 0.006, -0.047, -0.021
0.420, 0.520, 0.880, 0.007, -0.045, -0.021
0.370, 0.520, 0.880, 0.010, -0.042, -0.022
0.320, 0.520, 0.880, 0.013, -0.042, -0.022
0.270, 0.520, 0.880, 0.017, -0.040, -0.023
0.220, 0.520, 0.880, 0.022, -0.037, -0.024
0.170, 0.520, 0.880, 0.029, -0.035, -0.024
0.120, 0.520, 0.880, 0.038, -0.033, -0.024
0.120, 0.570, 0.880, 0.037, -0.033, -0.033
0.170, 0.570, 0.880, 0.030, -0.033, -0.033
0.220, 0.570, 0.880, 0.023, -0.035, -0.033
0.270, 0.570, 0.880, 0.018, -0.036, -0.032
0.320, 0.570, 0.880, 0.015, -0.042, -0.032
0.370, 0.570, 0.880, 0.012, -0.042, -0.031
0.420, 0.570, 0.880, 0.009, -0.042, -0.030
0.470, 0.570, 0.880, 0.006, -0.046, -0.030
0.520, 0.570, 0.880, 0.005, -0.049, -0.029
0.570, 0.570, 0.880, 0.003, -0.052, -0.028
0.620, 0.570, 0.880, 0.003, -0.056, -0.027
0.620, 0.620, 0.880, 0.003, -0.055, -0.038
0.570, 0.620, 0.880, 0.003, -0.052, -0.041
0.520, 0.620, 0.880, 0.006, -0.048, -0.042
0.470, 0.620, 0.880, 0.007, -0.045, -0.043
0.420, 0.620, 0.880, 0.009, -0.042, -0.045
0.370, 0.620, 0.880, 0.012, -0.042, -0.046
0.320, 0.620, 0.880, 0.014, -0.038, -0.046
0.270, 0.620, 0.880, 0.017, -0.036, -0.047
0.220, 0.620, 0.880, 0.021, -0.033, -0.047
0.170, 0.620, 0.880, 0.028, -0.033, -0.046
0.120, 0.620, 0.880, 0.036, -0.033, -0.046
0.120, 0.670, 0.880, 0.034, -0.031, -0.057
0.170, 0.670, 0.880, 0.028, -0.033, -0.058
0.220, 0.670, 0.880, 0.023, -0.033, -0.058
0.270, 0.670, 0.880, 0.019, -0.034, -0.058
0.320, 0.670, 0.880, 0.016, -0.037, -0.058
0.370, 0.670, 0.880, 0.013, -0.042, -0.057
0.420, 0.670, 0.880, 0.012, -0.042, -0.055
0.470, 0.670, 0.880, 0.009, -0.045, -0.055
0.520, 0.670, 0.880, 0.008, -0.048, -0.053
0.570, 0.670, 0.880, 0.006, -0.052, -0.052
0.620, 0.670, 0.880, 0.003, -0.056, -0.050
0.120, 0.170, 0.920, 0.031, -0.075, 0.037
0.170, 0.170, 0.920, 0.024, -0.073, 0.038
0.220, 0.170, 0.920, 0.018, -0.074, 0.038
0.270, 0.170, 0.920, 0.013, -0.074, 0.038
0.320, 0.170, 0.920, 0.009, -0.076, 0.038
0.370, 0.170, 0.920, 0.005, -0.076, 0.038
0.420, 0.170, 0.920, 0.003, -0.076, 0.042
0.470, 0.170, 0.920, 0.002, -0.080, 0.043
0.520, 0.170, 0.920, 0.000, -0.084, 0.043
0.570, 0.170, 0.920, 0.000, -0.085, 0.045
0.620, 0.170, 0.920, 0.000, -0.090, 0.048
0.620, 0.220, 0.920, 0.000, -0.085, 0.035
0.570, 0.220, 0.920, 0.001, -0.082, 0.033
0.520, 0.220, 0.920, 0.003, -0.076, 0.031
0.470, 0.220, 0.920, 0.003, -0.076, 0.030
0.420, 0.220, 0.920, 0.003, -0.073, 0.030
0.370, 0.220, 0.920, 0.006, -0.071, 0.030
0.320, 0.220, 0.920, 0.009, -0.070, 0.029
0.270, 0.220, 0.920, 0.014, -0.069, 0.028
0.220, 0.220, 0.920, 0.018, -0.068, 0.027
0.170, 0.220, 0.920, 0.025, -0.068, 0.027
0.120, 0.220, 0.920, 0.033, -0.069, 0.027
0.120, 0.270, 0.920, 0.034, -0.064, 0.017
0.170, 0.270, 0.920, 0.027, -0.064, 0.018
0.220, 0.270, 0.920, 0.020, -0.064, 0.018
0.270, 0.270, 0.920, 0.015, -0.064, 0.019
0.320, 0.270, 0.920, 0.010, -0.065, 0.019
0.370, 0.270, 0.920, 0.006, -0.067, 0.019
0.420, 0.270, 0.920, 0.004, -0.067, 0.021
0.470, 0.270, 0.920, 0.003, -0.070, 0.021
0.520, 0.270, 0.920, 0.003, -0.073, 0.022
0.570, 0.270, 0.920, 0.003, -0.076, 0.024
0.620, 0.270, 0.920, 0.003, -0.081, 0.025
0.620, 0.320, 0.920, 0.003, -0.076, 0.015
0.570, 0.320, 0.920, 0.003, -0.072, 0.014
0.520, 0.320, 0.920, 0.003, -0.069, 0.010
0.470, 0.320, 0.920, 0.003, -0.066, 0.009
0.420, 0.320, 0.920, 0.006, -0.064, 0.009
0.370, 0.320, 0.920, 0.008, -0.062, 0.008
0.320, 0.320, 0.920, 0.011, -0.061, 0.008
0.270, 0.320, 0.920, 0.015, -0.060, 0.007
0.220, 0.320, 0.920, 0.021, -0.059, 0.006
0.170, 0.320, 0.920, 0.027, -0.059, 0.006
0.120, 0.320, 0.920, 0.036, -0.060, 0.005
0.120, 0.370, 0.920, 0.036, -0.056, 0.000
0.170, 0.370, 0.920, 0.028, -0.055, 0.000
0.220, 0.370, 0.920, 0.021, -0.056, 0.000
0.270, 0.370, 0.920, 0.016, -0.056, 0.000
0.320, 0.370, 0.920, 0.012, -0.057, 0.000
0.370, 0.370, 0.920, 0.009, -0.058, 0.000
0.420, 0.370, 0.920, 0.006, -0.060, 0.000
0.470, 0.370, 0.920, 0.005, -0.062, 0.002
0.520, 0.370, 0.920, 0.003, -0.064, 0.003
0.570, 0.370, 0.920, 0.003, -0.068, 0.003
0.620, 0.370, 0.920, 0.003, -0.073, 0.003
0.420, 0.420, 0.920, 0.007, -0.057, -0.002
0.370, 0.420, 0.920, 0.009, -0.055, -0.003
0.320, 0.420, 0.920, 0.012, -0.054, -0.003
0.270, 0.420, 0.920, 0.018, -0.053, -0.003
0.220, 0.420, 0.920, 0.022, -0.052, -0.004
0.170, 0.420, 0.920, 0.028, -0.052, -0.006
0.120, 0.420, 0.920, 0.037, -0.052, -0.006
0.120, 0.470, 0.920, 0.037, -0.050, -0.016
0.170, 0.470, 0.920, 0.030, -0.049, -0.015
0.220, 0.470, 0.920, 0.023, -0.050, -0.015
0.270, 0.470, 0.920, 0.018, -0.051, -0.015
0.320, 0.470, 0.920, 0.014, -0.052, -0.012
0.370, 0.470, 0.920, 0.011, -0.053, -0.010
0.420, 0.470, 0.920, 0.009, -0.055, -0.009
0.470, 0.470, 0.920, 0.007, -0.057, -0.009
0.520, 0.470, 0.920, 0.006, -0.060, -0.009
0.570, 0.470, 0.920, 0.004, -0.063, -0.007
0.620, 0.470, 0.920, 0.003, -0.067, -0.007
0.620, 0.520, 0.920, 0.003, -0.066, -0.018
0.570, 0.520, 0.920, 0.004, -0.061, -0.019
0.520, 0.520, 0.920, 0.006, -0.058, -0.020
0.470, 0.520, 0.920, 0.007, -0.055, -0.021
0.420, 0.520, 0.920, 0.009, -0.054, -0.022
0.370, 0.520, 0.920, 0.012, -0.052, -0.022
0.320, 0.520, 0.920, 0.015, -0.051, -0.024
0.270, 0.520, 0.920, 0.018, -0.049, -0.024
0.220, 0.520, 0.920, 0.023, -0.048, -0.024
0.170, 0.520, 0.920, 0.030, -0.048, -0.024
0.120, 0.520, 0.920, 0.037, -0.048, -0.024
0.120, 0.570, 0.920, 0.037, -0.047, -0.033
0.170, 0.570, 0.920, 0.030, -0.047, -0.033
0.220, 0.570, 0.920, 0.024, -0.048, -0.033
0.270, 0.570, 0.920, 0.019, -0.049, -0.033
0.320, 0.570, 0.920, 0.015, -0.050, -0.032
0.370, 0.570, 0.920, 0.013, -0.051, -0.031
0.420, 0.570, 0.920, 0.010, -0.053, -0.030
0.470, 0.570, 0.920, 0.009, -0.055, -0.030
0.520, 0.570, 0.920, 0.007, -0.058, -0.028
0.570, 0.570, 0.920, 0.006, -0.061, -0.027
0.620, 0.570, 0.920, 0.004, -0.066, -0.027
0.620, 0.620, 0.920, 0.004, -0.066, -0.037
0.570, 0.620, 0.920, 0.006, -0.062, -0.038
0.520, 0.620, 0.920, 0.007, -0.058, -0.042
0.470, 0.620, 0.920, 0.009, -0.056, -0.042
0.420, 0.620, 0.920, 0.012, -0.054, -0.044
0.370, 0.620, 0.920, 0.013, -0.052, -0.045
0.320, 0.620, 0.920, 0.015, -0.051, -0.046
0.270, 0.620, 0.920, 0.018, -0.049, -0.047
0.220, 0.620, 0.920, 0.022, -0.048, -0.047
0.170, 0.620, 0.920, 0.028, -0.047, -0.047
0.120, 0.620, 0.920, 0.036, -0.047, -0.046
0.120, 0.670, 0.920, 0.034, -0.047, -0.058
0.170, 0.670, 0.920, 0.028, -0.047, -0.058
0.220, 0.670, 0.920, 0.024, -0.048, -0.058
0.270, 0.670, 0.920, 0.020, -0.049, -0.058
0.320, 0.670, 0.920, 0.018, -0.051, -0.058
0.370, 0.670, 0.920, 0.015, -0.052, -0.056
0.420, 0.670, 0.920, 0.015, -0.055, -0.055
0.470, 0.670, 0.920, 0.014, -0.057, -0.054
0.520, 0.670, 0.920, 0.010, -0.060, -0.052
0.570, 0.670, 0.920, 0.009, -0.064, -0.051
0.620, 0.670, 0.920, 0.006, -0.068, -0.049
0.003, 0.050, 0.500, -0.019, 0.069, -0.076
