0.000, 0.000, 0.000, 0.021, -0.064, -0.004
0.120, 0.090, 0.250, 0.006, -0.054, -0.021
0.170, 0.090, 0.250, 0.006, -0.055, -0.018
0.220, 0.090, 0.250, 0.010, -0.055, -0.019
0.270, 0.090, 0.250, 0.015, -0.055, -0.018
0.320, 0.090, 0.250, 0.018, -0.057, -0.023
0.370, 0.090, 0.250, 0.023, -0.056, -0.025
0.420, 0.090, 0.250, 0.029, -0.056, -0.035
0.470, 0.090, 0.250, 0.033, -0.055, -0.047
0.520, 0.090, 0.250, 0.032, -0.054, -0.058
0.570, 0.090, 0.250, 0.030, -0.052, -0.073
0.620, 0.090, 0.250, 0.024, -0.049, -0.094
0.620, 0.140, 0.250, 0.021, -0.049, -0.087
0.570, 0.140, 0.250, 0.030, -0.052, -0.066
0.520, 0.140, 0.250, 0.033, -0.053, -0.051
0.470, 0.140, 0.250, 0.030, -0.055, -0.036
0.420, 0.140, 0.250, 0.030, -0.055, -0.024
0.370, 0.140, 0.250, 0.025, -0.056, -0.020
0.320, 0.140, 0.250, 0.018, -0.055, -0.009
0.270, 0.140, 0.250, 0.015, -0.055, -0.007
0.220, 0.140, 0.250, 0.012, -0.055, -0.006
0.170, 0.140, 0.250, 0.007, -0.055, -0.007
0.120, 0.140, 0.250, 0.004, -0.055, -0.009
0.120, 0.190, 0.250, 0.005, -0.058, -0.003
0.170, 0.190, 0.250, 0.007, -0.057, -0.001
0.220, 0.190, 0.250, 0.012, -0.058, 0.000
0.270, 0.190, 0.250, 0.015, -0.058, 0.000
0.320, 0.190, 0.250, 0.018, -0.057, -0.003
0.370, 0.190, 0.250, 0.023, -0.058, -0.008
0.420, 0.190, 0.250, 0.027, -0.057, -0.018
0.470, 0.190, 0.250, 0.029, -0.057, -0.030
0.520, 0.190, 0.250, 0.033, -0.055, -0.045
0.570, 0.190, 0.250, 0.027, -0.054, -0.059
0.620, 0.190, 0.250, 0.020, -0.052, -0.078
0.620, 0.240, 0.250, 0.019, -0.057, -0.074
0.570, 0.240, 0.250, 0.027, -0.058, -0.056
0.520, 0.240, 0.250, 0.032, -0.058, -0.041
0.470, 0.240, 0.250, 0.032, -0.059, -0.023
0.420, 0.240, 0.250, 0.027, -0.060, -0.014
0.370, 0.240, 0.250, 0.025, -0.060, -0.004
0.320, 0.240, 0.250, 0.018, -0.060, 0.000
0.270, 0.240, 0.250, 0.015, -0.060, 0.000
0.220, 0.240, 0.250, 0.012, -0.060, 0.000
0.170, 0.240, 0.250, 0.007, -0.061, 0.000
0.120, 0.240, 0.250, 0.006, -0.061, -0.003
0.120, 0.290, 0.250, 0.006, -0.064, 0.000
0.170, 0.290, 0.250, 0.006, -0.064, 0.000
0.220, 0.290, 0.250, 0.011, -0.063, 0.003
0.270, 0.290, 0.250, 0.015, -0.064, 0.002
0.320, 0.290, 0.250, 0.018, -0.064, 0.000
0.370, 0.290, 0.250, 0.023, -0.063, -0.003
0.420, 0.290, 0.250, 0.030, -0.063, -0.009
0.470, 0.290, 0.250, 0.028, -0.062, -0.021
0.520, 0.290, 0.250, 0.032, -0.061, -0.037
0.570, 0.290, 0.250, 0.026, -0.061, -0.055
0.620, 0.290, 0.250, 0.019, -0.061, -0.072
0.420, 0.340, 0.250, 0.026, -0.064, -0.008
0.370, 0.340, 0.250, 0.022, -0.064, -0.001
0.320, 0.340, 0.250, 0.018, -0.064, 0.001
0.270, 0.340, 0.250, 0.015, -0.065, 0.000
0.220, 0.340, 0.250, 0.010, -0.066, 0.003
0.170, 0.340, 0.250, 0.006, -0.064, 0.003
0.120, 0.340, 0.250, 0.006, -0.064, 0.000
0.120, 0.390, 0.250, 0.005, -0.069, 0.000
0.170, 0.390, 0.250, 0.006, -0.068, 0.000
0.220, 0.390, 0.250, 0.009, -0.068, 0.001
0.270, 0.390, 0.250, 0.015, -0.068, 0.000
0.320, 0.390, 0.250, 0.018, -0.067, 0.000
0.370, 0.390, 0.250, 0.022, -0.067, -0.005
0.420, 0.390, 0.250, 0.025, -0.067, -0.009
0.470, 0.390, 0.250, 0.031, -0.067, -0.021
0.520, 0.390, 0.250, 0.033, -0.067, -0.031
0.570, 0.390, 0.250, 0.029, -0.067, -0.048
0.620, 0.390, 0.250, 0.021, -0.064, -0.067
0.620, 0.440, 0.250, 0.024, -0.069, -0.070
0.570, 0.440, 0.250, 0.029, -0.069, -0.052
0.520, 0.440, 0.250, 0.030, -0.069, -0.033
0.470, 0.440, 0.250, 0.032, -0.069, -0.019
0.420, 0.440, 0.250, 0.030, -0.070, -0.007
0.370, 0.440, 0.250, 0.023, -0.070, 0.000
0.320, 0.440, 0.250, 0.018, -0.070, 0.000
0.270, 0.440, 0.250, 0.015, -0.070, 0.003
0.220, 0.440, 0.250, 0.010, -0.070, 0.004
0.170, 0.440, 0.250, 0.006, -0.070, 0.003
0.120, 0.440, 0.250, 0.006, -0.070, 0.000
0.120, 0.490, 0.250, 0.005, -0.072, 0.000
0.170, 0.490, 0.250, 0.006, -0.073, 0.000
0.220, 0.490, 0.250, 0.009, -0.072, 0.000
0.270, 0.490, 0.250, 0.015, -0.073, 0.000
0.320, 0.490, 0.250, 0.018, -0.072, 0.000
0.370, 0.490, 0.250, 0.022, -0.071, -0.004
0.420, 0.490, 0.250, 0.027, -0.071, -0.012
0.470, 0.490, 0.250, 0.030, -0.070, -0.022
0.520, 0.490, 0.250, 0.030, -0.070, -0.037
0.570, 0.490, 0.250, 0.028, -0.070, -0.054
0.620, 0.490, 0.250, 0.024, -0.070, -0.070
0.620, 0.540, 0.250, 0.024, -0.070, -0.074
0.570, 0.540, 0.250, 0.029, -0.070, -0.057
0.520, 0.540, 0.250, 0.033, -0.071, -0.043
0.470, 0.540, 0.250, 0.031, -0.072, -0.027
0.420, 0.540, 0.250, 0.027, -0.072, -0.018
0.370, 0.540, 0.250, 0.021, -0.073, -0.008
0.320, 0.540, 0.250, 0.017, -0.073, -0.003
0.270, 0.540, 0.250, 0.015, -0.073, -0.005
0.220, 0.540, 0.250, 0.009, -0.073, -0.001
0.170, 0.540, 0.250, 0.006, -0.073, -0.004
0.120, 0.540, 0.250, 0.005, -0.073, -0.004
0.120, 0.590, 0.250, 0.005, -0.071, -0.011
0.170, 0.590, 0.250, 0.006, -0.072, -0.011
0.220, 0.590, 0.250, 0.009, -0.073, -0.006
0.270, 0.590, 0.250, 0.015, -0.073, -0.007
0.320, 0.590, 0.250, 0.016, -0.072, -0.010
0.370, 0.590, 0.250, 0.021, -0.072, -0.017
0.420, 0.590, 0.250, 0.025, -0.071, -0.023
0.470, 0.590, 0.250, 0.027, -0.070, -0.034
0.520, 0.590, 0.250, 0.031, -0.070, -0.048
0.570, 0.590, 0.250, 0.031, -0.069, -0.062
0.006, 0.000, 0.000, -0.015, 0.085, -0.004
