0.100, -0.100, 0.050, 0.024, -0.052, -0.166
0.220, -0.010, 0.050, -0.033, 0.045, -0.090
0.270, -0.010, 0.050, -0.018, 0.045, -0.079
0.320, -0.010, 0.050, -0.001, 0.044, -0.076
0.370, -0.010, 0.050, 0.011, 0.043, -0.073
0.420, -0.010, 0.050, 0.031, 0.042, -0.073
0.470, -0.010, 0.050, 0.057, 0.042, -0.078
0.520, -0.010, 0.050, 0.078, 0.041, -0.079
0.570, -0.010, 0.050, 0.104, 0.041, -0.093
0.620, -0.010, 0.050, 0.130, 0.041, -0.109
0.670, -0.010, 0.050, 0.160, 0.041, -0.130
0.720, -0.010, 0.050, 0.196, 0.043, -0.161
0.720, 0.040, 0.050, 0.194, 0.014, -0.151
0.670, 0.040, 0.050, 0.160, 0.012, -0.117
0.620, 0.040, 0.050, 0.133, 0.015, -0.099
0.570, 0.040, 0.050, 0.104, 0.009, -0.079
0.520, 0.040, 0.050, 0.079, 0.016, -0.068
0.470, 0.040, 0.050, 0.051, 0.016, -0.061
0.420, 0.040, 0.050, 0.032, 0.017, -0.058
0.370, 0.040, 0.050, 0.012, 0.017, -0.058
0.320, 0.040, 0.050, 0.000, 0.015, -0.062
0.270, 0.040, 0.050, -0.018, 0.018, -0.067
0.220, 0.040, 0.050, -0.033, 0.018, -0.078
0.220, 0.090, 0.050, -0.034, -0.006, -0.070
0.270, 0.090, 0.050, -0.018, -0.006, -0.061
0.320, 0.090, 0.050, -0.001, -0.006, -0.056
0.370, 0.090, 0.050, 0.012, -0.006, -0.052
0.420, 0.090, 0.050, 0.032, -0.006, -0.051
0.470, 0.090, 0.050, 0.052, -0.007, -0.053
0.520, 0.090, 0.050, 0.078, -0.007, -0.059
0.570, 0.090, 0.050, 0.104, -0.008, -0.071
0.620, 0.090, 0.050, 0.132, -0.008, -0.085
0.670, 0.090, 0.050, 0.159, -0.009, -0.112
0.720, 0.090, 0.050, 0.193, -0.009, -0.144
0.720, 0.140, 0.050, 0.192, -0.031, -0.142
0.670, 0.140, 0.050, 0.161, -0.032, -0.111
0.620, 0.140, 0.050, 0.133, -0.031, -0.084
0.570, 0.140, 0.050, 0.104, -0.031, -0.070
0.520, 0.140, 0.050, 0.079, -0.031, -0.057
0.470, 0.140, 0.050, 0.058, -0.030, -0.052
0.420, 0.140, 0.050, 0.033, -0.030, -0.049
0.370, 0.140, 0.050, 0.015, -0.030, -0.049
0.320, 0.140, 0.050, 0.000, -0.029, -0.053
0.270, 0.140, 0.050, -0.018, -0.027, -0.058
0.220, 0.140, 0.050, -0.033, -0.027, -0.067
0.220, 0.190, 0.050, -0.033, -0.046, -0.068
0.270, 0.190, 0.050, -0.019, -0.046, -0.060
0.320, 0.190, 0.050, -0.001, -0.046, -0.054
0.370, 0.190, 0.050, 0.015, -0.046, -0.051
0.420, 0.190, 0.050, 0.032, -0.047, -0.049
0.470, 0.190, 0.050, 0.054, -0.047, -0.052
0.520, 0.190, 0.050, 0.079, -0.048, -0.058
0.570, 0.190, 0.050, 0.104, -0.049, -0.070
0.620, 0.190, 0.050, 0.132, -0.049, -0.085
0.670, 0.190, 0.050, 0.161, -0.050, -0.112
0.720, 0.190, 0.050, 0.193, -0.052, -0.143
0.520, 0.240, 0.050, 0.079, -0.062, -0.058
0.470, 0.240, 0.050, 0.055, -0.062, -0.053
0.420, 0.240, 0.050, 0.031, -0.063, -0.051
0.370, 0.240, 0.050, 0.013, -0.063, -0.052
0.320, 0.240, 0.050, -0.003, -0.063, -0.052
0.270, 0.240, 0.050, -0.018, -0.061, -0.061
0.220, 0.240, 0.050, -0.034, -0.061, -0.070
0.220, 0.290, 0.050, -0.035, -0.074, -0.079
0.270, 0.290, 0.050, -0.018, -0.074, -0.067
0.320, 0.290, 0.050, -0.003, -0.074, -0.062
0.370, 0.290, 0.050, 0.010, -0.075, -0.058
0.420, 0.290, 0.050, 0.030, -0.076, -0.057
0.470, 0.290, 0.050, 0.052, -0.076, -0.059
0.520, 0.290, 0.050, 0.079, -0.077, -0.064
0.570, 0.290, 0.050, 0.103, -0.077, -0.078
0.620, 0.290, 0.050, 0.131, -0.076, -0.091
0.670, 0.290, 0.050, 0.161, -0.077, -0.115
0.720, 0.290, 0.050, 0.195, -0.077, -0.153
0.720, 0.340, 0.050, 0.196, -0.089, -0.161
0.670, 0.340, 0.050, 0.161, -0.089, -0.127
0.620, 0.340, 0.050, 0.130, -0.089, -0.103
0.570, 0.340, 0.050, 0.103, -0.088, -0.088
0.520, 0.340, 0.050, 0.079, -0.088, -0.075
0.470, 0.340, 0.050, 0.052, -0.090, -0.067
0.420, 0.340, 0.050, 0.030, -0.087, -0.064
0.370, 0.340, 0.050, 0.009, -0.088, -0.066
0.320, 0.340, 0.050, -0.003, -0.087, -0.070
0.270, 0.340, 0.050, -0.018, -0.088, -0.076
0.220, 0.340, 0.050, -0.036, -0.085, -0.089
0.220, 0.390, 0.050, -0.036, -0.097, -0.097
0.270, 0.390, 0.050, -0.018, -0.099, -0.088
0.320, 0.390, 0.050, -0.004, -0.100, -0.079
0.370, 0.390, 0.050, 0.012, -0.100, -0.075
0.420, 0.390, 0.050, 0.032, -0.100, -0.074
0.470, 0.390, 0.050, 0.051, -0.100, -0.079
0.520, 0.390, 0.050, 0.077, -0.100, -0.088
0.570, 0.390, 0.050, 0.103, -0.100, -0.094
0.620, 0.390, 0.050, 0.129, -0.099, -0.112
0.670, 0.390, 0.050, 0.160, -0.100, -0.139
0.720, 0.390, 0.050, 0.195, -0.100, -0.170
0.720, 0.440, 0.050, 0.192, -0.106, -0.180
0.670, 0.440, 0.050, 0.159, -0.106, -0.149
0.620, 0.440, 0.050, 0.128, -0.107, -0.125
0.570, 0.440, 0.050, 0.103, -0.107, -0.109
0.520, 0.440, 0.050, 0.077, -0.108, -0.095
0.470, 0.440, 0.050, 0.054, -0.109, -0.089
0.420, 0.440, 0.050, 0.032, -0.106, -0.091
0.370, 0.440, 0.050, 0.012, -0.106, -0.089
0.320, 0.440, 0.050, -0.003, -0.105, -0.095
0.270, 0.440, 0.050, -0.018, -0.104, -0.101
0.220, 0.440, 0.050, -0.035, -0.103, -0.106
0.220, 0.490, 0.050, -0.034, -0.109, -0.123
0.270, 0.490, 0.050, -0.018, -0.112, -0.112
0.320, 0.490, 0.050, -0.003, -0.112, -0.107
0.370, 0.490, 0.050, 0.011, -0.115, -0.101
0.420, 0.490, 0.050, 0.030, -0.115, -0.099
0.470, 0.490, 0.050, 0.048, -0.115, -0.103
0.520, 0.490, 0.050, 0.073, -0.115, -0.106
0.570, 0.490, 0.050, 0.101, -0.114, -0.118
0.620, 0.490, 0.050, 0.130, -0.113, -0.139
0.670, 0.490, 0.050, 0.157, -0.112, -0.160
0.720, 0.490, 0.050, 0.194, -0.111, -0.194
0.220, -0.010, 0.150, -0.020, 0.012, -0.164
0.270, -0.010, 0.150, -0.009, 0.012, -0.157
0.320, -0.010, 0.150, 0.000, 0.012, -0.156
0.370, -0.010, 0.150, 0.010, 0.011, -0.154
0.420, -0.010, 0.150, 0.024, 0.010, -0.153
0.470, -0.010, 0.150, 0.039, 0.009, -0.160
0.520, -0.010, 0.150, 0.055, 0.009, -0.165
0.570, -0.010, 0.150, 0.075, 0.009, -0.181
0.620, -0.010, 0.150, 0.088, 0.010, -0.199
0.670, -0.010, 0.150, 0.104, 0.009, -0.223
0.720, -0.010, 0.150, 0.118, 0.014, -0.254
0.720, 0.040, 0.150, 0.117, -0.003, -0.241
0.670, 0.040, 0.150, 0.103, -0.003, -0.211
0.620, 0.040, 0.150, 0.088, 0.000, -0.182
0.570, 0.040, 0.150, 0.075, -0.003, -0.166
0.520, 0.040, 0.150, 0.059, -0.003, -0.151
0.470, 0.040, 0.150, 0.040, 0.000, -0.146
0.420, 0.040, 0.150, 0.025, -0.003, -0.139
0.370, 0.040, 0.150, 0.013, -0.003, -0.141
0.320, 0.040, 0.150, 0.000, -0.002, -0.139
0.270, 0.040, 0.150, -0.008, -0.002, -0.142
0.220, 0.040, 0.150, -0.019, -0.002, -0.146
0.220, 0.090, 0.150, -0.019, -0.018, -0.136
0.270, 0.090, 0.150, -0.009, -0.018, -0.130
0.320, 0.090, 0.150, 0.000, -0.018, -0.127
0.370, 0.090, 0.150, 0.013, -0.018, -0.126
0.420, 0.090, 0.150, 0.025, -0.019, -0.127
0.470, 0.090, 0.150, 0.040, -0.019, -0.132
0.520, 0.090, 0.150, 0.058, -0.019, -0.142
0.570, 0.090, 0.150, 0.074, -0.019, -0.154
0.620, 0.090, 0.150, 0.088, -0.018, -0.170
0.670, 0.090, 0.150, 0.102, -0.018, -0.198
0.720, 0.090, 0.150, 0.115, -0.017, -0.233
0.720, 0.140, 0.150, 0.115, -0.033, -0.225
0.670, 0.140, 0.150, 0.103, -0.033, -0.194
0.620, 0.140, 0.150, 0.090, -0.033, -0.165
0.570, 0.140, 0.150, 0.072, -0.033, -0.148
0.520, 0.140, 0.150, 0.059, -0.033, -0.134
0.470, 0.140, 0.150, 0.040, -0.033, -0.126
0.420, 0.140, 0.150, 0.026, -0.030, -0.118
0.370, 0.140, 0.150, 0.015, -0.030, -0.118
0.320, 0.140, 0.150, 0.001, -0.030, -0.121
0.270, 0.140, 0.150, -0.009, -0.030, -0.125
0.220, 0.140, 0.150, -0.020, -0.030, -0.131
0.220, 0.190, 0.150, -0.018, -0.043, -0.129
0.270, 0.190, 0.150, -0.009, -0.043, -0.123
0.320, 0.190, 0.150, 0.001, -0.043, -0.119
0.370, 0.190, 0.150, 0.014, -0.043, -0.116
0.420, 0.190, 0.150, 0.026, -0.044, -0.119
0.470, 0.190, 0.150, 0.040, -0.044, -0.124
0.520, 0.190, 0.150, 0.059, -0.045, -0.131
0.570, 0.190, 0.150, 0.075, -0.045, -0.148
0.620, 0.190, 0.150, 0.090, -0.045, -0.163
0.670, 0.190, 0.150, 0.103, -0.045, -0.191
0.720, 0.190, 0.150, 0.115, -0.045, -0.223
0.520, 0.240, 0.150, 0.055, -0.053, -0.130
0.470, 0.240, 0.150, 0.040, -0.054, -0.122
0.420, 0.240, 0.150, 0.026, -0.054, -0.118
0.370, 0.240, 0.150, 0.013, -0.054, -0.116
0.320, 0.240, 0.150, 0.000, -0.055, -0.115
0.270, 0.240, 0.150, -0.009, -0.052, -0.121
0.220, 0.240, 0.150, -0.018, -0.052, -0.127
0.220, 0.290, 0.150, -0.019, -0.061, -0.130
0.270, 0.290, 0.150, -0.007, -0.061, -0.124
0.320, 0.290, 0.150, 0.000, -0.061, -0.121
0.370, 0.290, 0.150, 0.011, -0.064, -0.118
0.420, 0.290, 0.150, 0.024, -0.064, -0.120
0.470, 0.290, 0.150, 0.042, -0.064, -0.124
0.520, 0.290, 0.150, 0.056, -0.064, -0.132
0.570, 0.290, 0.150, 0.073, -0.063, -0.145
0.620, 0.290, 0.150, 0.089, -0.063, -0.164
0.670, 0.290, 0.150, 0.104, -0.063, -0.191
0.720, 0.290, 0.150, 0.115, -0.063, -0.224
0.720, 0.340, 0.150, 0.118, -0.071, -0.227
0.670, 0.340, 0.150, 0.104, -0.071, -0.197
0.620, 0.340, 0.150, 0.089, -0.072, -0.168
0.570, 0.340, 0.150, 0.072, -0.072, -0.153
0.520, 0.340, 0.150, 0.054, -0.073, -0.139
0.470, 0.340, 0.150, 0.042, -0.073, -0.128
0.420, 0.340, 0.150, 0.024, -0.073, -0.121
0.370, 0.340, 0.150, 0.010, -0.073, -0.120
0.320, 0.340, 0.150, 0.000, -0.070, -0.123
0.270, 0.340, 0.150, -0.007, -0.070, -0.128
0.220, 0.340, 0.150, -0.019, -0.070, -0.134
0.220, 0.390, 0.150, -0.019, -0.076, -0.141
0.270, 0.390, 0.150, -0.008, -0.076, -0.134
0.320, 0.390, 0.150, 0.000, -0.076, -0.130
0.370, 0.390, 0.150, 0.010, -0.076, -0.129
0.420, 0.390, 0.150, 0.024, -0.077, -0.130
0.470, 0.390, 0.150, 0.040, -0.076, -0.135
0.520, 0.390, 0.150, 0.054, -0.076, -0.142
0.570, 0.390, 0.150, 0.072, -0.076, -0.157
0.620, 0.390, 0.150, 0.088, -0.076, -0.173
0.670, 0.390, 0.150, 0.103, -0.076, -0.202
0.720, 0.390, 0.150, 0.118, -0.076, -0.233
0.720, 0.440, 0.150, 0.118, -0.079, -0.240
0.670, 0.440, 0.150, 0.103, -0.080, -0.212
0.620, 0.440, 0.150, 0.087, -0.083, -0.184
0.570, 0.440, 0.150, 0.072, -0.085, -0.164
0.520, 0.440, 0.150, 0.054, -0.084, -0.152
0.470, 0.440, 0.150, 0.039, -0.082, -0.142
0.420, 0.440, 0.150, 0.023, -0.082, -0.137
0.370, 0.440, 0.150, 0.012, -0.082, -0.136
0.320, 0.440, 0.150, 0.000, -0.082, -0.137
0.270, 0.440, 0.150, -0.007, -0.082, -0.141
0.220, 0.440, 0.150, -0.019, -0.081, -0.150
0.220, 0.490, 0.150, -0.018, -0.085, -0.160
0.270, 0.490, 0.150, -0.007, -0.086, -0.156
0.320, 0.490, 0.150, 0.000, -0.087, -0.147
0.370, 0.490, 0.150, 0.012, -0.087, -0.145
0.420, 0.490, 0.150, 0.024, -0.090, -0.146
0.470, 0.490, 0.150, 0.037, -0.088, -0.154
0.520, 0.490, 0.150, 0.053, -0.087, -0.161
0.570, 0.490, 0.150, 0.070, -0.085, -0.178
0.620, 0.490, 0.150, 0.086, -0.085, -0.195
0.670, 0.490, 0.150, 0.102, -0.085, -0.220
0.720, 0.490, 0.150, 0.117, -0.085, -0.251
0.220, -0.010, 0.250, -0.009, -0.018, -0.197
0.270, -0.010, 0.250, -0.003, -0.018, -0.193
0.320, -0.010, 0.250, 0.001, -0.019, -0.191
0.370, -0.010, 0.250, 0.006, -0.021, -0.191
0.420, -0.010, 0.250, 0.018, -0.021, -0.194
0.470, -0.010, 0.250, 0.024, -0.021, -0.199
0.520, -0.010, 0.250, 0.033, -0.021, -0.209
0.570, -0.010, 0.250, 0.040, -0.021, -0.216
0.620, -0.010, 0.250, 0.050, -0.021, -0.233
0.670, -0.010, 0.250, 0.051, -0.020, -0.253
0.720, -0.010, 0.250, 0.054, -0.017, -0.280
0.720, 0.040, 0.250, 0.049, -0.021, -0.266
0.670, 0.040, 0.250, 0.052, -0.023, -0.240
0.620, 0.040, 0.250, 0.049, -0.025, -0.221
0.570, 0.040, 0.250, 0.040, -0.027, -0.207
0.520, 0.040, 0.250, 0.033, -0.030, -0.194
0.470, 0.040, 0.250, 0.025, -0.030, -0.182
0.420, 0.040, 0.250, 0.018, -0.029, -0.178
0.370, 0.040, 0.250, 0.007, -0.026, -0.172
0.320, 0.040, 0.250, 0.003, -0.025, -0.174
0.270, 0.040, 0.250, -0.002, -0.024, -0.174
0.220, 0.040, 0.250, -0.008, -0.025, -0.181
0.220, 0.090, 0.250, -0.008, -0.032, -0.169
0.270, 0.090, 0.250, -0.002, -0.032, -0.168
0.320, 0.090, 0.250, 0.003, -0.033, -0.166
0.370, 0.090, 0.250, 0.008, -0.033, -0.163
0.420, 0.090, 0.250, 0.018, -0.033, -0.167
0.470, 0.090, 0.250, 0.025, -0.033, -0.170
0.520, 0.090, 0.250, 0.033, -0.033, -0.181
0.570, 0.090, 0.250, 0.040, -0.033, -0.194
0.620, 0.090, 0.250, 0.047, -0.031, -0.212
0.670, 0.090, 0.250, 0.049, -0.030, -0.230
0.720, 0.090, 0.250, 0.049, -0.030, -0.254
0.720, 0.140, 0.250, 0.050, -0.037, -0.251
0.670, 0.140, 0.250, 0.051, -0.038, -0.224
0.620, 0.140, 0.250, 0.048, -0.039, -0.206
0.570, 0.140, 0.250, 0.040, -0.039, -0.185
0.520, 0.140, 0.250, 0.033, -0.040, -0.170
0.470, 0.140, 0.250, 0.026, -0.040, -0.164
0.420, 0.140, 0.250, 0.018, -0.039, -0.158
0.370, 0.140, 0.250, 0.009, -0.039, -0.156
0.320, 0.140, 0.250, 0.003, -0.039, -0.155
0.270, 0.140, 0.250, -0.001, -0.039, -0.158
0.220, 0.140, 0.250, -0.007, -0.039, -0.162
0.220, 0.190, 0.250, -0.006, -0.046, -0.158
0.270, 0.190, 0.250, -0.001, -0.046, -0.156
0.320, 0.190, 0.250, 0.003, -0.047, -0.152
0.370, 0.190, 0.250, 0.009, -0.046, -0.154
0.420, 0.190, 0.250, 0.018, -0.046, -0.155
0.470, 0.190, 0.250, 0.025, -0.047, -0.161
0.520, 0.190, 0.250, 0.033, -0.047, -0.168
0.570, 0.190, 0.250, 0.042, -0.047, -0.182
0.620, 0.190, 0.250, 0.048, -0.046, -0.197
0.670, 0.190, 0.250, 0.048, -0.046, -0.216
0.720, 0.190, 0.250, 0.046, -0.045, -0.243
0.520, 0.240, 0.250, 0.033, -0.051, -0.161
0.470, 0.240, 0.250, 0.026, -0.052, -0.150
0.420, 0.240, 0.250, 0.018, -0.052, -0.142
0.370, 0.240, 0.250, 0.009, -0.052, -0.139
0.320, 0.240, 0.250, 0.003, -0.052, -0.140
0.270, 0.240, 0.250, -0.001, -0.052, -0.139
0.220, 0.240, 0.250, -0.006, -0.052, -0.143
0.220, 0.290, 0.250, -0.006, -0.058, -0.145
0.270, 0.290, 0.250, -0.002, -0.058, -0.139
0.320, 0.290, 0.250, 0.003, -0.058, -0.137
0.370, 0.290, 0.250, 0.009, -0.058, -0.136
0.420, 0.290, 0.250, 0.018, -0.058, -0.137
0.470, 0.290, 0.250, 0.025, -0.058, -0.142
0.520, 0.290, 0.250, 0.033, -0.058, -0.152
0.570, 0.290, 0.250, 0.042, -0.057, -0.165
0.620, 0.290, 0.250, 0.046, -0.057, -0.181
0.670, 0.290, 0.250, 0.049, -0.057, -0.200
0.720, 0.290, 0.250, 0.048, -0.056, -0.227
0.720, 0.340, 0.250, 0.051, -0.061, -0.233
0.670, 0.340, 0.250, 0.050, -0.061, -0.205
0.620, 0.340, 0.250, 0.046, -0.061, -0.187
0.570, 0.340, 0.250, 0.042, -0.062, -0.167
0.520, 0.340, 0.250, 0.033, -0.062, -0.157
0.470, 0.340, 0.250, 0.025, -0.063, -0.149
0.420, 0.340, 0.250, 0.020, -0.063, -0.140
0.370, 0.340, 0.250, 0.009, -0.063, -0.139
0.320, 0.340, 0.250, 0.003, -0.061, -0.138
0.270, 0.340, 0.250, -0.002, -0.061, -0.143
0.220, 0.340, 0.250, -0.006, -0.061, -0.147
0.220, 0.390, 0.250, -0.006, -0.062, -0.155
0.270, 0.390, 0.250, -0.003, -0.063, -0.148
0.320, 0.390, 0.250, 0.003, -0.064, -0.146
0.370, 0.390, 0.250, 0.009, -0.064, -0.144
0.420, 0.390, 0.250, 0.018, -0.064, -0.145
0.470, 0.390, 0.250, 0.024, -0.064, -0.155
0.520, 0.390, 0.250, 0.032, -0.064, -0.163
0.570, 0.390, 0.250, 0.041, -0.064, -0.173
0.620, 0.390, 0.250, 0.047, -0.064, -0.194
0.670, 0.390, 0.250, 0.052, -0.064, -0.210
0.720, 0.390, 0.250, 0.052, -0.064, -0.234
0.720, 0.440, 0.250, 0.052, -0.064, -0.240
0.670, 0.440, 0.250, 0.051, -0.064, -0.213
0.620, 0.440, 0.250, 0.046, -0.064, -0.195
0.570, 0.440, 0.250, 0.042, -0.066, -0.180
0.520, 0.440, 0.250, 0.033, -0.067, -0.164
0.470, 0.440, 0.250, 0.024, -0.068, -0.156
0.420, 0.440, 0.250, 0.019, -0.069, -0.150
0.370, 0.440, 0.250, 0.009, -0.069, -0.148
0.320, 0.440, 0.250, 0.003, -0.068, -0.158
0.270, 0.440, 0.250, -0.002, -0.066, -0.158
0.220, 0.440, 0.250, -0.006, -0.064, -0.162
0.220, 0.490, 0.250, -0.006, -0.065, -0.170
0.270, 0.490, 0.250, -0.002, -0.069, -0.167
0.320, 0.490, 0.250, 0.002, -0.070, -0.168
0.370, 0.490, 0.250, 0.009, -0.070, -0.165
0.420, 0.490, 0.250, 0.018, -0.070, -0.168
0.470, 0.490, 0.250, 0.022, -0.069, -0.173
0.520, 0.490, 0.250, 0.033, -0.068, -0.184
0.570, 0.490, 0.250, 0.036, -0.065, -0.198
0.620, 0.490, 0.250, 0.045, -0.064, -0.212
0.670, 0.490, 0.250, 0.049, -0.064, -0.234
0.720, 0.490, 0.250, 0.049, -0.064, -0.260
0.220, -0.010, 0.350, -0.002, -0.047, -0.205
0.270, -0.010, 0.350, 0.000, -0.048, -0.203
0.320, -0.010, 0.350, 0.002, -0.048, -0.203
0.370, -0.010, 0.350, 0.006, -0.049, -0.203
0.420, -0.010, 0.350, 0.009, -0.051, -0.206
0.470, -0.010, 0.350, 0.014, -0.051, -0.209
0.520, -0.010, 0.350, 0.017, -0.050, -0.212
0.570, -0.010, 0.350, 0.019, -0.049, -0.227
0.620, -0.010, 0.350, 0.019, -0.048, -0.237
0.670, -0.010, 0.350, 0.015, -0.045, -0.252
0.720, -0.010, 0.350, 0.007, -0.041, -0.267
0.720, 0.040, 0.350, 0.004, -0.041, -0.260
0.670, 0.040, 0.350, 0.013, -0.044, -0.242
0.620, 0.040, 0.350, 0.018, -0.046, -0.228
0.570, 0.040, 0.350, 0.018, -0.047, -0.215
0.520, 0.040, 0.350, 0.017, -0.048, -0.207
0.470, 0.040, 0.350, 0.013, -0.048, -0.201
0.420, 0.040, 0.350, 0.009, -0.048, -0.197
0.370, 0.040, 0.350, 0.006, -0.048, -0.194
0.320, 0.040, 0.350, 0.003, -0.048, -0.194
0.270, 0.040, 0.350, 0.000, -0.047, -0.195
0.220, 0.040, 0.350, 0.000, -0.046, -0.197
0.220, 0.090, 0.350, 0.000, -0.048, -0.191
0.270, 0.090, 0.350, 0.000, -0.048, -0.188
0.320, 0.090, 0.350, 0.003, -0.048, -0.187
0.370, 0.090, 0.350, 0.007, -0.048, -0.185
0.420, 0.090, 0.350, 0.009, -0.048, -0.190
0.470, 0.090, 0.350, 0.013, -0.048, -0.194
0.520, 0.090, 0.350, 0.017, -0.048, -0.200
0.570, 0.090, 0.350, 0.018, -0.048, -0.209
0.620, 0.090, 0.350, 0.016, -0.047, -0.222
0.670, 0.090, 0.350, 0.012, -0.045, -0.235
0.720, 0.090, 0.350, 0.003, -0.043, -0.254
0.720, 0.140, 0.350, 0.001, -0.046, -0.249
0.670, 0.140, 0.350, 0.011, -0.048, -0.230
0.620, 0.140, 0.350, 0.015, -0.048, -0.215
0.570, 0.140, 0.350, 0.018, -0.049, -0.204
0.520, 0.140, 0.350, 0.016, -0.049, -0.196
0.470, 0.140, 0.350, 0.013, -0.050, -0.189
0.420, 0.140, 0.350, 0.009, -0.051, -0.182
0.370, 0.140, 0.350, 0.007, -0.050, -0.180
0.320, 0.140, 0.350, 0.003, -0.050, -0.179
0.270, 0.140, 0.350, 0.000, -0.050, -0.181
0.220, 0.140, 0.350, 0.000, -0.050, -0.184
0.220, 0.190, 0.350, 0.000, -0.052, -0.180
0.270, 0.190, 0.350, 0.000, -0.051, -0.177
0.320, 0.190, 0.350, 0.003, -0.052, -0.174
0.370, 0.190, 0.350, 0.007, -0.052, -0.175
0.420, 0.190, 0.350, 0.009, -0.052, -0.182
0.470, 0.190, 0.350, 0.015, -0.052, -0.184
0.520, 0.190, 0.350, 0.016, -0.051, -0.193
0.570, 0.190, 0.350, 0.017, -0.052, -0.201
0.620, 0.190, 0.350, 0.015, -0.051, -0.212
0.670, 0.190, 0.350, 0.010, -0.051, -0.227
0.720, 0.190, 0.350, 0.000, -0.050, -0.241
0.520, 0.240, 0.350, 0.016, -0.052, -0.191
0.470, 0.240, 0.350, 0.013, -0.052, -0.184
0.420, 0.240, 0.350, 0.009, -0.052, -0.176
0.370, 0.240, 0.350, 0.007, -0.052, -0.172
0.320, 0.240, 0.350, 0.003, -0.052, -0.174
0.270, 0.240, 0.350, 0.000, -0.052, -0.173
0.220, 0.240, 0.350, 0.000, -0.052, -0.179
0.220, 0.290, 0.350, 0.000, -0.054, -0.178
0.270, 0.290, 0.350, 0.000, -0.054, -0.173
0.320, 0.290, 0.350, 0.003, -0.054, -0.171
0.370, 0.290, 0.350, 0.006, -0.053, -0.178
0.420, 0.290, 0.350, 0.009, -0.053, -0.175
0.470, 0.290, 0.350, 0.013, -0.052, -0.184
0.520, 0.290, 0.350, 0.016, -0.052, -0.190
0.570, 0.290, 0.350, 0.016, -0.052, -0.198
0.620, 0.290, 0.350, 0.015, -0.052, -0.209
0.670, 0.290, 0.350, 0.010, -0.052, -0.225
0.720, 0.290, 0.350, 0.001, -0.052, -0.240
0.720, 0.340, 0.350, 0.002, -0.053, -0.242
0.670, 0.340, 0.350, 0.010, -0.053, -0.227
0.620, 0.340, 0.350, 0.015, -0.053, -0.210
0.570, 0.340, 0.350, 0.016, -0.054, -0.200
0.520, 0.340, 0.350, 0.015, -0.055, -0.191
0.470, 0.340, 0.350, 0.012, -0.057, -0.185
0.420, 0.340, 0.350, 0.009, -0.057, -0.179
0.370, 0.340, 0.350, 0.007, -0.057, -0.173
0.320, 0.340, 0.350, 0.003, -0.057, -0.173
0.270, 0.340, 0.350, 0.000, -0.058, -0.180
0.220, 0.340, 0.350, 0.000, -0.056, -0.182
0.220, 0.390, 0.350, 0.000, -0.057, -0.183
0.270, 0.390, 0.350, 0.000, -0.057, -0.179
0.320, 0.390, 0.350, 0.003, -0.057, -0.179
0.370, 0.390, 0.350, 0.006, -0.058, -0.179
0.420, 0.390, 0.350, 0.009, -0.057, -0.183
0.470, 0.390, 0.350, 0.011, -0.057, -0.185
0.520, 0.390, 0.350, 0.015, -0.057, -0.194
0.570, 0.390, 0.350, 0.016, -0.056, -0.202
0.620, 0.390, 0.350, 0.015, -0.056, -0.212
0.670, 0.390, 0.350, 0.011, -0.054, -0.228
0.720, 0.390, 0.350, 0.003, -0.053, -0.244
0.720, 0.440, 0.350, 0.003, -0.052, -0.248
0.670, 0.440, 0.350, 0.011, -0.052, -0.230
0.620, 0.440, 0.350, 0.015, -0.052, -0.214
0.570, 0.440, 0.350, 0.016, -0.053, -0.205
0.520, 0.440, 0.350, 0.015, -0.055, -0.197
0.470, 0.440, 0.350, 0.011, -0.056, -0.191
0.420, 0.440, 0.350, 0.009, -0.057, -0.184
0.370, 0.440, 0.350, 0.007, -0.057, -0.183
0.320, 0.440, 0.350, 0.003, -0.057, -0.181
0.270, 0.440, 0.350, 0.000, -0.057, -0.183
0.220, 0.440, 0.350, 0.000, -0.055, -0.186
0.220, 0.490, 0.350, 0.000, -0.052, -0.191
0.270, 0.490, 0.350, 0.000, -0.052, -0.187
0.320, 0.490, 0.350, 0.003, -0.052, -0.185
0.370, 0.490, 0.350, 0.006, -0.052, -0.185
0.420, 0.490, 0.350, 0.009, -0.052, -0.191
0.470, 0.490, 0.350, 0.010, -0.052, -0.194
0.520, 0.490, 0.350, 0.015, -0.052, -0.200
0.570, 0.490, 0.350, 0.015, -0.052, -0.209
0.620, 0.490, 0.350, 0.015, -0.052, -0.222
0.670, 0.490, 0.350, 0.010, -0.052, -0.235
0.720, 0.490, 0.350, 0.003, -0.052, -0.252
0.220, -0.010, 0.450, 0.000, -0.061, -0.205
0.270, -0.010, 0.450, 0.000, -0.063, -0.203
0.320, -0.010, 0.450, 0.001, -0.064, -0.203
0.370, -0.010, 0.450, 0.003, -0.066, -0.203
0.420, -0.010, 0.450, 0.004, -0.068, -0.206
0.470, -0.010, 0.450, 0.005, -0.069, -0.208
0.520, -0.010, 0.450, 0.005, -0.068, -0.212
0.570, -0.010, 0.450, 0.003, -0.064, -0.220
0.620, -0.010, 0.450, 0.000, -0.062, -0.227
0.670, -0.010, 0.450, -0.003, -0.061, -0.233
0.720, -0.010, 0.450, -0.015, -0.058, -0.240
0.720, 0.040, 0.450, -0.015, -0.052, -0.236
0.670, 0.040, 0.450, -0.003, -0.058, -0.228
0.620, 0.040, 0.450, 0.000, -0.061, -0.215
0.570, 0.040, 0.450, 0.003, -0.061, -0.212
0.520, 0.040, 0.450, 0.004, -0.061, -0.206
0.470, 0.040, 0.450, 0.005, -0.061, -0.203
0.420, 0.040, 0.450, 0.004, -0.061, -0.200
0.370, 0.040, 0.450, 0.003, -0.061, -0.199
0.320, 0.040, 0.450, 0.003, -0.061, -0.198
0.270, 0.040, 0.450, 0.002, -0.061, -0.198
0.220, 0.040, 0.450, 0.002, -0.061, -0.200
0.220, 0.090, 0.450, 0.003, -0.059, -0.195
0.270, 0.090, 0.450, 0.003, -0.060, -0.194
0.320, 0.090, 0.450, 0.003, -0.061, -0.194
0.370, 0.090, 0.450, 0.004, -0.061, -0.194
0.420, 0.090, 0.450, 0.005, -0.061, -0.195
0.470, 0.090, 0.450, 0.005, -0.061, -0.198
0.520, 0.090, 0.450, 0.004, -0.060, -0.203
0.570, 0.090, 0.450, 0.001, -0.059, -0.207
0.620, 0.090, 0.450, 0.000, -0.057, -0.213
0.670, 0.090, 0.450, -0.005, -0.056, -0.224
0.720, 0.090, 0.450, -0.017, -0.051, -0.231
0.720, 0.140, 0.450, -0.018, -0.052, -0.227
0.670, 0.140, 0.450, -0.006, -0.052, -0.219
0.620, 0.140, 0.450, -0.001, -0.057, -0.209
0.570, 0.140, 0.450, 0.001, -0.057, -0.203
0.520, 0.140, 0.450, 0.003, -0.058, -0.196
0.470, 0.140, 0.450, 0.005, -0.058, -0.194
0.420, 0.140, 0.450, 0.005, -0.058, -0.191
0.370, 0.140, 0.450, 0.004, -0.058, -0.190
0.320, 0.140, 0.450, 0.003, -0.058, -0.186
0.270, 0.140, 0.450, 0.003, -0.058, -0.188
0.220, 0.140, 0.450, 0.003, -0.058, -0.191
0.220, 0.190, 0.450, 0.003, -0.057, -0.188
0.270, 0.190, 0.450, 0.003, -0.058, -0.185
0.320, 0.190, 0.450, 0.004, -0.058, -0.184
0.370, 0.190, 0.450, 0.005, -0.057, -0.184
0.420, 0.190, 0.450, 0.005, -0.057, -0.187
0.470, 0.190, 0.450, 0.005, -0.057, -0.191
0.520, 0.190, 0.450, 0.003, -0.057, -0.196
0.570, 0.190, 0.450, 0.000, -0.057, -0.200
0.620, 0.190, 0.450, -0.001, -0.055, -0.204
0.670, 0.190, 0.450, -0.006, -0.053, -0.214
0.720, 0.190, 0.450, -0.018, -0.052, -0.224
0.520, 0.240, 0.450, 0.003, -0.054, -0.193
0.470, 0.240, 0.450, 0.005, -0.054, -0.186
0.420, 0.240, 0.450, 0.006, -0.055, -0.183
0.370, 0.240, 0.450, 0.005, -0.056, -0.181
0.320, 0.240, 0.450, 0.004, -0.056, -0.183
0.270, 0.240, 0.450, 0.003, -0.055, -0.181
0.220, 0.240, 0.450, 0.003, -0.056, -0.185
0.220, 0.290, 0.450, 0.003, -0.055, -0.182
0.270, 0.290, 0.450, 0.003, -0.054, -0.180
0.320, 0.290, 0.450, 0.004, -0.054, -0.179
0.370, 0.290, 0.450, 0.004, -0.054, -0.180
0.420, 0.290, 0.450, 0.005, -0.054, -0.184
0.470, 0.290, 0.450, 0.004, -0.053, -0.185
0.520, 0.290, 0.450, 0.003, -0.052, -0.190
0.570, 0.290, 0.450, 0.000, -0.052, -0.197
0.620, 0.290, 0.450, -0.002, -0.052, -0.203
0.670, 0.290, 0.450, -0.007, -0.052, -0.209
0.720, 0.290, 0.450, -0.018, -0.051, -0.220
0.720, 0.340, 0.450, -0.018, -0.051, -0.218
0.670, 0.340, 0.450, -0.006, -0.052, -0.209
0.620, 0.340, 0.450, -0.002, -0.052, -0.200
0.570, 0.340, 0.450, 0.000, -0.052, -0.194
0.520, 0.340, 0.450, 0.003, -0.052, -0.191
0.470, 0.340, 0.450, 0.004, -0.052, -0.184
0.420, 0.340, 0.450, 0.005, -0.052, -0.181
0.370, 0.340, 0.450, 0.004, -0.052, -0.179
0.320, 0.340, 0.450, 0.003, -0.052, -0.179
0.270, 0.340, 0.450, 0.003, -0.052, -0.180
0.220, 0.340, 0.450, 0.003, -0.052, -0.182
0.220, 0.390, 0.450, 0.003, -0.052, -0.182
0.270, 0.390, 0.450, 0.003, -0.052, -0.179
0.320, 0.390, 0.450, 0.003, -0.052, -0.179
0.370, 0.390, 0.450, 0.004, -0.052, -0.181
0.420, 0.390, 0.450, 0.005, -0.052, -0.182
0.470, 0.390, 0.450, 0.004, -0.052, -0.185
0.520, 0.390, 0.450, 0.003, -0.052, -0.191
0.570, 0.390, 0.450, 0.000, -0.052, -0.196
0.620, 0.390, 0.450, -0.002, -0.052, -0.203
0.670, 0.390, 0.450, -0.006, -0.052, -0.209
0.720, 0.390, 0.450, -0.017, -0.050, -0.217
0.720, 0.440, 0.450, -0.016, -0.048, -0.214
0.670, 0.440, 0.450, -0.006, -0.050, -0.209
0.620, 0.440, 0.450, -0.002, -0.050, -0.203
0.570, 0.440, 0.450, 0.000, -0.051, -0.197
0.520, 0.440, 0.450, 0.003, -0.051, -0.188
0.470, 0.440, 0.450, 0.004, -0.051, -0.188
0.420, 0.440, 0.450, 0.005, -0.052, -0.182
0.370, 0.440, 0.450, 0.004, -0.052, -0.180
0.320, 0.440, 0.450, 0.003, -0.052, -0.180
0.270, 0.440, 0.450, 0.003, -0.051, -0.184
0.220, 0.440, 0.450, 0.003, -0.052, -0.182
0.220, 0.490, 0.450, 0.003, -0.048, -0.183
0.270, 0.490, 0.450, 0.003, -0.049, -0.182
0.320, 0.490, 0.450, 0.004, -0.049, -0.182
0.370, 0.490, 0.450, 0.004, -0.048, -0.183
0.420, 0.490, 0.450, 0.004, -0.048, -0.183
0.470, 0.490, 0.450, 0.004, -0.048, -0.187
0.520, 0.490, 0.450, 0.003, -0.048, -0.193
0.570, 0.490, 0.450, 0.000, -0.047, -0.195
0.620, 0.490, 0.450, -0.002, -0.046, -0.203
0.670, 0.490, 0.450, -0.006, -0.046, -0.211
0.720, 0.490, 0.450, -0.015, -0.046, -0.217
0.100, -0.100, 0.050, -0.033, 0.130, -0.172
