0.000, 0.010, 0.400, -0.021, -0.070, -0.005
0.120, 0.100, 0.400, -0.018, -0.062, -0.005
0.170, 0.100, 0.400, -0.021, -0.064, -0.004
0.220, 0.100, 0.400, -0.021, -0.064, -0.004
0.270, 0.100, 0.400, -0.021, -0.064, -0.004
0.320, 0.100, 0.400, -0.018, -0.063, -0.005
0.370, 0.100, 0.400, -0.016, -0.063, -0.006
0.420, 0.100, 0.400, -0.015, -0.061, -0.006
0.470, 0.100, 0.400, -0.012, -0.058, -0.006
0.520, 0.100, 0.400, -0.012, -0.054, -0.006
0.570, 0.100, 0.400, -0.013, -0.048, -0.006
0.620, 0.100, 0.400, -0.018, -0.040, -0.006
0.620, 0.150, 0.400, -0.018, -0.044, -0.003
0.570, 0.150, 0.400, -0.014, -0.051, -0.003
0.520, 0.150, 0.400, -0.012, -0.057, -0.003
0.470, 0.150, 0.400, -0.012, -0.061, -0.003
0.420, 0.150, 0.400, -0.014, -0.064, -0.003
0.370, 0.150, 0.400, -0.016, -0.064, -0.003
0.320, 0.150, 0.400, -0.018, -0.069, -0.003
0.270, 0.150, 0.400, -0.020, -0.070, -0.003
0.220, 0.150, 0.400, -0.021, -0.070, -0.002
0.170, 0.150, 0.400, -0.021, -0.067, -0.003
0.120, 0.150, 0.400, -0.019, -0.064, -0.003
0.120, 0.200, 0.400, -0.019, -0.070, -0.003
0.170, 0.200, 0.400, -0.021, -0.071, -0.003
0.220, 0.200, 0.400, -0.021, -0.072, -0.003
0.270, 0.200, 0.400, -0.020, -0.073, -0.002
0.320, 0.200, 0.400, -0.018, -0.072, -0.002
0.370, 0.200, 0.400, -0.015, -0.070, -0.003
0.420, 0.200, 0.400, -0.014, -0.066, -0.003
0.470, 0.200, 0.400, -0.012, -0.064, -0.003
0.520, 0.200, 0.400, -0.012, -0.060, -0.003
0.570, 0.200, 0.400, -0.014, -0.054, -0.003
0.620, 0.200, 0.400, -0.018, -0.046, -0.003
0.620, 0.250, 0.400, -0.018, -0.049, -0.003
0.570, 0.250, 0.400, -0.014, -0.055, -0.003
0.520, 0.250, 0.400, -0.012, -0.061, -0.003
0.470, 0.250, 0.400, -0.012, -0.064, -0.003
0.420, 0.250, 0.400, -0.013, -0.070, -0.003
0.370, 0.250, 0.400, -0.015, -0.072, -0.003
0.320, 0.250, 0.400, -0.018, -0.073, -0.003
0.270, 0.250, 0.400, -0.020, -0.073, -0.003
0.220, 0.250, 0.400, -0.021, -0.073, -0.002
0.170, 0.250, 0.400, -0.021, -0.073, -0.003
0.120, 0.250, 0.400, -0.021, -0.071, -0.003
0.120, 0.300, 0.400, -0.021, -0.072, -0.003
0.170, 0.300, 0.400, -0.021, -0.073, -0.003
0.220, 0.300, 0.400, -0.021, -0.073, -0.003
0.270, 0.300, 0.400, -0.019, -0.073, -0.003
0.320, 0.300, 0.400, -0.018, -0.073, -0.003
0.370, 0.300, 0.400, -0.015, -0.073, -0.003
0.420, 0.300, 0.400, -0.014, -0.071, -0.003
0.470, 0.300, 0.400, -0.012, -0.065, -0.003
0.520, 0.300, 0.400, -0.012, -0.063, -0.003
0.570, 0.300, 0.400, -0.014, -0.057, -0.004
0.620, 0.300, 0.400, -0.018, -0.049, -0.003
0.420, 0.350, 0.400, -0.014, -0.073, -0.003
0.370, 0.350, 0.400, -0.016, -0.073, -0.003
0.320, 0.350, 0.400, -0.018, -0.073, -0.003
0.270, 0.350, 0.400, -0.021, -0.073, -0.003
0.220, 0.350, 0.400, -0.021, -0.073, -0.003
0.170, 0.350, 0.400, -0.021, -0.073, -0.003
0.120, 0.350, 0.400, -0.021, -0.073, -0.003
0.120, 0.400, 0.400, -0.021, -0.073, -0.003
0.170, 0.400, 0.400, -0.021, -0.073, -0.003
0.220, 0.400, 0.400, -0.021, -0.073, -0.003
0.270, 0.400, 0.400, -0.021, -0.073, -0.003
0.320, 0.400, 0.400, -0.018, -0.073, -0.004
0.370, 0.400, 0.400, -0.016, -0.073, -0.003
0.420, 0.400, 0.400, -0.014, -0.073, -0.004
0.470, 0.400, 0.400, -0.012, -0.069, -0.004
0.520, 0.400, 0.400, -0.012, -0.064, -0.003
0.570, 0.400, 0.400, -0.014, -0.059, -0.004
0.620, 0.400, 0.400, -0.018, -0.052, -0.004
0.620, 0.450, 0.400, -0.018, -0.051, -0.003
0.570, 0.450, 0.400, -0.014, -0.058, -0.003
0.520, 0.450, 0.400, -0.013, -0.064, -0.003
0.470, 0.450, 0.400, -0.013, -0.069, -0.004
0.420, 0.450, 0.400, -0.015, -0.073, -0.004
0.370, 0.450, 0.400, -0.016, -0.073, -0.003
0.320, 0.450, 0.400, -0.018, -0.073, -0.003
0.270, 0.450, 0.400, -0.021, -0.073, -0.003
0.220, 0.450, 0.400, -0.021, -0.073, -0.003
0.170, 0.450, 0.400, -0.021, -0.073, -0.003
0.120, 0.450, 0.400, -0.021, -0.073, -0.003
0.120, 0.500, 0.400, -0.021, -0.073, -0.001
0.170, 0.500, 0.400, -0.021, -0.073, -0.002
0.220, 0.500, 0.400, -0.021, -0.073, -0.003
0.270, 0.500, 0.400, -0.020, -0.073, -0.003
0.320, 0.500, 0.400, -0.018, -0.073, -0.003
0.370, 0.500, 0.400, -0.016, -0.073, -0.003
0.420, 0.500, 0.400, -0.015, -0.072, -0.003
0.470, 0.500, 0.400, -0.013, -0.067, -0.003
0.520, 0.500, 0.400, -0.013, -0.064, -0.003
0.570, 0.500, 0.400, -0.015, -0.058, -0.003
0.620, 0.500, 0.400, -0.018, -0.051, -0.003
0.620, 0.550, 0.400, -0.018, -0.050, 0.000
0.570, 0.550, 0.400, -0.015, -0.057, 0.000
0.520, 0.550, 0.400, -0.013, -0.063, 0.000
0.470, 0.550, 0.400, -0.014, -0.064, -0.001
0.420, 0.550, 0.400, -0.015, -0.070, -0.001
0.370, 0.550, 0.400, -0.016, -0.073, -0.002
0.320, 0.550, 0.400, -0.018, -0.073, -0.001
0.270, 0.550, 0.400, -0.020, -0.073, -0.001
0.220, 0.550, 0.400, -0.021, -0.073, 0.000
0.170, 0.550, 0.400, -0.021, -0.073, 0.000
0.120, 0.550, 0.400, -0.021, -0.073, 0.000
0.120, 0.600, 0.400, -0.018, -0.072, 0.003
0.170, 0.600, 0.400, -0.019, -0.073, 0.001
0.220, 0.600, 0.400, -0.019, -0.073, 0.000
0.270, 0.600, 0.400, -0.018, -0.073, 0.000
0.320, 0.600, 0.400, -0.018, -0.073, 0.000
0.370, 0.600, 0.400, -0.016, -0.072, 0.000
0.420, 0.600, 0.400, -0.015, -0.070, 0.000
0.470, 0.600, 0.400, -0.015, -0.064, 0.000
0.520, 0.600, 0.400, -0.014, -0.061, 0.000
0.570, 0.600, 0.400, -0.015, -0.055, 0.001
0.620, 0.600, 0.400, -0.019, -0.049, 0.002
0.120, 0.100, 0.500, -0.020, -0.073, -0.007
0.170, 0.100, 0.500, -0.021, -0.073, -0.007
0.220, 0.100, 0.500, -0.021, -0.073, -0.007
0.270, 0.100, 0.500, -0.021, -0.072, -0.008
0.320, 0.100, 0.500, -0.021, -0.070, -0.008
0.370, 0.100, 0.500, -0.020, -0.070, -0.009
0.420, 0.100, 0.500, -0.018, -0.067, -0.009
0.470, 0.100, 0.500, -0.018, -0.064, -0.009
0.520, 0.100, 0.500, -0.019, -0.064, -0.009
0.570, 0.100, 0.500, -0.021, -0.063, -0.009
0.620, 0.100, 0.500, -0.026, -0.061, -0.008
0.620, 0.150, 0.500, -0.027, -0.061, -0.006
0.570, 0.150, 0.500, -0.021, -0.064, -0.006
0.520, 0.150, 0.500, -0.019, -0.064, -0.006
0.470, 0.150, 0.500, -0.019, -0.064, -0.006
0.420, 0.150, 0.500, -0.018, -0.068, -0.006
0.370, 0.150, 0.500, -0.019, -0.070, -0.006
0.320, 0.150, 0.500, -0.021, -0.071, -0.006
0.270, 0.150, 0.500, -0.021, -0.072, -0.006
0.220, 0.150, 0.500, -0.021, -0.073, -0.006
0.170, 0.150, 0.500, -0.021, -0.073, -0.006
0.120, 0.150, 0.500, -0.021, -0.073, -0.006
0.120, 0.200, 0.500, -0.021, -0.073, -0.005
0.170, 0.200, 0.500, -0.021, -0.073, -0.004
0.220, 0.200, 0.500, -0.021, -0.073, -0.004
0.270, 0.200, 0.500, -0.021, -0.073, -0.005
0.320, 0.200, 0.500, -0.021, -0.073, -0.004
0.370, 0.200, 0.500, -0.019, -0.070, -0.005
0.420, 0.200, 0.500, -0.018, -0.070, -0.005
0.470, 0.200, 0.500, -0.018, -0.066, -0.006
0.520, 0.200, 0.500, -0.019, -0.064, -0.005
0.570, 0.200, 0.500, -0.021, -0.064, -0.005
0.620, 0.200, 0.500, -0.027, -0.063, -0.004
0.620, 0.250, 0.500, -0.027, -0.064, -0.003
0.570, 0.250, 0.500, -0.021, -0.064, -0.004
0.520, 0.250, 0.500, -0.020, -0.064, -0.004
0.470, 0.250, 0.500, -0.018, -0.068, -0.004
0.420, 0.250, 0.500, -0.018, -0.070, -0.004
0.370, 0.250, 0.500, -0.019, -0.072, -0.004
0.320, 0.250, 0.500, -0.020, -0.073, -0.004
0.270, 0.250, 0.500, -0.021, -0.073, -0.003
0.220, 0.250, 0.500, -0.021, -0.073, -0.004
0.170, 0.250, 0.500, -0.021, -0.073, -0.004
0.120, 0.250, 0.500, -0.021, -0.073, -0.004
0.120, 0.300, 0.500, -0.021, -0.074, -0.004
0.170, 0.300, 0.500, -0.021, -0.073, -0.004
0.220, 0.300, 0.500, -0.021, -0.073, -0.003
0.270, 0.300, 0.500, -0.021, -0.073, -0.003
0.320, 0.300, 0.500, -0.020, -0.073, -0.004
0.370, 0.300, 0.500, -0.019, -0.073, -0.004
0.420, 0.300, 0.500, -0.018, -0.071, -0.004
0.470, 0.300, 0.500, -0.018, -0.070, -0.004
0.520, 0.300, 0.500, -0.020, -0.065, -0.003
0.570, 0.300, 0.500, -0.021, -0.064, -0.004
0.620, 0.300, 0.500, -0.027, -0.064, -0.004
0.420, 0.350, 0.500, -0.018, -0.073, -0.003
0.370, 0.350, 0.500, -0.019, -0.073, -0.003
0.320, 0.350, 0.500, -0.021, -0.073, -0.003
0.270, 0.350, 0.500, -0.021, -0.073, -0.003
0.220, 0.350, 0.500, -0.021, -0.073, -0.003
0.170, 0.350, 0.500, -0.021, -0.074, -0.003
0.120, 0.350, 0.500, -0.021, -0.076, -0.004
0.120, 0.400, 0.500, -0.021, -0.076, -0.003
0.170, 0.400, 0.500, -0.021, -0.075, -0.003
0.220, 0.400, 0.500, -0.021, -0.074, -0.003
0.270, 0.400, 0.500, -0.021, -0.073, -0.003
0.320, 0.400, 0.500, -0.021, -0.073, -0.003
0.370, 0.400, 0.500, -0.019, -0.073, -0.003
0.420, 0.400, 0.500, -0.018, -0.073, -0.003
0.470, 0.400, 0.500, -0.019, -0.072, -0.003
0.520, 0.400, 0.500, -0.021, -0.070, -0.003
0.570, 0.400, 0.500, -0.021, -0.068, -0.003
0.620, 0.400, 0.500, -0.027, -0.064, -0.003
0.620, 0.450, 0.500, -0.027, -0.065, -0.003
0.570, 0.450, 0.500, -0.021, -0.069, -0.003
0.520, 0.450, 0.500, -0.021, -0.071, -0.003
0.470, 0.450, 0.500, -0.019, -0.073, -0.003
0.420, 0.450, 0.500, -0.019, -0.073, -0.003
0.370, 0.450, 0.500, -0.019, -0.073, -0.003
0.320, 0.450, 0.500, -0.021, -0.073, -0.003
0.270, 0.450, 0.500, -0.021, -0.074, -0.003
0.220, 0.450, 0.500, -0.021, -0.075, -0.003
0.170, 0.450, 0.500, -0.021, -0.076, -0.003
0.120, 0.450, 0.500, -0.021, -0.077, -0.003
0.120, 0.500, 0.500, -0.021, -0.080, -0.002
0.170, 0.500, 0.500, -0.021, -0.077, -0.002
0.220, 0.500, 0.500, -0.021, -0.076, -0.003
0.270, 0.500, 0.500, -0.021, -0.076, -0.003
0.320, 0.500, 0.500, -0.021, -0.075, -0.003
0.370, 0.500, 0.500, -0.020, -0.073, -0.003
0.420, 0.500, 0.500, -0.019, -0.073, -0.003
0.470, 0.500, 0.500, -0.019, -0.073, -0.003
0.520, 0.500, 0.500, -0.021, -0.073, -0.003
0.570, 0.500, 0.500, -0.021, -0.071, -0.002
0.620, 0.500, 0.500, -0.027, -0.069, -0.002
0.620, 0.550, 0.500, -0.027, -0.071, 0.000
0.570, 0.550, 0.500, -0.021, -0.073, 0.000
0.520, 0.550, 0.500, -0.021, -0.073, 0.000
0.470, 0.550, 0.500, -0.020, -0.073, -0.001
0.420, 0.550, 0.500, -0.019, -0.074, -0.002
0.370, 0.550, 0.500, -0.020, -0.075, -0.002
0.320, 0.550, 0.500, -0.020, -0.076, -0.002
0.270, 0.550, 0.500, -0.021, -0.078, -0.002
0.220, 0.550, 0.500, -0.021, -0.080, -0.001
0.170, 0.550, 0.500, -0.021, -0.082, 0.000
0.120, 0.550, 0.500, -0.021, -0.082, 0.000
0.120, 0.600, 0.500, -0.020, -0.083, 0.000
0.170, 0.600, 0.500, -0.021, -0.082, 0.000
0.220, 0.600, 0.500, -0.021, -0.082, 0.000
0.270, 0.600, 0.500, -0.021, -0.082, 0.000
0.320, 0.600, 0.500, -0.020, -0.082, 0.000
0.370, 0.600, 0.500, -0.020, -0.077, 0.000
0.420, 0.600, 0.500, -0.019, -0.076, 0.000
0.470, 0.600, 0.500, -0.020, -0.074, 0.000
0.520, 0.600, 0.500, -0.021, -0.073, 0.000
0.570, 0.600, 0.500, -0.021, -0.073, 0.000
0.620, 0.600, 0.500, -0.028, -0.073, 0.001
0.120, 0.100, 0.600, -0.026, -0.082, -0.003
0.170, 0.100, 0.600, -0.024, -0.076, -0.003
0.220, 0.100, 0.600, -0.022, -0.073, -0.005
0.270, 0.100, 0.600, -0.021, -0.073, -0.005
0.320, 0.100, 0.600, -0.021, -0.073, -0.006
0.370, 0.100, 0.600, -0.021, -0.073, -0.006
0.420, 0.100, 0.600, -0.021, -0.073, -0.006
0.470, 0.100, 0.600, -0.019, -0.073, -0.006
0.520, 0.100, 0.600, -0.020, -0.073, -0.006
0.570, 0.100, 0.600, -0.021, -0.073, -0.006
0.620, 0.100, 0.600, -0.021, -0.076, -0.004
0.620, 0.150, 0.600, -0.023, -0.073, -0.003
0.570, 0.150, 0.600, -0.021, -0.073, -0.004
0.520, 0.150, 0.600, -0.021, -0.072, -0.005
0.470, 0.150, 0.600, -0.020, -0.071, -0.006
0.420, 0.150, 0.600, -0.020, -0.071, -0.006
0.370, 0.150, 0.600, -0.021, -0.071, -0.005
0.320, 0.150, 0.600, -0.021, -0.072, -0.005
0.270, 0.150, 0.600, -0.021, -0.073, -0.004
0.220, 0.150, 0.600, -0.021, -0.073, -0.004
0.170, 0.150, 0.600, -0.023, -0.073, -0.003
0.120, 0.150, 0.600, -0.025, -0.076, -0.003
0.120, 0.200, 0.600, -0.025, -0.074, -0.003
0.170, 0.200, 0.600, -0.022, -0.073, -0.003
0.220, 0.200, 0.600, -0.021, -0.073, -0.003
0.270, 0.200, 0.600, -0.021, -0.071, -0.004
0.320, 0.200, 0.600, -0.021, -0.070, -0.004
0.370, 0.200, 0.600, -0.021, -0.070, -0.004
0.420, 0.200, 0.600, -0.021, -0.069, -0.005
0.470, 0.200, 0.600, -0.020, -0.070, -0.004
0.520, 0.200, 0.600, -0.021, -0.070, -0.004
0.570, 0.200, 0.600, -0.021, -0.071, -0.003
0.620, 0.200, 0.600, -0.023, -0.073, -0.003
0.620, 0.250, 0.600, -0.023, -0.073, -0.003
0.570, 0.250, 0.600, -0.021, -0.070, -0.004
0.520, 0.250, 0.600, -0.021, -0.069, -0.004
0.470, 0.250, 0.600, -0.019, -0.068, -0.004
0.420, 0.250, 0.600, -0.020, -0.068, -0.004
0.370, 0.250, 0.600, -0.020, -0.068, -0.005
0.320, 0.250, 0.600, -0.021, -0.069, -0.004
0.270, 0.250, 0.600, -0.021, -0.070, -0.004
0.220, 0.250, 0.600, -0.021, -0.071, -0.003
0.170, 0.250, 0.600, -0.021, -0.073, -0.003
0.120, 0.250, 0.600, -0.024, -0.073, -0.003
0.120, 0.300, 0.600, -0.026, -0.073, -0.004
0.170, 0.300, 0.600, -0.022, -0.073, -0.004
0.220, 0.300, 0.600, -0.021, -0.071, -0.004
0.270, 0.300, 0.600, -0.021, -0.069, -0.005
0.320, 0.300, 0.600, -0.021, -0.068, -0.005
0.370, 0.300, 0.600, -0.021, -0.067, -0.005
0.420, 0.300, 0.600, -0.020, -0.065, -0.005
0.470, 0.300, 0.600, -0.020, -0.064, -0.005
0.520, 0.300, 0.600, -0.021, -0.067, -0.005
0.570, 0.300, 0.600, -0.021, -0.070, -0.004
0.620, 0.300, 0.600, -0.023, -0.072, -0.004
0.420, 0.350, 0.600, -0.020, -0.068, -0.005
0.370, 0.350, 0.600, -0.021, -0.068, -0.005
0.320, 0.350, 0.600, -0.021, -0.069, -0.005
0.270, 0.350, 0.600, -0.021, -0.070, -0.005
0.220, 0.350, 0.600, -0.021, -0.070, -0.005
0.170, 0.350, 0.600, -0.022, -0.073, -0.005
0.120, 0.350, 0.600, -0.026, -0.073, -0.005
0.120, 0.400, 0.600, -0.027, -0.073, -0.005
0.170, 0.400, 0.600, -0.023, -0.073, -0.005
0.220, 0.400, 0.600, -0.021, -0.071, -0.005
0.270, 0.400, 0.600, -0.021, -0.070, -0.006
0.320, 0.400, 0.600, -0.021, -0.070, -0.006
0.370, 0.400, 0.600, -0.021, -0.070, -0.006
0.420, 0.400, 0.600, -0.020, -0.069, -0.006
0.470, 0.400, 0.600, -0.019, -0.070, -0.006
0.520, 0.400, 0.600, -0.021, -0.070, -0.006
0.570, 0.400, 0.600, -0.021, -0.071, -0.006
0.620, 0.400, 0.600, -0.022, -0.073, -0.006
0.620, 0.450, 0.600, -0.022, -0.073, -0.006
0.570, 0.450, 0.600, -0.021, -0.073, -0.006
0.520, 0.450, 0.600, -0.021, -0.071, -0.006
0.470, 0.450, 0.600, -0.020, -0.070, -0.006
0.420, 0.450, 0.600, -0.020, -0.070, -0.006
0.370, 0.450, 0.600, -0.021, -0.071, -0.006
0.320, 0.450, 0.600, -0.021, -0.070, -0.006
0.270, 0.450, 0.600, -0.021, -0.072, -0.006
0.220, 0.450, 0.600, -0.021, -0.073, -0.006
0.170, 0.450, 0.600, -0.022, -0.073, -0.006
0.120, 0.450, 0.600, -0.027, -0.073, -0.006
0.120, 0.500, 0.600, -0.027, -0.076, -0.006
0.170, 0.500, 0.600, -0.022, -0.073, -0.006
0.220, 0.500, 0.600, -0.021, -0.073, -0.006
0.270, 0.500, 0.600, -0.021, -0.073, -0.006
0.320, 0.500, 0.600, -0.021, -0.073, -0.006
0.370, 0.500, 0.600, -0.021, -0.073, -0.006
0.420, 0.500, 0.600, -0.020, -0.073, -0.006
0.470, 0.500, 0.600, -0.020, -0.073, -0.006
0.520, 0.500, 0.600, -0.020, -0.073, -0.006
0.570, 0.500, 0.600, -0.021, -0.073, -0.006
0.620, 0.500, 0.600, -0.021, -0.074, -0.006
0.620, 0.550, 0.600, -0.022, -0.080, -0.005
0.570, 0.550, 0.600, -0.021, -0.075, -0.006
0.520, 0.550, 0.600, -0.021, -0.073, -0.006
0.470, 0.550, 0.600, -0.020, -0.073, -0.006
0.420, 0.550, 0.600, -0.020, -0.073, -0.006
0.370, 0.550, 0.600, -0.021, -0.073, -0.006
0.320, 0.550, 0.600, -0.021, -0.073, -0.006
0.270, 0.550, 0.600, -0.021, -0.073, -0.006
0.220, 0.550, 0.600, -0.021, -0.074, -0.006
0.170, 0.550, 0.600, -0.022, -0.076, -0.006
0.120, 0.550, 0.600, -0.026, -0.082, -0.006
0.120, 0.600, 0.600, -0.023, -0.083, -0.006
0.170, 0.600, 0.600, -0.021, -0.082, -0.006
0.220, 0.600, 0.600, -0.021, -0.082, -0.006
0.270, 0.600, 0.600, -0.021, -0.079, -0.006
0.320, 0.600, 0.600, -0.021, -0.077, -0.006
0.370, 0.600, 0.600, -0.021, -0.076, -0.006
0.420, 0.600, 0.600, -0.021, -0.077, -0.006
0.470, 0.600, 0.600, -0.021, -0.078, -0.006
0.520, 0.600, 0.600, -0.021, -0.081, -0.006
0.570, 0.600, 0.600, -0.021, -0.082, -0.005
0.620, 0.600, 0.600, -0.023, -0.083, -0.004
0.120, 0.100, 0.700, -0.030, -0.073, 0.000
0.170, 0.100, 0.700, -0.030, -0.073, 0.000
0.220, 0.100, 0.700, -0.027, -0.070, 0.000
0.270, 0.100, 0.700, -0.021, -0.070, 0.000
0.320, 0.100, 0.700, -0.021, -0.070, -0.001
0.370, 0.100, 0.700, -0.020, -0.070, -0.001
0.420, 0.100, 0.700, -0.018, -0.070, -0.001
0.470, 0.100, 0.700, -0.016, -0.072, -0.001
0.520, 0.100, 0.700, -0.015, -0.073, 0.000
0.570, 0.100, 0.700, -0.014, -0.073, 0.000
0.620, 0.100, 0.700, -0.014, -0.081, 0.000
0.620, 0.150, 0.700, -0.015, -0.075, 0.000
0.570, 0.150, 0.700, -0.015, -0.073, 0.000
0.520, 0.150, 0.700, -0.016, -0.071, -0.001
0.470, 0.150, 0.700, -0.017, -0.070, -0.002
0.420, 0.150, 0.700, -0.018, -0.068, -0.002
0.370, 0.150, 0.700, -0.021, -0.065, -0.002
0.320, 0.150, 0.700, -0.021, -0.066, -0.002
0.270, 0.150, 0.700, -0.021, -0.065, -0.001
0.220, 0.150, 0.700, -0.026, -0.069, 0.000
0.170, 0.150, 0.700, -0.029, -0.070, 0.000
0.120, 0.150, 0.700, -0.030, -0.073, 0.000
0.120, 0.200, 0.700, -0.030, -0.070, 0.000
0.170, 0.200, 0.700, -0.028, -0.068, -0.001
0.220, 0.200, 0.700, -0.025, -0.064, -0.002
0.270, 0.200, 0.700, -0.021, -0.064, -0.003
0.320, 0.200, 0.700, -0.021, -0.064, -0.003
0.370, 0.200, 0.700, -0.021, -0.064, -0.003
0.420, 0.200, 0.700, -0.018, -0.064, -0.003
0.470, 0.200, 0.700, -0.018, -0.067, -0.003
0.520, 0.200, 0.700, -0.017, -0.070, -0.002
0.570, 0.200, 0.700, -0.017, -0.073, -0.002
0.620, 0.200, 0.700, -0.016, -0.073, 0.000
0.620, 0.250, 0.700, -0.017, -0.073, -0.003
0.570, 0.250, 0.700, -0.017, -0.072, -0.003
0.520, 0.250, 0.700, -0.018, -0.069, -0.003
0.470, 0.250, 0.700, -0.018, -0.064, -0.003
0.420, 0.250, 0.700, -0.018, -0.064, -0.003
0.370, 0.250, 0.700, -0.021, -0.064, -0.003
0.320, 0.250, 0.700, -0.021, -0.064, -0.003
0.270, 0.250, 0.700, -0.021, -0.064, -0.003
0.220, 0.250, 0.700, -0.024, -0.064, -0.003
0.170, 0.250, 0.700, -0.028, -0.065, -0.003
0.120, 0.250, 0.700, -0.030, -0.070, -0.002
0.120, 0.300, 0.700, -0.030, -0.069, -0.003
0.170, 0.300, 0.700, -0.028, -0.064, -0.003
0.220, 0.300, 0.700, -0.025, -0.064, -0.004
0.270, 0.300, 0.700, -0.021, -0.064, -0.004
0.320, 0.300, 0.700, -0.021, -0.064, -0.004
0.370, 0.300, 0.700, -0.021, -0.064, -0.005
0.420, 0.300, 0.700, -0.019, -0.064, -0.005
0.470, 0.300, 0.700, -0.018, -0.064, -0.005
0.520, 0.300, 0.700, -0.018, -0.068, -0.005
0.570, 0.300, 0.700, -0.018, -0.071, -0.004
0.620, 0.300, 0.700, -0.018, -0.073, -0.004
0.420, 0.350, 0.700, -0.019, -0.064, -0.006
0.370, 0.350, 0.700, -0.021, -0.064, -0.006
0.320, 0.350, 0.700, -0.021, -0.064, -0.006
0.270, 0.350, 0.700, -0.021, -0.064, -0.006
0.220, 0.350, 0.700, -0.025, -0.064, -0.006
0.170, 0.350, 0.700, -0.028, -0.066, -0.005
0.120, 0.350, 0.700, -0.030, -0.070, -0.005
0.120, 0.400, 0.700, -0.030, -0.070, -0.006
0.170, 0.400, 0.700, -0.028, -0.068, -0.006
0.220, 0.400, 0.700, -0.026, -0.066, -0.006
0.270, 0.400, 0.700, -0.021, -0.064, -0.006
0.320, 0.400, 0.700, -0.021, -0.064, -0.006
0.370, 0.400, 0.700, -0.021, -0.064, -0.006
0.420, 0.400, 0.700, -0.020, -0.066, -0.006
0.470, 0.400, 0.700, -0.019, -0.070, -0.007
0.520, 0.400, 0.700, -0.018, -0.070, -0.007
0.570, 0.400, 0.700, -0.017, -0.073, -0.007
0.620, 0.400, 0.700, -0.018, -0.074, -0.007
0.620, 0.450, 0.700, -0.017, -0.076, -0.009
0.570, 0.450, 0.700, -0.018, -0.073, -0.009
0.520, 0.450, 0.700, -0.018, -0.072, -0.009
0.470, 0.450, 0.700, -0.018, -0.070, -0.009
0.420, 0.450, 0.700, -0.020, -0.070, -0.009
0.370, 0.450, 0.700, -0.021, -0.069, -0.009
0.320, 0.450, 0.700, -0.021, -0.067, -0.009
0.270, 0.450, 0.700, -0.021, -0.067, -0.009
0.220, 0.450, 0.700, -0.027, -0.069, -0.008
0.170, 0.450, 0.700, -0.028, -0.070, -0.008
0.120, 0.450, 0.700, -0.030, -0.072, -0.007
0.120, 0.500, 0.700, -0.030, -0.073, -0.009
0.170, 0.500, 0.700, -0.029, -0.071, -0.009
0.220, 0.500, 0.700, -0.027, -0.070, -0.009
0.270, 0.500, 0.700, -0.022, -0.070, -0.009
0.320, 0.500, 0.700, -0.021, -0.070, -0.010
0.370, 0.500, 0.700, -0.021, -0.070, -0.010
0.420, 0.500, 0.700, -0.019, -0.071, -0.011
0.470, 0.500, 0.700, -0.018, -0.073, -0.011
0.520, 0.500, 0.700, -0.018, -0.073, -0.010
0.570, 0.500, 0.700, -0.018, -0.074, -0.012
0.620, 0.500, 0.700, -0.017, -0.081, -0.012
0.620, 0.550, 0.700, -0.016, -0.082, -0.015
0.570, 0.550, 0.700, -0.017, -0.078, -0.015
0.520, 0.550, 0.700, -0.018, -0.074, -0.015
0.470, 0.550, 0.700, -0.018, -0.073, -0.015
0.420, 0.550, 0.700, -0.019, -0.073, -0.015
0.370, 0.550, 0.700, -0.021, -0.073, -0.015
0.320, 0.550, 0.700, -0.021, -0.073, -0.015
0.270, 0.550, 0.700, -0.021, -0.073, -0.015
0.220, 0.550, 0.700, -0.026, -0.073, -0.015
0.170, 0.550, 0.700, -0.029, -0.073, -0.015
0.120, 0.550, 0.700, -0.030, -0.073, -0.014
0.120, 0.600, 0.700, -0.030, -0.076, -0.017
0.170, 0.600, 0.700, -0.030, -0.074, -0.018
0.220, 0.600, 0.700, -0.027, -0.073, -0.018
0.270, 0.600, 0.700, -0.022, -0.073, -0.018
0.320, 0.600, 0.700, -0.021, -0.073, -0.018
0.370, 0.600, 0.700, -0.021, -0.073, -0.018
0.420, 0.600, 0.700, -0.020, -0.074, -0.018
0.470, 0.600, 0.700, -0.018, -0.076, -0.018
0.520, 0.600, 0.700, -0.018, -0.081, -0.018
0.570, 0.600, 0.700, -0.017, -0.082, -0.018
0.620, 0.600, 0.700, -0.016, -0.086, -0.018
0.120, 0.100, 0.800, -0.033, -0.061, 0.004
0.170, 0.100, 0.800, -0.031, -0.061, 0.003
0.220, 0.100, 0.800, -0.027, -0.061, 0.002
0.270, 0.100, 0.800, -0.022, -0.062, 0.001
0.320, 0.100, 0.800, -0.021, -0.063, 0.001
0.370, 0.100, 0.800, -0.019, -0.064, 0.000
0.420, 0.100, 0.800, -0.016, -0.064, 0.000
0.470, 0.100, 0.800, -0.014, -0.064, 0.001
0.520, 0.100, 0.800, -0.011, -0.064, 0.003
0.570, 0.100, 0.800, -0.009, -0.069, 0.003
0.620, 0.100, 0.800, -0.005, -0.071, 0.006
0.620, 0.150, 0.800, -0.007, -0.070, 0.002
0.570, 0.150, 0.800, -0.009, -0.067, 0.000
0.520, 0.150, 0.800, -0.012, -0.064, 0.000
0.470, 0.150, 0.800, -0.015, -0.064, 0.000
0.420, 0.150, 0.800, -0.017, -0.063, 0.000
0.370, 0.150, 0.800, -0.019, -0.062, 0.000
0.320, 0.150, 0.800, -0.021, -0.061, 0.000
0.270, 0.150, 0.800, -0.022, -0.061, 0.000
0.220, 0.150, 0.800, -0.027, -0.060, 0.000
0.170, 0.150, 0.800, -0.030, -0.060, 0.000
0.120, 0.150, 0.800, -0.033, -0.060, 0.002
0.120, 0.200, 0.800, -0.033, -0.059, 0.000
0.170, 0.200, 0.800, -0.030, -0.059, 0.000
0.220, 0.200, 0.800, -0.027, -0.059, 0.000
0.270, 0.200, 0.800, -0.021, -0.060, 0.000
0.320, 0.200, 0.800, -0.021, -0.060, -0.001
0.370, 0.200, 0.800, -0.019, -0.061, -0.001
0.420, 0.200, 0.800, -0.018, -0.061, 0.000
0.470, 0.200, 0.800, -0.015, -0.062, 0.000
0.520, 0.200, 0.800, -0.013, -0.064, 0.000
0.570, 0.200, 0.800, -0.011, -0.064, 0.000
0.620, 0.200, 0.800, -0.009, -0.068, 0.000
0.620, 0.250, 0.800, -0.009, -0.065, -0.002
0.570, 0.250, 0.800, -0.012, -0.064, -0.003
0.520, 0.250, 0.800, -0.014, -0.063, -0.003
0.470, 0.250, 0.800, -0.015, -0.061, -0.003
0.420, 0.250, 0.800, -0.018, -0.061, -0.003
0.370, 0.250, 0.800, -0.019, -0.059, -0.003
0.320, 0.250, 0.800, -0.021, -0.058, -0.003
0.270, 0.250, 0.800, -0.021, -0.058, -0.003
0.220, 0.250, 0.800, -0.026, -0.058, -0.002
0.170, 0.250, 0.800, -0.030, -0.058, -0.002
0.120, 0.250, 0.800, -0.033, -0.057, 0.000
0.120, 0.300, 0.800, -0.033, -0.057, -0.003
0.170, 0.300, 0.800, -0.030, -0.057, -0.003
0.220, 0.300, 0.800, -0.026, -0.057, -0.003
0.270, 0.300, 0.800, -0.021, -0.058, -0.004
0.320, 0.300, 0.800, -0.021, -0.058, -0.004
0.370, 0.300, 0.800, -0.020, -0.058, -0.005
0.420, 0.300, 0.800, -0.018, -0.059, -0.005
0.470, 0.300, 0.800, -0.015, -0.060, -0.005
0.520, 0.300, 0.800, -0.014, -0.061, -0.004
0.570, 0.300, 0.800, -0.012, -0.064, -0.004
0.620, 0.300, 0.800, -0.009, -0.064, -0.004
0.420, 0.350, 0.800, -0.018, -0.059, -0.006
0.370, 0.350, 0.800, -0.019, -0.058, -0.006
0.320, 0.350, 0.800, -0.021, -0.058, -0.006
0.270, 0.350, 0.800, -0.021, -0.057, -0.006
0.220, 0.350, 0.800, -0.026, -0.057, -0.006
0.170, 0.350, 0.800, -0.029, -0.057, -0.006
0.120, 0.350, 0.800, -0.033, -0.056, -0.006
0.120, 0.400, 0.800, -0.033, -0.056, -0.006
0.170, 0.400, 0.800, -0.030, -0.057, -0.007
0.220, 0.400, 0.800, -0.026, -0.057, -0.007
0.270, 0.400, 0.800, -0.021, -0.057, -0.007
0.320, 0.400, 0.800, -0.021, -0.057, -0.008
0.370, 0.400, 0.800, -0.019, -0.058, -0.009
0.420, 0.400, 0.800, -0.018, -0.058, -0.009
0.470, 0.400, 0.800, -0.015, -0.060, -0.009
0.520, 0.400, 0.800, -0.013, -0.061, -0.009
0.570, 0.400, 0.800, -0.012, -0.063, -0.009
0.620, 0.400, 0.800, -0.009, -0.064, -0.009
0.620, 0.450, 0.800, -0.009, -0.064, -0.015
0.570, 0.450, 0.800, -0.012, -0.064, -0.015
0.520, 0.450, 0.800, -0.013, -0.061, -0.013
0.470, 0.450, 0.800, -0.015, -0.060, -0.012
0.420, 0.450, 0.800, -0.017, -0.059, -0.011
0.370, 0.450, 0.800, -0.019, -0.058, -0.010
0.320, 0.450, 0.800, -0.021, -0.058, -0.010
0.270, 0.450, 0.800, -0.021, -0.057, -0.010
0.220, 0.450, 0.800, -0.025, -0.057, -0.009
0.170, 0.450, 0.800, -0.029, -0.056, -0.009
0.120, 0.450, 0.800, -0.033, -0.055, -0.009
0.120, 0.500, 0.800, -0.032, -0.056, -0.014
0.170, 0.500, 0.800, -0.030, -0.057, -0.015
0.220, 0.500, 0.800, -0.026, -0.057, -0.015
0.270, 0.500, 0.800, -0.021, -0.057, -0.015
0.320, 0.500, 0.800, -0.021, -0.058, -0.015
0.370, 0.500, 0.800, -0.019, -0.058, -0.015
0.420, 0.500, 0.800, -0.017, -0.060, -0.015
0.470, 0.500, 0.800, -0.015, -0.061, -0.016
0.520, 0.500, 0.800, -0.013, -0.062, -0.017
0.570, 0.500, 0.800, -0.011, -0.064, -0.018
0.620, 0.500, 0.800, -0.008, -0.065, -0.018
0.620, 0.550, 0.800, -0.007, -0.068, -0.021
0.570, 0.550, 0.800, -0.010, -0.064, -0.021
0.520, 0.550, 0.800, -0.013, -0.063, -0.020
0.470, 0.550, 0.800, -0.015, -0.062, -0.019
0.420, 0.550, 0.800, -0.017, -0.061, -0.019
0.370, 0.550, 0.800, -0.018, -0.060, -0.018
0.320, 0.550, 0.800, -0.021, -0.059, -0.018
0.270, 0.550, 0.800, -0.021, -0.058, -0.018
0.220, 0.550, 0.800, -0.025, -0.058, -0.018
0.170, 0.550, 0.800, -0.029, -0.057, -0.018
0.120, 0.550, 0.800, -0.031, -0.057, -0.018
0.120, 0.600, 0.800, -0.031, -0.057, -0.021
0.170, 0.600, 0.800, -0.030, -0.058, -0.021
0.220, 0.600, 0.800, -0.025, -0.058, -0.021
0.270, 0.600, 0.800, -0.021, -0.059, -0.021
0.320, 0.600, 0.800, -0.021, -0.060, -0.022
0.370, 0.600, 0.800, -0.018, -0.061, -0.022
0.420, 0.600, 0.800, -0.016, -0.063, -0.023
0.470, 0.600, 0.800, -0.015, -0.064, -0.024
0.520, 0.600, 0.800, -0.012, -0.064, -0.024
0.570, 0.600, 0.800, -0.009, -0.066, -0.024
0.620, 0.600, 0.800, -0.006, -0.070, -0.024
0.000, 0.010, 0.400, -0.003, -0.051, -0.019
